0	0	1
1	0	0
2	0	0
3	0	0
4	0	0
5	0	0
6	0	1
7	0	1
8	0	0
9	0	0
10	0	1
11	0	1
12	0	1
13	0	1
14	0	1
15	0	0
16	0	0
17	0	0
18	0	0
19	0	0
20	0	0
21	0	0
3	1	1
4	1	1
10	1	0
8	1	1
0	1	1
2	1	0
14	1	0
12	1	0
1	1	1
11	1	1
5	1	1
7	1	1
13	1	0
6	1	1
9	1	1
15	1	1
16	1	1
17	1	1
18	1	1
19	1	1
20	1	1
21	1	1
0	2	1
1	2	1
2	2	1
3	2	1
4	2	0
5	2	0
6	2	1
7	2	1
8	2	0
9	2	1
10	2	1
11	2	1
12	2	0
13	2	0
14	2	0
15	2	1
16	2	1
17	2	1
18	2	1
19	2	1
20	2	1
21	2	1
0	3	0
1	3	0
2	3	0
3	3	0
4	3	0
5	3	0
6	3	0
7	3	0
8	3	1
9	3	0
10	3	0
11	3	0
12	3	0
13	3	1
14	3	1
15	3	0
16	3	0
17	3	0
18	3	0
19	3	0
20	3	0
21	3	0
0	4	0
1	4	0
2	4	0
3	4	0
4	4	1
5	4	1
6	4	0
7	4	1
8	4	0
9	4	0
10	4	1
11	4	1
12	4	1
13	4	1
14	4	1
15	4	0
16	4	0
17	4	0
18	4	0
19	4	0
20	4	0
21	4	0
12	5	0
4	5	0
8	5	0
3	5	0
11	5	0
6	5	0
5	5	1
14	5	0
7	5	0
9	5	1
1	5	1
13	5	1
0	5	1
2	5	1
10	5	1
15	5	1
16	5	1
17	5	1
18	5	1
19	5	1
20	5	1
21	5	1
5	6	1
14	6	0
8	6	0
11	6	0
6	6	1
2	6	0
4	6	1
0	6	1
10	6	1
13	6	0
12	6	0
1	6	1
9	6	0
3	6	0
7	6	1
15	6	1
16	6	1
17	6	1
18	6	1
19	6	1
20	6	1
21	6	1
7	7	1
12	7	1
5	7	0
8	7	1
11	7	1
3	7	1
1	7	1
2	7	1
13	7	0
6	7	1
10	7	0
9	7	1
0	7	1
14	7	1
4	7	1
15	7	1
16	7	1
17	7	1
18	7	1
19	7	1
20	7	1
21	7	1
5	8	0
4	8	0
12	8	0
0	8	0
11	8	0
8	8	0
13	8	1
6	8	0
9	8	0
2	8	0
7	8	1
1	8	0
14	8	1
3	8	0
10	8	0
15	8	0
16	8	0
17	8	0
18	8	0
19	8	0
20	8	0
21	8	0
4	9	1
2	9	1
1	9	0
11	9	0
7	9	1
3	9	1
6	9	1
10	9	0
9	9	1
8	9	0
5	9	0
13	9	0
14	9	1
12	9	1
0	9	0
15	9	0
16	9	0
17	9	0
18	9	0
19	9	0
20	9	0
21	9	0