0	1.262644	0.955878
1	1.082583	0.815804
2	3.034211	1.000000
3	5.810350	0.000000
4	2.734238	0.999999
5	3.510148	1.000000
6	2.336478	0.000090
7	4.753462	0.000000
8	4.117575	1.000000
9	1.796286	0.998855
10	5.505338	0.000000
11	2.111475	0.000179
12	1.536229	0.956341
13	2.176402	0.000112
14	2.359457	0.000016
15	2.708590	0.999999
16	1.220131	0.822693
17	3.948776	1.000000
18	3.826011	1.000000
19	1.460532	0.015887
20	3.817350	0.000000
21	0.896119	0.440611
22	3.622646	1.000000
23	4.533676	1.000000
24	2.051950	0.999880
25	1.118377	0.265253
26	1.148589	0.098083
27	1.532871	0.989234
28	4.498596	1.000000
29	2.005321	0.000178
30	1.735712	0.003157
31	4.160318	1.000000
32	1.684250	0.997502
33	1.651038	0.004246
34	2.968677	0.000000
35	1.643752	0.002718
36	3.846873	1.000000
37	1.696226	0.003207
38	7.329333	0.000000
39	1.046982	0.829559
