2.0,0.7,0.5,100,0,0.01,0,RandomEMDetectRandom,20,2195,0.9800000000000001,0.9800000000000001,0.9879999999999999,0.9879999999999999,0.9879999999999999,0.9879999999999999,0.9879999999999999,0.9879999999999999,0.9879999999999999,0.992,0.992,0.992,0.9960000000000001,0.9960000000000001,0.9960000000000001,0.9960000000000001,0.9960000000000001,0.9960000000000001,0.9960000000000001,0.9960000000000001,0.9960000000000001,0.9960000000000001,0.9960000000000001,0.9960000000000001,0.9960000000000001,0.9960000000000001,0.9960000000000001,0.9960000000000001,0.9960000000000001,0.9960000000000001,0.9960000000000001,0.9960000000000001,0.9960000000000001,0.9960000000000001,0.9960000000000001,0.9960000000000001,0.9960000000000001,0.9960000000000001,1.0,1.0,1.0,1.0,1.0,1.0,1.0,1.0,1.0,1.0,1.0,1.0,1.0,,2.4311518645267842,2.315741093198682,2.225352921559895,2.112865449524721,2.092851904703652,2.0500128381530986,2.0205411092121253,1.947380097838775,1.946898689336356,1.8249999954397864,1.6763792897231788,1.6750685728484023,1.6694728267881818,1.5432565357189785,1.4660035207366016,1.4503093726218215,1.4391420044055512,1.3690180766599753,1.364825598028174,1.3540796097832541,1.2855198246942605,1.2304787875401109,1.0002959841265524,0.9640566059470267,0.9271488728561043,0.8978975602820194,0.8902330155353407,0.8450468648447471,0.8272959733388578,0.6652633824195264,0.663144480307661,0.6483029185873018,0.5758979454444663,0.5705842486897541,0.5596072686031605,0.553816927846248,0.4600740924241277,0.44586955469951156,0.29635377459238404,0.2932585346479238,0.2639178016090496,0.21938131179364592,0.21896769083110396,0.1930349059065816,0.17913305728353657,0.16763685987266538,0.15009567798160556,0.13931396518649813,0.05771939228427383,0.03346909694195778,0.0,,0.05,0.05,0.05,0.05,0.05,0.05,0.05,0.05,0.05,0.05,0.05,0.05,0.05,0.05,0.05,0.05,0.05,0.05,0.05,0.05,0.05,0.05,0.05,0.05,0.05,0.05,0.05,0.05,0.05,0.05,0.05,0.05,0.05,0.05,0.05,0.05,0.05,0.05,0.05,0.05,0.05,0.05,0.05,0.05,0.05,0.05,0.05,0.05105263157894737,0.05052631578947368,0.05,,1.0,1.0,1.0,1.0,1.0,1.0,1.0,1.0,1.0,1.0,1.0,1.0,1.0,1.0,1.0,1.0,1.0,1.0,1.0,1.0,1.0,1.0,1.0,1.0,1.0,1.0,1.0,1.0,1.0,1.0,1.0,1.0,1.0,1.0,1.0,1.0,1.0,1.0,1.0,1.0,1.0,1.0,1.0,1.0,1.0,1.0,1.0,1.0,1.0,1.0,,-1,-1,-1,-1,-1,-1,-1,-1,-1,-1,-1,-1,-1,-1,-1,-1,-1,-1,-1,-1,-1,-1,-1,-1,-1,-1,-1,-1,-1,-1,-1,-1,-1,-1,-1,-1,-1,-1,-1,-1,-1,-1,-1,-1,-1,-1,-1,-1,-1,-1
2.0,0.7,0.5,100,0,0.01,0,IGEMRandomSequence,20,89054,0.98,0.98,0.98,0.98,0.98,0.98,0.98,0.98,1.0,1.0,1.0,1.0,1.0,1.0,1.0,1.0,1.0,1.0,1.0,1.0,1.0,1.0,1.0,1.0,1.0,1.0,1.0,1.0,1.0,1.0,1.0,1.0,1.0,1.0,1.0,1.0,1.0,1.0,1.0,1.0,1.0,1.0,1.0,1.0,1.0,1.0,1.0,1.0,1.0,1.0,1.0,,2.4311518645267842,1.9125163160065728,1.5109373661538663,1.2448142580204773,1.0736061825143273,0.8994377228114283,0.7516269526694596,0.5979622417097031,0.5327777740548131,0.37656631536542884,0.28951410918143616,0.22152090703839508,0.16853382833663796,0.1390510511086542,0.11034406082973783,0.09380654125557572,0.08081615539530325,0.06814212482167431,0.05613216830876105,0.046929220688787125,0.03813220183913454,0.02957645899795263,0.022717087273142374,0.01685966501538588,0.013487108288540241,0.011414318227760484,0.009510899590810726,0.007778856124509525,0.006757827087478592,0.005829418057713003,0.005089729435656113,0.004446461275947635,0.003803193116239156,0.003159924956530678,0.0026147518289247117,0.0020695787013187443,0.0015244055737127775,0.0010793411295693907,7.369121842848528E-4,5.005168185979605E-4,3.753876139484703E-4,2.5025840929898024E-4,1.2512920464949012E-4,0.0,0.0,0.0,0.0,0.0,0.0,0.0,0.0,,0.05,0.05,0.05,0.05,0.05,0.05,0.05,0.05,0.05,0.05,0.05,0.05,0.05,0.05,0.05,0.05,0.05,0.05,0.05,0.05,0.05,0.05,0.05,0.05,0.05,0.05,0.05,0.05,0.05,0.05,0.05,0.05,0.05,0.05,0.05,0.05,0.05,0.05,0.05,0.05,0.05,0.05,0.05,0.05,0.05,0.05,0.05,0.05,0.05,0.05,,1.0,1.0,1.0,1.0,1.0,1.0,1.0,1.0,1.0,1.0,1.0,1.0,1.0,1.0,1.0,1.0,1.0,1.0,1.0,1.0,1.0,1.0,1.0,1.0,1.0,1.0,1.0,1.0,1.0,1.0,1.0,1.0,1.0,1.0,1.0,1.0,1.0,1.0,1.0,1.0,1.0,1.0,1.0,1.0,1.0,1.0,1.0,1.0,1.0,1.0,,0,11,5,23,15,8,16,4,10,44,22,35,25,32,45,37,13,34,26,20,42,1,28,41,33,36,49,40,19,3,17,9,29,31,21,48,38,30,39,7,46,24,6,47,43,27,18,14,12,2
2.0,0.7,0.5,100,0,0.01,1,RandomEMDetectRandom,20,2593,0.9800000000000001,0.9800000000000001,0.984,0.984,0.984,0.984,0.984,0.984,0.984,0.984,0.984,0.984,0.984,0.984,0.984,0.984,0.984,0.984,0.984,0.984,0.984,0.984,0.984,0.984,0.984,0.984,0.984,0.984,0.984,0.984,0.984,0.984,0.984,0.984,0.9879999999999999,0.992,0.9960000000000001,0.9960000000000001,0.9960000000000001,0.9960000000000001,0.9960000000000001,0.9960000000000001,0.9960000000000001,0.9960000000000001,0.9960000000000001,0.9960000000000001,0.9960000000000001,0.9960000000000001,1.0,1.0,1.0,,3.676358335720623,3.4588802746984384,3.418332060817314,3.400746184953077,3.3249296031039295,3.2345814886717754,3.2146770654394556,3.023972953708263,2.787385909069342,2.6319872705125644,2.5788365079155935,2.572672666634527,2.5296382849711456,2.4900761876438424,2.484403734501348,2.4836222430086363,2.3751151531194736,2.3241125196818655,2.293865381885541,2.2239037244574353,2.1836044798491385,2.1080026326877346,1.917089519301204,1.9024943174424194,1.83146178726069,1.8303705909536858,1.7348030794818545,1.6558926038596016,1.5550843272671548,1.507117832766143,1.4731027207318936,1.464898081297652,1.4306717031240885,1.274718827898224,1.1794245954873532,0.9340014240423283,0.8616583677462348,0.8545455897016032,0.8007048166575416,0.7760972366862011,0.7741208999548249,0.7729124627166815,0.7150986715035913,0.5885386537465346,0.5765484045501885,0.5423730276102697,0.5367310271391094,0.3562868191443465,0.2732182421293051,0.020604216938112645,0.0,,0.1,0.1,0.1,0.1,0.1,0.1,0.1,0.1,0.1,0.1,0.1,0.1,0.1,0.1,0.1,0.1,0.1,0.1,0.1,0.1,0.1,0.1,0.1,0.1,0.1,0.1,0.1,0.1,0.1,0.1,0.1,0.1,0.1,0.1,0.1,0.1,0.1,0.1,0.1,0.1,0.1,0.1,0.1,0.1,0.1,0.1,0.10105263157894737,0.10105263157894737,0.10105263157894737,0.1,,1.0,1.0,1.0,1.0,1.0,1.0,1.0,1.0,1.0,1.0,1.0,1.0,1.0,1.0,1.0,1.0,1.0,1.0,1.0,1.0,1.0,1.0,1.0,1.0,1.0,1.0,1.0,1.0,1.0,1.0,1.0,1.0,1.0,1.0,1.0,1.0,1.0,1.0,1.0,1.0,1.0,1.0,1.0,1.0,1.0,1.0,1.0,1.0,1.0,1.0,,-1,-1,-1,-1,-1,-1,-1,-1,-1,-1,-1,-1,-1,-1,-1,-1,-1,-1,-1,-1,-1,-1,-1,-1,-1,-1,-1,-1,-1,-1,-1,-1,-1,-1,-1,-1,-1,-1,-1,-1,-1,-1,-1,-1,-1,-1,-1,-1,-1,-1
2.0,0.7,0.5,100,0,0.01,1,IGEMRandomSequence,20,104055,0.98,0.98,0.98,1.0,1.0,1.0,1.0,1.0,1.0,1.0,1.0,1.0,1.0,1.0,1.0,1.0,1.0,1.0,1.0,1.0,1.0,1.0,1.0,1.0,1.0,1.0,1.0,1.0,1.0,1.0,1.0,1.0,1.0,1.0,1.0,1.0,1.0,1.0,1.0,1.0,1.0,1.0,1.0,1.0,1.0,1.0,1.0,1.0,1.0,1.0,1.0,,3.6763583357206233,2.984984841546081,2.189721495058666,2.12265958181029,1.784967465812685,1.5328603365417601,1.249196199318598,1.012669661869345,0.7876223955499243,0.6046144098848133,0.48280926847913447,0.3812492710883393,0.28678865095859424,0.22976436594080193,0.18999677877889173,0.15558441500602538,0.12653290640360168,0.09820894076818845,0.0813632951259722,0.06697209597557319,0.053733728612747035,0.04616800598944869,0.03923799867040728,0.03252025278429057,0.027319478953296054,0.022943248110964775,0.018795335591451245,0.01573996131828264,0.01308777077820276,0.011014980717423004,0.009111562080473245,0.007379518614172042,0.006176163556638183,0.005155134519607249,0.004134105482576317,0.003299429968798453,0.0024647544550205898,0.002019690010877204,0.0016772610655926658,0.0013348321203081276,0.0010984367546212352,8.62041388934343E-4,6.256460232474506E-4,5.005168185979605E-4,3.753876139484703E-4,2.5025840929898024E-4,1.2512920464949012E-4,0.0,0.0,0.0,0.0,,0.1,0.1,0.1,0.1,0.1,0.1,0.1,0.1,0.1,0.1,0.1,0.1,0.1,0.1,0.1,0.1,0.1,0.1,0.1,0.1,0.1,0.1,0.1,0.1,0.1,0.1,0.1,0.1,0.1,0.1,0.1,0.1,0.1,0.1,0.1,0.1,0.1,0.1,0.1,0.1,0.1,0.1,0.1,0.1,0.1,0.1,0.1,0.1,0.1,0.1,,1.0,1.0,1.0,1.0,1.0,1.0,1.0,1.0,1.0,1.0,1.0,1.0,1.0,1.0,1.0,1.0,1.0,1.0,1.0,1.0,1.0,1.0,1.0,1.0,1.0,1.0,1.0,1.0,1.0,1.0,1.0,1.0,1.0,1.0,1.0,1.0,1.0,1.0,1.0,1.0,1.0,1.0,1.0,1.0,1.0,1.0,1.0,1.0,1.0,1.0,,17,15,35,16,13,45,39,24,2,28,30,48,12,22,25,43,14,44,46,36,41,34,19,37,8,7,4,6,38,9,18,23,0,32,27,26,5,31,33,29,21,47,10,1,40,49,11,42,20,3
2.0,0.7,0.5,100,0,0.01,2,RandomEMDetectRandom,20,2713,1.0,1.0,1.0,0.9960000000000001,0.9960000000000001,0.9960000000000001,0.992,0.992,0.9879999999999999,0.9879999999999999,0.9879999999999999,0.9879999999999999,0.992,0.9960000000000001,0.9960000000000001,0.9960000000000001,0.9960000000000001,0.9960000000000001,1.0,1.0,1.0,1.0,1.0,1.0,1.0,1.0,1.0,1.0,1.0,1.0,1.0,1.0,1.0,1.0,1.0,1.0,1.0,1.0,1.0,1.0,1.0,1.0,1.0,1.0,1.0,1.0,1.0,1.0,1.0,1.0,1.0,,4.255932203360591,4.143273519641866,4.075184722286851,3.9652181287983908,3.92354076593315,3.7662995777486152,3.5991053187561564,3.5964356904807504,3.343636859782073,3.2958224362862367,3.286886650195329,3.2820734367953763,3.082823395006601,2.8029274435722735,2.6998772671555837,2.6974907800545753,2.6607687674833285,2.649722734747109,2.4159772284611933,2.3664045819517696,2.3149131047876583,2.2443087528526156,2.239286225361161,2.195264335566221,2.14299166697959,2.060412265561434,1.9563282322989692,1.8096158535455298,1.7999892709036562,1.757789173182872,1.7465267678360639,1.6429105459590865,1.5216546856256534,1.5141029731581856,1.3075683128430018,1.286524914861396,1.183510316832703,0.9217931610716994,0.8690310478911059,0.8576697918545101,0.8164135981117348,0.7880518634029302,0.7839029342722642,0.7782562943697149,0.766936991666387,0.7260611072723343,0.43566643253333037,0.3324903214940958,0.22973902698123333,0.18252546931320449,0.0,,0.1,0.1,0.1,0.1,0.1,0.1,0.1,0.1,0.1,0.1,0.1,0.1,0.1,0.1,0.1,0.1,0.1,0.1,0.1,0.1,0.1,0.1,0.1,0.1,0.1,0.1,0.1,0.1,0.1,0.1,0.1,0.1,0.1,0.1,0.1,0.1,0.1,0.1,0.1,0.1,0.1,0.1,0.1,0.1,0.1,0.1,0.1,0.1,0.1,0.1,,1.0,1.0,1.0,1.0,1.0,1.0,1.0,1.0,1.0,1.0,1.0,1.0,1.0,1.0,1.0,1.0,1.0,1.0,1.0,1.0,1.0,1.0,1.0,1.0,1.0,1.0,1.0,1.0,1.0,1.0,1.0,1.0,1.0,1.0,1.0,1.0,1.0,1.0,1.0,1.0,1.0,1.0,1.0,1.0,1.0,1.0,1.0,1.0,1.0,1.0,,-1,-1,-1,-1,-1,-1,-1,-1,-1,-1,-1,-1,-1,-1,-1,-1,-1,-1,-1,-1,-1,-1,-1,-1,-1,-1,-1,-1,-1,-1,-1,-1,-1,-1,-1,-1,-1,-1,-1,-1,-1,-1,-1,-1,-1,-1,-1,-1,-1,-1
2.0,0.7,0.5,100,0,0.01,2,IGEMRandomSequence,20,102742,1.0,0.98,1.0,1.0,1.0,1.0,1.0,1.0,1.0,1.0,1.0,1.0,1.0,1.0,1.0,1.0,1.0,1.0,1.0,1.0,1.0,1.0,1.0,1.0,1.0,1.0,1.0,1.0,1.0,1.0,1.0,1.0,1.0,1.0,1.0,1.0,1.0,1.0,1.0,1.0,1.0,1.0,1.0,1.0,1.0,1.0,1.0,1.0,1.0,1.0,1.0,,4.255932203360591,3.4487732731014877,2.8252309081384333,2.143839981501563,1.6496071611611756,1.224236428315116,0.9296470841662847,0.7500383657886158,0.5918750963079118,0.47412207571598725,0.3654231920121061,0.30009476429183246,0.24609857668686985,0.20943090829026717,0.17576313518440093,0.15742411103303694,0.13919435819778925,0.12297841074359407,0.1081013325064623,0.09479143087154274,0.08173591212069521,0.07106066264859524,0.06211896731994525,0.05359404202071331,0.04561603356439201,0.03867135405012411,0.03193917698774723,0.026081754729990726,0.02058861390077964,0.01568634230974191,0.011614947181317562,0.009044384517634186,0.007226390136474716,0.005580853526738234,0.004022412448584035,0.0025516924095663907,0.002106627965423005,0.001764199020138467,0.001421770074853929,0.0010793411295693907,7.369121842848528E-4,5.005168185979605E-4,3.753876139484703E-4,2.5025840929898024E-4,1.2512920464949012E-4,0.0,0.0,0.0,0.0,0.0,0.0,,0.1,0.1,0.1,0.1,0.1,0.1,0.1,0.1,0.1,0.1,0.1,0.1,0.1,0.1,0.1,0.1,0.1,0.1,0.1,0.1,0.1,0.1,0.1,0.1,0.1,0.1,0.1,0.1,0.1,0.1,0.1,0.1,0.1,0.1,0.1,0.1,0.1,0.1,0.1,0.1,0.1,0.1,0.1,0.1,0.1,0.1,0.1,0.1,0.1,0.1,,1.0,1.0,1.0,1.0,1.0,1.0,1.0,1.0,1.0,1.0,1.0,1.0,1.0,1.0,1.0,1.0,1.0,1.0,1.0,1.0,1.0,1.0,1.0,1.0,1.0,1.0,1.0,1.0,1.0,1.0,1.0,1.0,1.0,1.0,1.0,1.0,1.0,1.0,1.0,1.0,1.0,1.0,1.0,1.0,1.0,1.0,1.0,1.0,1.0,1.0,,47,1,24,45,49,6,31,12,43,20,9,25,16,48,46,28,36,33,39,40,41,35,34,2,13,22,0,27,26,29,38,4,18,11,7,21,15,19,8,37,17,42,23,32,5,44,30,14,10,3
2.0,0.7,0.5,100,0,0.01,3,RandomEMDetectRandom,20,2257,0.9200000000000002,0.9200000000000002,0.9200000000000002,0.9200000000000002,0.924,0.9280000000000002,0.9359999999999999,0.9399999999999998,0.9399999999999998,0.9399999999999998,0.944,0.944,0.944,0.944,0.944,0.9480000000000001,0.9480000000000001,0.9480000000000001,0.952,0.952,0.952,0.952,0.9559999999999998,0.9559999999999998,0.9559999999999998,0.9559999999999998,0.9559999999999998,0.9640000000000001,0.968,0.968,0.968,0.968,0.968,0.9800000000000001,0.9800000000000001,0.984,0.9879999999999999,0.9879999999999999,0.9879999999999999,0.9879999999999999,0.9879999999999999,0.9879999999999999,0.9960000000000001,0.9960000000000001,0.9960000000000001,0.9960000000000001,0.9960000000000001,0.9960000000000001,1.0,1.0,1.0,,3.1793844674491205,3.1320129758912545,3.1008363707203146,3.0320608402226576,3.0009900639698666,2.8214548788631673,2.820419122873001,2.721970961689017,2.642762908039934,2.60526019448922,2.498575501257913,2.46816858232338,2.3250965173926095,2.2576264978005245,2.18978687176205,2.2237346911108435,2.1724245315297,2.1620298330365584,2.0643520037539522,1.9667741321792966,1.9246832713639592,1.7028836301985915,1.7718973610978401,1.7074275803425931,1.6959168306325494,1.5887607168408298,1.524172568720153,1.4309098980392765,1.3734375007588695,1.3688198550084354,1.3571920245689284,1.348802328674227,1.3267194272777343,1.1874009419846314,1.1514340081109553,0.9521730496695984,0.7726971845562697,0.7609381280288193,0.7533995898846636,0.5241600305870762,0.5013055548458832,0.4799405856926162,0.3500267413212438,0.3009903616590567,0.22908730680573997,0.22320254829026664,0.21957584626481236,0.18974963357960847,0.033506289090589295,0.013569914234132719,0.0,,0.05,0.05,0.05,0.05,0.05,0.05,0.05,0.05,0.05,0.05,0.05,0.05,0.05,0.05,0.05,0.05,0.05,0.05,0.05,0.05,0.05,0.05,0.05,0.05,0.05,0.05,0.05,0.05,0.05,0.05,0.05,0.05,0.05,0.05,0.05,0.05,0.05,0.05,0.05,0.05,0.05,0.05,0.05,0.05,0.05,0.05,0.05,0.05,0.05,0.05,,1.0,1.0,1.0,1.0,1.0,1.0,1.0,1.0,1.0,1.0,1.0,1.0,1.0,1.0,1.0,1.0,1.0,1.0,1.0,1.0,1.0,1.0,1.0,1.0,1.0,1.0,1.0,1.0,1.0,1.0,1.0,1.0,1.0,1.0,1.0,1.0,1.0,1.0,1.0,1.0,1.0,1.0,1.0,1.0,1.0,1.0,1.0,1.0,1.0,1.0,,-1,-1,-1,-1,-1,-1,-1,-1,-1,-1,-1,-1,-1,-1,-1,-1,-1,-1,-1,-1,-1,-1,-1,-1,-1,-1,-1,-1,-1,-1,-1,-1,-1,-1,-1,-1,-1,-1,-1,-1,-1,-1,-1,-1,-1,-1,-1,-1,-1,-1
2.0,0.7,0.5,100,0,0.01,3,IGEMRandomSequence,20,100498,0.92,0.94,0.96,0.98,0.98,0.98,0.98,1.0,1.0,1.0,1.0,1.0,1.0,1.0,1.0,1.0,1.0,1.0,1.0,1.0,1.0,1.0,1.0,1.0,1.0,1.0,1.0,1.0,1.0,1.0,1.0,1.0,1.0,1.0,1.0,1.0,1.0,1.0,1.0,1.0,1.0,1.0,1.0,1.0,1.0,1.0,1.0,1.0,1.0,1.0,1.0,,3.1793844674491205,2.6310356055079698,2.3043733801043604,2.289094619686755,1.838246203253139,1.5221675915315136,1.2695886630297464,1.032147674716313,0.8699652517870585,0.7579488146589842,0.6576011319139936,0.556150119199506,0.4703085970212478,0.3935716363170822,0.33742244948332645,0.2879546694953402,0.23999271503496672,0.20122962907562994,0.16597202484289714,0.14184896854514176,0.1201761159269877,0.1023471406796584,0.08665864895023032,0.07566690975813625,0.06485814015924253,0.05584453476476688,0.04815690417393909,0.041226896854897686,0.03486535215616164,0.029583998175978912,0.02482934342671048,0.020226560887022366,0.016231896031747427,0.012314178958098434,0.009099657416330724,0.006693435698253727,0.004790017061303968,0.003496788617694066,0.0024757595806631336,0.0019305864530571666,0.0013854133254511997,9.403488813078129E-4,5.979199360232748E-4,3.6152457033638245E-4,1.2512920464949012E-4,0.0,0.0,0.0,0.0,0.0,0.0,,0.05,0.05,0.05,0.05,0.05,0.05,0.05,0.05,0.05,0.05,0.05,0.05,0.05,0.05,0.05,0.05,0.05,0.05,0.05,0.05,0.05,0.05,0.05,0.05,0.05,0.05,0.05,0.05,0.05,0.05,0.05,0.05,0.05,0.05,0.05,0.05,0.05,0.05,0.05,0.05,0.05,0.05,0.05,0.05,0.05,0.05,0.05,0.05,0.05,0.05,,1.0,1.0,1.0,1.0,1.0,1.0,1.0,1.0,1.0,1.0,1.0,1.0,1.0,1.0,1.0,1.0,1.0,1.0,1.0,1.0,1.0,1.0,1.0,1.0,1.0,1.0,1.0,1.0,1.0,1.0,1.0,1.0,1.0,1.0,1.0,1.0,1.0,1.0,1.0,1.0,1.0,1.0,1.0,1.0,1.0,1.0,1.0,1.0,1.0,1.0,,43,14,18,36,15,1,29,47,5,23,48,34,8,24,3,41,25,35,16,44,39,10,45,32,13,33,38,42,46,30,7,31,12,21,40,28,2,49,9,26,37,11,27,6,0,22,20,19,17,4
2.0,0.7,0.5,100,0,0.01,4,RandomEMDetectRandom,20,2902,0.9399999999999998,0.9399999999999998,0.944,0.944,0.9480000000000001,0.9480000000000001,0.952,0.952,0.9559999999999998,0.9559999999999998,0.9559999999999998,0.9559999999999998,0.9559999999999998,0.9559999999999998,0.9559999999999998,0.9559999999999998,0.96,0.96,0.96,0.9640000000000001,0.9640000000000001,0.9640000000000001,0.9640000000000001,0.9719999999999999,0.9719999999999999,0.9719999999999999,0.9719999999999999,0.9719999999999999,0.9719999999999999,0.9719999999999999,0.9719999999999999,0.9719999999999999,0.976,0.984,0.984,0.984,0.984,0.984,0.984,0.984,0.984,0.984,0.984,0.9879999999999999,0.992,0.992,0.992,0.9960000000000001,0.9960000000000001,0.9960000000000001,1.0,,3.929394479417584,3.9250085103902292,3.8037048702117877,3.755975783271076,3.69872312263698,3.687164456120199,3.5172463837174788,3.4516934102990766,3.3383290307350806,3.318916516546737,3.3002954807386162,3.29170954942287,3.2716674100612524,3.114475602629807,3.0806311167748492,3.0494795710044817,3.0247046218790223,2.9364374213701625,2.9168027933104446,2.8760445032098145,2.770035504105174,2.7668251469085,2.6818232065604923,2.329885886318082,2.29023925205263,2.2431253445311765,2.1149086393335734,2.055421522720502,1.887233838874223,1.8731025197324414,1.8164709589179353,1.7670164109131996,1.4293821822152668,1.256887304187598,1.249134003173626,1.1411231977129133,1.0288520576551654,1.0246978132108855,1.0177982651872148,0.9797070348437306,0.9222846640192346,0.8513563817929212,0.72240085053536,0.6538002263455392,0.49359603781653494,0.40867036092754194,0.30939704390826217,0.14244732486724318,0.016624843726285678,0.00815921418800068,0.0,,0.0,0.0,0.0,0.0,0.0,0.0,0.0,0.0,0.0,0.0,0.0,0.0,0.0,0.0,0.0,0.0,0.0,0.0,0.0,0.0,0.0,0.0,0.0,0.0,0.0,0.0,0.0,0.0,0.0,0.0,0.0,0.0,0.0,0.0,0.0,0.0,0.0,0.0,0.0,0.0,0.0,0.0,0.0,0.0,0.0,0.0,0.0,0.0,0.0,0.0,,NaN,NaN,NaN,NaN,NaN,NaN,NaN,NaN,NaN,NaN,NaN,NaN,NaN,NaN,NaN,NaN,NaN,NaN,NaN,NaN,NaN,NaN,NaN,NaN,NaN,NaN,NaN,NaN,NaN,NaN,NaN,NaN,NaN,NaN,NaN,NaN,NaN,NaN,NaN,NaN,NaN,NaN,NaN,NaN,NaN,NaN,NaN,NaN,NaN,NaN,,-1,-1,-1,-1,-1,-1,-1,-1,-1,-1,-1,-1,-1,-1,-1,-1,-1,-1,-1,-1,-1,-1,-1,-1,-1,-1,-1,-1,-1,-1,-1,-1,-1,-1,-1,-1,-1,-1,-1,-1,-1,-1,-1,-1,-1,-1,-1,-1,-1,-1
2.0,0.7,0.5,100,0,0.01,4,IGEMRandomSequence,20,104504,0.94,0.96,0.98,0.98,0.98,0.98,0.98,0.98,0.98,0.98,0.98,0.98,0.98,0.98,1.0,1.0,1.0,1.0,1.0,1.0,1.0,1.0,1.0,1.0,1.0,1.0,1.0,1.0,1.0,1.0,1.0,1.0,1.0,1.0,1.0,1.0,1.0,1.0,1.0,1.0,1.0,1.0,1.0,1.0,1.0,1.0,1.0,1.0,1.0,1.0,1.0,,3.9293944794175846,3.356755954642147,2.918833705191401,2.3394222508773175,1.7813298387559209,1.3693739144603003,0.9834584329551875,0.7872393451176332,0.6162791412031462,0.4731755527770114,0.3643308089674247,0.3039041631436672,0.2466327228536389,0.20237610065058867,0.2433470888278379,0.19871408144834177,0.1664913459607354,0.13587595049581236,0.1082508157464749,0.09007969209748537,0.07399238765378745,0.057988659944905645,0.0477105620278671,0.03823940722339723,0.029714481924165287,0.02496159743987117,0.021121050488408764,0.017906528946641055,0.014931165494475254,0.012690825104470164,0.010534042369218831,0.008377259633967495,0.006304469573187738,0.004922137834695378,0.003901108797664446,0.003066433283886583,0.002423165124178104,0.0019781006800347178,0.001533036235891331,0.001190607290606793,8.48178345322255E-4,6.117829796353627E-4,3.753876139484703E-4,2.5025840929898024E-4,1.2512920464949012E-4,0.0,0.0,0.0,0.0,0.0,0.0,,0.0,0.0,0.0,0.0,0.0,0.0,0.0,0.0,0.0,0.0,0.0,0.0,0.0,0.0,0.0,0.0,0.0,0.0,0.0,0.0,0.0,0.0,0.0,0.0,0.0,0.0,0.0,0.0,0.0,0.0,0.0,0.0,0.0,0.0,0.0,0.0,0.0,0.0,0.0,0.0,0.0,0.0,0.0,0.0,0.0,0.0,0.0,0.0,0.0,0.0,,1.0,1.0,1.0,1.0,1.0,1.0,1.0,1.0,1.0,1.0,1.0,1.0,1.0,1.0,1.0,1.0,1.0,1.0,1.0,1.0,1.0,1.0,1.0,1.0,1.0,1.0,1.0,1.0,1.0,1.0,1.0,1.0,1.0,1.0,1.0,1.0,1.0,1.0,1.0,1.0,1.0,1.0,1.0,1.0,1.0,1.0,1.0,1.0,1.0,1.0,,13,1,11,8,33,15,19,42,2,25,6,12,24,10,20,21,18,3,44,9,32,31,35,48,7,40,4,43,36,22,23,5,37,47,27,0,45,46,49,39,14,41,26,38,34,30,29,28,17,16
2.0,0.7,0.5,100,0,0.01,5,RandomEMDetectRandom,20,2690,0.9200000000000002,0.9200000000000002,0.9359999999999999,0.944,0.944,0.952,0.952,0.952,0.952,0.952,0.952,0.952,0.9559999999999998,0.9559999999999998,0.9559999999999998,0.9559999999999998,0.9559999999999998,0.9559999999999998,0.9559999999999998,0.9559999999999998,0.96,0.976,0.9800000000000001,0.9800000000000001,0.9800000000000001,0.9800000000000001,0.984,0.984,0.9879999999999999,0.992,0.992,0.992,0.992,0.992,0.992,0.992,0.992,0.992,0.992,0.992,0.992,0.9960000000000001,1.0,1.0,1.0,1.0,1.0,1.0,1.0,1.0,1.0,,4.0796376348991235,4.073127897717515,3.74936317277934,3.512941041132059,3.481387521607065,3.1197517904569687,3.0456659021066472,3.038486070369784,3.023380550754738,2.9452891336112983,2.8341359919840334,2.7972693709946816,2.763475862025892,2.7439952838868082,2.743212936319062,2.7407637213943925,2.495003704689568,2.4130833560539457,2.365265998878706,2.225109384250005,2.3694460704605405,2.421521625794451,2.253886684560631,2.020948793299734,1.9741061178101993,1.8313131943329999,1.6003381754726163,1.574796434501754,1.4764579692823865,1.3851982433232048,1.3564511710926461,1.1588481582465193,1.1529737858374198,1.0409521612739319,1.0350925517207836,0.8674395083500734,0.8653220776413955,0.7030748908399618,0.6853146176453889,0.5321588704289714,0.5229824638921697,0.5165114885236142,0.37314036451644506,0.3347719831056077,0.33236604914669676,0.2172757090130153,0.20041029117474457,0.1562010674823211,0.1260321119320596,0.010160766993189137,0.0,,0.05,0.05,0.05,0.05,0.05,0.05,0.05,0.05,0.05,0.05,0.05,0.05,0.05,0.05,0.05,0.05,0.05,0.05,0.05,0.05,0.05,0.05,0.05,0.05,0.05,0.05,0.05,0.05,0.05,0.05,0.05,0.05,0.05,0.05,0.05,0.05,0.05,0.05,0.05,0.05,0.05,0.05,0.05,0.05052631578947368,0.05052631578947368,0.05052631578947368,0.05263157894736842,0.05263157894736842,0.05263157894736842,0.05263157894736842,,1.0,1.0,1.0,1.0,1.0,1.0,1.0,1.0,1.0,1.0,1.0,1.0,1.0,1.0,1.0,1.0,1.0,1.0,1.0,1.0,1.0,1.0,1.0,1.0,1.0,1.0,1.0,1.0,1.0,1.0,1.0,1.0,1.0,1.0,1.0,1.0,1.0,1.0,1.0,1.0,1.0,1.0,1.0,1.0,1.0,1.0,1.0,1.0,1.0,1.0,,-1,-1,-1,-1,-1,-1,-1,-1,-1,-1,-1,-1,-1,-1,-1,-1,-1,-1,-1,-1,-1,-1,-1,-1,-1,-1,-1,-1,-1,-1,-1,-1,-1,-1,-1,-1,-1,-1,-1,-1,-1,-1,-1,-1,-1,-1,-1,-1,-1,-1
2.0,0.7,0.5,100,0,0.01,5,IGEMRandomSequence,20,106088,0.92,0.96,0.96,0.98,0.98,0.98,0.98,1.0,1.0,1.0,1.0,1.0,1.0,1.0,1.0,1.0,1.0,1.0,1.0,1.0,1.0,1.0,1.0,1.0,1.0,1.0,1.0,1.0,1.0,1.0,1.0,1.0,1.0,1.0,1.0,1.0,1.0,1.0,1.0,1.0,1.0,1.0,1.0,1.0,1.0,1.0,1.0,1.0,1.0,1.0,1.0,,4.0796376348991235,3.1472712511388257,2.3199237236829,2.150834929619062,1.5637255152461962,1.203553109884393,0.9349971625789243,0.7882709217468697,0.6692798820326685,0.5663140186705756,0.48636488034291975,0.40855502196199905,0.33530789053630744,0.268020411955125,0.20210132626825028,0.15517653217577027,0.13118884763150887,0.11297848564568891,0.09773433534378836,0.08397452505076525,0.07098539988707953,0.05984132080436572,0.0492425050027142,0.04033939397395231,0.03229294323173912,0.02515172210452442,0.020473797628405396,0.016866146796605537,0.013651625254837825,0.010918151834346112,0.008677811444341023,0.006774392807391265,0.005215951729237066,0.0042875426994714765,0.003547854077414586,0.002904585917706108,0.00226131775799763,0.001816253313854244,0.0014738243685697057,0.0012374290028828133,0.001001033637195921,8.759044325464309E-4,7.507752278969408E-4,6.256460232474506E-4,5.005168185979605E-4,3.753876139484703E-4,2.5025840929898024E-4,1.2512920464949012E-4,0.0,0.0,0.0,,0.05,0.05,0.05,0.05,0.05,0.05,0.05,0.05,0.05,0.05,0.05,0.05,0.05,0.05,0.05,0.05,0.05,0.05,0.05,0.05,0.05,0.05,0.05,0.05,0.05,0.05,0.05,0.05,0.05,0.05,0.05,0.05,0.05,0.05,0.05,0.05,0.05,0.05,0.05,0.05,0.05,0.05,0.05,0.05,0.05263157894736842,0.05,0.05263157894736842,0.05263157894736842,0.05263157894736842,0.05263157894736842,,1.0,1.0,1.0,1.0,1.0,1.0,1.0,1.0,1.0,1.0,1.0,1.0,1.0,1.0,1.0,1.0,1.0,1.0,1.0,1.0,1.0,1.0,1.0,1.0,1.0,1.0,1.0,1.0,1.0,1.0,1.0,1.0,1.0,1.0,1.0,1.0,1.0,1.0,1.0,1.0,1.0,1.0,1.0,1.0,1.0,1.0,1.0,1.0,1.0,1.0,,20,42,40,7,43,28,49,34,3,36,11,6,32,47,37,29,9,21,12,10,14,13,0,5,38,25,45,16,48,1,23,18,33,27,26,35,17,4,41,19,8,31,22,39,15,44,30,24,46,2
2.0,0.7,0.5,100,0,0.01,6,RandomEMDetectRandom,20,2768,0.96,0.9640000000000001,0.9640000000000001,0.9640000000000001,0.9640000000000001,0.9640000000000001,0.9640000000000001,0.9640000000000001,0.9640000000000001,0.9640000000000001,0.9719999999999999,0.976,0.976,0.9800000000000001,0.9800000000000001,0.9800000000000001,0.976,0.9719999999999999,0.9719999999999999,0.9719999999999999,0.9719999999999999,0.976,0.976,0.976,0.9800000000000001,0.976,0.9800000000000001,0.9800000000000001,0.9800000000000001,0.984,0.9879999999999999,0.9879999999999999,0.9879999999999999,0.9879999999999999,0.9879999999999999,0.9879999999999999,0.9879999999999999,0.9879999999999999,0.992,0.992,0.992,0.992,0.992,0.992,0.992,0.992,0.992,0.992,0.992,0.992,1.0,,3.5198309489631905,3.5912859107734314,3.579836081442737,3.545948514313095,3.52838038563429,3.520821810731453,3.3480001079151522,3.2948428901763336,3.212334304510209,3.251620203297091,3.3069375266074834,3.2217778997905384,3.206679089513753,3.028243201596397,2.9980138692485854,2.9869930779936094,2.9400811891046645,2.905340595396564,2.8375251218031865,2.8321312474416933,2.67856244897778,2.4647577562397576,2.252361046199497,2.071878590425395,1.9764845996015576,1.949450371880193,1.892909889760542,1.8801463896558388,1.8719369577732607,1.5387885123038803,1.3652891155493976,1.2914343317598882,1.277512341356767,1.230726568786873,1.215597564860245,1.2010816790938805,0.996490093090322,0.9701672207386476,0.8798118825214096,0.692290293861761,0.6511697264981827,0.629299185417329,0.570118184395141,0.49994775711154055,0.3668649467720376,0.3627544035525969,0.3602403035339585,0.3438938296367626,0.20035701514125223,0.1659286828859143,0.0,,0.05,0.05,0.05,0.05,0.05,0.05,0.05,0.05,0.05,0.05,0.05,0.05,0.05,0.05,0.05,0.05,0.05,0.05,0.05,0.05,0.05,0.05,0.05,0.05,0.05,0.05,0.05,0.05,0.05,0.05,0.05,0.05,0.05,0.05,0.05,0.05,0.05,0.05,0.05,0.05,0.05,0.05,0.05,0.05,0.05,0.05,0.05,0.05,0.05,0.05,,1.0,1.0,1.0,1.0,1.0,1.0,1.0,1.0,1.0,1.0,1.0,1.0,1.0,1.0,1.0,1.0,1.0,1.0,1.0,1.0,1.0,1.0,1.0,1.0,1.0,1.0,1.0,1.0,1.0,1.0,1.0,1.0,1.0,1.0,1.0,1.0,1.0,1.0,1.0,1.0,1.0,1.0,1.0,1.0,1.0,1.0,1.0,1.0,1.0,1.0,,-1,-1,-1,-1,-1,-1,-1,-1,-1,-1,-1,-1,-1,-1,-1,-1,-1,-1,-1,-1,-1,-1,-1,-1,-1,-1,-1,-1,-1,-1,-1,-1,-1,-1,-1,-1,-1,-1,-1,-1,-1,-1,-1,-1,-1,-1,-1,-1,-1,-1
2.0,0.7,0.5,100,0,0.01,6,IGEMRandomSequence,20,101405,0.96,0.96,0.96,0.98,0.98,0.98,0.98,1.0,1.0,1.0,1.0,1.0,1.0,1.0,1.0,1.0,1.0,1.0,1.0,1.0,1.0,1.0,1.0,1.0,1.0,1.0,1.0,1.0,1.0,1.0,1.0,1.0,1.0,1.0,1.0,1.0,1.0,1.0,1.0,1.0,1.0,1.0,1.0,1.0,1.0,1.0,1.0,1.0,1.0,1.0,1.0,,3.51983094896319,2.887981116672832,2.1094473832629497,1.7246661510379204,1.4007910448793304,1.1318788055179625,0.8682024526548319,0.9193470232517577,0.6703139343121123,0.5314079787140168,0.41745823229063195,0.35234266305139517,0.2958739468745884,0.24590105815299604,0.20271265941670574,0.16612820430786704,0.13238114343060953,0.10976718338590674,0.0897135495002909,0.07125582201923683,0.05748374266532522,0.04675367160441509,0.03832251188887602,0.03275622038248193,0.02726307955327085,0.02206408132345096,0.017902812808950567,0.015007763354518228,0.012355572814438349,0.010452154177488591,0.00854873554053883,0.0070780155015211866,0.005784787057911286,0.004581432000377426,0.003560402963346493,0.00272572744956863,0.0019860388275117404,0.0014408656999057733,0.0010984367546212352,8.62041388934343E-4,6.256460232474506E-4,5.005168185979605E-4,3.753876139484703E-4,2.5025840929898024E-4,1.2512920464949012E-4,0.0,0.0,0.0,0.0,0.0,0.0,,0.05,0.05,0.05,0.05,0.05,0.05,0.05,0.05,0.05,0.05,0.05,0.05,0.05,0.05,0.05,0.05,0.05,0.05,0.05,0.05,0.05,0.05,0.05,0.05,0.05,0.05,0.05,0.05,0.05,0.05,0.05,0.05,0.05,0.05,0.05,0.05,0.05,0.05,0.05,0.05,0.05,0.05,0.05,0.05,0.05,0.05,0.05,0.05,0.05,0.05,,1.0,1.0,1.0,1.0,1.0,1.0,1.0,1.0,1.0,1.0,1.0,1.0,1.0,1.0,1.0,1.0,1.0,1.0,1.0,1.0,1.0,1.0,1.0,1.0,1.0,1.0,1.0,1.0,1.0,1.0,1.0,1.0,1.0,1.0,1.0,1.0,1.0,1.0,1.0,1.0,1.0,1.0,1.0,1.0,1.0,1.0,1.0,1.0,1.0,1.0,,44,39,40,29,0,31,11,8,2,32,38,48,30,34,47,15,17,36,3,9,27,7,35,12,43,10,14,49,21,19,6,1,45,33,4,26,25,37,46,24,16,42,41,23,5,28,22,20,18,13
2.0,0.7,0.5,100,0,0.01,7,RandomEMDetectRandom,20,2383,0.9800000000000001,0.9800000000000001,0.9800000000000001,0.9800000000000001,0.9800000000000001,0.9800000000000001,0.9800000000000001,0.9800000000000001,0.9800000000000001,0.984,0.984,0.984,0.984,0.984,0.984,0.984,0.984,0.984,0.984,0.984,0.984,0.984,0.984,0.9879999999999999,0.9879999999999999,0.9879999999999999,0.9879999999999999,0.9879999999999999,0.9879999999999999,0.992,0.992,0.992,0.992,0.992,0.9960000000000001,0.9960000000000001,0.9960000000000001,0.9960000000000001,0.9960000000000001,0.9960000000000001,0.9960000000000001,1.0,1.0,1.0,1.0,1.0,1.0,1.0,1.0,1.0,1.0,,3.2571184708669856,3.155176729672273,3.0710430047792925,3.0183993441807955,2.9495818791797648,2.8864188646865556,2.831357716022926,2.684718312700551,2.6720062798692608,2.5816589739510514,2.4100495693461284,2.3092579769824066,2.104305439358603,2.1004559444411592,2.0658893872168824,1.946364698274742,1.8949458582233265,1.8916750108107436,1.8869584420775154,1.8477484374389372,1.7830741049543675,1.7787604503053942,1.7749207342050106,1.8215953821126392,1.600804651029361,1.481970769262198,1.4128256194085922,1.3256853797586123,1.3025195427573975,1.2048690735851726,1.1772434618610994,1.0785225529126163,1.061575952452984,0.9117802204262979,0.9092129300953303,0.8535488556691749,0.8379966306028053,0.7046198659878797,0.6732985052128282,0.6485360177269686,0.6131018553664379,0.5447429950839965,0.5036413179655093,0.34896546656402927,0.23743619862048307,0.1886879170253112,0.11160819544375407,0.025728555296405838,0.007380014144225351,0.0016615566836669926,0.0,,0.05,0.05,0.05,0.05,0.05,0.05,0.05,0.05,0.05,0.05,0.05,0.05,0.05,0.05,0.05,0.05,0.05,0.05,0.05,0.05,0.05,0.05,0.05,0.05,0.05,0.05,0.05,0.05,0.05,0.05,0.05,0.05,0.05,0.05,0.05,0.05,0.05,0.05,0.05,0.05,0.05,0.05,0.05,0.05052631578947368,0.05,0.05,0.05105263157894737,0.05210526315789473,0.05321637426900585,0.05263157894736842,,1.0,1.0,1.0,1.0,1.0,1.0,1.0,1.0,1.0,1.0,1.0,1.0,1.0,1.0,1.0,1.0,1.0,1.0,1.0,1.0,1.0,1.0,1.0,1.0,1.0,1.0,1.0,1.0,1.0,1.0,1.0,1.0,1.0,1.0,1.0,1.0,1.0,1.0,1.0,1.0,1.0,1.0,1.0,1.0,1.0,1.0,1.0,1.0,1.0,1.0,,-1,-1,-1,-1,-1,-1,-1,-1,-1,-1,-1,-1,-1,-1,-1,-1,-1,-1,-1,-1,-1,-1,-1,-1,-1,-1,-1,-1,-1,-1,-1,-1,-1,-1,-1,-1,-1,-1,-1,-1,-1,-1,-1,-1,-1,-1,-1,-1,-1,-1
2.0,0.7,0.5,100,0,0.01,7,IGEMRandomSequence,20,97737,0.98,0.98,0.98,0.98,0.98,0.98,0.98,0.98,0.98,0.98,0.98,1.0,1.0,1.0,1.0,1.0,1.0,1.0,1.0,1.0,1.0,1.0,1.0,1.0,1.0,1.0,1.0,1.0,1.0,1.0,1.0,1.0,1.0,1.0,1.0,1.0,1.0,1.0,1.0,1.0,1.0,1.0,1.0,1.0,1.0,1.0,1.0,1.0,1.0,1.0,1.0,,3.2571184708669856,2.6023994694964934,2.1085385288804592,1.7525173095389686,1.3517661401946628,1.0475479208004357,0.7780265953381393,0.6327639758393301,0.49447972908054705,0.364535329440668,0.2845956664995156,0.3211716307549533,0.2478561298085427,0.1851477742972203,0.14060939462921632,0.10894531170574799,0.08512955145108515,0.0745267299861681,0.06452216454537803,0.05640253996046621,0.04891015425694352,0.04233451658421172,0.035830117605342104,0.030779149099703994,0.025876877508666265,0.021349422201234047,0.017200629558282287,0.013437480121347293,0.010143805785430421,0.007737584067353422,0.006534229009819563,0.005330873952285703,0.00421822668136859,0.003383551167590727,0.0026438625455338376,0.002000594385825359,0.0016581654405408213,0.001315736495256283,9.733075499717452E-4,7.369121842848528E-4,5.005168185979605E-4,3.753876139484703E-4,2.5025840929898024E-4,1.2512920464949012E-4,0.0,0.0,0.0,0.0,0.0,0.0,0.0,,0.05,0.05,0.05,0.05,0.05,0.05,0.05,0.05,0.05,0.05,0.05,0.05,0.05,0.05,0.05,0.05,0.05,0.05,0.05,0.05,0.05,0.05,0.05,0.05,0.05,0.05,0.05,0.05,0.05,0.05,0.05,0.05,0.05,0.05,0.05,0.05,0.05,0.05,0.05,0.05,0.05,0.05,0.05,0.05,0.05,0.05,0.05,0.05,0.05263157894736842,0.05263157894736842,,1.0,1.0,1.0,1.0,1.0,1.0,1.0,1.0,1.0,1.0,1.0,1.0,1.0,1.0,1.0,1.0,1.0,1.0,1.0,1.0,1.0,1.0,1.0,1.0,1.0,1.0,1.0,1.0,1.0,1.0,1.0,1.0,1.0,1.0,1.0,1.0,1.0,1.0,1.0,1.0,1.0,1.0,1.0,1.0,1.0,1.0,1.0,1.0,1.0,1.0,,36,38,32,25,11,15,0,23,13,41,31,16,44,18,14,7,17,49,33,2,12,47,43,28,1,40,30,37,20,27,48,39,4,21,46,35,9,22,45,5,10,26,34,19,42,29,24,8,6,3
2.0,0.7,0.5,100,0,0.01,8,RandomEMDetectRandom,20,2471,0.96,0.96,0.9640000000000001,0.9640000000000001,0.9640000000000001,0.9640000000000001,0.968,0.968,0.968,0.968,0.968,0.9719999999999999,0.9719999999999999,0.9719999999999999,0.976,0.976,0.976,0.976,0.9800000000000001,0.984,0.984,0.984,0.9879999999999999,0.9879999999999999,0.9879999999999999,0.9879999999999999,0.9879999999999999,0.9879999999999999,0.9879999999999999,0.9879999999999999,0.9879999999999999,0.9879999999999999,0.9879999999999999,0.9879999999999999,0.9879999999999999,0.9879999999999999,0.9879999999999999,0.992,0.992,0.9960000000000001,0.9960000000000001,0.9960000000000001,0.9960000000000001,1.0,1.0,1.0,1.0,1.0,1.0,1.0,1.0,,4.511116154834935,4.491477431409134,4.305041285374127,4.26364859420369,4.2559518908288245,4.24997537237223,3.9941181632614167,3.9756762592860406,3.947553587727252,3.935497249148587,3.9152896389136473,3.7519114096168793,3.7188462257680905,3.6500725808844434,3.3235747958871626,3.1054698820252353,3.0050534908361755,2.9155828868409097,2.7614107740702787,2.649330464589267,2.6229244632604973,2.577893486641202,2.4351691427961395,2.267627934534382,2.073797349755598,1.784527638049753,1.7412990661137653,1.713389521744963,1.6269114533956528,1.5708978573681545,1.4371370833096015,1.4282793218875822,1.309116132767904,1.0465595361893663,1.030684168681917,0.9301837800511082,0.8368571174832006,0.7604493898059606,0.7434107421194405,0.5792878375503089,0.5477810123738299,0.5124411625821897,0.4700284388733397,0.3252638885158803,0.31022486433256413,0.25016211222155393,0.24415574309596416,0.2258518116282235,0.17169451881705516,0.1235356975771906,0.0,,0.05,0.05,0.05,0.05,0.05,0.05,0.05,0.05,0.05,0.05,0.05,0.05,0.05,0.05,0.05,0.05,0.05,0.05,0.05,0.05,0.05,0.05,0.05,0.05,0.05,0.05,0.05,0.05,0.05,0.05,0.05,0.05,0.05,0.05,0.05,0.05,0.05,0.05,0.05,0.05,0.05,0.05,0.05,0.05,0.05,0.05,0.05,0.05,0.05,0.05,,1.0,1.0,1.0,1.0,1.0,1.0,1.0,1.0,1.0,1.0,1.0,1.0,1.0,1.0,1.0,1.0,1.0,1.0,1.0,1.0,1.0,1.0,1.0,1.0,1.0,1.0,1.0,1.0,1.0,1.0,1.0,1.0,1.0,1.0,1.0,1.0,1.0,1.0,1.0,1.0,1.0,1.0,1.0,1.0,1.0,1.0,1.0,1.0,1.0,1.0,,-1,-1,-1,-1,-1,-1,-1,-1,-1,-1,-1,-1,-1,-1,-1,-1,-1,-1,-1,-1,-1,-1,-1,-1,-1,-1,-1,-1,-1,-1,-1,-1,-1,-1,-1,-1,-1,-1,-1,-1,-1,-1,-1,-1,-1,-1,-1,-1,-1,-1
2.0,0.7,0.5,100,0,0.01,8,IGEMRandomSequence,20,101195,0.96,0.98,0.98,0.98,0.98,1.0,1.0,1.0,1.0,1.0,1.0,1.0,1.0,1.0,1.0,1.0,1.0,1.0,1.0,1.0,1.0,1.0,1.0,1.0,1.0,1.0,1.0,1.0,1.0,1.0,1.0,1.0,1.0,1.0,1.0,1.0,1.0,1.0,1.0,1.0,1.0,1.0,1.0,1.0,1.0,1.0,1.0,1.0,1.0,1.0,1.0,,4.511116154834935,3.8539648944505727,3.0191341564438727,2.225537030740504,1.7718157802567396,1.7308461629594505,1.2993390461534462,1.0230598782650409,0.8215060348690769,0.6968084515737752,0.5894327753970229,0.4911739106991397,0.41589851800782557,0.3536309684378473,0.3035220189722579,0.2700056740385306,0.2368432484427299,0.20688076584133758,0.1796599191815172,0.15277773262394298,0.130459857152725,0.11081736050436117,0.09408527992409262,0.07772793571960128,0.0625126065913114,0.049506684099155464,0.038123878229890676,0.02739380716898053,0.02004238456193407,0.016591208732474667,0.014020646068791292,0.011780305678786202,0.009707515618006443,0.007975472151705243,0.006243428685404042,0.004772708646386398,0.003660061375469285,0.002731652345703695,0.0019919637236468055,0.0015468992795034191,0.001204470334218881,8.62041388934343E-4,6.256460232474506E-4,5.005168185979605E-4,3.753876139484703E-4,2.5025840929898024E-4,1.2512920464949012E-4,0.0,0.0,0.0,0.0,,0.05,0.05,0.05,0.05,0.05,0.05,0.05,0.05,0.05,0.05,0.05,0.05,0.05,0.05,0.05,0.05,0.05,0.05,0.05,0.05,0.05,0.05,0.05,0.05,0.05,0.05,0.05,0.05,0.05,0.05,0.05,0.05,0.05,0.05,0.05,0.05,0.05,0.05,0.05,0.05,0.05,0.05,0.05,0.05,0.05,0.05,0.05,0.05,0.05,0.05,,1.0,1.0,1.0,1.0,1.0,1.0,1.0,1.0,1.0,1.0,1.0,1.0,1.0,1.0,1.0,1.0,1.0,1.0,1.0,1.0,1.0,1.0,1.0,1.0,1.0,1.0,1.0,1.0,1.0,1.0,1.0,1.0,1.0,1.0,1.0,1.0,1.0,1.0,1.0,1.0,1.0,1.0,1.0,1.0,1.0,1.0,1.0,1.0,1.0,1.0,,0,7,5,33,10,44,24,19,28,14,42,26,1,3,34,8,38,23,35,20,6,22,32,30,25,47,11,4,46,31,21,13,27,2,48,15,45,16,43,18,29,9,12,41,40,39,49,37,36,17
2.0,0.7,0.5,100,0,0.01,9,RandomEMDetectRandom,20,2075,0.9800000000000001,0.9800000000000001,0.9800000000000001,0.9800000000000001,0.9800000000000001,0.9800000000000001,0.9800000000000001,0.9800000000000001,0.9800000000000001,0.9800000000000001,0.9800000000000001,0.9800000000000001,0.9800000000000001,0.9800000000000001,0.9800000000000001,0.984,0.984,0.984,0.984,0.984,0.984,0.984,0.984,0.984,0.984,0.984,0.984,0.984,0.984,0.984,0.984,0.9879999999999999,0.9879999999999999,0.9879999999999999,0.9879999999999999,0.9879999999999999,0.9879999999999999,0.9879999999999999,0.9879999999999999,0.992,0.992,0.9960000000000001,0.9960000000000001,0.9960000000000001,1.0,1.0,1.0,1.0,1.0,1.0,1.0,,2.7924793765248497,2.7766742996839726,2.639363875342363,2.6334292120188527,2.4735086098897234,2.3995465705468506,2.2535449967986954,2.1934799799058027,2.1167689109477745,2.074421288734981,2.049383396881632,2.04478979740977,2.0398742473666127,1.8859508618492449,1.7659400843309356,1.669295753974,1.6668923526285613,1.6428324001160077,1.636664235936962,1.629309717905078,1.521108542011963,1.4984489065788404,1.3215317549366825,1.3114687709203114,1.2358462559005843,1.1981925917323584,1.1962485149067372,1.1851642983446056,1.060460960590671,0.9781290440620127,0.8935428348176402,0.7975954135200923,0.6694338924860249,0.6477617944604747,0.6157162033556774,0.47468931778144474,0.4634154607885369,0.46298080019997856,0.3986248223177261,0.33143036350304883,0.27256725206822174,0.2054100500438778,0.1893210031113689,0.17687967285468648,0.10831258014193582,0.09105151650212537,0.04645993050405772,0.04361697495497623,0.023237679031313678,0.0041063820294843355,0.0,,0.15,0.15,0.15,0.15,0.15,0.15,0.15,0.15,0.15,0.15,0.15,0.15,0.15,0.15,0.15,0.15,0.15,0.15,0.15,0.15,0.15,0.15,0.15,0.15,0.15,0.15,0.15,0.15,0.15,0.15,0.15,0.15,0.15,0.15,0.15,0.15,0.15,0.15,0.15,0.15,0.15,0.15,0.15157894736842106,0.15157894736842106,0.1531578947368421,0.1531578947368421,0.15789473684210525,0.15789473684210525,0.15789473684210525,0.15789473684210525,,1.0,1.0,1.0,1.0,1.0,1.0,1.0,1.0,1.0,1.0,1.0,1.0,1.0,1.0,1.0,1.0,1.0,1.0,1.0,1.0,1.0,1.0,1.0,1.0,1.0,1.0,1.0,1.0,1.0,1.0,1.0,1.0,1.0,1.0,1.0,1.0,1.0,1.0,1.0,1.0,1.0,1.0,1.0,1.0,1.0,1.0,1.0,1.0,1.0,1.0,,-1,-1,-1,-1,-1,-1,-1,-1,-1,-1,-1,-1,-1,-1,-1,-1,-1,-1,-1,-1,-1,-1,-1,-1,-1,-1,-1,-1,-1,-1,-1,-1,-1,-1,-1,-1,-1,-1,-1,-1,-1,-1,-1,-1,-1,-1,-1,-1,-1,-1
2.0,0.7,0.5,100,0,0.01,9,IGEMRandomSequence,20,87159,0.98,0.98,1.0,1.0,1.0,1.0,1.0,1.0,1.0,1.0,1.0,1.0,1.0,1.0,1.0,1.0,1.0,1.0,1.0,1.0,1.0,1.0,1.0,1.0,1.0,1.0,1.0,1.0,1.0,1.0,1.0,1.0,1.0,1.0,1.0,1.0,1.0,1.0,1.0,1.0,1.0,1.0,1.0,1.0,1.0,1.0,1.0,1.0,1.0,1.0,1.0,,2.7924793765248497,2.036183949894708,1.7260076297221014,1.285983248163787,0.9824514188684592,0.715624431522956,0.6204921858510436,0.5325538789318007,0.4554193107527968,0.392660451948938,0.3348486619299611,0.27943341083967305,0.23686588724588914,0.19826454535665836,0.16427680152354254,0.143971677056042,0.1273867394574928,0.11194351080660023,0.09927584777105952,0.08718221315075174,0.07518519422742986,0.06441827356435052,0.05400257925473007,0.04479428085975205,0.0383612456780802,0.03228696287053569,0.02679382204132461,0.02159482381150472,0.016618118963316615,0.013562744690148005,0.011744750308988536,0.010099213699252055,0.00862849366023441,0.00724616192174205,0.006042806864208192,0.00502177782717726,0.004187102313399396,0.0033524267996215317,0.0026127381775646425,0.0019694700178561645,0.0015244055737127775,0.001079341129569391,7.369121842848528E-4,5.005168185979605E-4,3.753876139484703E-4,2.5025840929898024E-4,1.2512920464949012E-4,0.0,0.0,0.0,0.0,,0.15,0.15,0.15,0.15,0.15,0.15,0.15,0.15,0.15,0.15,0.15,0.15,0.15,0.15,0.15,0.15,0.15,0.15,0.15,0.15,0.15,0.15,0.15,0.15,0.15,0.15,0.15,0.15,0.15,0.15,0.15,0.15,0.15,0.15,0.15,0.15,0.15,0.15,0.15,0.15,0.15,0.15,0.15,0.15,0.15,0.15,0.15789473684210525,0.15789473684210525,0.15789473684210525,0.15789473684210525,,1.0,1.0,1.0,1.0,1.0,1.0,1.0,1.0,1.0,1.0,1.0,1.0,1.0,1.0,1.0,1.0,1.0,1.0,1.0,1.0,1.0,1.0,1.0,1.0,1.0,1.0,1.0,1.0,1.0,1.0,1.0,1.0,1.0,1.0,1.0,1.0,1.0,1.0,1.0,1.0,1.0,1.0,1.0,1.0,1.0,1.0,1.0,1.0,1.0,1.0,,8,46,33,2,40,3,42,5,30,48,23,13,25,36,38,20,29,41,10,19,12,11,14,9,4,27,45,35,28,47,22,18,34,6,44,49,24,1,37,0,16,43,21,17,31,32,26,39,15,7
2.0,0.7,0.5,100,0,0.01,10,RandomEMDetectRandom,20,2753,0.9200000000000002,0.9200000000000002,0.9200000000000002,0.9200000000000002,0.924,0.924,0.9280000000000002,0.9359999999999999,0.9359999999999999,0.9359999999999999,0.9399999999999998,0.9399999999999998,0.9399999999999998,0.9399999999999998,0.9399999999999998,0.9399999999999998,0.944,0.944,0.9480000000000001,0.9559999999999998,0.9559999999999998,0.96,0.96,0.968,0.968,0.968,0.968,0.968,0.9719999999999999,0.9719999999999999,0.9719999999999999,0.976,0.976,0.976,0.976,0.976,0.9800000000000001,0.9800000000000001,0.9800000000000001,0.984,0.9879999999999999,0.9879999999999999,0.9879999999999999,0.992,0.992,0.992,0.9960000000000001,1.0,1.0,1.0,1.0,,4.246886311947164,4.1555238978441205,4.1084353020466855,4.0279410582500805,3.9177230759136252,3.870174289410426,3.6823113426172562,3.6243927690070707,3.618269134809455,3.569588587212736,3.3466195549695277,3.3404304827026543,3.3327151098944183,3.2997822475196514,3.2748800728915923,3.2169386670956497,3.1121056691891273,3.042773781668323,2.855305605680543,2.7122216949557916,2.5327091847420955,2.392434578861092,2.3870612659092325,2.1233339845618646,2.0536051740501677,1.8805573557321018,1.8658483772406107,1.8367968002505506,1.6504304239629874,1.551624265206595,1.5314285510056966,1.3793326321924015,1.2581530824415392,1.2254832193864214,1.221054591951646,1.1191989407976917,0.9512129393096179,0.9464718899388348,0.8582901477254982,0.778157540113331,0.7489999028427785,0.7170218104098443,0.653167998880097,0.5181291750118407,0.5147878597353864,0.5105654945318849,0.32778349008300445,0.2516048738676938,0.18857152853223258,0.03352708324087804,0.0,,0.1,0.1,0.1,0.1,0.1,0.1,0.1,0.1,0.1,0.1,0.1,0.1,0.1,0.1,0.1,0.1,0.1,0.1,0.1,0.1,0.1,0.1,0.1,0.1,0.1,0.1,0.1,0.1,0.1,0.1,0.1,0.1,0.1,0.1,0.1,0.1,0.1,0.1,0.1,0.1,0.1,0.1,0.1,0.1,0.1,0.1,0.1,0.1,0.1,0.1,,1.0,1.0,1.0,1.0,1.0,1.0,1.0,1.0,1.0,1.0,1.0,1.0,1.0,1.0,1.0,1.0,1.0,1.0,1.0,1.0,1.0,1.0,1.0,1.0,1.0,1.0,1.0,1.0,1.0,1.0,1.0,1.0,1.0,1.0,1.0,1.0,1.0,1.0,1.0,1.0,1.0,1.0,1.0,1.0,1.0,1.0,1.0,1.0,1.0,1.0,,-1,-1,-1,-1,-1,-1,-1,-1,-1,-1,-1,-1,-1,-1,-1,-1,-1,-1,-1,-1,-1,-1,-1,-1,-1,-1,-1,-1,-1,-1,-1,-1,-1,-1,-1,-1,-1,-1,-1,-1,-1,-1,-1,-1,-1,-1,-1,-1,-1,-1
2.0,0.7,0.5,100,0,0.01,10,IGEMRandomSequence,20,101304,0.92,0.94,0.96,0.98,0.98,0.98,1.0,1.0,1.0,1.0,1.0,1.0,1.0,1.0,1.0,1.0,1.0,1.0,1.0,1.0,1.0,1.0,1.0,1.0,1.0,1.0,1.0,1.0,1.0,1.0,1.0,1.0,1.0,1.0,1.0,1.0,1.0,1.0,1.0,1.0,1.0,1.0,1.0,1.0,1.0,1.0,1.0,1.0,1.0,1.0,1.0,,4.246886311947164,3.8578103688142953,3.0612031389041903,2.3532461937101186,1.789988713292772,1.401742059172045,1.1440706116671389,0.8901106971253435,0.6967905507698342,0.590625478512883,0.48629302452614476,0.4067762859327161,0.32724319306271227,0.2722576283014277,0.21872889130873902,0.17170437179129197,0.13005558143703003,0.10384792319680508,0.08878152712974142,0.0761327067723116,0.06395335809391407,0.05528026288577109,0.047928840278724634,0.041021465667356254,0.034875168974119665,0.029750103585475245,0.02519213072119622,0.021274413647547234,0.01743386669608483,0.013982690866625428,0.011007327414459627,0.008112277960027286,0.006553836881873087,0.005260608438263184,0.004332199408497594,0.003592510786440705,0.002949242626732227,0.00240406949912626,0.0019590050549828735,0.0015139406108394867,0.0011715116655549487,8.290827202704107E-4,4.8665377498587254E-4,2.5025840929898024E-4,1.2512920464949012E-4,0.0,0.0,0.0,0.0,0.0,0.0,,0.1,0.1,0.1,0.1,0.1,0.1,0.1,0.1,0.1,0.1,0.1,0.1,0.1,0.1,0.1,0.1,0.1,0.1,0.1,0.1,0.1,0.1,0.1,0.1,0.1,0.1,0.1,0.1,0.1,0.1,0.1,0.1,0.1,0.1,0.1,0.1,0.1,0.1,0.1,0.1,0.1,0.1,0.1,0.1,0.1,0.1,0.1,0.1,0.1,0.1,,1.0,1.0,1.0,1.0,1.0,1.0,1.0,1.0,1.0,1.0,1.0,1.0,1.0,1.0,1.0,1.0,1.0,1.0,1.0,1.0,1.0,1.0,1.0,1.0,1.0,1.0,1.0,1.0,1.0,1.0,1.0,1.0,1.0,1.0,1.0,1.0,1.0,1.0,1.0,1.0,1.0,1.0,1.0,1.0,1.0,1.0,1.0,1.0,1.0,1.0,,11,49,19,33,7,26,32,43,18,44,47,2,40,13,42,9,28,17,1,39,6,41,38,37,22,10,14,0,5,15,35,46,30,3,21,25,20,16,34,31,27,23,12,36,48,45,29,24,8,4
2.0,0.7,0.5,100,0,0.01,11,RandomEMDetectRandom,20,2447,0.9800000000000001,0.9800000000000001,0.9800000000000001,0.9800000000000001,0.9800000000000001,0.9800000000000001,0.9800000000000001,0.9800000000000001,0.9800000000000001,0.9800000000000001,0.9800000000000001,0.9800000000000001,0.984,0.984,0.976,0.976,0.976,0.976,0.976,0.976,0.976,0.9800000000000001,0.9800000000000001,0.9800000000000001,0.9800000000000001,0.984,0.984,0.984,0.984,0.984,0.9879999999999999,0.9879999999999999,0.9879999999999999,0.9879999999999999,0.9879999999999999,0.9879999999999999,0.992,0.992,0.992,0.992,0.992,0.992,0.992,0.992,0.9960000000000001,0.9960000000000001,1.0,1.0,1.0,1.0,1.0,,3.7497529349219767,3.6650751100300254,3.6320508018409603,3.5335633699052513,3.337833503927046,3.2032337750569524,3.1598706616744687,3.1135145481614352,3.1063185663161166,3.0828099165025136,3.0734979929612884,2.924108032793119,2.864759016161904,2.7605678515799683,2.481897508673923,2.4048084509990195,2.3148445565800437,2.3006000019957233,2.27119388799348,2.21928026335886,2.0023490978450247,1.9367976292556353,1.8159733384143126,1.799828343217674,1.7864555844707002,1.7791757176704919,1.7772777973326395,1.7479313029248267,1.6831189154138162,1.5511840766079565,1.3288764959450114,1.315657021909094,1.3076977573778366,1.2461145204562105,0.9773020433399502,0.8580300262447921,0.8116423007075877,0.7060396206406205,0.6689546353087693,0.6676658208708731,0.6585881640102469,0.6428316113283479,0.4905139892168601,0.437105727711341,0.24567462534405657,0.23586723135132184,0.17408980984113692,0.11624703165331536,0.042137193769318584,0.012754175767317782,0.0,,0.05,0.05,0.05,0.05,0.05,0.05,0.05,0.05,0.05,0.05,0.05,0.05,0.05,0.05,0.05,0.05,0.05,0.05,0.05,0.05,0.05,0.05,0.05,0.05,0.05,0.05,0.05,0.05,0.05,0.05,0.05,0.05,0.05,0.05,0.05,0.05,0.05,0.05,0.05,0.05,0.05,0.05,0.05,0.05,0.05,0.05,0.05,0.05,0.05,0.05,,1.0,1.0,1.0,1.0,1.0,1.0,1.0,1.0,1.0,1.0,1.0,1.0,1.0,1.0,1.0,1.0,1.0,1.0,1.0,1.0,1.0,1.0,1.0,1.0,1.0,1.0,1.0,1.0,1.0,1.0,1.0,1.0,1.0,1.0,1.0,1.0,1.0,1.0,1.0,1.0,1.0,1.0,1.0,1.0,1.0,1.0,1.0,1.0,1.0,1.0,,-1,-1,-1,-1,-1,-1,-1,-1,-1,-1,-1,-1,-1,-1,-1,-1,-1,-1,-1,-1,-1,-1,-1,-1,-1,-1,-1,-1,-1,-1,-1,-1,-1,-1,-1,-1,-1,-1,-1,-1,-1,-1,-1,-1,-1,-1,-1,-1,-1,-1
2.0,0.7,0.5,100,0,0.01,11,IGEMRandomSequence,20,101053,0.98,0.98,0.98,0.98,1.0,1.0,1.0,1.0,1.0,1.0,1.0,1.0,1.0,1.0,1.0,1.0,1.0,1.0,1.0,1.0,1.0,1.0,1.0,1.0,1.0,1.0,1.0,1.0,1.0,1.0,1.0,1.0,1.0,1.0,1.0,1.0,1.0,1.0,1.0,1.0,1.0,1.0,1.0,1.0,1.0,1.0,1.0,1.0,1.0,1.0,1.0,,3.7497529349219767,3.160740674553196,2.4341537862887153,1.7897471051332599,1.4838838450151186,1.2198764747004218,0.952997631699213,0.7630920892597911,0.5923474018440843,0.4405201635215776,0.3212213783143508,0.26083948771599036,0.21449708698753558,0.1754994810862419,0.1379515663533031,0.11521165158341866,0.09623142103803792,0.0792613211933674,0.06684927788855136,0.05503601088753506,0.04614257157553407,0.03795983661464691,0.03246669578543583,0.02763902997394283,0.02346790752235111,0.02001673169289171,0.016565555863432307,0.013832082442940596,0.011343504974500753,0.009186722239249418,0.007541185629512937,0.005982744551358738,0.005148069037580874,0.00431339352380301,0.0036701253640945316,0.003026857204386053,0.0023835890446775748,0.0018384159170716087,0.0012932427894656417,8.48178345322255E-4,6.117829796353627E-4,3.753876139484703E-4,2.5025840929898024E-4,1.2512920464949012E-4,0.0,0.0,0.0,0.0,0.0,0.0,0.0,,0.05,0.05,0.05,0.05,0.05,0.05,0.05,0.05,0.05,0.05,0.05,0.05,0.05,0.05,0.05,0.05,0.05,0.05,0.05,0.05,0.05,0.05,0.05,0.05,0.05,0.05,0.05,0.05,0.05,0.05,0.05,0.05,0.05,0.05,0.05,0.05,0.05,0.05,0.05,0.05,0.05,0.05,0.05,0.05,0.05,0.05,0.05,0.05,0.05,0.05,,1.0,1.0,1.0,1.0,1.0,1.0,1.0,1.0,1.0,1.0,1.0,1.0,1.0,1.0,1.0,1.0,1.0,1.0,1.0,1.0,1.0,1.0,1.0,1.0,1.0,1.0,1.0,1.0,1.0,1.0,1.0,1.0,1.0,1.0,1.0,1.0,1.0,1.0,1.0,1.0,1.0,1.0,1.0,1.0,1.0,1.0,1.0,1.0,1.0,1.0,,44,35,2,20,7,40,9,29,14,45,34,1,36,10,16,24,17,3,33,11,38,18,21,42,31,4,6,48,32,39,30,47,49,15,12,8,5,0,23,25,22,41,37,46,43,28,27,26,19,13
2.0,0.7,0.5,100,0,0.01,12,RandomEMDetectRandom,20,2167,0.9800000000000001,0.9800000000000001,0.9800000000000001,0.9800000000000001,0.9800000000000001,0.9800000000000001,0.984,0.984,0.984,0.984,0.984,0.984,0.984,0.984,0.984,0.984,0.984,0.984,0.984,0.984,0.984,0.984,0.984,0.984,0.984,0.984,0.984,0.984,0.984,0.984,0.984,0.984,0.9879999999999999,0.9879999999999999,0.9879999999999999,0.9879999999999999,0.992,0.992,0.992,0.992,0.992,0.992,0.992,0.992,0.992,0.992,0.992,0.9960000000000001,0.9960000000000001,0.9960000000000001,1.0,,4.2134935508110924,4.207274581197098,4.024768589077318,3.833761009573191,3.6040173894567715,3.595483089649247,3.379526477857051,3.171502365394471,2.878736585267388,2.805541687603791,2.7348903442429497,2.5361745533735403,2.493659483729524,2.4669973095264313,2.452535610652557,2.400757535964819,2.1537200592768264,2.149756429743597,2.128704966937026,1.950521665123637,1.9432289912412066,1.7432092734396218,1.6715191626903845,1.6044644837671502,1.4978817856726958,1.3674629503183398,1.3051740173356752,1.280511912341615,1.2488681146276588,1.2341373739902273,1.2289331413316673,1.1690380366467938,1.0545863838326117,1.0310407673687465,0.9824040845775814,0.9818813625606371,0.8895419766841123,0.8159086055651616,0.8118304570072279,0.6340230500170484,0.627715210029809,0.5609595108104705,0.5412548056778803,0.5224125937617136,0.4802751936458738,0.3749948659239648,0.3318585574055062,0.2620312155533772,0.23691705829731494,0.23017491570448403,0.0,,0.05,0.05,0.05,0.05,0.05,0.05,0.05,0.05,0.05,0.05,0.05,0.05,0.05,0.05,0.05,0.05,0.05,0.05,0.05,0.05,0.05,0.05,0.05,0.05,0.05,0.05,0.05,0.05,0.05,0.05,0.05,0.05,0.05,0.05,0.05,0.05,0.05,0.05,0.05,0.05,0.05,0.05,0.05,0.05,0.05,0.05,0.05105263157894736,0.05105263157894736,0.05263157894736842,0.05263157894736842,,1.0,1.0,1.0,1.0,1.0,1.0,1.0,1.0,1.0,1.0,1.0,1.0,1.0,1.0,1.0,1.0,1.0,1.0,1.0,1.0,1.0,1.0,1.0,1.0,1.0,1.0,1.0,1.0,1.0,1.0,1.0,1.0,1.0,1.0,1.0,1.0,1.0,1.0,1.0,1.0,1.0,1.0,1.0,1.0,1.0,1.0,1.0,1.0,1.0,1.0,,-1,-1,-1,-1,-1,-1,-1,-1,-1,-1,-1,-1,-1,-1,-1,-1,-1,-1,-1,-1,-1,-1,-1,-1,-1,-1,-1,-1,-1,-1,-1,-1,-1,-1,-1,-1,-1,-1,-1,-1,-1,-1,-1,-1,-1,-1,-1,-1,-1,-1
2.0,0.7,0.5,100,0,0.01,12,IGEMRandomSequence,20,105671,0.98,0.98,0.98,1.0,1.0,1.0,1.0,1.0,1.0,1.0,1.0,1.0,1.0,1.0,1.0,1.0,1.0,1.0,1.0,1.0,1.0,1.0,1.0,1.0,1.0,1.0,1.0,1.0,1.0,1.0,1.0,1.0,1.0,1.0,1.0,1.0,1.0,1.0,1.0,1.0,1.0,1.0,1.0,1.0,1.0,1.0,1.0,1.0,1.0,1.0,1.0,,4.2134935508110924,3.3193698695710045,2.8074567999034317,2.7142851574193,1.9692369975068225,1.5698947036758963,1.2029073856700587,1.0426073616152929,0.8997621030257129,0.7530654496124292,0.6178511313230173,0.5119284796274316,0.41455520291793396,0.3272596654134522,0.2535167972934136,0.18680081208268004,0.14163601322017802,0.1139395480865011,0.09303142285917647,0.07798148312889425,0.06467478984131879,0.05250050758274948,0.040476604148443084,0.03173100420724631,0.026680035701608193,0.021629067195970075,0.017943547952712212,0.014808457118641049,0.012402235400564048,0.01016189501055896,0.008173552426380749,0.006702832387363106,0.005590185116445993,0.00456915607941506,0.003829467457358171,0.003089778835301281,0.002350090213244391,0.0019050257691010045,0.0014599613249576177,0.0012235659592707254,9.87170593583833E-4,7.507752278969408E-4,6.256460232474506E-4,5.005168185979605E-4,3.753876139484703E-4,2.5025840929898024E-4,1.2512920464949012E-4,0.0,0.0,0.0,0.0,,0.05,0.05,0.05,0.05,0.05,0.05,0.05,0.05,0.05,0.05,0.05,0.05,0.05,0.05,0.05,0.05,0.05,0.05,0.05,0.05,0.05,0.05,0.05,0.05,0.05,0.05,0.05,0.05,0.05,0.05,0.05,0.05,0.05,0.05,0.05,0.05,0.05,0.05,0.05,0.05,0.05,0.05,0.05,0.05,0.05,0.05,0.05,0.05263157894736842,0.05263157894736842,0.05263157894736842,,1.0,1.0,1.0,1.0,1.0,1.0,1.0,1.0,1.0,1.0,1.0,1.0,1.0,1.0,1.0,1.0,1.0,1.0,1.0,1.0,1.0,1.0,1.0,1.0,1.0,1.0,1.0,1.0,1.0,1.0,1.0,1.0,1.0,1.0,1.0,1.0,1.0,1.0,1.0,1.0,1.0,1.0,1.0,1.0,1.0,1.0,1.0,1.0,1.0,1.0,,19,36,46,9,37,3,45,40,23,42,31,8,39,6,28,4,18,10,32,34,29,17,16,44,43,24,5,26,15,38,2,35,49,41,20,25,30,48,14,11,22,0,21,13,33,7,12,47,27,1
2.0,0.7,0.5,100,0,0.01,13,RandomEMDetectRandom,20,3151,0.9200000000000002,0.924,0.924,0.924,0.9279999999999999,0.932,0.9359999999999999,0.9359999999999999,0.9400000000000001,0.9400000000000001,0.9400000000000001,0.9400000000000001,0.9400000000000001,0.9400000000000001,0.9400000000000001,0.9400000000000001,0.9480000000000001,0.9480000000000001,0.9559999999999998,0.9559999999999998,0.9559999999999998,0.9559999999999998,0.9559999999999998,0.9559999999999998,0.9640000000000001,0.968,0.968,0.9719999999999999,0.9800000000000001,0.976,0.976,0.9800000000000001,0.9800000000000001,0.9800000000000001,0.9800000000000001,0.9800000000000001,0.9800000000000001,0.9800000000000001,0.9800000000000001,0.9800000000000001,0.9800000000000001,0.9800000000000001,0.9800000000000001,0.9800000000000001,0.9800000000000001,0.9800000000000001,0.984,0.9960000000000001,0.9960000000000001,0.9960000000000001,1.0,,3.499449834696962,3.4218309152195814,3.3590668973178657,3.349720285133356,3.274826390851183,3.4531954224989994,3.436666449510723,3.4266829062090034,3.402798248724762,3.34527450120887,3.2730142863889213,3.2496628608824394,3.2132879604999665,3.19196954911193,3.175571008579662,3.0538626200175174,3.128633338574561,3.1078566564636128,3.0550160747088566,3.0370149737551353,2.834733036122339,2.8146188968979344,2.693752635770917,2.6492484376202423,2.7006875510731208,2.7326923937623047,2.728844372222034,2.350995741935958,2.2662008629051322,2.116712753242713,1.8365113152292836,1.8435395931415872,1.8034652804195865,1.7181197918335562,1.7131287179816819,1.476719029525606,1.2596770506008172,1.1294406080359445,1.0379462689170431,1.0157111260257385,1.0036034510269656,1.0011024505855766,0.9914192622057378,0.9709769619555881,0.8323712383090193,0.7980263437537045,0.5775377129732163,0.2908515396809746,0.2650456379642698,0.2001347318141203,0.0,,0.05,0.05,0.05,0.05,0.05,0.05,0.05,0.05,0.05,0.05,0.05,0.05,0.05,0.05,0.05,0.05,0.05,0.05,0.05,0.05,0.05,0.05,0.05,0.05,0.05,0.05,0.05,0.05,0.05,0.05,0.05,0.05,0.05,0.05,0.05,0.05,0.05,0.05,0.05,0.05,0.05,0.05,0.05,0.05,0.05,0.05,0.05,0.05,0.05,0.05,,1.0,1.0,1.0,1.0,1.0,1.0,1.0,1.0,1.0,1.0,1.0,1.0,1.0,1.0,1.0,1.0,1.0,1.0,1.0,1.0,1.0,1.0,1.0,1.0,1.0,1.0,1.0,1.0,1.0,1.0,1.0,1.0,1.0,1.0,1.0,1.0,1.0,1.0,1.0,1.0,1.0,1.0,1.0,1.0,1.0,1.0,1.0,1.0,1.0,1.0,,-1,-1,-1,-1,-1,-1,-1,-1,-1,-1,-1,-1,-1,-1,-1,-1,-1,-1,-1,-1,-1,-1,-1,-1,-1,-1,-1,-1,-1,-1,-1,-1,-1,-1,-1,-1,-1,-1,-1,-1,-1,-1,-1,-1,-1,-1,-1,-1,-1,-1
2.0,0.7,0.5,100,0,0.01,13,IGEMRandomSequence,20,114316,0.92,0.92,0.94,0.96,0.96,0.96,0.96,0.98,0.98,0.98,0.98,0.98,0.98,0.98,0.98,1.0,1.0,1.0,1.0,1.0,1.0,1.0,1.0,1.0,1.0,1.0,1.0,1.0,1.0,1.0,1.0,1.0,1.0,1.0,1.0,1.0,1.0,1.0,1.0,1.0,1.0,1.0,1.0,1.0,1.0,1.0,1.0,1.0,1.0,1.0,1.0,,3.499449834696962,3.017023738923268,2.7711686451608437,2.467330997338761,1.818243175762075,1.2411134372306836,0.9008947395262349,1.0046977162344197,0.797183286367542,0.6604433536530078,0.5683286665357318,0.4859236550204342,0.40443337110599986,0.33327217099964207,0.26691439412705964,0.26348514056651173,0.21538809529981362,0.1674842942031156,0.13784667466246314,0.11661420233219727,0.09575658753830607,0.08138675179484657,0.06757627072518754,0.05651928717405604,0.04731677115857123,0.03869811234335156,0.0330580493931604,0.02775953392762571,0.022560535697805823,0.0183363142356576,0.015280939962488985,0.012225565689320376,0.009411142883535905,0.0077656062737994245,0.0062948862347817795,0.0051822389638646665,0.004161209926833734,0.00332653441305587,0.0024918588992780062,0.0017521702772211164,0.0013071058330777297,8.62041388934343E-4,6.256460232474506E-4,5.005168185979605E-4,3.753876139484703E-4,2.5025840929898024E-4,1.2512920464949012E-4,0.0,0.0,0.0,0.0,,0.05,0.05,0.05,0.05,0.05,0.05,0.05,0.05,0.05,0.05,0.05,0.05,0.05,0.05,0.05,0.05,0.05,0.05,0.05,0.05,0.05,0.05,0.05,0.05,0.05,0.05,0.05,0.05,0.05,0.05,0.05,0.05,0.05,0.05,0.05,0.05,0.05,0.05,0.05,0.05,0.05,0.05,0.05,0.05,0.05,0.05,0.05,0.05,0.05,0.05,,1.0,1.0,1.0,1.0,1.0,1.0,1.0,1.0,1.0,1.0,1.0,1.0,1.0,1.0,1.0,1.0,1.0,1.0,1.0,1.0,1.0,1.0,1.0,1.0,1.0,1.0,1.0,1.0,1.0,1.0,1.0,1.0,1.0,1.0,1.0,1.0,1.0,1.0,1.0,1.0,1.0,1.0,1.0,1.0,1.0,1.0,1.0,1.0,1.0,1.0,,14,44,48,7,36,22,11,37,38,15,10,27,32,21,30,12,39,42,17,28,8,35,31,9,45,1,23,19,47,6,4,2,40,43,26,46,33,29,49,0,25,16,41,24,13,20,3,34,18,5
2.0,0.7,0.5,100,0,0.01,14,RandomEMDetectRandom,20,4183,0.96,0.96,0.96,0.96,0.96,0.96,0.96,0.96,0.96,0.96,0.96,0.9640000000000001,0.9640000000000001,0.9719999999999999,0.9719999999999999,0.968,0.968,0.9719999999999999,0.9719999999999999,0.9719999999999999,0.9719999999999999,0.9719999999999999,0.9719999999999999,0.9719999999999999,0.9719999999999999,0.9719999999999999,0.9719999999999999,0.9719999999999999,0.9719999999999999,0.9719999999999999,0.9719999999999999,0.9719999999999999,0.9719999999999999,0.9719999999999999,0.976,0.976,0.976,0.976,0.976,0.9800000000000001,0.9800000000000001,0.984,0.984,0.984,0.984,0.984,0.992,0.992,0.992,0.9960000000000001,1.0,,5.276634697187633,5.175960756781132,5.134416440849543,5.109153494171129,5.06326712696179,5.0145752952752956,4.902264174699421,4.813929958064925,4.798250717308514,4.754991523202333,4.7330623234540115,4.496841023146668,4.342626175289869,4.209297630947246,4.206899028143373,4.036562402300182,3.871502744022994,3.6143824969418317,3.5559812548139194,3.432326308171855,3.339987572119586,3.221293813338786,3.110762486670957,3.0028355946101715,2.9784152154749557,2.8358704946796536,2.826657230723663,2.6902822107690683,2.563390152094216,2.413159934585665,2.383473920142972,2.3134251049391494,2.2109598933656374,2.1944360708566597,1.9907736405436538,1.9823264035188395,1.847600807121038,1.7035709374576897,1.561972309387593,1.376005018204616,1.3256376561719427,1.1616250174152585,1.148538701464357,1.1074966782452973,0.9318073774548346,0.9305833469246924,0.5836917308099394,0.5578569159926241,0.4772661261076222,0.28007839416629127,0.0,,0.05,0.05,0.05,0.05,0.05,0.05,0.05,0.05,0.05,0.05,0.05,0.05,0.05,0.05,0.05,0.05,0.05,0.05,0.05,0.05,0.05,0.05,0.05,0.05,0.05,0.05,0.05,0.05,0.05,0.05,0.05,0.05,0.05,0.05,0.05,0.05,0.05,0.05,0.05,0.05,0.05,0.05,0.05,0.05,0.05052631578947368,0.05052631578947368,0.05105263157894736,0.05210526315789473,0.05263157894736842,0.05263157894736842,,1.0,1.0,1.0,1.0,1.0,1.0,1.0,1.0,1.0,1.0,1.0,1.0,1.0,1.0,1.0,1.0,1.0,1.0,1.0,1.0,1.0,1.0,1.0,1.0,1.0,1.0,1.0,1.0,1.0,1.0,1.0,1.0,1.0,1.0,1.0,1.0,1.0,1.0,1.0,1.0,1.0,1.0,1.0,1.0,1.0,1.0,1.0,1.0,1.0,1.0,,-1,-1,-1,-1,-1,-1,-1,-1,-1,-1,-1,-1,-1,-1,-1,-1,-1,-1,-1,-1,-1,-1,-1,-1,-1,-1,-1,-1,-1,-1,-1,-1,-1,-1,-1,-1,-1,-1,-1,-1,-1,-1,-1,-1,-1,-1,-1,-1,-1,-1
2.0,0.7,0.5,100,0,0.01,14,IGEMRandomSequence,20,120115,0.96,0.98,0.98,0.98,1.0,1.0,1.0,1.0,1.0,1.0,1.0,1.0,1.0,1.0,1.0,1.0,1.0,1.0,1.0,1.0,1.0,1.0,1.0,1.0,1.0,1.0,1.0,1.0,1.0,1.0,1.0,1.0,1.0,1.0,1.0,1.0,1.0,1.0,1.0,1.0,1.0,1.0,1.0,1.0,1.0,1.0,1.0,1.0,1.0,1.0,1.0,,5.276634697187633,4.992449981159699,4.39791744895253,3.4926778807955876,2.7058522118873527,2.107994870513068,1.6975733955747525,1.273161282470774,0.9136648177324257,0.6599058268548142,0.45942679828924693,0.3778650027088517,0.3163206250076406,0.2689883218837101,0.22982170700284052,0.19205939793691099,0.16452712018109925,0.13826307782108874,0.11242310032257857,0.08814532288627971,0.07181507650165013,0.055474348844912945,0.04293467871697902,0.03420554836634874,0.025672769252756307,0.019311224554020262,0.015087003091872041,0.01187248155010433,0.010140438083803131,0.00849490147406665,0.00729154641653279,0.006178899145615676,0.005066251874698563,0.004045222837667631,0.003305534215610741,0.0026622660559022624,0.0021170929282962954,0.0016720284841529093,0.001329599538868371,9.87170593583833E-4,7.507752278969408E-4,6.256460232474506E-4,5.005168185979605E-4,3.753876139484703E-4,2.5025840929898024E-4,1.2512920464949012E-4,0.0,0.0,0.0,0.0,0.0,,0.05,0.05,0.05,0.05,0.05,0.05,0.05,0.05,0.05,0.05,0.05,0.05,0.05,0.05,0.05,0.05,0.05,0.05,0.05,0.05,0.05,0.05,0.05,0.05,0.05,0.05,0.05,0.05,0.05,0.05,0.05,0.05,0.05,0.05,0.05,0.05,0.05,0.05,0.05,0.05,0.05,0.05,0.05,0.05,0.05,0.05,0.05,0.05,0.05263157894736842,0.05263157894736842,,1.0,1.0,1.0,1.0,1.0,1.0,1.0,1.0,1.0,1.0,1.0,1.0,1.0,1.0,1.0,1.0,1.0,1.0,1.0,1.0,1.0,1.0,1.0,1.0,1.0,1.0,1.0,1.0,1.0,1.0,1.0,1.0,1.0,1.0,1.0,1.0,1.0,1.0,1.0,1.0,1.0,1.0,1.0,1.0,1.0,1.0,1.0,1.0,1.0,1.0,,15,44,13,45,37,17,25,42,1,36,16,41,10,47,30,3,4,32,33,20,22,19,6,23,29,27,43,38,5,48,24,40,34,39,35,2,8,26,12,0,11,7,31,28,9,49,46,21,18,14
2.0,0.7,0.5,100,0,0.01,15,RandomEMDetectRandom,20,3023,0.96,0.9640000000000001,0.9640000000000001,0.9640000000000001,0.9640000000000001,0.968,0.968,0.968,0.968,0.968,0.9719999999999999,0.9719999999999999,0.976,0.976,0.976,0.976,0.976,0.976,0.976,0.984,0.984,0.984,0.984,0.984,0.984,0.984,0.984,0.984,0.984,0.992,0.992,0.992,0.992,0.992,0.992,0.992,0.992,0.992,0.992,0.992,0.992,0.9960000000000001,0.9960000000000001,0.9960000000000001,0.9960000000000001,0.9960000000000001,0.9960000000000001,1.0,1.0,1.0,1.0,,4.2347778031559535,4.082402747989152,3.9984814180644648,3.946148412361933,3.9013628325017096,3.6685358135814328,3.520645126709975,3.466960665726165,3.4376057264999886,3.2907824427520658,3.0529548558024273,2.982745712109368,2.8114228510247328,2.671420228208068,2.67088749326069,2.469282128367639,2.431084224133378,2.4219631720143235,2.392155818076834,2.210581810086436,2.0489155742411644,1.9615232423804259,1.6560052837789467,1.5779747191678033,1.5636626562319484,1.537554431278978,1.4861873500806173,1.3514093520434245,1.3264340322172385,1.363463342108813,1.2780694903566014,1.2747319728026567,1.1491160911384937,0.8592835211682125,0.8347206289999847,0.7633118517939901,0.7468567250942356,0.6418069305368179,0.5496498299066732,0.503240799273554,0.34530285662297333,0.33456661049150144,0.3140575418519763,0.26786970841224605,0.24985809483731752,0.19820583865874752,0.19593126470286978,0.1762135157418823,0.1271433272615782,0.013355510066553397,0.0,,0.0,0.0,0.0,0.0,0.0,0.0,0.0,0.0,0.0,0.0,0.0,0.0,0.0,0.0,0.0,0.0,0.0,0.0,0.0,0.0,0.0,0.0,0.0,0.0,0.0,0.0,0.0,0.0,0.0,0.0,0.0,0.0,0.0,0.0,0.0,0.0,0.0,0.0,0.0,0.0,0.0,0.0,0.0,0.0,0.0,0.0,0.0,0.0,0.0,0.0,,NaN,NaN,NaN,NaN,NaN,NaN,NaN,NaN,NaN,NaN,NaN,NaN,NaN,NaN,NaN,NaN,NaN,NaN,NaN,NaN,NaN,NaN,NaN,NaN,NaN,NaN,NaN,NaN,NaN,NaN,NaN,NaN,NaN,NaN,NaN,NaN,NaN,NaN,NaN,NaN,NaN,NaN,NaN,NaN,NaN,NaN,NaN,NaN,NaN,NaN,,-1,-1,-1,-1,-1,-1,-1,-1,-1,-1,-1,-1,-1,-1,-1,-1,-1,-1,-1,-1,-1,-1,-1,-1,-1,-1,-1,-1,-1,-1,-1,-1,-1,-1,-1,-1,-1,-1,-1,-1,-1,-1,-1,-1,-1,-1,-1,-1,-1,-1
2.0,0.7,0.5,100,0,0.01,15,IGEMRandomSequence,20,109327,0.96,0.98,0.98,0.98,0.98,0.98,0.98,0.98,0.98,0.98,0.98,0.98,0.98,0.98,0.98,0.98,1.0,1.0,1.0,1.0,1.0,1.0,1.0,1.0,1.0,1.0,1.0,1.0,1.0,1.0,1.0,1.0,1.0,1.0,1.0,1.0,1.0,1.0,1.0,1.0,1.0,1.0,1.0,1.0,1.0,1.0,1.0,1.0,1.0,1.0,1.0,,4.2347778031559535,3.3721286598581006,2.576959117059793,2.1144479642652887,1.6345976203559565,1.3116266273114827,1.1186113728169877,0.9836077365458292,0.8631799251085621,0.7582688131361183,0.6550809099555007,0.5576697524019701,0.4741338624072687,0.39790406257594063,0.3248857162457344,0.2677259021468387,0.23339588344193105,0.18097840131248866,0.13194739835786728,0.10152929361279966,0.08505231298446127,0.0687151269791801,0.05874971002301977,0.05022478472378782,0.04183327237763177,0.03504465399691073,0.028611618815238868,0.022321692908157224,0.018327028052882284,0.01464150880962442,0.011906177502128646,0.009665837112123555,0.0075930470513437985,0.005947510441607316,0.004389069363453117,0.0030958409198432145,0.002261165406065351,0.0017159922784593846,0.0011708191508534177,6.256460232474506E-4,5.005168185979605E-4,3.753876139484703E-4,2.5025840929898024E-4,1.2512920464949012E-4,0.0,0.0,0.0,0.0,0.0,0.0,0.0,,0.0,0.0,0.0,0.0,0.0,0.0,0.0,0.0,0.0,0.0,0.0,0.0,0.0,0.0,0.0,0.0,0.0,0.0,0.0,0.0,0.0,0.0,0.0,0.0,0.0,0.0,0.0,0.0,0.0,0.0,0.0,0.0,0.0,0.0,0.0,0.0,0.0,0.0,0.0,0.0,0.0,0.0,0.0,0.0,0.0,0.0,0.0,0.0,0.0,0.0,,1.0,1.0,1.0,1.0,1.0,1.0,1.0,1.0,1.0,1.0,1.0,1.0,1.0,1.0,1.0,1.0,1.0,1.0,1.0,1.0,1.0,1.0,1.0,1.0,1.0,1.0,1.0,1.0,1.0,1.0,1.0,1.0,1.0,1.0,1.0,1.0,1.0,1.0,1.0,1.0,1.0,1.0,1.0,1.0,1.0,1.0,1.0,1.0,1.0,1.0,,18,16,40,35,48,26,17,32,0,37,8,9,43,20,39,19,31,29,47,34,36,33,4,15,23,10,42,7,24,3,21,5,41,46,12,2,22,28,27,6,44,30,14,49,45,38,25,13,11,1
2.0,0.7,0.5,100,0,0.01,16,RandomEMDetectRandom,20,2610,0.9800000000000001,0.9800000000000001,0.9800000000000001,0.9800000000000001,0.9800000000000001,0.9800000000000001,0.9800000000000001,0.9800000000000001,0.9800000000000001,0.9800000000000001,0.9800000000000001,0.9800000000000001,0.9800000000000001,0.9800000000000001,0.9800000000000001,0.9800000000000001,0.9800000000000001,0.9800000000000001,0.984,0.984,0.984,0.984,0.984,0.984,0.984,0.984,0.9879999999999999,0.9879999999999999,0.9879999999999999,0.992,0.992,0.992,0.992,0.992,0.992,0.992,0.992,0.992,0.992,0.992,0.9960000000000001,0.9960000000000001,0.9960000000000001,0.9960000000000001,0.9960000000000001,0.9960000000000001,0.9960000000000001,0.9960000000000001,1.0,1.0,1.0,,4.204556494283085,4.113139998660138,4.001677887526865,3.9840803681518144,3.9715531831133655,3.860035799131822,3.74183885910884,3.734731345505162,3.631962331889106,3.5964852416178523,3.593073949716616,3.52876292478462,3.450488274953345,3.374300691549869,3.2047157929585035,3.1166000660770914,3.0752671074478606,2.913895364216662,2.882390836788898,2.7838716104419388,2.7660757881271074,2.6006747572738793,2.5038305912870547,2.4776069585240537,2.3771140855687953,2.267606004535709,2.178684833834129,2.15754646815544,1.965499601813665,1.8499120754280827,1.6843776258866434,1.6708051143094926,1.5742387806735971,1.4500650465260498,1.4349697726951263,1.3543578239915761,1.3516607003463494,1.2953782156938969,1.273139621265291,1.176484831327295,0.9759660733185157,0.9504036860575974,0.9309223464084628,0.9179526236555674,0.7681058736822297,0.6561807983811939,0.6081492598311957,0.4251203714900312,0.3215206640724496,0.20832187240075797,0.0,,0.0,0.0,0.0,0.0,0.0,0.0,0.0,0.0,0.0,0.0,0.0,0.0,0.0,0.0,0.0,0.0,0.0,0.0,0.0,0.0,0.0,0.0,0.0,0.0,0.0,0.0,0.0,0.0,0.0,0.0,0.0,0.0,0.0,0.0,0.0,0.0,0.0,0.0,0.0,0.0,0.0,0.0,0.0,0.0,0.0,0.0,0.0,0.0,0.0,0.0,,NaN,NaN,NaN,NaN,NaN,NaN,NaN,NaN,NaN,NaN,NaN,NaN,NaN,NaN,NaN,NaN,NaN,NaN,NaN,NaN,NaN,NaN,NaN,NaN,NaN,NaN,NaN,NaN,NaN,NaN,NaN,NaN,NaN,NaN,NaN,NaN,NaN,NaN,NaN,NaN,NaN,NaN,NaN,NaN,NaN,NaN,NaN,NaN,NaN,NaN,,-1,-1,-1,-1,-1,-1,-1,-1,-1,-1,-1,-1,-1,-1,-1,-1,-1,-1,-1,-1,-1,-1,-1,-1,-1,-1,-1,-1,-1,-1,-1,-1,-1,-1,-1,-1,-1,-1,-1,-1,-1,-1,-1,-1,-1,-1,-1,-1,-1,-1
2.0,0.7,0.5,100,0,0.01,16,IGEMRandomSequence,20,102757,0.98,0.98,0.98,0.98,0.98,0.98,0.98,0.98,0.98,0.98,1.0,1.0,1.0,1.0,1.0,1.0,1.0,1.0,1.0,1.0,1.0,1.0,1.0,1.0,1.0,1.0,1.0,1.0,1.0,1.0,1.0,1.0,1.0,1.0,1.0,1.0,1.0,1.0,1.0,1.0,1.0,1.0,1.0,1.0,1.0,1.0,1.0,1.0,1.0,1.0,1.0,,4.204556494283085,3.693046438405697,3.1908031871669653,2.6979951752218505,2.2416637216348563,1.7781992019155723,1.4688677428867591,1.2322653196618356,0.9933896222311905,0.7666468044575541,0.6649505251971699,0.45658847041909995,0.3789072945474282,0.3237444056130987,0.2779186709028444,0.24161125325571092,0.20751209536652213,0.17666814945772727,0.14581082922576752,0.12034118146890158,0.10426699296123629,0.09055901056540078,0.07865705029898498,0.06805534220101522,0.05771989943278469,0.04940000587828301,0.04114794989745133,0.033448352447764444,0.02824541864766203,0.02448203099294616,0.020874380161146303,0.017266729329346444,0.014452306523561973,0.011881743859878597,0.009724961124627262,0.007652171063847506,0.006093729985693307,0.0047113982472009475,0.0033290665087085886,0.0022164192377914747,0.0012880102080258852,8.429457638824986E-4,5.005168185979605E-4,3.753876139484703E-4,2.5025840929898024E-4,1.2512920464949012E-4,0.0,0.0,0.0,0.0,0.0,,0.0,0.0,0.0,0.0,0.0,0.0,0.0,0.0,0.0,0.0,0.0,0.0,0.0,0.0,0.0,0.0,0.0,0.0,0.0,0.0,0.0,0.0,0.0,0.0,0.0,0.0,0.0,0.0,0.0,0.0,0.0,0.0,0.0,0.0,0.0,0.0,0.0,0.0,0.0,0.0,0.0,0.0,0.0,0.0,0.0,0.0,0.0,0.0,0.0,0.0,,1.0,1.0,1.0,1.0,1.0,1.0,1.0,1.0,1.0,1.0,1.0,1.0,1.0,1.0,1.0,1.0,1.0,1.0,1.0,1.0,1.0,1.0,1.0,1.0,1.0,1.0,1.0,1.0,1.0,1.0,1.0,1.0,1.0,1.0,1.0,1.0,1.0,1.0,1.0,1.0,1.0,1.0,1.0,1.0,1.0,1.0,1.0,1.0,1.0,1.0,,21,41,25,37,18,47,5,27,49,10,17,48,26,7,14,19,44,1,23,20,15,8,42,38,13,39,24,4,34,35,45,36,30,11,22,2,46,12,6,33,0,29,31,9,43,16,40,32,28,3
2.0,0.7,0.5,100,0,0.01,17,RandomEMDetectRandom,20,2466,0.9800000000000001,0.9800000000000001,0.984,0.984,0.984,0.984,0.984,0.984,0.984,0.984,0.984,0.984,0.984,0.984,0.984,0.984,0.984,0.984,0.984,0.984,0.984,0.984,0.984,0.984,0.984,0.984,0.984,0.984,0.984,0.984,0.984,0.9879999999999999,0.9879999999999999,0.9879999999999999,0.9879999999999999,0.9879999999999999,0.9879999999999999,0.992,0.992,0.992,0.992,0.992,0.9960000000000001,0.9960000000000001,0.9960000000000001,0.9960000000000001,0.9960000000000001,0.9960000000000001,0.9960000000000001,0.9960000000000001,1.0,,3.513455060446725,3.3947594184264864,3.2951961619501313,3.2576412805103017,3.1980196669467245,3.148448496462141,3.028374816718066,3.0002403499510804,2.9906949608381113,2.899175930225933,2.8932648989218963,2.7851238762295916,2.7148948355022613,2.7087129976479085,2.688152210160731,2.6804266860759887,2.622926911365842,2.298775033242474,2.1832897294583566,2.1559839726163212,2.1113431158588716,1.8180327335718487,1.7628559821458345,1.67888525395133,1.6687142025141788,1.5678859533723388,1.5478054854668672,1.5414613573758458,1.4961264619971002,1.495724352544506,1.4693108712534868,1.3475065689746955,1.1996763907218209,1.0198893618866962,1.0132392886937114,1.0107613029462441,0.9766155441394417,0.8883896209507517,0.886313742457918,0.8715177366345067,0.7233825644721448,0.5945446072814022,0.49340534846627315,0.4901388854040385,0.364816418724959,0.36071355033370545,0.29230405735457193,0.2518821356239357,0.17921584909791494,0.17640962954947978,0.0,,0.15,0.15,0.15,0.15,0.15,0.15,0.15,0.15,0.15,0.15,0.15,0.15,0.15,0.15,0.15,0.15,0.15,0.15,0.15,0.15,0.15,0.15,0.15,0.15,0.15,0.15,0.15,0.15,0.15,0.15,0.15,0.15,0.15,0.15,0.15,0.15,0.15,0.15,0.15,0.15,0.15,0.15,0.15,0.15,0.15157894736842106,0.1531578947368421,0.1549122807017544,0.1549122807017544,0.1631578947368421,0.16666666666666666,,1.0,1.0,1.0,1.0,1.0,1.0,1.0,1.0,1.0,1.0,1.0,1.0,1.0,1.0,1.0,1.0,1.0,1.0,1.0,1.0,1.0,1.0,1.0,1.0,1.0,1.0,1.0,1.0,1.0,1.0,1.0,1.0,1.0,1.0,1.0,1.0,1.0,1.0,1.0,1.0,1.0,1.0,1.0,1.0,1.0,1.0,1.0,1.0,1.0,1.0,,-1,-1,-1,-1,-1,-1,-1,-1,-1,-1,-1,-1,-1,-1,-1,-1,-1,-1,-1,-1,-1,-1,-1,-1,-1,-1,-1,-1,-1,-1,-1,-1,-1,-1,-1,-1,-1,-1,-1,-1,-1,-1,-1,-1,-1,-1,-1,-1,-1,-1
2.0,0.7,0.5,100,0,0.01,17,IGEMRandomSequence,20,98406,0.98,1.0,1.0,1.0,1.0,1.0,1.0,1.0,1.0,1.0,1.0,1.0,1.0,1.0,1.0,1.0,1.0,1.0,1.0,1.0,1.0,1.0,1.0,1.0,1.0,1.0,1.0,1.0,1.0,1.0,1.0,1.0,1.0,1.0,1.0,1.0,1.0,1.0,1.0,1.0,1.0,1.0,1.0,1.0,1.0,1.0,1.0,1.0,1.0,1.0,1.0,,3.5134550604467254,3.286959404265922,2.5443349227660943,2.0013163231465465,1.5474210712561995,1.1943889812326602,0.9259086644006517,0.7221845662176458,0.5615549124840713,0.40902567706940784,0.2627247783232004,0.18896964830900392,0.14920945800715535,0.12375707157024365,0.10708594183153988,0.09144668333406553,0.07679043021614104,0.06454937507827464,0.05546558200192262,0.048113711988074494,0.0410357879420507,0.03417641621724044,0.028811026536358135,0.024359087251676754,0.020595937814741765,0.017781515008957294,0.015210952345273917,0.012970611955268828,0.010982269371090616,0.009336732761354133,0.008133377703820274,0.007020730432903161,0.005908083161986048,0.004887054124955116,0.003958645095189526,0.0031239695814116626,0.002384280959354773,0.0017410127996462946,0.0011958396720403274,7.507752278969408E-4,6.256460232474506E-4,5.005168185979605E-4,3.753876139484703E-4,2.5025840929898024E-4,1.2512920464949012E-4,0.0,0.0,0.0,0.0,0.0,0.0,,0.15,0.15,0.15,0.15,0.15,0.15,0.15,0.15,0.15,0.15,0.15,0.15,0.15,0.15,0.15,0.15,0.15,0.15,0.15,0.15,0.15,0.15,0.15,0.15,0.15,0.15,0.15,0.15,0.15,0.15,0.15,0.15,0.15,0.15,0.15,0.15,0.15,0.15,0.15,0.15,0.15,0.15,0.15,0.15,0.15,0.15,0.15,0.15789473684210525,0.15789473684210525,0.16666666666666666,,1.0,1.0,1.0,1.0,1.0,1.0,1.0,1.0,1.0,1.0,1.0,1.0,1.0,1.0,1.0,1.0,1.0,1.0,1.0,1.0,1.0,1.0,1.0,1.0,1.0,1.0,1.0,1.0,1.0,1.0,1.0,1.0,1.0,1.0,1.0,1.0,1.0,1.0,1.0,1.0,1.0,1.0,1.0,1.0,1.0,1.0,1.0,1.0,1.0,1.0,,38,34,20,11,4,16,13,22,27,37,18,5,7,26,44,41,15,23,8,33,45,24,47,2,46,6,40,36,32,17,12,21,30,49,28,19,48,25,43,39,3,42,31,29,1,35,14,10,9,0
2.0,0.7,0.5,100,0,0.01,18,RandomEMDetectRandom,20,2418,0.96,0.96,0.96,0.96,0.96,0.9559999999999998,0.96,0.96,0.9640000000000001,0.9640000000000001,0.9640000000000001,0.9640000000000001,0.968,0.9640000000000001,0.9640000000000001,0.9640000000000001,0.9640000000000001,0.968,0.968,0.968,0.968,0.968,0.968,0.976,0.976,0.976,0.976,0.976,0.976,0.976,0.976,0.9800000000000001,0.9800000000000001,0.9800000000000001,0.9800000000000001,0.984,0.984,0.984,0.984,0.984,0.984,0.984,0.992,0.992,0.9960000000000001,0.9960000000000001,0.9960000000000001,0.9960000000000001,1.0,1.0,1.0,,4.001993836750987,3.9856258523876527,3.949005590333509,3.923270286702917,3.764026388052044,3.672851650498744,3.4631378828954333,3.4229452287917193,3.3768582437150165,3.2185970263774157,3.0851510956948234,3.0568914027089873,2.9113664148515226,2.8548908289027826,2.82684587661754,2.816650781449961,2.6668116949300185,2.5468871255171317,2.4833917894284014,2.4649874124851627,2.4298484550455206,2.347636415489628,2.280396360393578,2.1259157231474903,2.0864731045889577,2.082924991188198,1.8077106932420197,1.7464983928792222,1.5367994272682899,1.3840120660403776,1.3832257736096971,1.2532423872705816,1.2459724183554877,1.2035683880098673,1.1705996261681701,1.053480674646802,0.9164220946721097,0.9061570700848648,0.8994829433633926,0.8950508421172525,0.8819551384694252,0.7897110907861065,0.5350217481760506,0.5077641301046171,0.44885703222196816,0.40384395629006314,0.337006566310541,0.3172236527433313,0.1387172712630311,0.12483461503014041,0.0,,0.05,0.05,0.05,0.05,0.05,0.05,0.05,0.05,0.05,0.05,0.05,0.05,0.05,0.05,0.05,0.05,0.05,0.05,0.05,0.05,0.05,0.05,0.05,0.05,0.05,0.05,0.05,0.05,0.05,0.05,0.05,0.05,0.05,0.05,0.05,0.05,0.05,0.05,0.05,0.05,0.05,0.05,0.05,0.05,0.05,0.05,0.05,0.05,0.05,0.05,,1.0,1.0,1.0,1.0,1.0,1.0,1.0,1.0,1.0,1.0,1.0,1.0,1.0,1.0,1.0,1.0,1.0,1.0,1.0,1.0,1.0,1.0,1.0,1.0,1.0,1.0,1.0,1.0,1.0,1.0,1.0,1.0,1.0,1.0,1.0,1.0,1.0,1.0,1.0,1.0,1.0,1.0,1.0,1.0,1.0,1.0,1.0,1.0,1.0,1.0,,-1,-1,-1,-1,-1,-1,-1,-1,-1,-1,-1,-1,-1,-1,-1,-1,-1,-1,-1,-1,-1,-1,-1,-1,-1,-1,-1,-1,-1,-1,-1,-1,-1,-1,-1,-1,-1,-1,-1,-1,-1,-1,-1,-1,-1,-1,-1,-1,-1,-1
2.0,0.7,0.5,100,0,0.01,18,IGEMRandomSequence,20,96777,0.96,0.96,0.96,0.98,0.98,0.98,1.0,1.0,1.0,1.0,1.0,1.0,1.0,1.0,1.0,1.0,1.0,1.0,1.0,1.0,1.0,1.0,1.0,1.0,1.0,1.0,1.0,1.0,1.0,1.0,1.0,1.0,1.0,1.0,1.0,1.0,1.0,1.0,1.0,1.0,1.0,1.0,1.0,1.0,1.0,1.0,1.0,1.0,1.0,1.0,1.0,,4.001993836750987,3.16398640282765,2.404347645314759,1.9565873918797614,1.5415478411878483,1.2348026742376212,1.1023840828702116,0.8062624794522134,0.642118260953603,0.5397507317664568,0.44346891284055384,0.3789369407685476,0.3164393871861487,0.2648968258021852,0.220401711391334,0.1865206121918985,0.15519285241493766,0.1354317095694271,0.11862815876005164,0.1024769452230196,0.08862863429772216,0.07639910676207673,0.0646281084329219,0.05324591590360008,0.042176308300048,0.034094001944643744,0.027804076037562103,0.022457693757036025,0.017930238449603807,0.01432258761780395,0.010789783911948046,0.008219221248264671,0.00623087866408646,0.004327460027136701,0.0028567399881190567,0.002022064474341193,0.0014768913467352262,9.317182191292593E-4,4.8665377498587254E-4,2.5025840929898024E-4,1.2512920464949012E-4,0.0,0.0,0.0,0.0,0.0,0.0,0.0,0.0,0.0,0.0,,0.05,0.05,0.05,0.05,0.05,0.05,0.05,0.05,0.05,0.05,0.05,0.05,0.05,0.05,0.05,0.05,0.05,0.05,0.05,0.05,0.05,0.05,0.05,0.05,0.05,0.05,0.05,0.05,0.05,0.05,0.05,0.05,0.05,0.05,0.05,0.05,0.05,0.05,0.05,0.05,0.05,0.05,0.05,0.05,0.05,0.05,0.05,0.05,0.05,0.05,,1.0,1.0,1.0,1.0,1.0,1.0,1.0,1.0,1.0,1.0,1.0,1.0,1.0,1.0,1.0,1.0,1.0,1.0,1.0,1.0,1.0,1.0,1.0,1.0,1.0,1.0,1.0,1.0,1.0,1.0,1.0,1.0,1.0,1.0,1.0,1.0,1.0,1.0,1.0,1.0,1.0,1.0,1.0,1.0,1.0,1.0,1.0,1.0,1.0,1.0,,26,8,47,23,38,6,45,15,29,30,39,34,14,48,40,19,36,18,44,43,42,33,13,24,35,17,31,7,16,5,27,3,49,12,11,4,22,2,37,28,10,46,41,32,25,21,20,9,1,0
2.0,0.7,0.5,100,0,0.01,19,RandomEMDetectRandom,20,2554,0.9200000000000002,0.9200000000000002,0.9200000000000002,0.9200000000000002,0.9200000000000002,0.9200000000000002,0.916,0.916,0.916,0.916,0.916,0.9120000000000001,0.924,0.9280000000000002,0.9280000000000002,0.9400000000000001,0.9400000000000001,0.9400000000000001,0.9400000000000001,0.9400000000000001,0.9480000000000001,0.952,0.952,0.952,0.952,0.96,0.96,0.9640000000000001,0.9640000000000001,0.968,0.9719999999999999,0.9719999999999999,0.976,0.976,0.976,0.9800000000000001,0.984,0.984,0.9879999999999999,0.9879999999999999,0.9879999999999999,0.9879999999999999,0.992,0.9960000000000001,1.0,1.0,1.0,1.0,1.0,1.0,1.0,,3.8554314041969753,3.7861635355836505,3.7784523660358347,3.7742479918171754,3.756041636009912,3.668606270100142,3.4820681244251057,3.4376778354330746,3.4155710801047072,3.3991364574949374,3.387659836851783,3.2249127734544807,3.0834991519365467,2.878846475933572,2.869511376341305,2.8336465598448806,2.831119396396809,2.754935357443441,2.7040908115884243,2.6833119380803034,2.624999126576345,2.3568808628320204,2.2604780585793365,2.2571900016162316,1.9667193891406487,1.667858732925324,1.4445277328753303,1.3608819386289857,1.2720820674376792,1.2501725895485947,1.2207148023148782,1.2118231668370647,1.106765531295172,1.0708887210127631,1.0478125934489648,0.8781392693250141,0.74146350043334,0.734435998211199,0.6029901362109056,0.5704331284443788,0.5638914643653278,0.5495704081624486,0.4280979539102215,0.26543951117187137,0.13088897749689962,0.1001810848987033,0.093656713565027,0.07466104978892563,0.07300025420541197,0.05827634384135856,0.0,,0.1,0.1,0.1,0.1,0.1,0.1,0.1,0.1,0.1,0.1,0.1,0.1,0.1,0.1,0.1,0.1,0.1,0.1,0.1,0.1,0.1,0.1,0.1,0.1,0.1,0.1,0.1,0.1,0.1,0.1,0.1,0.1,0.1,0.1,0.1,0.1,0.1,0.1,0.1,0.1,0.1,0.1,0.1,0.1,0.1,0.1,0.1,0.1,0.1,0.1,,1.0,1.0,1.0,1.0,1.0,1.0,1.0,1.0,1.0,1.0,1.0,1.0,1.0,1.0,1.0,1.0,1.0,1.0,1.0,1.0,1.0,1.0,1.0,1.0,1.0,1.0,1.0,1.0,1.0,1.0,1.0,1.0,1.0,1.0,1.0,1.0,1.0,1.0,1.0,1.0,1.0,1.0,1.0,1.0,1.0,1.0,1.0,1.0,1.0,1.0,,-1,-1,-1,-1,-1,-1,-1,-1,-1,-1,-1,-1,-1,-1,-1,-1,-1,-1,-1,-1,-1,-1,-1,-1,-1,-1,-1,-1,-1,-1,-1,-1,-1,-1,-1,-1,-1,-1,-1,-1,-1,-1,-1,-1,-1,-1,-1,-1,-1,-1
2.0,0.7,0.5,100,0,0.01,19,IGEMRandomSequence,20,102990,0.92,0.9,0.92,0.94,0.96,0.98,0.98,0.98,1.0,1.0,1.0,1.0,1.0,1.0,1.0,1.0,1.0,1.0,1.0,1.0,1.0,1.0,1.0,1.0,1.0,1.0,1.0,1.0,1.0,1.0,1.0,1.0,1.0,1.0,1.0,1.0,1.0,1.0,1.0,1.0,1.0,1.0,1.0,1.0,1.0,1.0,1.0,1.0,1.0,1.0,1.0,,3.8554314041969753,3.192639645824013,2.379565018258599,1.9938209403049036,1.7539489956134193,1.2537953815487017,0.9997745553318793,0.7527603163423265,0.6712360933534454,0.5169403020395444,0.42758546655951774,0.3540764590799485,0.306615813398807,0.2681555973766902,0.2359332882559079,0.20423301129570798,0.17645973357434924,0.14936690812463368,0.12789987155169838,0.10864067713397298,0.09319976525773128,0.08224215020061798,0.07163831572518632,0.061030451598333375,0.05093089926582232,0.04330072603078688,0.036300199499290496,0.02951158111856945,0.023570601206059194,0.018518380335120252,0.014066441050438873,0.010148723976789882,0.00733430117100541,0.005177518435754076,0.004156489398723145,0.003416800776666255,0.002871627649060288,0.0024265632049169017,0.001981498760773515,0.0016390698154889769,0.0012966408702044388,9.542119249199008E-4,6.117829796353627E-4,3.753876139484703E-4,2.5025840929898024E-4,1.2512920464949012E-4,0.0,0.0,0.0,0.0,0.0,,0.1,0.1,0.1,0.1,0.1,0.1,0.1,0.1,0.1,0.1,0.1,0.1,0.1,0.1,0.1,0.1,0.1,0.1,0.1,0.1,0.1,0.1,0.1,0.1,0.1,0.1,0.1,0.1,0.1,0.1,0.1,0.1,0.1,0.1,0.1,0.1,0.1,0.1,0.1,0.1,0.1,0.1,0.1,0.1,0.1,0.1,0.1,0.1,0.1,0.1,,1.0,1.0,1.0,1.0,1.0,1.0,1.0,1.0,1.0,1.0,1.0,1.0,1.0,1.0,1.0,1.0,1.0,1.0,1.0,1.0,1.0,1.0,1.0,1.0,1.0,1.0,1.0,1.0,1.0,1.0,1.0,1.0,1.0,1.0,1.0,1.0,1.0,1.0,1.0,1.0,1.0,1.0,1.0,1.0,1.0,1.0,1.0,1.0,1.0,1.0,,0,27,37,11,48,3,36,15,12,47,33,9,45,38,2,1,25,31,39,40,16,32,6,8,44,43,13,10,29,28,46,42,35,14,19,22,24,26,49,7,21,17,4,5,20,41,34,30,23,18
