10,0.01,0.95,0.7,0.5,20,80,0.6,1.0E-5,0,EMSequence,20,-1,,,,,,,,,,,,,,
11,0.01,0.95,0.7,0.5,20,80,0.6,1.0E-5,0,EMSequence,20,-1,,,,,,,,,,,,,,
12,0.01,0.95,0.7,0.5,20,80,0.6,1.0E-5,0,EMSequence,20,-1,,,,,,,,,,,,,,
13,0.01,0.95,0.7,0.5,20,80,0.6,1.0E-5,0,EMSequence,20,-1,,,,,,,,,,,,,,
14,0.01,0.95,0.7,0.5,20,80,0.6,1.0E-5,0,EMSequence,20,-1,,,,,,,,,,,,,,
15,0.01,0.95,0.7,0.5,20,80,0.6,1.0E-5,0,EMSequence,20,-1,,,,,,,,,,,,,,
16,0.01,0.95,0.7,0.5,20,80,0.6,1.0E-5,0,EMSequence,20,-1,,,,,,,,,,,,,,
17,0.01,0.95,0.7,0.5,20,80,0.6,1.0E-5,0,EMSequence,20,-1,,,,,,,,,,,,,,
18,0.01,0.95,0.7,0.5,20,80,0.6,1.0E-5,0,EMSequence,20,-1,,,,,,,,,,,,,,
19,0.01,0.95,0.7,0.5,20,80,0.6,1.0E-5,0,EMSequence,20,-1,,,,,,,,,,,,,,
20,0.01,0.95,0.7,0.5,20,80,0.6,1.0E-5,0,EMSequence,20,-1,,,,,,,,,,,,,,
21,0.01,0.95,0.7,0.5,20,80,0.6,1.0E-5,0,EMSequence,20,-1,,,,,,,,,,,,,,
22,0.01,0.95,0.7,0.5,20,80,0.6,1.0E-5,0,EMSequence,20,-1,,,,,,,,,,,,,,
23,0.01,0.95,0.7,0.5,20,80,0.6,1.0E-5,0,EMSequence,20,-1,,,,,,,,,,,,,,
24,0.01,0.95,0.7,0.5,20,80,0.6,1.0E-5,0,EMSequence,20,-1,,,,,,,,,,,,,,
25,0.01,0.95,0.7,0.5,20,80,0.6,1.0E-5,0,EMSequence,20,-1,,,,,,,,,,,,,,
26,0.01,0.95,0.7,0.5,20,80,0.6,1.0E-5,0,EMSequence,20,-1,,,,,,,,,,,,,,
27,0.01,0.95,0.7,0.5,20,80,0.6,1.0E-5,0,EMSequence,20,-1,,,,,,,,,,,,,,
28,0.01,0.95,0.7,0.5,20,80,0.6,1.0E-5,0,EMSequence,20,-1,,,,,,,,,,,,,,
29,0.01,0.95,0.7,0.5,20,80,0.6,1.0E-5,0,EMSequence,20,-1,,,,,,,,,,,,,,
30,0.01,0.95,0.7,0.5,20,80,0.6,1.0E-5,0,EMSequence,20,-1,,,,,,,,,,,,,,
31,0.01,0.95,0.7,0.5,20,80,0.6,1.0E-5,0,EMSequence,20,-1,,,,,,,,,,,,,,
32,0.01,0.95,0.7,0.5,20,80,0.6,1.0E-5,0,EMSequence,20,-1,,,,,,,,,,,,,,
33,0.01,0.95,0.7,0.5,20,80,0.6,1.0E-5,0,EMSequence,20,-1,,,,,,,,,,,,,,
34,0.01,0.95,0.7,0.5,20,80,0.6,1.0E-5,0,EMSequence,20,-1,,,,,,,,,,,,,,
35,0.01,0.95,0.7,0.5,20,80,0.6,1.0E-5,0,EMSequence,20,-1,,,,,,,,,,,,,,
36,0.01,0.95,0.7,0.5,20,80,0.6,1.0E-5,0,EMSequence,20,-1,,,,,,,,,,,,,,
37,0.01,0.95,0.7,0.5,20,80,0.6,1.0E-5,0,EMSequence,20,-1,,,,,,,,,,,,,,
38,0.01,0.95,0.7,0.5,20,80,0.6,1.0E-5,0,EMSequence,20,-1,,,,,,,,,,,,,,
39,0.01,0.95,0.7,0.5,20,80,0.6,1.0E-5,0,EMSequence,20,-1,,,,,,,,,,,,,,
40,0.01,0.95,0.7,0.5,20,80,0.6,1.0E-5,0,EMSequence,20,-1,,,,,,,,,,,,,,
41,0.01,0.95,0.7,0.5,20,80,0.6,1.0E-5,0,EMSequence,20,-1,,,,,,,,,,,,,,
42,0.01,0.95,0.7,0.5,20,80,0.6,1.0E-5,0,EMSequence,20,-1,,,,,,,,,,,,,,
43,0.01,0.95,0.7,0.5,20,80,0.6,1.0E-5,0,EMSequence,20,-1,,,,,,,,,,,,,,
44,0.01,0.95,0.7,0.5,20,80,0.6,1.0E-5,0,EMSequence,20,-1,,,,,,,,,,,,,,
45,0.01,0.95,0.7,0.5,20,80,0.6,1.0E-5,0,EMSequence,20,-1,,,,,,,,,,,,,,
46,0.01,0.95,0.7,0.5,20,80,0.6,1.0E-5,0,EMSequence,20,-1,,,,,,,,,,,,,,
47,0.01,0.95,0.7,0.5,20,80,0.6,1.0E-5,0,EMSequence,20,-1,,,,,,,,,,,,,,
48,0.01,0.95,0.7,0.5,20,80,0.6,1.0E-5,0,EMSequence,20,-1,,,,,,,,,,,,,,
49,0.01,0.95,0.7,0.5,20,80,0.6,1.0E-5,0,EMSequence,20,-1,,,,,,,,,,,,,,
50,0.01,0.95,0.7,0.5,20,80,0.6,1.0E-5,0,EMSequence,20,-1,,,,,,,,,,,,,,
