Rel,(All),,
,,,
,Column Labels,,
Values,IGEMRandomRemoveSequence,RandomEMDetectRandom,Grand Total
Sum of P1,25.96,25.96,51.92
Sum of P2,26.14,26.008,52.148
Sum of P3,26.42,26.14,52.56
Sum of P4,26.72,26.204,52.924
Sum of P5,26.94,26.224,53.164
Sum of P6,27.06,26.348,53.408
Sum of P7,27.4,26.444,53.844
Sum of P8,27.4,26.516,53.916
Sum of P9,25.3,26.628,51.928
Sum of P10,25.38,26.664,52.044
Sum of P11,24.16,26.748,50.908
Sum of P12,24.58,26.824,51.404
Sum of P13,24.46,26.844,51.304
Sum of P14,25.08,26.924,52.004
Sum of P15,25.16,26.936,52.096
Sum of P16,25.5,27.02,52.52
Sum of P17,25.92,27.172,53.092
Sum of P18,26.2,27.224,53.424
Sum of p19,26.28,27.288,53.568
Sum of p20,26.5,27.352,53.852
Sum of p21,26.68,27.404,54.084
Sum of p22,26.62,27.492,54.112
Sum of p23,27.22,27.624,54.844
Sum of p24,27.32,27.74,55.06
Sum of p25,27.62,27.844,55.464
Sum of p26,27.78,27.952,55.732
Sum of p27,28.06,28.052,56.112
Sum of p28,28.18,28.152,56.332
Sum of p29,28.42,28.212,56.632
Sum of p30,28.58,28.34,56.92
Sum of p31,28.74,28.428,57.168
Sum of p32,28.98,28.524,57.504
Sum of p33,29.1,28.624,57.724
Sum of p34,29.2,28.708,57.908
Sum of p35,29.32,28.772,58.092
Sum of p36,29.38,28.828,58.208
Sum of p37,29.48,28.892,58.372
Sum of p38,29.58,29.02,58.6
Sum of p39,29.66,29.08,58.74
Sum of p40,29.7,29.144,58.844
Sum of p41,29.74,29.224,58.964
Sum of p42,29.76,29.276,59.036
Sum of p43,29.82,29.336,59.156
Sum of p44,29.84,29.428,59.268
Sum of p45,29.84,29.532,59.372
Sum of p46,29.86,29.604,59.464
Sum of p47,29.88,29.668,59.548
Sum of p48,29.9,29.74,59.64
Sum of p49,29.92,29.832,59.752
Sum of p50,29.94,29.904,59.844
Sum of p51,30,30,60
