13,0.6
13,0.56
13,0.72
13,0.8
13,0.72
13,0.72
13,0.66
13,0.72
13,0.82
13,0.72
13,0.66
13,0.8
13,0.72
13,0.76
13,0.72
13,0.72
13,0.7
13,0.76
13,0.78
13,0.74
14,0.78
14,0.82
14,0.48
14,0.86
14,0.76
14,0.68
14,0.76
14,0.62
14,0.58
14,0.66
14,0.64
14,0.7
14,0.72
14,0.76
14,0.86
14,0.76
14,0.62
14,0.66
14,0.76
14,0.86
15,0.76
15,0.66
15,0.74
15,0.76
15,0.82
15,0.64
15,0.56
15,0.86
15,0.86
15,0.8
15,0.74
15,0.78
15,0.66
15,0.66
15,0.8
15,0.6
15,0.68
15,0.86
15,0.74
15,0.66
16,0.78
16,0.8
16,0.74
16,0.74
16,0.7
16,0.76
16,0.82
16,0.74
16,0.7
16,0.82
16,0.76
16,0.8
16,0.8
16,0.8
16,0.72
16,0.84
16,0.8
16,0.86
16,0.78
16,0.84
17,0.76
17,0.74
17,0.9
17,0.86
17,0.76
17,0.94
17,0.68
17,0.82
17,0.8
17,0.88
17,0.66
17,0.64
17,0.8
17,0.74
17,0.68
17,0.84
17,0.7
17,0.8
17,0.86
17,0.78
18,0.78
18,0.86
18,0.84
18,0.82
18,0.8
18,0.82
18,0.88
18,0.64
18,0.84
18,0.76
18,0.78
18,0.84
18,0.78
18,0.74
18,0.74
18,0.82
18,0.86
18,0.7
18,0.74
18,0.7
19,0.84
19,0.64
19,0.9
19,0.68
19,0.76
19,0.9
19,0.82
19,0.72
19,0.86
19,0.78
19,0.78
19,0.72
19,0.9
19,0.88
19,0.64
19,0.78
19,0.8
19,0.76
19,0.8
19,0.74
20,0.76
20,0.68
20,0.82
20,0.8
20,0.88
20,0.82
20,0.78
20,0.78
20,0.82
20,0.8
20,0.84
20,0.86
20,0.86
20,0.84
20,0.84
20,0.82
20,0.82
20,0.72
20,0.76
20,0.9
21,0.9
21,0.78
21,0.84
21,0.94
21,0.86
21,0.88
21,0.94
21,0.86
21,0.7
21,0.82
21,0.84
21,0.9
21,0.86
21,0.94
21,0.78
21,0.84
21,0.9
21,0.84
21,0.78
21,0.86
22,0.9
22,0.9
22,0.72
22,0.92
22,0.82
22,0.9
22,0.82
22,0.86
22,0.92
22,0.86
22,0.92
22,0.84
22,0.92
22,0.86
22,0.92
22,0.88
22,0.76
22,0.9
22,0.84
22,0.9
23,0.84
23,0.86
23,0.78
23,0.98
23,0.86
23,0.82
23,0.82
23,0.98
23,0.94
23,0.88
23,0.64
23,0.92
23,0.94
23,0.94
23,0.84
23,0.86
23,0.94
23,0.82
23,0.84
23,0.9
24,0.82
24,0.94
24,0.96
24,0.94
24,0.8
24,0.82
24,0.84
24,0.94
24,0.8
24,0.9
24,0.86
24,0.82
24,0.86
24,0.76
24,0.9
24,0.94
24,0.94
24,0.86
24,0.9
24,0.98
25,0.86
25,0.84
25,0.94
25,0.92
25,0.88
25,0.94
25,0.88
25,0.9
25,0.86
25,0.9
25,0.96
25,0.78
25,0.82
25,0.84
25,0.84
25,0.94
25,0.82
25,0.86
25,0.84
25,0.82
26,0.88
26,0.88
26,0.84
26,0.88
26,0.86
26,0.94
26,0.8
26,0.94
26,0.82
26,0.74
26,0.84
26,0.9
26,0.82
26,0.94
26,0.94
26,0.9
26,0.84
26,0.94
26,0.9
26,0.86
27,0.86
27,0.92
27,0.8
27,0.94
27,0.9
27,0.94
27,0.82
27,0.8
27,0.9
27,0.9
27,0.9
27,0.86
27,0.82
27,0.92
27,0.9
27,0.94
27,0.86
27,0.84
27,0.86
27,0.8
28,0.86
28,0.94
28,0.9
28,0.92
28,0.86
28,0.92
28,0.94
28,0.88
28,0.96
28,0.86
28,0.9
28,0.86
28,0.88
28,0.86
28,0.92
28,0.86
28,0.92
28,0.92
28,0.88
28,0.82
29,0.86
29,0.8
29,0.96
29,0.96
29,0.98
29,0.9
29,0.96
29,0.88
29,0.94
29,0.94
29,0.9
29,0.8
29,0.88
29,0.9
29,0.86
29,0.84
29,0.9
29,0.92
29,0.92
29,0.88
30,0.86
30,0.86
30,0.84
30,0.9
30,0.92
30,0.98
30,0.92
30,0.88
30,0.92
30,0.92
30,0.96
30,0.94
30,0.96
30,0.96
30,0.94
30,1.0
30,0.92
30,0.94
30,0.94
30,0.92
31,0.94
31,0.9
31,0.86
31,0.86
31,0.94
31,0.86
31,0.96
31,0.9
31,0.98
31,0.94
31,0.94
31,0.84
31,0.84
31,0.84
31,0.9
31,0.9
31,0.88
31,0.92
31,0.94
31,0.96
32,0.96
32,0.88
32,0.92
32,0.96
32,0.94
32,0.86
32,0.96
32,0.86
32,1.0
32,0.86
32,0.88
32,0.94
32,0.88
32,0.88
32,0.98
32,0.9
32,0.94
32,0.9
32,0.98
32,0.92
33,0.96
33,0.96
33,0.96
33,0.94
33,0.92
33,0.96
33,0.96
33,0.98
33,0.88
33,0.94
33,0.88
33,0.84
33,0.88
33,0.92
33,0.92
33,0.94
33,0.96
33,0.92
33,1.0
33,0.96
34,0.9
34,0.94
34,0.92
34,0.94
34,0.94
34,0.92
34,0.92
34,0.92
34,0.92
34,0.96
34,1.0
34,0.96
34,0.94
34,0.94
34,0.9
34,0.94
34,0.94
34,0.94
34,0.9
34,0.9
35,0.96
35,0.96
35,0.96
35,0.92
35,0.98
35,0.94
35,0.9
35,0.98
35,0.96
35,0.98
35,0.88
35,0.82
35,0.96
35,0.9
35,0.9
35,0.92
35,0.98
35,0.94
35,0.98
35,0.94
36,0.92
36,0.9
36,1.0
36,0.94
36,1.0
36,0.94
36,0.96
36,0.96
36,0.98
36,0.86
36,0.94
36,0.98
36,0.96
36,0.98
36,1.0
36,1.0
36,0.96
36,0.98
36,0.94
36,0.98
37,0.96
37,0.88
37,1.0
37,0.98
37,0.96
37,0.94
37,0.98
37,0.96
37,0.98
37,0.98
37,0.96
37,0.92
37,0.98
37,1.0
37,1.0
37,0.96
37,1.0
37,0.92
37,0.94
37,0.92
38,0.94
38,0.9
38,0.94
38,0.92
38,0.94
38,0.96
38,1.0
38,0.96
38,0.9
38,1.0
38,0.9
38,0.98
38,0.94
38,0.94
38,0.92
38,0.94
38,0.94
38,0.94
38,0.96
38,0.98
39,0.98
39,0.98
39,0.96
39,0.92
39,1.0
39,0.94
39,1.0
39,0.98
39,0.94
39,0.9
39,0.92
39,0.96
39,0.96
39,0.96
39,0.98
39,0.98
39,0.92
39,0.92
39,0.94
39,0.98
40,0.96
40,1.0
40,0.98
40,0.92
40,0.96
40,1.0
40,0.94
40,0.96
40,0.94
40,0.98
40,0.92
40,0.98
40,0.94
40,0.94
40,0.94
40,0.94
40,0.96
40,0.96
40,0.94
40,0.98
41,0.98
41,0.92
41,0.94
41,0.92
41,1.0
41,0.96
41,0.98
41,0.96
41,0.92
41,0.96
41,0.96
41,0.98
41,1.0
41,0.96
41,0.92
41,0.96
41,1.0
41,0.9
41,0.98
41,0.92
42,0.96
42,0.88
42,0.96
42,0.96
42,0.98
42,0.98
42,0.98
42,0.98
42,0.98
42,0.9
42,0.96
42,0.98
42,0.98
42,0.92
42,0.96
42,0.96
42,0.96
42,0.96
42,0.94
42,0.96
43,1.0
43,0.98
43,0.96
43,0.92
43,0.98
43,0.94
43,0.94
43,0.96
43,0.96
43,0.9
43,0.9
43,0.98
43,1.0
43,0.98
43,0.96
43,0.94
43,0.98
43,1.0
43,0.96
43,0.96
44,0.98
44,0.88
44,0.94
44,0.98
44,0.98
44,0.96
44,0.96
44,0.92
44,0.92
44,0.94
44,1.0
44,0.98
44,0.98
44,0.86
44,0.94
44,0.96
44,0.98
44,0.92
44,0.92
44,0.9
45,0.96
45,0.96
45,0.98
45,0.92
45,1.0
45,0.98
45,1.0
45,0.94
45,0.98
45,0.96
45,0.94
45,1.0
45,0.98
45,1.0
45,0.96
45,0.98
45,1.0
45,1.0
45,0.98
45,0.96
46,0.96
46,0.94
46,1.0
46,0.98
46,0.98
46,0.96
46,0.94
46,0.96
46,0.92
46,0.98
46,0.98
46,0.98
46,1.0
46,1.0
46,0.98
46,0.98
46,0.96
46,1.0
46,0.96
46,0.98
47,0.98
47,0.96
47,1.0
47,0.96
47,0.98
47,0.96
47,0.96
47,0.98
47,0.98
47,0.98
47,0.96
47,0.96
47,0.98
47,0.86
47,1.0
47,0.98
47,0.96
47,0.96
47,0.96
47,0.96
48,0.94
48,0.96
48,0.96
48,1.0
48,0.98
48,0.96
48,1.0
48,0.98
48,0.96
48,0.94
48,0.98
48,0.98
48,0.96
48,0.98
48,0.98
48,1.0
48,1.0
48,0.96
48,1.0
48,0.96
49,0.98
49,0.96
49,0.96
49,0.98
49,0.94
49,0.98
49,0.98
49,0.96
49,1.0
49,1.0
49,1.0
49,0.92
49,0.96
49,0.96
49,0.98
49,0.96
49,0.98
49,0.96
49,0.98
49,0.98
50,0.98
50,0.98
50,0.98
50,1.0
50,0.94
50,1.0
50,0.96
50,0.98
50,1.0
50,0.96
50,0.98
50,1.0
50,0.98
50,0.98
50,0.96
50,0.98
50,1.0
50,0.92
50,0.94
50,0.96
51,0.92
51,0.94
51,0.96
51,0.96
51,0.98
51,0.9
51,0.98
51,0.94
51,0.98
51,1.0
51,1.0
51,0.96
51,0.98
51,0.98
51,0.94
51,0.92
51,0.98
51,0.96
51,0.98
51,0.9
52,0.96
52,1.0
52,1.0
52,1.0
52,1.0
52,1.0
52,0.98
52,0.94
52,0.98
52,1.0
52,1.0
52,0.98
52,1.0
52,1.0
52,0.98
52,0.94
52,1.0
52,1.0
52,0.96
52,0.98
53,0.98
53,0.96
53,0.9
53,1.0
53,1.0
53,1.0
53,0.98
53,1.0
53,0.98
53,0.96
53,0.94
53,0.98
53,0.98
53,0.96
53,1.0
53,0.98
53,1.0
53,0.94
53,0.98
53,0.96
54,1.0
54,0.98
54,0.98
54,0.98
54,0.96
54,0.96
54,0.96
54,0.92
54,0.92
54,0.96
54,0.96
54,0.98
54,1.0
54,1.0
54,0.98
54,0.94
54,0.96
54,0.98
54,0.96
54,0.98
55,1.0
55,0.96
55,0.98
55,1.0
55,0.98
55,1.0
55,0.98
55,0.94
55,1.0
55,0.98
55,1.0
55,0.98
55,0.98
55,0.98
55,1.0
55,0.96
55,0.98
55,1.0
55,0.98
55,0.98
56,1.0
56,0.94
56,0.98
56,0.98
56,1.0
56,0.98
56,0.98
56,0.98
56,0.96
56,1.0
56,0.98
56,1.0
56,1.0
56,0.96
56,1.0
56,0.98
56,1.0
56,0.98
56,1.0
56,1.0
57,1.0
57,0.96
57,1.0
57,0.98
57,1.0
57,1.0
57,0.96
57,0.98
57,0.98
57,0.96
57,0.96
57,0.98
57,0.98
57,1.0
57,1.0
57,0.98
57,0.96
57,0.98
57,1.0
57,1.0
58,1.0
58,1.0
58,0.98
58,0.98
58,1.0
58,1.0
58,1.0
58,1.0
58,0.92
58,1.0
58,1.0
58,1.0
58,0.92
58,1.0
58,1.0
58,1.0
58,1.0
58,0.96
58,1.0
58,0.94
59,1.0
59,0.98
59,1.0
59,0.98
59,1.0
59,1.0
59,1.0
59,1.0
59,1.0
59,1.0
59,0.98
59,0.94
59,0.96
59,0.98
59,0.96
59,0.98
59,0.98
59,1.0
59,1.0
59,0.98
60,0.94
60,0.98
60,1.0
60,1.0
60,1.0
60,0.96
60,1.0
60,1.0
60,0.96
60,1.0
60,1.0
60,1.0
60,0.94
60,1.0
60,1.0
60,0.98
60,0.98
60,1.0
60,1.0
60,0.98
61,0.98
61,0.94
61,0.98
61,0.98
61,0.98
61,1.0
61,1.0
61,1.0
61,1.0
61,0.98
61,0.98
61,0.96
61,0.98
61,0.98
61,1.0
61,1.0
61,0.98
61,1.0
61,1.0
61,1.0
62,0.98
62,1.0
62,0.98
62,0.96
62,0.98
62,0.98
62,1.0
62,1.0
62,1.0
62,0.98
62,0.96
62,1.0
62,0.98
62,1.0
62,0.96
62,1.0
62,0.98
62,1.0
62,1.0
62,1.0
63,1.0
63,0.96
63,0.98
63,0.98
63,0.98
63,1.0
63,0.98
63,0.98
63,0.98
63,1.0
63,1.0
63,0.96
63,0.98
63,0.98
63,0.94
63,0.98
63,0.98
63,0.96
63,0.98
63,1.0
64,0.98
64,0.98
64,1.0
64,1.0
64,0.98
64,0.98
64,1.0
64,0.98
64,0.96
64,1.0
64,1.0
64,0.96
64,1.0
64,1.0
64,1.0
64,1.0
64,1.0
64,1.0
64,1.0
64,0.98
65,0.98
65,1.0
65,1.0
65,1.0
65,1.0
65,1.0
65,1.0
65,1.0
65,1.0
65,1.0
65,1.0
65,1.0
65,1.0
65,1.0
65,1.0
65,0.98
65,0.98
65,1.0
65,0.98
65,0.98
66,1.0
66,1.0
66,1.0
66,1.0
66,1.0
66,0.98
66,1.0
66,0.96
66,0.96
66,1.0
66,1.0
66,0.94
66,0.96
66,1.0
66,1.0
66,0.98
66,1.0
66,1.0
66,1.0
66,1.0
67,1.0
67,1.0
67,1.0
67,0.98
67,1.0
67,0.98
67,0.96
67,1.0
67,1.0
67,0.96
67,0.98
67,1.0
67,0.98
67,1.0
67,1.0
67,1.0
67,1.0
67,0.98
67,0.96
67,0.98
68,0.96
68,1.0
68,1.0
68,0.98
68,0.96
68,0.98
68,1.0
68,1.0
68,0.98
68,1.0
68,1.0
68,1.0
68,0.98
68,1.0
68,1.0
68,0.98
68,1.0
68,1.0
68,1.0
68,0.98
69,0.98
69,1.0
69,1.0
69,1.0
69,1.0
69,1.0
69,1.0
69,1.0
69,0.96
69,1.0
69,1.0
69,1.0
69,1.0
69,1.0
69,1.0
69,0.98
69,0.98
69,1.0
69,1.0
69,0.98
70,1.0
70,0.96
70,1.0
70,0.98
70,0.98
70,1.0
70,1.0
70,1.0
70,0.98
70,1.0
70,1.0
70,0.98
70,1.0
70,0.96
70,1.0
70,1.0
70,1.0
70,0.98
70,0.98
70,1.0
71,1.0
71,1.0
71,0.98
71,1.0
71,1.0
71,1.0
71,1.0
71,0.98
71,0.98
71,1.0
71,1.0
71,1.0
71,1.0
71,1.0
71,1.0
71,0.98
71,1.0
71,1.0
71,1.0
71,1.0
72,1.0
72,1.0
72,1.0
72,1.0
72,1.0
72,1.0
72,1.0
72,0.98
72,0.98
72,1.0
72,0.98
72,1.0
72,1.0
72,1.0
72,1.0
72,1.0
72,0.98
72,1.0
72,1.0
72,0.98
73,0.98
73,1.0
73,1.0
73,1.0
73,0.98
73,0.98
73,0.98
73,0.98
73,1.0
73,0.98
73,1.0
73,1.0
73,1.0
73,1.0
73,1.0
73,1.0
73,0.98
73,0.96
73,1.0
73,1.0
74,1.0
74,1.0
74,0.98
74,1.0
74,1.0
74,1.0
74,1.0
74,1.0
74,1.0
74,1.0
74,1.0
74,1.0
74,1.0
74,0.98
74,1.0
74,1.0
74,0.98
74,0.98
74,1.0
74,1.0
75,0.98
75,0.98
75,1.0
75,1.0
75,0.96
75,0.98
75,1.0
75,0.98
75,0.98
75,0.98
75,0.96
75,0.98
75,0.98
75,0.98
75,0.98
75,0.98
75,0.96
75,1.0
75,1.0
75,1.0
76,0.98
76,1.0
76,0.98
76,1.0
76,0.98
76,1.0
76,0.98
76,1.0
76,1.0
76,1.0
76,1.0
76,1.0
76,0.98
76,1.0
76,1.0
76,1.0
76,0.98
76,1.0
76,1.0
76,1.0
77,1.0
77,0.96
77,1.0
77,1.0
77,0.98
77,0.98
77,1.0
77,1.0
77,1.0
77,1.0
77,0.98
77,1.0
77,1.0
77,1.0
77,0.98
77,1.0
77,0.98
77,1.0
77,1.0
77,1.0
78,1.0
78,1.0
78,1.0
78,1.0
78,1.0
78,1.0
78,1.0
78,0.98
78,0.98
78,0.98
78,0.98
78,1.0
78,1.0
78,0.96
78,1.0
78,1.0
78,0.98
78,1.0
78,1.0
78,0.98
79,1.0
79,1.0
79,1.0
79,1.0
79,1.0
79,1.0
79,1.0
79,1.0
79,1.0
79,1.0
79,1.0
79,1.0
79,1.0
79,0.98
79,1.0
79,1.0
79,1.0
79,1.0
79,1.0
79,1.0
80,1.0
80,0.98
80,1.0
80,0.98
80,1.0
80,1.0
80,1.0
80,1.0
80,1.0
80,1.0
80,1.0
80,0.98
80,1.0
80,1.0
80,1.0
80,1.0
80,1.0
80,0.98
80,1.0
80,1.0
81,1.0
81,1.0
81,0.96
81,0.98
81,0.98
81,1.0
81,1.0
81,0.98
81,1.0
81,1.0
81,1.0
81,1.0
81,1.0
81,1.0
81,0.98
81,0.98
81,1.0
81,1.0
81,1.0
81,0.98
82,1.0
82,1.0
82,1.0
82,1.0
82,1.0
82,1.0
82,1.0
82,1.0
82,1.0
82,1.0
82,1.0
82,1.0
82,1.0
82,1.0
82,0.98
82,0.98
82,0.98
82,1.0
82,1.0
82,1.0
83,0.98
83,1.0
83,1.0
83,1.0
83,1.0
83,1.0
83,1.0
83,1.0
83,1.0
83,1.0
83,1.0
83,1.0
83,1.0
83,1.0
83,1.0
83,1.0
83,1.0
83,1.0
83,1.0
83,1.0
84,1.0
84,1.0
84,1.0
84,1.0
84,1.0
84,1.0
84,1.0
84,1.0
84,1.0
84,1.0
84,1.0
84,1.0
84,1.0
84,1.0
84,0.98
84,1.0
84,1.0
84,1.0
84,0.98
84,1.0
85,1.0
85,1.0
85,1.0
85,1.0
85,1.0
85,1.0
85,1.0
85,1.0
85,1.0
85,0.98
85,1.0
85,1.0
85,1.0
85,1.0
85,1.0
85,1.0
85,1.0
85,1.0
85,1.0
85,1.0
86,1.0
86,1.0
86,0.98
86,1.0
86,0.98
86,1.0
86,1.0
86,1.0
86,1.0
86,1.0
86,1.0
86,1.0
86,1.0
86,1.0
86,1.0
86,1.0
86,1.0
86,1.0
86,1.0
86,1.0
87,0.98
87,1.0
87,1.0
87,1.0
87,1.0
87,1.0
87,1.0
87,1.0
87,1.0
87,1.0
87,1.0
87,1.0
87,1.0
87,1.0
87,1.0
87,1.0
87,0.98
87,1.0
87,0.98
87,1.0
88,0.98
88,1.0
88,1.0
88,1.0
88,0.96
88,1.0
88,0.98
88,1.0
88,1.0
88,1.0
88,1.0
88,1.0
88,0.96
88,1.0
88,0.98
88,1.0
88,1.0
88,1.0
88,0.98
88,1.0
89,0.96
89,1.0
89,1.0
89,1.0
89,1.0
89,1.0
89,1.0
89,1.0
89,1.0
89,1.0
89,1.0
89,1.0
89,1.0
89,1.0
89,1.0
89,1.0
89,0.98
89,1.0
89,1.0
89,1.0
90,1.0
90,1.0
90,1.0
90,1.0
90,0.98
90,1.0
90,1.0
90,0.98
90,1.0
90,1.0
90,1.0
90,1.0
90,1.0
90,1.0
90,1.0
90,1.0
90,1.0
90,1.0
90,1.0
90,1.0
91,1.0
91,1.0
91,1.0
91,1.0
91,1.0
91,1.0
91,1.0
91,1.0
91,1.0
91,1.0
91,1.0
91,1.0
91,1.0
91,1.0
91,1.0
91,1.0
91,1.0
91,1.0
91,1.0
91,1.0
92,1.0
92,1.0
92,1.0
92,1.0
92,0.98
92,0.96
92,1.0
92,1.0
92,1.0
92,1.0
92,1.0
92,0.98
92,1.0
92,1.0
92,1.0
92,1.0
92,1.0
92,0.98
92,0.98
92,1.0
93,1.0
93,1.0
93,1.0
93,1.0
93,1.0
93,1.0
93,1.0
93,1.0
93,0.98
93,0.98
93,1.0
93,1.0
93,1.0
93,0.96
93,1.0
93,1.0
93,1.0
93,1.0
93,1.0
93,1.0
94,1.0
94,0.98
94,0.98
94,1.0
94,1.0
94,0.98
94,1.0
94,1.0
94,1.0
94,1.0
94,0.98
94,1.0
94,1.0
94,1.0
94,1.0
94,1.0
94,1.0
94,0.98
94,1.0
94,1.0
95,1.0
95,0.98
95,1.0
95,1.0
95,0.98
95,1.0
95,1.0
95,1.0
95,1.0
95,1.0
95,1.0
95,0.98
95,1.0
95,1.0
95,1.0
95,1.0
95,1.0
95,1.0
95,1.0
95,1.0
96,1.0
96,1.0
96,1.0
96,1.0
96,1.0
96,0.98
96,1.0
96,1.0
96,0.98
96,1.0
96,1.0
96,1.0
96,1.0
96,1.0
96,1.0
96,1.0
96,1.0
96,1.0
96,1.0
96,1.0
97,1.0
97,1.0
97,1.0
97,0.98
97,1.0
97,0.98
97,1.0
97,1.0
97,1.0
97,1.0
97,1.0
97,0.98
97,1.0
97,1.0
97,1.0
97,1.0
97,1.0
97,1.0
97,1.0
97,1.0
98,1.0
98,1.0
98,1.0
98,0.98
98,1.0
98,1.0
98,1.0
98,1.0
98,1.0
98,1.0
98,1.0
98,1.0
98,1.0
98,1.0
98,1.0
98,1.0
98,1.0
98,1.0
98,1.0
98,1.0
99,1.0
99,1.0
99,1.0
99,0.98
99,1.0
99,1.0
99,1.0
99,1.0
99,1.0
99,1.0
99,1.0
99,0.98
99,1.0
99,1.0
99,1.0
99,1.0
99,1.0
99,1.0
99,1.0
99,1.0
100,1.0
100,1.0
100,1.0
100,1.0
100,1.0
100,1.0
100,1.0
100,1.0
100,1.0
100,1.0
100,1.0
100,1.0
100,1.0
100,1.0
100,1.0
100,1.0
100,1.0
100,1.0
100,1.0
100,1.0
