0.3,1,12,0,IGEMRandomRemoveSequence,0.76
0.3,1,12,1,IGEMRandomRemoveSequence,0.88
0.3,1,12,2,IGEMRandomRemoveSequence,0.8
0.3,1,12,3,IGEMRandomRemoveSequence,0.88
0.3,1,12,4,IGEMRandomRemoveSequence,0.82
0.3,1,12,5,IGEMRandomRemoveSequence,0.84
0.3,1,12,6,IGEMRandomRemoveSequence,0.88
0.3,1,12,7,IGEMRandomRemoveSequence,0.86
0.3,1,12,8,IGEMRandomRemoveSequence,0.86
0.3,1,12,9,IGEMRandomRemoveSequence,0.8
0.3,2,10,0,IGEMRandomRemoveSequence,0.82
0.3,2,10,1,IGEMRandomRemoveSequence,0.84
0.3,2,10,2,IGEMRandomRemoveSequence,0.7
0.3,2,10,3,IGEMRandomRemoveSequence,0.84
0.3,2,10,4,IGEMRandomRemoveSequence,0.86
0.3,2,10,5,IGEMRandomRemoveSequence,0.88
0.3,2,10,6,IGEMRandomRemoveSequence,0.7
0.3,2,10,7,IGEMRandomRemoveSequence,0.84
0.3,2,10,8,IGEMRandomRemoveSequence,0.8
0.3,2,10,9,IGEMRandomRemoveSequence,0.7
0.3,3,7,0,IGEMRandomRemoveSequence,0.82
0.3,3,7,1,IGEMRandomRemoveSequence,0.9
0.3,3,7,2,IGEMRandomRemoveSequence,0.92
0.3,3,7,3,IGEMRandomRemoveSequence,0.86
0.3,3,7,4,IGEMRandomRemoveSequence,0.86
0.3,3,7,5,IGEMRandomRemoveSequence,0.9
0.3,3,7,6,IGEMRandomRemoveSequence,0.92
0.3,3,7,7,IGEMRandomRemoveSequence,0.9
0.3,3,7,8,IGEMRandomRemoveSequence,0.84
0.3,3,7,9,IGEMRandomRemoveSequence,0.86
0.3,4,5,0,IGEMRandomRemoveSequence,0.92
0.3,4,5,1,IGEMRandomRemoveSequence,0.84
0.3,4,5,2,IGEMRandomRemoveSequence,0.92
0.3,4,5,3,IGEMRandomRemoveSequence,0.9
0.3,4,5,4,IGEMRandomRemoveSequence,0.92
0.3,4,5,5,IGEMRandomRemoveSequence,0.82
0.3,4,5,6,IGEMRandomRemoveSequence,0.88
0.3,4,5,7,IGEMRandomRemoveSequence,0.92
0.3,4,5,8,IGEMRandomRemoveSequence,0.98
0.3,4,5,9,IGEMRandomRemoveSequence,0.82
0.3,5,2,0,IGEMRandomRemoveSequence,0.82
0.3,5,2,1,IGEMRandomRemoveSequence,0.66
0.3,5,2,2,IGEMRandomRemoveSequence,0.82
