0.01,0.8,0.5,20,80,0.01,0,RandomEMDetectRandom,20,4202,0.78,0.792,0.8160000000000001,0.82,0.8240000000000001,0.82,0.82,0.82,0.844,0.852,0.8480000000000001,0.8480000000000001,0.852,0.8640000000000001,0.868,0.876,0.8880000000000001,0.8959999999999999,0.8959999999999999,0.908,0.9120000000000001,0.9120000000000001,0.9120000000000001,0.908,0.924,0.924,0.924,0.924,0.924,0.924,0.924,0.944,0.9559999999999998,0.9559999999999998,0.96,0.9640000000000001,0.968,0.968,0.968,0.968,0.968,0.968,0.968,0.968,0.976,0.9800000000000001,0.984,0.992,0.992,0.992,1.0,,20.741156344477222,19.728697024417528,18.591936102338632,17.542375628383304,17.012816986399777,16.288447112339806,15.952950841936712,15.488966163634478,15.511039927225998,14.713453219636131,14.395324844227835,13.920638730278242,13.394083724515628,13.270654220994269,12.87156482363414,12.28121837240484,11.835202787537717,11.088156392507281,10.566446096394762,9.999845238778821,9.364943345027049,8.835163235329052,8.742907730731195,8.311455625512773,8.156998652653607,7.573207970793239,6.996642459600551,6.590720362983592,5.806747036634424,5.503650482335242,4.982023706131236,4.579392730737249,4.065427137320954,3.9315096936804528,3.5030594034372458,3.292550093542644,2.9519905779410935,2.7538694711088576,2.5614454719064197,2.250630163192253,2.183442697923266,1.9824749476150507,1.7043054034759382,1.4409327185522358,1.3563327753024486,1.2220412144959993,0.9025961639245418,0.687194451403301,0.342557824744073,0.24575192674341723,0.0,,1.0,1.0,1.0,0.85,1.0,0.7933333333333333,0.8066666666666666,0.8800000000000001,0.6799999999999999,0.9333333333333333,0.9333333333333332,1.0,0.9,0.9333333333333332,0.9099999999999999,0.8980952380952381,0.9,0.9099999999999999,0.9,0.9666666666666668,0.9333333333333332,0.9333333333333332,0.9333333333333332,0.9333333333333332,0.95,0.9,0.96,0.9,0.95,0.9666666666666668,1.0,1.0,1.0,1.0,1.0,1.0,1.0,0.9714285714285715,1.0,1.0,1.0,1.0,1.0,1.0,1.0,1.0,1.0,1.0,1.0,1.0,,0.0,0.0,0.0,0.08571428571428572,0.0,0.11428571428571428,0.15714285714285714,0.07142857142857142,0.12857142857142856,0.02857142857142857,0.1,0.05714285714285714,0.17142857142857143,0.07142857142857142,0.17142857142857143,0.3,0.14285714285714285,0.27142857142857146,0.14285714285714285,0.22857142857142856,0.09999999999999998,0.22857142857142856,0.32857142857142857,0.22857142857142856,0.3,0.18571428571428572,0.2857142857142857,0.17142857142857143,0.3142857142857143,0.34285714285714286,0.32857142857142857,0.41428571428571426,0.3142857142857143,0.32857142857142857,0.2857142857142857,0.37142857142857144,0.2857142857142857,0.38571428571428573,0.38571428571428573,0.3571428571428571,0.32857142857142857,0.32857142857142857,0.34285714285714286,0.4,0.34285714285714286,0.35714285714285715,0.38571428571428573,0.38571428571428573,0.37142857142857144,0.2857142857142857,,-1,-1,-1,-1,-1,-1,-1,-1,-1,-1,-1,-1,-1,-1,-1,-1,-1,-1,-1,-1,-1,-1,-1,-1,-1,-1,-1,-1,-1,-1,-1,-1,-1,-1,-1,-1,-1,-1,-1,-1,-1,-1,-1,-1,-1,-1,-1,-1,-1,-1
0.01,0.8,0.5,20,80,0.01,0,IGEMRandomRemoveSequence,8,181968,0.78,0.78,0.8,0.82,0.84,0.84,0.86,0.84,0.86,0.86,0.86,0.32,0.9,0.92,0.36,0.94,0.96,0.96,0.96,0.96,0.96,0.98,0.98,0.98,0.98,0.98,0.98,0.98,0.98,0.98,1.0,1.0,1.0,1.0,1.0,1.0,1.0,1.0,1.0,1.0,1.0,1.0,1.0,1.0,1.0,1.0,1.0,1.0,1.0,1.0,1.0,,20.741156344477222,19.15897929345074,17.252609292327403,16.57551288267724,15.468810084911507,13.64851004418807,12.725259092414777,11.387105052310043,10.366287193769809,9.016099346630233,8.25595022182438,14.7449766448569,10.94702148351696,10.049964387347085,10.565137647070694,9.482036570250623,8.877384644116855,7.299060438527762,6.059563237137156,5.250363822887608,4.509671231593,4.753152514037635,4.168676423466151,3.6494255752528972,3.226886818682468,2.825212091428195,4.025852760788899,3.2843183248965944,2.722562545788994,2.3010004835502653,2.4423936373787614,2.1198273173393773,1.7039070010780661,1.3501683826251238,1.2019844570639329,1.0726930254083884,0.9494767523106156,0.8314901523901843,0.7182590955871613,0.609353793605969,0.5146271387579452,0.4590481642086268,0.35919594820270506,0.3091773745265425,0.2608975575280785,0.21422101383992553,0.1688124985981352,0.12482769999452024,0.08202652874674647,0.04046510354364808,0.0,,1.0,1.0,1.0,0.3333333333333333,1.0,1.0,1.0,0.75,0.8333333333333334,1.0,0.8,1.0,1.0,1.0,1.0,1.0,1.0,1.0,1.0,0.3333333333333333,1.0,1.0,0.0,1.0,0.6666666666666666,0.0,1.0,1.0,1.0,1.0,1.0,1.0,1.0,1.0,1.0,1.0,1.0,1.0,1.0,1.0,1.0,1.0,1.0,1.0,1.0,1.0,1.0,1.0,1.0,1.0,,0.0,0.0,0.0,0.07142857142857142,0.0,0.0,0.0,0.21428571428571427,0.35714285714285715,0.0,0.2857142857142857,0.0,0.0,0.0,0.1,0.1,0.0,0.0,0.0,0.1111111111111111,0.1111111111111111,0.0,0.0,0.125,0.25,0.0,0.25,0.125,0.25,0.25,0.25,0.0,0.0,0.0,0.0,0.0,0.0,0.0,0.0,0.0,0.3333333333333333,0.0,0.0,0.0,0.0,0.0,0.0,0.0,0.0,0.0,,10,33,22,18,41,3,31,42,29,11,24,25,12,0,23,43,5,26,47,34,4,1,27,40,28,13,37,38,48,20,14,49,46,35,32,9,8,7,2,36,17,6,45,44,39,30,21,19,16,15
0.01,0.8,0.5,20,80,0.01,0,SpammerEMRandomSequence,5,2201,0.78,0.76,0.78,0.76,0.76,0.82,0.82,0.8,0.8,0.8,0.84,0.9,0.9,0.9,0.9,0.9,0.94,0.94,0.96,0.96,0.96,0.96,0.96,0.96,0.96,0.96,0.98,0.98,0.98,0.98,0.98,0.98,0.98,0.98,0.98,0.98,0.98,0.98,0.98,0.98,0.98,1.0,1.0,1.0,1.0,1.0,1.0,1.0,1.0,1.0,1.0,,20.741156344477222,19.930602781170876,18.318801264248275,17.670685707885585,17.31348935809915,17.75446023816528,17.39342824578504,16.326484615430996,15.276099246397413,14.47864935464558,13.669217188544964,15.17591087843691,13.918518593511292,12.8878159729087,11.781426866799205,10.951610561109211,18.05651760787257,16.622737359736274,16.77840767828991,15.613583960876639,14.584057149654187,13.484325085266786,12.112470200431872,10.990599901427181,9.788083657348974,8.725646360688074,8.374997939280261,7.371628661168362,6.401467311340491,5.463130498044823,4.5427046803441495,4.379263915877233,3.5512367065559496,2.748285285854577,2.5397435066719356,2.348097120982742,2.171912585601793,1.933165639338288,1.7111060011598498,1.5041565127842607,1.3103344696620463,1.4400114576972627,1.2864499333513368,1.0538467244273706,0.836116514722141,0.6316367359422834,0.439480520075079,0.3187639757729174,0.2057296358114683,0.09970791193370496,0.0,,1.0,1.0,1.0,0.875,1.0,1.0,1.0,1.0,1.0,1.0,1.0,1.0,1.0,1.0,1.0,0.6666666666666666,1.0,1.0,1.0,1.0,1.0,1.0,0.5,1.0,1.0,1.0,1.0,1.0,1.0,1.0,1.0,1.0,1.0,1.0,1.0,1.0,1.0,1.0,1.0,1.0,1.0,1.0,1.0,1.0,1.0,1.0,1.0,1.0,1.0,1.0,,0.0,0.0,0.0,0.5,0.0,0.0,0.0,0.0,0.5,0.0,0.42857142857142855,0.0,0.25,0.25,0.5,0.5,0.0,0.0,0.25,0.75,0.25,0.3333333333333333,0.3333333333333333,0.3333333333333333,0.6666666666666666,0.0,0.6666666666666666,0.3333333333333333,0.3333333333333333,0.3333333333333333,0.3333333333333333,0.5,0.0,0.5,0.0,0.5,1.0,1.0,1.0,1.0,0.0,1.0,1.0,1.0,0.0,0.0,0.0,0.0,0.0,0.0,,0,1,14,13,47,6,42,43,28,31,23,3,5,29,26,41,37,12,44,27,38,18,22,49,25,20,40,11,10,34,36,24,46,45,19,48,33,8,7,35,4,16,9,32,2,17,30,39,21,15
