0.01,0.95,0.65,0.5,60,40,0.6,0.01,0,RandomEMDetectRandom,20,4737,,0.979166667,0.979166667,0.979166667,0.979166667,0.979166667,0.979166667,0.979166667,0.979166667,0.979166667,0.979166667,0.979166667,0.979166667,0.979166667,0.979166667,0.979166667,0.983333333,0.9875,0.9875,0.9875,0.991666667,0.991666667,0.991666667,0.991666667,0.991666667,0.991666667,0.991666667,0.991666667,0.991666667,0.991666667,0.991666667,0.991666667,0.991666667,0.991666667,0.995833333,0.995833333,0.995833333,0.995833333,0.995833333,0.995833333,0.995833333,0.995833333,0.995833333,0.995833333,0.995833333,1,1,1,1,1,,0.064748398,0.058560808,0.058535782,0.058310712,0.058260661,0.057748684,0.057674379,0.057359114,0.057179597,0.057016518,0.056989492,0.056902476,0.05674339,0.05674339,0.054160806,0.052384893,0.052043361,0.050493423,0.048102033,0.045868696,0.045304496,0.044648957,0.042691158,0.040065566,0.039520573,0.038975579,0.038948557,0.034747034,0.034722008,0.03404408,0.033943976,0.033943976,0.031137236,0.028446083,0.027861852,0.023600305,0.022837444,0.022737341,0.01875273,0.014896605,0.01356874,0.013200377,0.013175351,0.00828826,0.006039354,0.003529332,0.001579497,0.001491109,0,,-1,-1,-1,-1,-1,-1,-1,-1,-1,-1,-1,-1,-1,-1,-1,-1,-1,-1,-1,-1,-1,-1,-1,-1,-1,-1,-1,-1,-1,-1,-1,-1,-1,-1,-1,-1,-1,-1,-1,-1,-1,-1,-1,-1,-1,-1,-1,-1,,-1,-1,-1,-1,-1,-1,-1,-1,-1,-1,-1,-1,-1,-1,-1,-1,-1,-1,-1,-1,-1,-1,-1,-1,-1,-1,-1,-1,-1,-1,-1,-1,-1,-1,-1,-1,-1,-1,-1,-1,-1,-1,-1,-1,-1,-1,-1,-1,,-1,-1,-1,-1,-1,-1,-1,-1,-1,-1,-1,-1,-1,-1,-1,-1,-1,-1,-1,-1,-1,-1,-1,-1,-1,-1,-1,-1,-1,-1,-1,-1,-1,-1,-1,-1,-1,-1,-1,-1,-1,-1,-1,-1,-1,-1,-1,-1,,-1,-1,-1,-1,-1,-1,-1,-1,-1,-1,-1,-1,-1,-1,-1,-1,-1,-1,-1,-1,-1,-1,-1,-1,-1,-1,-1,-1,-1,-1,-1,-1,-1,-1,-1,-1,-1,-1,-1,-1,-1,-1,-1,-1,-1,-1,-1,-1,,-1,-1,-1,-1,-1,-1,-1,-1,-1,-1,-1,-1,-1,-1,-1,-1,-1,-1,-1,-1,-1,-1,-1,-1,-1,-1,-1,-1,-1,-1,-1,-1,-1,-1,-1,-1,-1,-1,-1,-1,-1,-1,-1,-1,-1,-1,-1,-1
0.01,null,0.65,0.5,60,40,0.6,0.01,0,IGEMRandomRemoveSequence,20,301048,,0.979166667,0.979166667,1,1,1,1,1,1,1,1,1,1,1,1,1,1,1,1,1,1,1,1,1,1,1,1,1,1,1,1,1,1,1,1,1,1,1,1,1,1,1,1,1,1,1,1,1,1,1,,0.064748398,0.045705399,0.03944337,0.027592655,0.018780517,0.011264557,0.008539589,0.006216108,0.004082443,0.003294951,0.002590998,0.001920696,0.001277428,0.00102717,7.77E-04,5.31E-04,3.95E-04,2.70E-04,1.45E-04,2.00E-05,1.00E-05,0,0,0,0,0,0,0,0,0,0,0,0,0,0,0,0,0,0,0,0,0,0,0,0,0,0,0,0,,0.45,0.45,1,1,1,1,1,1,1,1,1,1,1,1,1,1,1,1,1,1,1,1,1,1,1,1,1,1,1,1,1,1,1,1,1,1,1,1,1,1,1,1,1,1,1,1,1,1,,1,1,0.111111111,0,0,0,0,0,0,0,0,0,0,0,0,0,0,0,0,0,0,0,0,0,0,0,0,0,0,0,0,0,0,0,0,0,0,0,0,0,0,0,0,0,0,0,0,0,,0.45,0.45,1,1,1,1,1,1,1,1,1,1,1,1,1,1,1,1,1,1,1,1,1,1,1,1,1,1,1,1,1,1,1,1,1,1,1,1,1,1,1,1,1,1,1,1,1,1,,1,1,0.111111111,0,0,0,0,0,0,0,0,0,0,0,0,0,0,0,0,0,0,0,0,0,0,0,0,0,0,0,0,0,0,0,0,0,0,0,0,0,0,0,0,0,0,0,0,0,,44,41,35,15,34,36,16,39,23,12,5,32,4,3,13,11,25,17,2,19,10,47,46,45,43,42,40,38,37,33,31,30,29,28,27,26,24,22,21,20,18,14,9,8,7,6,1,0
0.01,0.95,0.65,0.5,60,40,0.6,0.01,1,RandomEMDetectRandom,20,3247,,1,1,1,1,1,1,1,1,1,1,1,1,1,1,1,1,1,1,1,1,1,1,1,1,1,1,1,1,1,1,1,1,1,1,1,1,1,1,1,1,1,1,1,1,1,1,1,1,1,,0.083968008,0.083693314,0.083287625,0.083238346,0.082967654,0.082713487,0.070625747,0.070325549,0.070325549,0.066227531,0.065728823,0.065379325,0.065057352,0.063065978,0.06275128,0.062476586,0.062216599,0.061972659,0.061947633,0.060930934,0.060747231,0.060381028,0.060333749,0.048366086,0.048293781,0.0478231,0.046806402,0.046463406,0.045560472,0.044433317,0.032372796,0.03177163,0.03177163,0.031584607,0.03066142,0.030564089,0.030212591,0.029839567,0.029839567,0.029839567,0.029382533,0.028946552,0.016716431,0.014564401,0.014312234,0.014264955,0.012123643,0.011923654,0,,-1,-1,-1,-1,-1,-1,-1,-1,-1,-1,-1,-1,-1,-1,-1,-1,-1,-1,-1,-1,-1,-1,-1,-1,-1,-1,-1,-1,-1,-1,-1,-1,-1,-1,-1,-1,-1,-1,-1,-1,-1,-1,-1,-1,-1,-1,-1,-1,,-1,-1,-1,-1,-1,-1,-1,-1,-1,-1,-1,-1,-1,-1,-1,-1,-1,-1,-1,-1,-1,-1,-1,-1,-1,-1,-1,-1,-1,-1,-1,-1,-1,-1,-1,-1,-1,-1,-1,-1,-1,-1,-1,-1,-1,-1,-1,-1,,-1,-1,-1,-1,-1,-1,-1,-1,-1,-1,-1,-1,-1,-1,-1,-1,-1,-1,-1,-1,-1,-1,-1,-1,-1,-1,-1,-1,-1,-1,-1,-1,-1,-1,-1,-1,-1,-1,-1,-1,-1,-1,-1,-1,-1,-1,-1,-1,,-1,-1,-1,-1,-1,-1,-1,-1,-1,-1,-1,-1,-1,-1,-1,-1,-1,-1,-1,-1,-1,-1,-1,-1,-1,-1,-1,-1,-1,-1,-1,-1,-1,-1,-1,-1,-1,-1,-1,-1,-1,-1,-1,-1,-1,-1,-1,-1,,-1,-1,-1,-1,-1,-1,-1,-1,-1,-1,-1,-1,-1,-1,-1,-1,-1,-1,-1,-1,-1,-1,-1,-1,-1,-1,-1,-1,-1,-1,-1,-1,-1,-1,-1,-1,-1,-1,-1,-1,-1,-1,-1,-1,-1,-1,-1,-1
0.01,null,0.65,0.5,60,40,0.6,0.01,1,IGEMRandomRemoveSequence,20,252529,,1,1,1,1,1,1,1,1,1,1,1,1,1,1,1,1,1,1,1,1,1,1,1,1,1,1,1,1,1,1,1,1,1,1,1,1,1,1,1,1,1,1,1,1,1,1,1,1,1,,0.083968008,0.02412969,0.014743014,0.010228344,0.008521232,0.007147762,0.005794306,0.00453347,0.00360506,0.002730244,0.002262686,0.001817622,0.001446098,0.001084574,7.23E-04,4.87E-04,2.50E-04,1.25E-04,0,0,0,0,0,0,0,0,0,0,0,0,0,0,0,0,0,0,0,0,0,0,0,0,0,0,0,0,0,0,0,,0.5,0.5,0.5,1,1,1,1,1,1,1,1,1,1,1,1,1,1,1,1,1,1,1,1,1,1,1,1,1,1,1,1,1,1,1,1,1,1,1,1,1,1,1,1,1,1,1,1,1,,1,1,1,0,0,0,0,0,0,0,0,0,0,0,0,0,0,0,0,0,0,0,0,0,0,0,0,0,0,0,0,0,0,0,0,0,0,0,0,0,0,0,0,0,0,0,0,0,,0.5,0.5,0.5,1,1,1,1,1,1,1,1,1,1,1,1,1,1,1,1,1,1,1,1,1,1,1,1,1,1,1,1,1,1,1,1,1,1,1,1,1,1,1,1,1,1,1,1,1,,1,1,1,0,0,0,0,0,0,0,0,0,0,0,0,0,0,0,0,0,0,0,0,0,0,0,0,0,0,0,0,0,0,0,0,0,0,0,0,0,0,0,0,0,0,0,0,0,,9,10,2,36,16,44,25,34,18,30,20,11,29,33,4,40,31,22,47,46,45,43,42,41,39,38,37,35,32,28,27,26,24,23,21,19,17,15,14,13,12,8,7,6,5,3,1,0
0.01,0.95,0.65,0.5,60,40,0.6,0.01,2,RandomEMDetectRandom,20,3179,,1,1,1,1,1,1,1,1,1,1,1,1,1,1,1,1,1,1,1,1,1,1,1,1,1,1,1,1,1,1,1,1,1,1,1,1,1,1,1,1,1,1,1,1,1,1,1,1,1,,0.12449758,0.121679509,0.110073623,0.110048598,0.109978112,0.101719372,0.101081761,0.101081761,0.101081761,0.101056736,0.10097596,0.10097596,0.100678104,0.100530166,0.10050514,0.1002659,0.099726284,0.08780744,0.076619311,0.073472496,0.072664165,0.07149484,0.070630277,0.070138643,0.068830131,0.068502731,0.068194751,0.060724049,0.05872626,0.055832474,0.053083299,0.052502652,0.044523173,0.044523173,0.044452687,0.036188893,0.036074854,0.035763122,0.034771823,0.024385351,0.023287793,0.023109767,0.015577651,0.015057284,0.004767262,0.004127938,0.004057452,0.003884489,0,,-1,-1,-1,-1,-1,-1,-1,-1,-1,-1,-1,-1,-1,-1,-1,-1,-1,-1,-1,-1,-1,-1,-1,-1,-1,-1,-1,-1,-1,-1,-1,-1,-1,-1,-1,-1,-1,-1,-1,-1,-1,-1,-1,-1,-1,-1,-1,-1,,-1,-1,-1,-1,-1,-1,-1,-1,-1,-1,-1,-1,-1,-1,-1,-1,-1,-1,-1,-1,-1,-1,-1,-1,-1,-1,-1,-1,-1,-1,-1,-1,-1,-1,-1,-1,-1,-1,-1,-1,-1,-1,-1,-1,-1,-1,-1,-1,,-1,-1,-1,-1,-1,-1,-1,-1,-1,-1,-1,-1,-1,-1,-1,-1,-1,-1,-1,-1,-1,-1,-1,-1,-1,-1,-1,-1,-1,-1,-1,-1,-1,-1,-1,-1,-1,-1,-1,-1,-1,-1,-1,-1,-1,-1,-1,-1,,-1,-1,-1,-1,-1,-1,-1,-1,-1,-1,-1,-1,-1,-1,-1,-1,-1,-1,-1,-1,-1,-1,-1,-1,-1,-1,-1,-1,-1,-1,-1,-1,-1,-1,-1,-1,-1,-1,-1,-1,-1,-1,-1,-1,-1,-1,-1,-1,,-1,-1,-1,-1,-1,-1,-1,-1,-1,-1,-1,-1,-1,-1,-1,-1,-1,-1,-1,-1,-1,-1,-1,-1,-1,-1,-1,-1,-1,-1,-1,-1,-1,-1,-1,-1,-1,-1,-1,-1,-1,-1,-1,-1,-1,-1,-1,-1
0.01,null,0.65,0.5,60,40,0.6,0.01,2,IGEMRandomRemoveSequence,20,264848,,1,1,1,1,1,1,1,1,1,1,1,1,1,1,1,1,1,1,1,1,1,1,1,1,1,1,1,1,1,1,1,1,1,1,1,1,1,1,1,1,1,1,1,1,1,1,1,1,1,,0.12449758,0.068547033,0.031574456,0.018758693,0.013726245,0.010529624,0.007927786,0.005594745,0.003998897,0.003039093,0.002299405,0.001729211,0.001284147,8.39E-04,4.87E-04,2.50E-04,1.25E-04,0,0,0,0,0,0,0,0,0,0,0,0,0,0,0,0,0,0,0,0,0,0,0,0,0,0,0,0,0,0,0,0,,0.55,0.625,1,1,1,1,1,1,1,1,1,1,1,1,1,1,1,1,1,1,1,1,1,1,1,1,1,1,1,1,1,1,1,1,1,1,1,1,1,1,1,1,1,1,1,1,1,1,,1,0.454545455,0.090909091,0.090909091,0,0,0,0,0,0,0,0,0,0,0,0,0,0,0,0,0,0,0,0,0,0,0,0,0,0,0,0,0,0,0,0,0,0,0,0,0,0,0,0,0,0,0,0,,0.55,0.625,1,1,1,1,1,1,1,1,1,1,1,1,1,1,1,1,1,1,1,1,1,1,1,1,1,1,1,1,1,1,1,1,1,1,1,1,1,1,1,1,1,1,1,1,1,1,,1,0.454545455,0.090909091,0.090909091,0,0,0,0,0,0,0,0,0,0,0,0,0,0,0,0,0,0,0,0,0,0,0,0,0,0,0,0,0,0,0,0,0,0,0,0,0,0,0,0,0,0,0,0,,43,11,31,29,25,24,9,14,6,4,13,41,20,16,33,42,28,47,46,45,44,40,39,38,37,36,35,34,32,30,27,26,23,22,21,19,18,17,15,12,10,8,7,5,3,2,1,0
0.01,0.95,0.65,0.5,60,40,0.6,0.01,3,RandomEMDetectRandom,20,2576,,1,1,1,1,1,1,1,1,1,1,1,1,1,1,1,1,1,1,1,1,1,1,1,1,1,1,1,1,1,1,1,1,1,1,1,1,1,1,1,1,1,1,1,1,1,1,1,1,1,,0.046728927,0.0462833,0.0462833,0.04358649,0.04358449,0.043511413,0.043459361,0.039854129,0.039785643,0.039480417,0.039286528,0.039214223,0.038591703,0.038106231,0.036540971,0.036515945,0.032780676,0.032708371,0.030879492,0.030879492,0.030879492,0.030348656,0.028829092,0.025059729,0.023696072,0.023448881,0.020931803,0.020449019,0.020109222,0.017529957,0.016109721,0.013273594,0.012306026,0.012228949,0.011766503,0.01167549,0.011507673,0.010975695,0.00836233,0.007095315,0.006286746,0.004539442,0.00284153,0.002744199,0.002340211,0.001087926,2.81E-04,9.73E-05,0,,-1,-1,-1,-1,-1,-1,-1,-1,-1,-1,-1,-1,-1,-1,-1,-1,-1,-1,-1,-1,-1,-1,-1,-1,-1,-1,-1,-1,-1,-1,-1,-1,-1,-1,-1,-1,-1,-1,-1,-1,-1,-1,-1,-1,-1,-1,-1,-1,,-1,-1,-1,-1,-1,-1,-1,-1,-1,-1,-1,-1,-1,-1,-1,-1,-1,-1,-1,-1,-1,-1,-1,-1,-1,-1,-1,-1,-1,-1,-1,-1,-1,-1,-1,-1,-1,-1,-1,-1,-1,-1,-1,-1,-1,-1,-1,-1,,-1,-1,-1,-1,-1,-1,-1,-1,-1,-1,-1,-1,-1,-1,-1,-1,-1,-1,-1,-1,-1,-1,-1,-1,-1,-1,-1,-1,-1,-1,-1,-1,-1,-1,-1,-1,-1,-1,-1,-1,-1,-1,-1,-1,-1,-1,-1,-1,,-1,-1,-1,-1,-1,-1,-1,-1,-1,-1,-1,-1,-1,-1,-1,-1,-1,-1,-1,-1,-1,-1,-1,-1,-1,-1,-1,-1,-1,-1,-1,-1,-1,-1,-1,-1,-1,-1,-1,-1,-1,-1,-1,-1,-1,-1,-1,-1,,-1,-1,-1,-1,-1,-1,-1,-1,-1,-1,-1,-1,-1,-1,-1,-1,-1,-1,-1,-1,-1,-1,-1,-1,-1,-1,-1,-1,-1,-1,-1,-1,-1,-1,-1,-1,-1,-1,-1,-1,-1,-1,-1,-1,-1,-1,-1,-1
0.01,null,0.65,0.5,60,40,0.6,0.01,3,IGEMRandomRemoveSequence,20,263498,,1,1,1,1,1,1,1,1,1,1,1,1,1,1,1,1,1,1,1,1,1,1,1,1,1,1,1,1,1,1,1,1,1,1,1,1,1,1,1,1,1,1,1,1,1,1,1,1,1,,0.046728927,0.0348583,0.027685631,0.020948604,0.014677185,0.010634343,0.008220422,0.006043321,0.004603573,0.003532504,0.002889236,0.002406446,0.001951382,0.001589858,0.001228333,8.86E-04,6.46E-04,5.11E-04,3.85E-04,2.60E-04,1.35E-04,1.00E-05,0,0,0,0,0,0,0,0,0,0,0,0,0,0,0,0,0,0,0,0,0,0,0,0,0,0,0,,0.3,0.5,1,1,1,1,1,1,1,1,1,1,1,1,1,1,1,1,1,1,1,1,1,1,1,1,1,1,1,1,1,1,1,1,1,1,1,1,1,1,1,1,1,1,1,1,1,1,,1,0.333333333,0.333333333,0,0,0,0,0,0,0,0,0,0,0,0,0,0,0,0,0,0,0,0,0,0,0,0,0,0,0,0,0,0,0,0,0,0,0,0,0,0,0,0,0,0,0,0,0,,0.3,0.5,1,1,1,1,1,1,1,1,1,1,1,1,1,1,1,1,1,1,1,1,1,1,1,1,1,1,1,1,1,1,1,1,1,1,1,1,1,1,1,1,1,1,1,1,1,1,,1,0.333333333,0.333333333,0,0,0,0,0,0,0,0,0,0,0,0,0,0,0,0,0,0,0,0,0,0,0,0,0,0,0,0,0,0,0,0,0,0,0,0,0,0,0,0,0,0,0,0,0,,12,34,39,3,8,28,37,30,20,47,25,22,29,40,4,2,9,45,1,26,44,43,46,42,41,38,36,35,33,32,31,27,24,23,21,19,18,17,16,15,14,13,11,10,7,6,5,0
0.01,0.95,0.65,0.5,60,40,0.6,0.01,4,RandomEMDetectRandom,20,2532,,1,1,1,1,1,1,1,1,1,1,1,1,1,1,1,1,1,1,1,1,1,1,1,1,1,1,1,1,1,1,1,1,1,1,1,1,1,1,1,1,1,1,1,1,1,1,1,1,1,,0.045873957,0.041226988,0.041129657,0.04026593,0.039958005,0.039785042,0.039468708,0.039396403,0.037926113,0.032915531,0.032599197,0.031879539,0.031638089,0.031611064,0.027147777,0.027032012,0.025534826,0.025349144,0.02402852,0.02402852,0.024001494,0.023872171,0.021923188,0.021551949,0.021551949,0.020970045,0.020847688,0.020017322,0.01988103,0.01988103,0.018895775,0.018212789,0.017312833,0.017176541,0.016540409,0.014731434,0.008623608,0.004051548,0.004049548,0.00388823,0.003817745,0.003644781,0.003642781,0.003642781,0.003083318,0.001538065,0.001279419,2.34E-04,0,,-1,-1,-1,-1,-1,-1,-1,-1,-1,-1,-1,-1,-1,-1,-1,-1,-1,-1,-1,-1,-1,-1,-1,-1,-1,-1,-1,-1,-1,-1,-1,-1,-1,-1,-1,-1,-1,-1,-1,-1,-1,-1,-1,-1,-1,-1,-1,-1,,-1,-1,-1,-1,-1,-1,-1,-1,-1,-1,-1,-1,-1,-1,-1,-1,-1,-1,-1,-1,-1,-1,-1,-1,-1,-1,-1,-1,-1,-1,-1,-1,-1,-1,-1,-1,-1,-1,-1,-1,-1,-1,-1,-1,-1,-1,-1,-1,,-1,-1,-1,-1,-1,-1,-1,-1,-1,-1,-1,-1,-1,-1,-1,-1,-1,-1,-1,-1,-1,-1,-1,-1,-1,-1,-1,-1,-1,-1,-1,-1,-1,-1,-1,-1,-1,-1,-1,-1,-1,-1,-1,-1,-1,-1,-1,-1,,-1,-1,-1,-1,-1,-1,-1,-1,-1,-1,-1,-1,-1,-1,-1,-1,-1,-1,-1,-1,-1,-1,-1,-1,-1,-1,-1,-1,-1,-1,-1,-1,-1,-1,-1,-1,-1,-1,-1,-1,-1,-1,-1,-1,-1,-1,-1,-1,,-1,-1,-1,-1,-1,-1,-1,-1,-1,-1,-1,-1,-1,-1,-1,-1,-1,-1,-1,-1,-1,-1,-1,-1,-1,-1,-1,-1,-1,-1,-1,-1,-1,-1,-1,-1,-1,-1,-1,-1,-1,-1,-1,-1,-1,-1,-1,-1
0.01,null,0.65,0.5,60,40,0.6,0.01,4,IGEMRandomRemoveSequence,20,248449,,1,1,1,1,1,1,1,1,1,1,1,1,1,1,1,1,1,1,1,1,1,1,1,1,1,1,1,1,1,1,1,1,1,1,1,1,1,1,1,1,1,1,1,1,1,1,1,1,1,,0.045873957,0.023557522,0.017124487,0.012257027,0.009523553,0.006921715,0.005340045,0.004046817,0.003118408,0.002253591,0.001572132,0.001210607,8.68E-04,6.32E-04,3.95E-04,2.70E-04,1.45E-04,2.00E-05,1.00E-05,0,0,0,0,0,0,0,0,0,0,0,0,0,0,0,0,0,0,0,0,0,0,0,0,0,0,0,0,0,0,,0.4,0.666666667,0,0,1,0,1,1,1,1,1,1,1,1,1,1,1,1,1,1,1,1,1,1,1,1,1,1,1,1,1,1,1,1,1,1,1,1,1,1,1,1,1,1,1,1,1,1,,1,0.25,0,0,0,0,0,0,0,0,0,0,0,0,0,0,0,0,0,0,0,0,0,0,0,0,0,0,0,0,0,0,0,0,0,0,0,0,0,0,0,0,0,0,0,0,0,0,,0.4,0.666666667,0,0,1,0,1,1,1,1,1,1,1,1,1,1,1,1,1,1,1,1,1,1,1,1,1,1,1,1,1,1,1,1,1,1,1,1,1,1,1,1,1,1,1,1,1,1,,1,0.25,0,0,0,0,0,0,0,0,0,0,0,0,0,0,0,0,0,0,0,0,0,0,0,0,0,0,0,0,0,0,0,0,0,0,0,0,0,0,0,0,0,0,0,0,0,0,,23,28,18,35,1,11,24,12,25,2,13,8,47,40,43,29,32,41,14,46,45,44,42,39,38,37,36,34,33,31,30,27,26,22,21,20,19,17,16,15,10,9,7,6,5,4,3,0
0.01,0.95,0.65,0.5,60,40,0.6,0.01,5,RandomEMDetectRandom,20,2954,,0.979166667,0.979166667,0.979166667,0.979166667,0.979166667,0.979166667,0.979166667,0.983333333,0.983333333,0.9875,0.9875,0.991666667,0.991666667,0.991666667,0.991666667,0.991666667,0.991666667,0.991666667,0.991666667,0.991666667,0.991666667,0.991666667,0.991666667,0.991666667,0.991666667,0.991666667,0.991666667,0.991666667,0.991666667,0.995833333,1,1,1,1,1,1,1,1,1,1,1,1,1,1,1,1,1,1,1,,0.088819582,0.088794556,0.088288155,0.086912814,0.086381751,0.086356726,0.085566598,0.082552344,0.081425089,0.078361045,0.076847272,0.074521486,0.074228764,0.07342965,0.0721208,0.070006867,0.069061285,0.068986207,0.066897793,0.066066181,0.065569215,0.055677483,0.053900661,0.052887411,0.042959617,0.04288454,0.042809462,0.032948449,0.032898398,0.029738629,0.026948906,0.025729438,0.025704412,0.025371462,0.014545386,0.013622829,0.013547752,0.012683585,0.012558455,0.012365613,0.011689272,0.011176029,0.011103724,0.010194756,3.63E-04,2.90E-04,2.43E-04,1.96E-04,0,,-1,-1,-1,-1,-1,-1,-1,-1,-1,-1,-1,-1,-1,-1,-1,-1,-1,-1,-1,-1,-1,-1,-1,-1,-1,-1,-1,-1,-1,-1,-1,-1,-1,-1,-1,-1,-1,-1,-1,-1,-1,-1,-1,-1,-1,-1,-1,-1,,-1,-1,-1,-1,-1,-1,-1,-1,-1,-1,-1,-1,-1,-1,-1,-1,-1,-1,-1,-1,-1,-1,-1,-1,-1,-1,-1,-1,-1,-1,-1,-1,-1,-1,-1,-1,-1,-1,-1,-1,-1,-1,-1,-1,-1,-1,-1,-1,,-1,-1,-1,-1,-1,-1,-1,-1,-1,-1,-1,-1,-1,-1,-1,-1,-1,-1,-1,-1,-1,-1,-1,-1,-1,-1,-1,-1,-1,-1,-1,-1,-1,-1,-1,-1,-1,-1,-1,-1,-1,-1,-1,-1,-1,-1,-1,-1,,-1,-1,-1,-1,-1,-1,-1,-1,-1,-1,-1,-1,-1,-1,-1,-1,-1,-1,-1,-1,-1,-1,-1,-1,-1,-1,-1,-1,-1,-1,-1,-1,-1,-1,-1,-1,-1,-1,-1,-1,-1,-1,-1,-1,-1,-1,-1,-1,,-1,-1,-1,-1,-1,-1,-1,-1,-1,-1,-1,-1,-1,-1,-1,-1,-1,-1,-1,-1,-1,-1,-1,-1,-1,-1,-1,-1,-1,-1,-1,-1,-1,-1,-1,-1,-1,-1,-1,-1,-1,-1,-1,-1,-1,-1,-1,-1
0.01,null,0.65,0.5,60,40,0.6,0.01,5,IGEMRandomRemoveSequence,20,258897,,0.979166667,0.979166667,1,1,1,1,1,1,1,1,1,1,1,1,1,1,1,1,1,1,1,1,1,1,1,1,1,1,1,1,1,1,1,1,1,1,1,1,1,1,1,1,1,1,1,1,1,1,1,,0.088819582,0.039628913,0.029982386,0.021311245,0.016708462,0.012761544,0.009866495,0.007285935,0.005125517,0.003832289,0.00281956,0.002448036,0.002095607,0.001845349,0.001608954,0.001372558,0.001136163,0.001011034,8.86E-04,7.61E-04,6.36E-04,5.11E-04,3.85E-04,2.60E-04,1.35E-04,1.00E-05,0,0,0,0,0,0,0,0,0,0,0,0,0,0,0,0,0,0,0,0,0,0,0,,0.4,0.6,1,1,1,1,1,1,1,1,1,1,1,1,1,1,1,1,1,1,1,1,1,1,1,1,1,1,1,1,1,1,1,1,1,1,1,1,1,1,1,1,1,1,1,1,1,1,,1,0.375,0.125,0,0,0,0,0,0,0,0,0,0,0,0,0,0,0,0,0,0,0,0,0,0,0,0,0,0,0,0,0,0,0,0,0,0,0,0,0,0,0,0,0,0,0,0,0,,0.4,0.6,1,1,1,1,1,1,1,1,1,1,1,1,1,1,1,1,1,1,1,1,1,1,1,1,1,1,1,1,1,1,1,1,1,1,1,1,1,1,1,1,1,1,1,1,1,1,,1,0.375,0.125,0,0,0,0,0,0,0,0,0,0,0,0,0,0,0,0,0,0,0,0,0,0,0,0,0,0,0,0,0,0,0,0,0,0,0,0,0,0,0,0,0,0,0,0,0,,9,47,14,32,24,40,38,19,16,22,2,7,33,15,23,43,20,13,4,46,36,26,34,42,39,45,44,41,37,35,31,30,29,28,27,25,21,18,17,12,11,10,8,6,5,3,1,0
0.01,0.95,0.65,0.5,60,40,0.6,0.01,6,RandomEMDetectRandom,20,4444,,0.979166667,0.979166667,0.979166667,0.979166667,0.979166667,0.979166667,0.979166667,0.979166667,0.979166667,0.979166667,0.979166667,0.979166667,0.983333333,0.983333333,0.983333333,0.983333333,0.983333333,0.983333333,0.983333333,0.983333333,0.983333333,0.983333333,0.983333333,0.983333333,0.983333333,0.983333333,0.9875,0.9875,0.9875,0.9875,0.9875,0.991666667,0.995833333,0.995833333,0.995833333,0.995833333,0.995833333,0.995833333,0.995833333,0.995833333,0.995833333,0.995833333,0.995833333,0.995833333,1,1,1,1,1,,0.123893849,0.123511571,0.123364972,0.119740064,0.11917519,0.11849946,0.107506559,0.107230748,0.106228249,0.105233738,0.105233738,0.098353565,0.087300939,0.087117599,0.087006565,0.08693228,0.079948178,0.079850847,0.07795748,0.077905439,0.076647444,0.076622418,0.072894333,0.072726262,0.072678983,0.06921655,0.058399884,0.058374858,0.058127713,0.058033155,0.057911967,0.047242542,0.030090578,0.030041299,0.029863778,0.028360197,0.028360197,0.027093892,0.026445788,0.026420762,0.015727528,0.013746847,0.01300125,0.012951198,0.001968742,0.001441591,0.001394312,6.73E-04,0,,-1,-1,-1,-1,-1,-1,-1,-1,-1,-1,-1,-1,-1,-1,-1,-1,-1,-1,-1,-1,-1,-1,-1,-1,-1,-1,-1,-1,-1,-1,-1,-1,-1,-1,-1,-1,-1,-1,-1,-1,-1,-1,-1,-1,-1,-1,-1,-1,,-1,-1,-1,-1,-1,-1,-1,-1,-1,-1,-1,-1,-1,-1,-1,-1,-1,-1,-1,-1,-1,-1,-1,-1,-1,-1,-1,-1,-1,-1,-1,-1,-1,-1,-1,-1,-1,-1,-1,-1,-1,-1,-1,-1,-1,-1,-1,-1,,-1,-1,-1,-1,-1,-1,-1,-1,-1,-1,-1,-1,-1,-1,-1,-1,-1,-1,-1,-1,-1,-1,-1,-1,-1,-1,-1,-1,-1,-1,-1,-1,-1,-1,-1,-1,-1,-1,-1,-1,-1,-1,-1,-1,-1,-1,-1,-1,,-1,-1,-1,-1,-1,-1,-1,-1,-1,-1,-1,-1,-1,-1,-1,-1,-1,-1,-1,-1,-1,-1,-1,-1,-1,-1,-1,-1,-1,-1,-1,-1,-1,-1,-1,-1,-1,-1,-1,-1,-1,-1,-1,-1,-1,-1,-1,-1,,-1,-1,-1,-1,-1,-1,-1,-1,-1,-1,-1,-1,-1,-1,-1,-1,-1,-1,-1,-1,-1,-1,-1,-1,-1,-1,-1,-1,-1,-1,-1,-1,-1,-1,-1,-1,-1,-1,-1,-1,-1,-1,-1,-1,-1,-1,-1,-1
0.01,null,0.65,0.5,60,40,0.6,0.01,6,IGEMRandomRemoveSequence,20,269372,,0.979166667,1,1,1,1,1,1,1,1,1,1,1,1,1,1,1,1,1,1,1,1,1,1,1,1,1,1,1,1,1,1,1,1,1,1,1,1,1,1,1,1,1,1,1,1,1,1,1,1,,0.123893849,0.071689388,0.036775712,0.021388105,0.014110459,0.01087299,0.007642469,0.005006712,0.003323144,0.00277797,0.002332906,0.001961382,0.001608953,0.001358695,0.001118437,8.82E-04,6.46E-04,5.11E-04,3.85E-04,2.60E-04,1.35E-04,1.00E-05,0,0,0,0,0,0,0,0,0,0,0,0,0,0,0,0,0,0,0,0,0,0,0,0,0,0,0,,0.5,0.666666667,0.666666667,1,1,1,1,1,1,1,1,1,1,1,1,1,1,1,1,1,1,1,1,1,1,1,1,1,1,1,1,1,1,1,1,1,1,1,1,1,1,1,1,1,1,1,1,1,,1,0.4,0.2,0.1,0.1,0,0,0,0,0,0,0,0,0,0,0,0,0,0,0,0,0,0,0,0,0,0,0,0,0,0,0,0,0,0,0,0,0,0,0,0,0,0,0,0,0,0,0,,0.5,0.666666667,0.666666667,1,1,1,1,1,1,1,1,1,1,1,1,1,1,1,1,1,1,1,1,1,1,1,1,1,1,1,1,1,1,1,1,1,1,1,1,1,1,1,1,1,1,1,1,1,,1,0.4,0.2,0.1,0.1,0,0,0,0,0,0,0,0,0,0,0,0,0,0,0,0,0,0,0,0,0,0,0,0,0,0,0,0,0,0,0,0,0,0,0,0,0,0,0,0,0,0,0,,32,11,20,31,42,6,12,47,45,25,36,22,44,29,7,14,9,33,24,37,16,10,46,43,41,40,39,38,35,34,30,28,27,26,23,21,19,18,17,15,13,8,5,4,3,2,1,0
0.01,0.95,0.65,0.5,60,40,0.6,0.01,7,RandomEMDetectRandom,20,4384,,0.979166667,0.979166667,0.983333333,0.983333333,0.983333333,0.983333333,0.983333333,0.983333333,0.983333333,0.983333333,0.983333333,0.983333333,0.983333333,0.983333333,0.9875,0.9875,0.9875,0.9875,0.9875,0.9875,0.9875,0.9875,0.9875,0.9875,0.9875,0.9875,0.9875,0.9875,0.9875,0.991666667,0.991666667,0.991666667,0.991666667,0.991666667,0.991666667,0.991666667,0.995833333,0.995833333,0.995833333,0.995833333,0.995833333,0.995833333,0.995833333,0.995833333,0.995833333,0.995833333,0.995833333,1,1,,0.052222449,0.049664724,0.046657346,0.044668216,0.089049454,0.087795167,0.087152361,0.087083875,0.085790036,0.085106675,0.084742501,0.084717475,0.084591674,0.084564094,0.0331184,0.031881111,0.030274542,0.030052012,0.028795727,0.028369467,0.027719446,0.071954392,0.116553463,0.115932108,0.115332788,0.11464727,0.112109514,0.112109514,0.111603314,0.062408651,0.061009097,0.060150755,0.059851038,0.059630796,0.058496778,0.057926119,0.008485348,0.007166517,0.005556261,0.004775757,0.004401835,0.003669105,0.003619054,0.00344009,0.003194822,0.002433561,0.002211032,2.70E-04,0,,-1,-1,-1,-1,-1,-1,-1,-1,-1,-1,-1,-1,-1,-1,-1,-1,-1,-1,-1,-1,-1,-1,-1,-1,-1,-1,-1,-1,-1,-1,-1,-1,-1,-1,-1,-1,-1,-1,-1,-1,-1,-1,-1,-1,-1,-1,-1,-1,,-1,-1,-1,-1,-1,-1,-1,-1,-1,-1,-1,-1,-1,-1,-1,-1,-1,-1,-1,-1,-1,-1,-1,-1,-1,-1,-1,-1,-1,-1,-1,-1,-1,-1,-1,-1,-1,-1,-1,-1,-1,-1,-1,-1,-1,-1,-1,-1,,-1,-1,-1,-1,-1,-1,-1,-1,-1,-1,-1,-1,-1,-1,-1,-1,-1,-1,-1,-1,-1,-1,-1,-1,-1,-1,-1,-1,-1,-1,-1,-1,-1,-1,-1,-1,-1,-1,-1,-1,-1,-1,-1,-1,-1,-1,-1,-1,,-1,-1,-1,-1,-1,-1,-1,-1,-1,-1,-1,-1,-1,-1,-1,-1,-1,-1,-1,-1,-1,-1,-1,-1,-1,-1,-1,-1,-1,-1,-1,-1,-1,-1,-1,-1,-1,-1,-1,-1,-1,-1,-1,-1,-1,-1,-1,-1,,-1,-1,-1,-1,-1,-1,-1,-1,-1,-1,-1,-1,-1,-1,-1,-1,-1,-1,-1,-1,-1,-1,-1,-1,-1,-1,-1,-1,-1,-1,-1,-1,-1,-1,-1,-1,-1,-1,-1,-1,-1,-1,-1,-1,-1,-1,-1,-1
0.01,null,0.65,0.5,60,40,0.6,0.01,7,IGEMRandomRemoveSequence,20,263252,,0.979166667,0.979166667,1,1,1,1,1,1,1,1,1,1,1,1,1,1,1,1,1,1,1,1,1,1,1,1,1,1,1,1,1,1,1,1,1,1,1,1,1,1,1,1,1,1,1,1,1,1,1,,0.052222449,0.039568955,0.025915013,0.020370052,0.014939227,0.012690632,0.010587026,0.009107654,0.007689297,0.006533141,0.005420494,0.004307847,0.003206636,0.002331819,0.001582132,0.001239703,0.001003307,7.67E-04,5.31E-04,3.95E-04,2.70E-04,1.45E-04,2.00E-05,1.00E-05,0,0,0,0,0,0,0,0,0,0,0,0,0,0,0,0,0,0,0,0,0,0,0,0,0,,0.5,0.5,0,0.5,1,0,1,1,1,1,1,1,1,1,1,1,1,1,1,1,1,1,1,1,1,1,1,1,1,1,1,1,1,1,1,1,1,1,1,1,1,1,1,1,1,1,1,1,,1,1,0,0.1,0,0,0,0,0,0,0,0,0,0,0,0,0,0,0,0,0,0,0,0,0,0,0,0,0,0,0,0,0,0,0,0,0,0,0,0,0,0,0,0,0,0,0,0,,0.5,0.5,0,0.5,1,0,1,1,1,1,1,1,1,1,1,1,1,1,1,1,1,1,1,1,1,1,1,1,1,1,1,1,1,1,1,1,1,1,1,1,1,1,1,1,1,1,1,1,,1,1,0,0.1,0,0,0,0,0,0,0,0,0,0,0,0,0,0,0,0,0,0,0,0,0,0,0,0,0,0,0,0,0,0,0,0,0,0,0,0,0,0,0,0,0,0,0,0,,41,46,22,19,17,40,7,28,26,42,3,18,8,2,13,4,44,12,32,30,35,38,34,11,47,45,43,39,37,36,33,31,29,27,25,24,23,21,20,16,15,14,10,9,6,5,1,0
0.01,0.95,0.65,0.5,60,40,0.6,0.01,8,RandomEMDetectRandom,20,2942,,1,1,1,1,1,1,1,1,1,1,1,1,1,1,1,1,1,1,1,1,1,1,1,1,1,1,1,1,1,1,1,1,1,1,1,1,1,1,1,1,1,1,1,1,1,1,1,1,1,,0.128974133,0.124833344,0.112198308,0.112171282,0.112096205,0.111762528,0.11109518,0.110818571,0.109772018,0.10781609,0.107349395,0.102629919,0.090055148,0.08858151,0.080138551,0.080088499,0.075041101,0.074727861,0.070552888,0.053310031,0.053193999,0.053123513,0.040084125,0.039699359,0.037725392,0.032306025,0.02708632,0.026255885,0.024835311,0.024835311,0.024667495,0.023736958,0.018846158,0.018765081,0.018740055,0.018715029,0.005767265,0.005171884,0.004831619,0.004738107,0.004711082,0.004711082,0.003846229,0.002990232,0.002915154,0.002199947,1.19E-04,1.19E-04,0,,-1,-1,-1,-1,-1,-1,-1,-1,-1,-1,-1,-1,-1,-1,-1,-1,-1,-1,-1,-1,-1,-1,-1,-1,-1,-1,-1,-1,-1,-1,-1,-1,-1,-1,-1,-1,-1,-1,-1,-1,-1,-1,-1,-1,-1,-1,-1,-1,,-1,-1,-1,-1,-1,-1,-1,-1,-1,-1,-1,-1,-1,-1,-1,-1,-1,-1,-1,-1,-1,-1,-1,-1,-1,-1,-1,-1,-1,-1,-1,-1,-1,-1,-1,-1,-1,-1,-1,-1,-1,-1,-1,-1,-1,-1,-1,-1,,-1,-1,-1,-1,-1,-1,-1,-1,-1,-1,-1,-1,-1,-1,-1,-1,-1,-1,-1,-1,-1,-1,-1,-1,-1,-1,-1,-1,-1,-1,-1,-1,-1,-1,-1,-1,-1,-1,-1,-1,-1,-1,-1,-1,-1,-1,-1,-1,,-1,-1,-1,-1,-1,-1,-1,-1,-1,-1,-1,-1,-1,-1,-1,-1,-1,-1,-1,-1,-1,-1,-1,-1,-1,-1,-1,-1,-1,-1,-1,-1,-1,-1,-1,-1,-1,-1,-1,-1,-1,-1,-1,-1,-1,-1,-1,-1,,-1,-1,-1,-1,-1,-1,-1,-1,-1,-1,-1,-1,-1,-1,-1,-1,-1,-1,-1,-1,-1,-1,-1,-1,-1,-1,-1,-1,-1,-1,-1,-1,-1,-1,-1,-1,-1,-1,-1,-1,-1,-1,-1,-1,-1,-1,-1,-1
0.01,null,0.65,0.5,60,40,0.6,0.01,8,IGEMRandomRemoveSequence,20,272894,,1,1,1,1,1,1,1,1,1,1,1,1,1,1,1,1,1,1,1,1,1,1,1,1,1,1,1,1,1,1,1,1,1,1,1,1,1,1,1,1,1,1,1,1,1,1,1,1,1,,0.128974133,0.067477299,0.043037646,0.021956195,0.016823991,0.013247956,0.010286599,0.007963118,0.006394679,0.004828481,0.003625126,0.002512479,0.001808527,0.001363462,0.001021033,7.81E-04,6.46E-04,5.11E-04,3.85E-04,2.60E-04,1.35E-04,1.00E-05,0,0,0,0,0,0,0,0,0,0,0,0,0,0,0,0,0,0,0,0,0,0,0,0,0,0,0,,0.45,0.5,0.666666667,1,1,1,1,1,1,1,1,1,1,1,1,1,1,1,1,1,1,1,1,1,1,1,1,1,1,1,1,1,1,1,1,1,1,1,1,1,1,1,1,1,1,1,1,1,,1,0.444444444,0.222222222,0.111111111,0,0,0,0,0,0,0,0,0,0,0,0,0,0,0,0,0,0,0,0,0,0,0,0,0,0,0,0,0,0,0,0,0,0,0,0,0,0,0,0,0,0,0,0,,0.45,0.5,0.666666667,1,1,1,1,1,1,1,1,1,1,1,1,1,1,1,1,1,1,1,1,1,1,1,1,1,1,1,1,1,1,1,1,1,1,1,1,1,1,1,1,1,1,1,1,1,,1,0.444444444,0.222222222,0.111111111,0,0,0,0,0,0,0,0,0,0,0,0,0,0,0,0,0,0,0,0,0,0,0,0,0,0,0,0,0,0,0,0,0,0,0,0,0,0,0,0,0,0,0,0,,45,2,11,30,46,33,34,18,31,19,37,3,8,12,15,35,14,44,43,17,6,21,47,42,41,40,39,38,36,32,29,28,27,26,25,24,23,22,20,16,13,10,9,7,5,4,1,0
0.01,0.95,0.65,0.5,60,40,0.6,0.01,9,RandomEMDetectRandom,20,3358,,0.979166667,0.979166667,0.979166667,0.979166667,0.979166667,0.979166667,0.979166667,0.979166667,0.979166667,0.979166667,0.979166667,0.979166667,0.979166667,0.983333333,0.983333333,0.983333333,0.9875,0.9875,0.9875,0.9875,0.9875,0.9875,0.9875,0.991666667,0.991666667,0.991666667,0.991666667,0.991666667,0.991666667,0.991666667,0.991666667,0.991666667,0.991666667,0.991666667,0.995833333,0.995833333,0.995833333,0.995833333,0.995833333,0.995833333,0.995833333,0.995833333,0.995833333,0.995833333,1,1,1,1,1,,0.134646388,0.131087278,0.129881571,0.129813086,0.115843114,0.112625241,0.112600215,0.111628192,0.10292973,0.102280239,0.102255213,0.097135119,0.096113655,0.092380941,0.087326135,0.087301109,0.073695685,0.07301139,0.070153044,0.065166148,0.063219996,0.062385698,0.062385698,0.057191684,0.054964438,0.05488936,0.053465589,0.053465589,0.053415537,0.052608953,0.047325571,0.047106584,0.046898219,0.037506955,0.030171319,0.029185045,0.028250052,0.028134287,0.028134287,0.016394916,0.014560142,0.009808322,0.007224092,0.007176813,0.002521325,4.91E-04,2.57E-04,1.34E-04,0,,-1,-1,-1,-1,-1,-1,-1,-1,-1,-1,-1,-1,-1,-1,-1,-1,-1,-1,-1,-1,-1,-1,-1,-1,-1,-1,-1,-1,-1,-1,-1,-1,-1,-1,-1,-1,-1,-1,-1,-1,-1,-1,-1,-1,-1,-1,-1,-1,,-1,-1,-1,-1,-1,-1,-1,-1,-1,-1,-1,-1,-1,-1,-1,-1,-1,-1,-1,-1,-1,-1,-1,-1,-1,-1,-1,-1,-1,-1,-1,-1,-1,-1,-1,-1,-1,-1,-1,-1,-1,-1,-1,-1,-1,-1,-1,-1,,-1,-1,-1,-1,-1,-1,-1,-1,-1,-1,-1,-1,-1,-1,-1,-1,-1,-1,-1,-1,-1,-1,-1,-1,-1,-1,-1,-1,-1,-1,-1,-1,-1,-1,-1,-1,-1,-1,-1,-1,-1,-1,-1,-1,-1,-1,-1,-1,,-1,-1,-1,-1,-1,-1,-1,-1,-1,-1,-1,-1,-1,-1,-1,-1,-1,-1,-1,-1,-1,-1,-1,-1,-1,-1,-1,-1,-1,-1,-1,-1,-1,-1,-1,-1,-1,-1,-1,-1,-1,-1,-1,-1,-1,-1,-1,-1,,-1,-1,-1,-1,-1,-1,-1,-1,-1,-1,-1,-1,-1,-1,-1,-1,-1,-1,-1,-1,-1,-1,-1,-1,-1,-1,-1,-1,-1,-1,-1,-1,-1,-1,-1,-1,-1,-1,-1,-1,-1,-1,-1,-1,-1,-1,-1,-1
0.01,null,0.65,0.5,60,40,0.6,0.01,9,IGEMRandomRemoveSequence,20,269397,,0.979166667,0.979166667,1,1,1,1,1,1,1,1,1,1,1,1,1,1,1,1,1,1,1,1,1,1,1,1,1,1,1,1,1,1,1,1,1,1,1,1,1,1,1,1,1,1,1,1,1,1,1,,0.134646388,0.091486576,0.06849496,0.046931834,0.033533004,0.023616834,0.015373525,0.010890704,0.006896039,0.004252946,0.003283143,0.002602842,0.001931382,0.001565995,0.001223566,9.87E-04,7.51E-04,6.26E-04,5.01E-04,3.75E-04,2.50E-04,1.25E-04,0,0,0,0,0,0,0,0,0,0,0,0,0,0,0,0,0,0,0,0,0,0,0,0,0,0,0,,0.35,0,1,1,1,1,1,1,1,1,1,1,1,1,1,1,1,1,1,1,1,1,1,1,1,1,1,1,1,1,1,1,1,1,1,1,1,1,1,1,1,1,1,1,1,1,1,1,,1,0,0,0,0,0,0,0,0,0,0,0,0,0,0,0,0,0,0,0,0,0,0,0,0,0,0,0,0,0,0,0,0,0,0,0,0,0,0,0,0,0,0,0,0,0,0,0,,0.35,0,1,1,1,1,1,1,1,1,1,1,1,1,1,1,1,1,1,1,1,1,1,1,1,1,1,1,1,1,1,1,1,1,1,1,1,1,1,1,1,1,1,1,1,1,1,1,,1,0,0,0,0,0,0,0,0,0,0,0,0,0,0,0,0,0,0,0,0,0,0,0,0,0,0,0,0,0,0,0,0,0,0,0,0,0,0,0,0,0,0,0,0,0,0,0,,24,21,41,23,18,30,10,47,2,32,13,25,22,28,36,8,33,14,17,5,3,4,46,45,44,43,42,40,39,38,37,35,34,31,29,27,26,20,19,16,15,12,11,9,7,6,1,0
0.01,0.95,0.65,0.5,60,40,0.6,0.01,10,RandomEMDetectRandom,20,2578,,1,1,1,1,1,1,1,1,1,1,1,1,1,1,1,1,1,1,1,1,1,1,1,1,1,1,1,1,1,1,1,1,1,1,1,1,1,1,1,1,1,1,1,1,1,1,1,1,1,,0.065066094,0.065041068,0.065039068,0.060642561,0.058435023,0.058435023,0.054022262,0.049627755,0.049577704,0.047330718,0.044086145,0.043757627,0.043218548,0.042287988,0.041753592,0.037320403,0.03544237,0.035103656,0.034208076,0.034206076,0.034154025,0.033266458,0.033262458,0.032818709,0.032684649,0.032249096,0.029971608,0.029076029,0.028170495,0.028145469,0.027261902,0.027232876,0.026574075,0.026222531,0.026172479,0.025645739,0.024590207,0.020921769,0.020896743,0.018646281,0.014313487,0.011734507,0.007563287,0.007563287,0.006379045,0.006102579,0.005740839,0.002185285,0,,-1,-1,-1,-1,-1,-1,-1,-1,-1,-1,-1,-1,-1,-1,-1,-1,-1,-1,-1,-1,-1,-1,-1,-1,-1,-1,-1,-1,-1,-1,-1,-1,-1,-1,-1,-1,-1,-1,-1,-1,-1,-1,-1,-1,-1,-1,-1,-1,,-1,-1,-1,-1,-1,-1,-1,-1,-1,-1,-1,-1,-1,-1,-1,-1,-1,-1,-1,-1,-1,-1,-1,-1,-1,-1,-1,-1,-1,-1,-1,-1,-1,-1,-1,-1,-1,-1,-1,-1,-1,-1,-1,-1,-1,-1,-1,-1,,-1,-1,-1,-1,-1,-1,-1,-1,-1,-1,-1,-1,-1,-1,-1,-1,-1,-1,-1,-1,-1,-1,-1,-1,-1,-1,-1,-1,-1,-1,-1,-1,-1,-1,-1,-1,-1,-1,-1,-1,-1,-1,-1,-1,-1,-1,-1,-1,,-1,-1,-1,-1,-1,-1,-1,-1,-1,-1,-1,-1,-1,-1,-1,-1,-1,-1,-1,-1,-1,-1,-1,-1,-1,-1,-1,-1,-1,-1,-1,-1,-1,-1,-1,-1,-1,-1,-1,-1,-1,-1,-1,-1,-1,-1,-1,-1,,-1,-1,-1,-1,-1,-1,-1,-1,-1,-1,-1,-1,-1,-1,-1,-1,-1,-1,-1,-1,-1,-1,-1,-1,-1,-1,-1,-1,-1,-1,-1,-1,-1,-1,-1,-1,-1,-1,-1,-1,-1,-1,-1,-1,-1,-1,-1,-1
0.01,null,0.65,0.5,60,40,0.6,0.01,10,IGEMRandomRemoveSequence,20,257596,,1,1,1,1,1,1,1,1,1,1,1,1,1,1,1,1,1,1,1,1,1,1,1,1,1,1,1,1,1,1,1,1,1,1,1,1,1,1,1,1,1,1,1,1,1,1,1,1,1,,0.065066094,0.043228688,0.031885107,0.020958681,0.016056409,0.011638576,0.007275812,0.004777238,0.003218797,0.001836465,0.001176162,9.26E-04,7.91E-04,6.66E-04,5.41E-04,4.15E-04,2.90E-04,1.65E-04,4.00E-05,3.00E-05,2.00E-05,1.00E-05,0,0,0,0,0,0,0,0,0,0,0,0,0,0,0,0,0,0,0,0,0,0,0,0,0,0,0,,0.4,0.5,1,1,1,1,1,1,1,1,1,1,1,1,1,1,1,1,1,1,1,1,1,1,1,1,1,1,1,1,1,1,1,1,1,1,1,1,1,1,1,1,1,1,1,1,1,1,,1,0.375,0.125,0,0,0,0,0,0,0,0,0,0,0,0,0,0,0,0,0,0,0,0,0,0,0,0,0,0,0,0,0,0,0,0,0,0,0,0,0,0,0,0,0,0,0,0,0,,0.4,0.5,1,1,1,1,1,1,1,1,1,1,1,1,1,1,1,1,1,1,1,1,1,1,1,1,1,1,1,1,1,1,1,1,1,1,1,1,1,1,1,1,1,1,1,1,1,1,,1,0.375,0.125,0,0,0,0,0,0,0,0,0,0,0,0,0,0,0,0,0,0,0,0,0,0,0,0,0,0,0,0,0,0,0,0,0,0,0,0,0,0,0,0,0,0,0,0,0,,14,32,41,9,21,17,8,2,4,36,13,35,38,26,40,7,5,1,27,20,12,6,47,46,45,44,43,42,39,37,34,33,31,30,29,28,25,24,23,22,19,18,16,15,11,10,3,0
0.01,0.95,0.65,0.5,60,40,0.6,0.01,11,RandomEMDetectRandom,20,2930,,1,1,1,1,1,1,1,1,1,1,1,1,1,1,1,1,1,1,1,1,1,1,1,1,1,1,1,1,1,1,1,1,1,1,1,1,1,1,1,1,1,1,1,1,1,1,1,1,1,,0.082614102,0.082614102,0.082159716,0.081687894,0.081571855,0.080138835,0.076155837,0.075705542,0.065579622,0.062083771,0.061697467,0.061581702,0.060661142,0.060661142,0.05732541,0.056485046,0.056343981,0.054819351,0.054680282,0.049459954,0.048445886,0.0483774,0.047917018,0.042838652,0.042813626,0.039331064,0.038364012,0.038364012,0.037808303,0.032608666,0.02958251,0.029532458,0.029532458,0.029415921,0.028786501,0.028711424,0.027118806,0.026196253,0.02610524,0.024162052,0.021046533,0.01911029,0.015625088,0.014844878,0.011063617,0.007758302,0.004334384,8.67E-04,0,,-1,-1,-1,-1,-1,-1,-1,-1,-1,-1,-1,-1,-1,-1,-1,-1,-1,-1,-1,-1,-1,-1,-1,-1,-1,-1,-1,-1,-1,-1,-1,-1,-1,-1,-1,-1,-1,-1,-1,-1,-1,-1,-1,-1,-1,-1,-1,-1,,-1,-1,-1,-1,-1,-1,-1,-1,-1,-1,-1,-1,-1,-1,-1,-1,-1,-1,-1,-1,-1,-1,-1,-1,-1,-1,-1,-1,-1,-1,-1,-1,-1,-1,-1,-1,-1,-1,-1,-1,-1,-1,-1,-1,-1,-1,-1,-1,,-1,-1,-1,-1,-1,-1,-1,-1,-1,-1,-1,-1,-1,-1,-1,-1,-1,-1,-1,-1,-1,-1,-1,-1,-1,-1,-1,-1,-1,-1,-1,-1,-1,-1,-1,-1,-1,-1,-1,-1,-1,-1,-1,-1,-1,-1,-1,-1,,-1,-1,-1,-1,-1,-1,-1,-1,-1,-1,-1,-1,-1,-1,-1,-1,-1,-1,-1,-1,-1,-1,-1,-1,-1,-1,-1,-1,-1,-1,-1,-1,-1,-1,-1,-1,-1,-1,-1,-1,-1,-1,-1,-1,-1,-1,-1,-1,,-1,-1,-1,-1,-1,-1,-1,-1,-1,-1,-1,-1,-1,-1,-1,-1,-1,-1,-1,-1,-1,-1,-1,-1,-1,-1,-1,-1,-1,-1,-1,-1,-1,-1,-1,-1,-1,-1,-1,-1,-1,-1,-1,-1,-1,-1,-1,-1
0.01,null,0.65,0.5,60,40,0.6,0.01,11,IGEMRandomRemoveSequence,20,262690,,1,1,1,1,1,1,1,1,1,1,1,1,1,1,1,1,1,1,1,1,1,1,1,1,1,1,1,1,1,1,1,1,1,1,1,1,1,1,1,1,1,1,1,1,1,1,1,1,1,,0.082614102,0.05724982,0.042187052,0.027504245,0.019930893,0.015403437,0.011512386,0.009188905,0.006890787,0.004682872,0.002922091,0.002343267,0.001888203,0.001433139,9.88E-04,6.46E-04,5.21E-04,3.95E-04,2.70E-04,1.45E-04,2.00E-05,1.00E-05,0,0,0,0,0,0,0,0,0,0,0,0,0,0,0,0,0,0,0,0,0,0,0,0,0,0,0,,0.5,0.5,0.5,1,1,1,1,1,1,1,1,1,1,1,1,1,1,1,1,1,1,1,1,1,1,1,1,1,1,1,1,1,1,1,1,1,1,1,1,1,1,1,1,1,1,1,1,1,,1,1,0.1,0,0,0.1,0,0,0,0,0,0,0,0,0,0,0,0,0,0,0,0,0,0,0,0,0,0,0,0,0,0,0,0,0,0,0,0,0,0,0,0,0,0,0,0,0,0,,0.5,0.5,0.5,1,1,1,1,1,1,1,1,1,1,1,1,1,1,1,1,1,1,1,1,1,1,1,1,1,1,1,1,1,1,1,1,1,1,1,1,1,1,1,1,1,1,1,1,1,,1,1,0.1,0,0,0.1,0,0,0,0,0,0,0,0,0,0,0,0,0,0,0,0,0,0,0,0,0,0,0,0,0,0,0,0,0,0,0,0,0,0,0,0,0,0,0,0,0,0,,14,17,30,16,29,24,45,23,40,34,46,7,11,0,25,3,37,44,31,33,19,12,47,43,42,41,39,38,36,35,32,28,27,26,22,21,20,18,15,13,10,9,8,6,5,4,2,1
0.01,0.95,0.65,0.5,60,40,0.6,0.01,12,RandomEMDetectRandom,20,2610,,1,1,1,1,1,1,1,1,1,1,1,1,1,1,1,1,1,1,1,1,1,1,1,1,1,1,1,1,1,1,1,1,1,1,1,1,1,1,1,1,1,1,1,1,1,1,1,1,1,,0.050830227,0.045766281,0.045739256,0.043740435,0.043157428,0.043041389,0.040776666,0.040726615,0.04061758,0.035555634,0.035555634,0.035553634,0.035553634,0.035553634,0.035549634,0.035524608,0.035221381,0.035105343,0.035105343,0.035105343,0.035080317,0.030018371,0.029410338,0.02745767,0.025289337,0.025262311,0.025102813,0.024696638,0.024692638,0.022741869,0.022739869,0.017675923,0.015688262,0.015472048,0.015472048,0.015102336,0.0131417,0.013114675,0.013114675,0.005537478,0.005535478,0.005479426,0.005388413,0.005388413,0.005386413,0.0052974,0.004732516,0.002617347,0,,-1,-1,-1,-1,-1,-1,-1,-1,-1,-1,-1,-1,-1,-1,-1,-1,-1,-1,-1,-1,-1,-1,-1,-1,-1,-1,-1,-1,-1,-1,-1,-1,-1,-1,-1,-1,-1,-1,-1,-1,-1,-1,-1,-1,-1,-1,-1,-1,,-1,-1,-1,-1,-1,-1,-1,-1,-1,-1,-1,-1,-1,-1,-1,-1,-1,-1,-1,-1,-1,-1,-1,-1,-1,-1,-1,-1,-1,-1,-1,-1,-1,-1,-1,-1,-1,-1,-1,-1,-1,-1,-1,-1,-1,-1,-1,-1,,-1,-1,-1,-1,-1,-1,-1,-1,-1,-1,-1,-1,-1,-1,-1,-1,-1,-1,-1,-1,-1,-1,-1,-1,-1,-1,-1,-1,-1,-1,-1,-1,-1,-1,-1,-1,-1,-1,-1,-1,-1,-1,-1,-1,-1,-1,-1,-1,,-1,-1,-1,-1,-1,-1,-1,-1,-1,-1,-1,-1,-1,-1,-1,-1,-1,-1,-1,-1,-1,-1,-1,-1,-1,-1,-1,-1,-1,-1,-1,-1,-1,-1,-1,-1,-1,-1,-1,-1,-1,-1,-1,-1,-1,-1,-1,-1,,-1,-1,-1,-1,-1,-1,-1,-1,-1,-1,-1,-1,-1,-1,-1,-1,-1,-1,-1,-1,-1,-1,-1,-1,-1,-1,-1,-1,-1,-1,-1,-1,-1,-1,-1,-1,-1,-1,-1,-1,-1,-1,-1,-1,-1,-1,-1,-1
0.01,null,0.65,0.5,60,40,0.6,0.01,12,IGEMRandomRemoveSequence,20,249443,,1,1,1,1,1,1,1,1,1,1,1,1,1,1,1,1,1,1,1,1,1,1,1,1,1,1,1,1,1,1,1,1,1,1,1,1,1,1,1,1,1,1,1,1,1,1,1,1,1,,0.050830227,0.025520497,0.015776654,0.00612247,0.003207941,0.002338246,0.001460645,0.001005581,5.61E-04,4.25E-04,3.00E-04,1.75E-04,5.00E-05,4.00E-05,3.00E-05,2.00E-05,1.00E-05,0,0,0,0,0,0,0,0,0,0,0,0,0,0,0,0,0,0,0,0,0,0,0,0,0,0,0,0,0,0,0,0,,0.5,0,1,0,1,1,1,1,1,1,1,1,1,1,1,1,1,1,1,1,1,1,1,1,1,1,1,1,1,1,1,1,1,1,1,1,1,1,1,1,1,1,1,1,1,1,1,1,,1,0,0,0,0,0,0,0,0,0,0,0,0,0,0,0,0,0,0,0,0,0,0,0,0,0,0,0,0,0,0,0,0,0,0,0,0,0,0,0,0,0,0,0,0,0,0,0,,0.5,0,1,0,1,1,1,1,1,1,1,1,1,1,1,1,1,1,1,1,1,1,1,1,1,1,1,1,1,1,1,1,1,1,1,1,1,1,1,1,1,1,1,1,1,1,1,1,,1,0,0,0,0,0,0,0,0,0,0,0,0,0,0,0,0,0,0,0,0,0,0,0,0,0,0,0,0,0,0,0,0,0,0,0,0,0,0,0,0,0,0,0,0,0,0,0,,34,8,5,25,13,15,44,28,46,9,14,29,43,35,31,24,2,47,45,42,41,40,39,38,37,36,33,32,30,27,26,23,22,21,20,19,18,17,16,12,11,10,7,6,4,3,1,0
0.01,0.95,0.65,0.5,60,40,0.6,0.01,13,RandomEMDetectRandom,20,2888,,0.979166667,0.9875,0.9875,0.9875,0.9875,0.9875,0.9875,0.9875,0.9875,0.9875,0.9875,0.9875,0.9875,0.9875,0.9875,0.9875,0.9875,0.9875,0.9875,0.9875,0.9875,0.9875,0.9875,0.9875,0.9875,0.9875,0.991666667,0.991666667,0.991666667,0.991666667,0.991666667,0.991666667,0.995833333,0.995833333,0.995833333,0.995833333,0.995833333,0.995833333,0.995833333,0.995833333,1,1,1,1,1,1,1,1,1,,0.071048357,0.058106123,0.054326229,0.053985963,0.05042576,0.05023769,0.050100599,0.048795358,0.048770332,0.048521152,0.048377589,0.0468354,0.046810374,0.042555814,0.038654506,0.038654506,0.038654506,0.038325376,0.036820176,0.035217529,0.034969973,0.034638866,0.034292458,0.034034201,0.033444494,0.033369416,0.02736183,0.027157624,0.027048589,0.02566926,0.025315127,0.025290101,0.017864036,0.017272131,0.016943023,0.016619278,0.016450415,0.016448415,0.015251906,0.014691568,0.003144905,0.002586566,0.002475532,0.002403227,0.002171995,0.001554602,0.001554602,0.001125368,0,,-1,-1,-1,-1,-1,-1,-1,-1,-1,-1,-1,-1,-1,-1,-1,-1,-1,-1,-1,-1,-1,-1,-1,-1,-1,-1,-1,-1,-1,-1,-1,-1,-1,-1,-1,-1,-1,-1,-1,-1,-1,-1,-1,-1,-1,-1,-1,-1,,-1,-1,-1,-1,-1,-1,-1,-1,-1,-1,-1,-1,-1,-1,-1,-1,-1,-1,-1,-1,-1,-1,-1,-1,-1,-1,-1,-1,-1,-1,-1,-1,-1,-1,-1,-1,-1,-1,-1,-1,-1,-1,-1,-1,-1,-1,-1,-1,,-1,-1,-1,-1,-1,-1,-1,-1,-1,-1,-1,-1,-1,-1,-1,-1,-1,-1,-1,-1,-1,-1,-1,-1,-1,-1,-1,-1,-1,-1,-1,-1,-1,-1,-1,-1,-1,-1,-1,-1,-1,-1,-1,-1,-1,-1,-1,-1,,-1,-1,-1,-1,-1,-1,-1,-1,-1,-1,-1,-1,-1,-1,-1,-1,-1,-1,-1,-1,-1,-1,-1,-1,-1,-1,-1,-1,-1,-1,-1,-1,-1,-1,-1,-1,-1,-1,-1,-1,-1,-1,-1,-1,-1,-1,-1,-1,,-1,-1,-1,-1,-1,-1,-1,-1,-1,-1,-1,-1,-1,-1,-1,-1,-1,-1,-1,-1,-1,-1,-1,-1,-1,-1,-1,-1,-1,-1,-1,-1,-1,-1,-1,-1,-1,-1,-1,-1,-1,-1,-1,-1,-1,-1,-1,-1
0.01,null,0.65,0.5,60,40,0.6,0.01,13,IGEMRandomRemoveSequence,20,250571,,0.979166667,1,1,1,1,1,1,1,1,1,1,1,1,1,1,1,1,1,1,1,1,1,1,1,1,1,1,1,1,1,1,1,1,1,1,1,1,1,1,1,1,1,1,1,1,1,1,1,1,,0.071048357,0.039067616,0.019323516,0.013407482,0.011167141,0.009435098,0.007789561,0.006246077,0.005089921,0.003943764,0.002922735,0.002330048,0.001784875,0.001239702,7.57E-04,5.21E-04,3.85E-04,2.60E-04,1.35E-04,1.00E-05,0,0,0,0,0,0,0,0,0,0,0,0,0,0,0,0,0,0,0,0,0,0,0,0,0,0,0,0,0,,0.45,0.6,0.5,0.5,1,1,1,1,1,1,1,1,1,1,1,1,1,1,1,1,1,1,1,1,1,1,1,1,1,1,1,1,1,1,1,1,1,1,1,1,1,1,1,1,1,1,1,1,,1,0.333333333,0.111111111,0.111111111,0,0,0,0,0,0,0,0,0,0,0,0,0,0,0,0,0,0,0,0,0,0,0,0,0,0,0,0,0,0,0,0,0,0,0,0,0,0,0,0,0,0,0,0,,0.45,0.6,0.5,0.5,1,1,1,1,1,1,1,1,1,1,1,1,1,1,1,1,1,1,1,1,1,1,1,1,1,1,1,1,1,1,1,1,1,1,1,1,1,1,1,1,1,1,1,1,,1,0.333333333,0.111111111,0.111111111,0,0,0,0,0,0,0,0,0,0,0,0,0,0,0,0,0,0,0,0,0,0,0,0,0,0,0,0,0,0,0,0,0,0,0,0,0,0,0,0,0,0,0,0,,33,39,23,37,16,28,0,31,4,15,24,47,7,21,42,40,1,29,5,25,46,45,44,43,41,38,36,35,34,32,30,27,26,22,20,19,18,17,14,13,12,11,10,9,8,6,3,2
0.01,0.95,0.65,0.5,60,40,0.6,0.01,14,RandomEMDetectRandom,20,2362,,0.979166667,0.979166667,0.979166667,0.983333333,0.983333333,0.983333333,0.983333333,0.983333333,0.983333333,0.983333333,0.983333333,0.983333333,0.983333333,0.983333333,0.983333333,0.983333333,0.983333333,0.983333333,0.983333333,0.983333333,0.983333333,0.983333333,0.983333333,0.983333333,0.983333333,0.983333333,0.9875,0.9875,0.9875,0.9875,0.9875,0.9875,0.9875,0.9875,0.9875,0.9875,0.9875,0.9875,0.9875,0.9875,0.9875,0.9875,0.9875,0.9875,0.991666667,0.995833333,0.995833333,0.995833333,1,,0.064424064,0.060198978,0.059681839,0.056241646,0.053843139,0.053843139,0.05074548,0.050058663,0.049735921,0.049514934,0.048624546,0.048488486,0.040875033,0.040120212,0.03978383,0.039494271,0.039233626,0.03407896,0.032186536,0.03215951,0.031692901,0.031642849,0.030339537,0.028277732,0.027772095,0.026014809,0.02286014,0.022835114,0.022015205,0.018406786,0.014217879,0.0141706,0.014036539,0.014036539,0.014034539,0.013733004,0.013150515,0.013148515,0.01203914,0.011816976,0.011159037,0.010918366,0.010282211,0.009785101,0.007029668,0.004147998,0.003161662,0.002423363,0,,-1,-1,-1,-1,-1,-1,-1,-1,-1,-1,-1,-1,-1,-1,-1,-1,-1,-1,-1,-1,-1,-1,-1,-1,-1,-1,-1,-1,-1,-1,-1,-1,-1,-1,-1,-1,-1,-1,-1,-1,-1,-1,-1,-1,-1,-1,-1,-1,,-1,-1,-1,-1,-1,-1,-1,-1,-1,-1,-1,-1,-1,-1,-1,-1,-1,-1,-1,-1,-1,-1,-1,-1,-1,-1,-1,-1,-1,-1,-1,-1,-1,-1,-1,-1,-1,-1,-1,-1,-1,-1,-1,-1,-1,-1,-1,-1,,-1,-1,-1,-1,-1,-1,-1,-1,-1,-1,-1,-1,-1,-1,-1,-1,-1,-1,-1,-1,-1,-1,-1,-1,-1,-1,-1,-1,-1,-1,-1,-1,-1,-1,-1,-1,-1,-1,-1,-1,-1,-1,-1,-1,-1,-1,-1,-1,,-1,-1,-1,-1,-1,-1,-1,-1,-1,-1,-1,-1,-1,-1,-1,-1,-1,-1,-1,-1,-1,-1,-1,-1,-1,-1,-1,-1,-1,-1,-1,-1,-1,-1,-1,-1,-1,-1,-1,-1,-1,-1,-1,-1,-1,-1,-1,-1,,-1,-1,-1,-1,-1,-1,-1,-1,-1,-1,-1,-1,-1,-1,-1,-1,-1,-1,-1,-1,-1,-1,-1,-1,-1,-1,-1,-1,-1,-1,-1,-1,-1,-1,-1,-1,-1,-1,-1,-1,-1,-1,-1,-1,-1,-1,-1,-1
0.01,null,0.65,0.5,60,40,0.6,0.01,14,IGEMRandomRemoveSequence,20,250395,,0.979166667,0.979166667,1,1,1,1,1,1,1,1,1,1,1,1,1,1,1,1,1,1,1,1,1,1,1,1,1,1,1,1,1,1,1,1,1,1,1,1,1,1,1,1,1,1,1,1,1,1,1,,0.064424064,0.045346662,0.030944147,0.022079907,0.015316594,0.012567767,0.010484979,0.008839443,0.007456892,0.006344245,0.005233421,0.004151306,0.003222897,0.002345295,0.001692028,0.00122447,8.82E-04,6.32E-04,3.95E-04,2.70E-04,1.45E-04,2.00E-05,1.00E-05,0,0,0,0,0,0,0,0,0,0,0,0,0,0,0,0,0,0,0,0,0,0,0,0,0,0,,0.5,0.5,1,1,1,1,1,1,1,1,1,1,1,1,1,1,1,1,1,1,1,1,1,1,1,1,1,1,1,1,1,1,1,1,1,1,1,1,1,1,1,1,1,1,1,1,1,1,,1,0.3,0,0,0,0,0,0,0,0,0,0,0,0,0,0,0,0,0,0,0,0,0,0,0,0,0,0,0,0,0,0,0,0,0,0,0,0,0,0,0,0,0,0,0,0,0,0,,0.5,0.5,1,1,1,1,1,1,1,1,1,1,1,1,1,1,1,1,1,1,1,1,1,1,1,1,1,1,1,1,1,1,1,1,1,1,1,1,1,1,1,1,1,1,1,1,1,1,,1,0.3,0,0,0,0,0,0,0,0,0,0,0,0,0,0,0,0,0,0,0,0,0,0,0,0,0,0,0,0,0,0,0,0,0,0,0,0,0,0,0,0,0,0,0,0,0,0,,16,10,44,12,39,22,7,26,5,47,33,31,42,43,30,27,32,41,23,28,3,14,8,46,45,40,38,37,36,35,34,29,25,24,21,20,19,18,17,15,13,11,9,6,4,2,1,0
0.01,0.95,0.65,0.5,60,40,0.6,0.01,15,RandomEMDetectRandom,20,2519,,0.979166667,0.979166667,0.979166667,0.979166667,0.979166667,0.979166667,0.979166667,0.979166667,0.979166667,0.979166667,0.983333333,0.983333333,0.983333333,0.983333333,0.9875,0.991666667,0.991666667,0.991666667,0.991666667,0.991666667,0.991666667,0.991666667,0.991666667,0.991666667,0.991666667,0.991666667,0.991666667,0.991666667,0.991666667,0.991666667,0.991666667,0.991666667,0.991666667,0.991666667,0.991666667,0.991666667,0.995833333,0.995833333,0.995833333,1,1,1,1,1,1,1,1,1,1,,0.0371808,0.036683037,0.036478491,0.036478491,0.036383933,0.036218116,0.035877619,0.035584401,0.035363386,0.032672039,0.032549792,0.032132028,0.031677068,0.031542776,0.031377697,0.028087973,0.028010895,0.027820784,0.02766647,0.027358296,0.026662171,0.026662171,0.026323673,0.026276394,0.026097055,0.023368805,0.023067187,0.022855818,0.022595372,0.019438365,0.019302305,0.018674925,0.018289912,0.018289912,0.01779182,0.01779182,0.014644055,0.014596776,0.014448838,0.011506711,0.011429633,0.011404607,0.01132953,0.011146825,0.011010533,0.010958481,0.00563392,0.005453215,0,,-1,-1,-1,-1,-1,-1,-1,-1,-1,-1,-1,-1,-1,-1,-1,-1,-1,-1,-1,-1,-1,-1,-1,-1,-1,-1,-1,-1,-1,-1,-1,-1,-1,-1,-1,-1,-1,-1,-1,-1,-1,-1,-1,-1,-1,-1,-1,-1,,-1,-1,-1,-1,-1,-1,-1,-1,-1,-1,-1,-1,-1,-1,-1,-1,-1,-1,-1,-1,-1,-1,-1,-1,-1,-1,-1,-1,-1,-1,-1,-1,-1,-1,-1,-1,-1,-1,-1,-1,-1,-1,-1,-1,-1,-1,-1,-1,,-1,-1,-1,-1,-1,-1,-1,-1,-1,-1,-1,-1,-1,-1,-1,-1,-1,-1,-1,-1,-1,-1,-1,-1,-1,-1,-1,-1,-1,-1,-1,-1,-1,-1,-1,-1,-1,-1,-1,-1,-1,-1,-1,-1,-1,-1,-1,-1,,-1,-1,-1,-1,-1,-1,-1,-1,-1,-1,-1,-1,-1,-1,-1,-1,-1,-1,-1,-1,-1,-1,-1,-1,-1,-1,-1,-1,-1,-1,-1,-1,-1,-1,-1,-1,-1,-1,-1,-1,-1,-1,-1,-1,-1,-1,-1,-1,,-1,-1,-1,-1,-1,-1,-1,-1,-1,-1,-1,-1,-1,-1,-1,-1,-1,-1,-1,-1,-1,-1,-1,-1,-1,-1,-1,-1,-1,-1,-1,-1,-1,-1,-1,-1,-1,-1,-1,-1,-1,-1,-1,-1,-1,-1,-1,-1
0.01,null,0.65,0.5,60,40,0.6,0.01,15,IGEMRandomRemoveSequence,20,234854,,0.979166667,1,1,1,1,1,1,1,1,1,1,1,1,1,1,1,1,1,1,1,1,1,1,1,1,1,1,1,1,1,1,1,1,1,1,1,1,1,1,1,1,1,1,1,1,1,1,1,1,,0.0371808,0.03690336,0.010194133,0.0078288,0.006372709,0.005195607,0.004424039,0.00368435,0.002999028,0.002317569,0.001664301,0.001021033,7.61E-04,6.26E-04,5.01E-04,3.75E-04,2.50E-04,1.25E-04,0,0,0,0,0,0,0,0,0,0,0,0,0,0,0,0,0,0,0,0,0,0,0,0,0,0,0,0,0,0,0,,0.45,0.666666667,1,1,1,1,1,1,1,1,1,1,1,1,1,1,1,1,1,1,1,1,1,1,1,1,1,1,1,1,1,1,1,1,1,1,1,1,1,1,1,1,1,1,1,1,1,1,,1,0.444444444,0.222222222,0,0,0,0,0,0,0,0,0,0,0,0,0,0,0,0,0,0,0,0,0,0,0,0,0,0,0,0,0,0,0,0,0,0,0,0,0,0,0,0,0,0,0,0,0,,0.45,0.666666667,1,1,1,1,1,1,1,1,1,1,1,1,1,1,1,1,1,1,1,1,1,1,1,1,1,1,1,1,1,1,1,1,1,1,1,1,1,1,1,1,1,1,1,1,1,1,,1,0.444444444,0.222222222,0,0,0,0,0,0,0,0,0,0,0,0,0,0,0,0,0,0,0,0,0,0,0,0,0,0,0,0,0,0,0,0,0,0,0,0,0,0,0,0,0,0,0,0,0,,12,36,44,30,17,33,11,22,21,47,7,24,32,10,31,19,0,20,46,45,43,42,41,40,39,38,37,35,34,29,28,27,26,25,23,18,16,15,14,13,9,8,6,5,4,3,2,1
0.01,0.95,0.65,0.5,60,40,0.6,0.01,16,RandomEMDetectRandom,20,4035,,0.958333333,0.958333333,0.958333333,0.958333333,0.958333333,0.958333333,0.958333333,0.958333333,0.9625,0.9625,0.9625,0.9625,0.9625,0.9625,0.9625,0.966666667,0.966666667,0.966666667,0.970833333,0.970833333,0.970833333,0.970833333,0.970833333,0.970833333,0.970833333,0.970833333,0.975,0.975,0.975,0.975,0.975,0.975,0.975,0.975,0.975,0.975,0.979166667,0.979166667,0.9875,0.9875,0.9875,0.991666667,0.995833333,1,1,1,1,1,1,,0.187862113,0.187862113,0.18771855,0.187062048,0.14683029,0.146736778,0.146687499,0.146687499,0.142897624,0.142699635,0.142674609,0.136912811,0.136824113,0.136544727,0.135091927,0.13359418,0.126541725,0.126541725,0.08599243,0.08599243,0.085920126,0.085920126,0.085281204,0.084837575,0.084106473,0.058420428,0.052393515,0.050711784,0.050457617,0.050195641,0.049864627,0.039035052,0.038720076,0.038589422,0.038183713,0.038026214,0.039371624,0.037918001,0.036948685,0.0352189,0.030213034,0.02071374,0.01158324,0.00968942,0.008315662,0.008055687,0.008030661,0.007299727,0,,-1,-1,-1,-1,-1,-1,-1,-1,-1,-1,-1,-1,-1,-1,-1,-1,-1,-1,-1,-1,-1,-1,-1,-1,-1,-1,-1,-1,-1,-1,-1,-1,-1,-1,-1,-1,-1,-1,-1,-1,-1,-1,-1,-1,-1,-1,-1,-1,,-1,-1,-1,-1,-1,-1,-1,-1,-1,-1,-1,-1,-1,-1,-1,-1,-1,-1,-1,-1,-1,-1,-1,-1,-1,-1,-1,-1,-1,-1,-1,-1,-1,-1,-1,-1,-1,-1,-1,-1,-1,-1,-1,-1,-1,-1,-1,-1,,-1,-1,-1,-1,-1,-1,-1,-1,-1,-1,-1,-1,-1,-1,-1,-1,-1,-1,-1,-1,-1,-1,-1,-1,-1,-1,-1,-1,-1,-1,-1,-1,-1,-1,-1,-1,-1,-1,-1,-1,-1,-1,-1,-1,-1,-1,-1,-1,,-1,-1,-1,-1,-1,-1,-1,-1,-1,-1,-1,-1,-1,-1,-1,-1,-1,-1,-1,-1,-1,-1,-1,-1,-1,-1,-1,-1,-1,-1,-1,-1,-1,-1,-1,-1,-1,-1,-1,-1,-1,-1,-1,-1,-1,-1,-1,-1,,-1,-1,-1,-1,-1,-1,-1,-1,-1,-1,-1,-1,-1,-1,-1,-1,-1,-1,-1,-1,-1,-1,-1,-1,-1,-1,-1,-1,-1,-1,-1,-1,-1,-1,-1,-1,-1,-1,-1,-1,-1,-1,-1,-1,-1,-1,-1,-1
0.01,null,0.65,0.5,60,40,0.6,0.01,16,IGEMRandomRemoveSequence,20,292722,,0.958333333,0.979166667,0.979166667,0.979166667,0.979166667,1,1,1,1,1,1,1,1,1,1,1,1,1,1,1,1,1,1,1,1,1,1,1,1,1,1,1,1,1,1,1,1,1,1,1,1,1,1,1,1,1,1,1,1,,0.187862113,0.058762902,0.042065845,0.030886296,0.022497627,0.01613187,0.012592333,0.009771978,0.007953983,0.006571652,0.005271772,0.003986914,0.003122097,0.002478829,0.001900005,0.001354832,0.001104573,8.58E-04,6.22E-04,3.85E-04,2.60E-04,1.35E-04,1.00E-05,0,0,0,0,0,0,0,0,0,0,0,0,0,0,0,0,0,0,0,0,0,0,0,0,0,0,,0.45,0.6,1,1,1,1,1,1,1,1,1,1,1,1,1,1,1,1,1,1,1,1,1,1,1,1,1,1,1,1,1,1,1,1,1,1,1,1,1,1,1,1,1,1,1,1,1,1,,1,0.333333333,0.111111111,0,0,0,0,0,0,0,0,0,0,0,0,0,0,0,0,0,0,0,0,0,0,0,0,0,0,0,0,0,0,0,0,0,0,0,0,0,0,0,0,0,0,0,0,0,,0.45,0.6,1,1,1,1,1,1,1,1,1,1,1,1,1,1,1,1,1,1,1,1,1,1,1,1,1,1,1,1,1,1,1,1,1,1,1,1,1,1,1,1,1,1,1,1,1,1,,1,0.333333333,0.111111111,0,0,0,0,0,0,0,0,0,0,0,0,0,0,0,0,0,0,0,0,0,0,0,0,0,0,0,0,0,0,0,0,0,0,0,0,0,0,0,0,0,0,0,0,0,,7,22,36,14,26,35,23,33,30,39,13,31,19,4,38,37,41,45,15,17,24,8,16,47,46,44,43,42,40,34,32,29,28,27,25,21,20,18,12,11,10,9,6,5,3,2,1,0
0.01,0.95,0.65,0.5,60,40,0.6,0.01,17,RandomEMDetectRandom,20,2638,,0.958333333,0.958333333,0.958333333,0.958333333,0.9625,0.9625,0.9625,0.9625,0.9625,0.9625,0.9625,0.970833333,0.970833333,0.970833333,0.970833333,0.970833333,0.970833333,0.975,0.975,0.975,0.975,0.975,0.975,0.975,0.975,0.979166667,0.979166667,0.979166667,0.979166667,0.983333333,0.983333333,0.983333333,0.983333333,0.983333333,0.983333333,0.983333333,0.983333333,0.983333333,0.983333333,0.983333333,0.983333333,0.983333333,0.983333333,0.9875,0.9875,0.9875,0.9875,0.995833333,1,,0.147910783,0.147564727,0.146668825,0.138046535,0.131883541,0.131821416,0.122164928,0.117679631,0.112262992,0.106405572,0.102539219,0.103879194,0.103802117,0.098393265,0.098114602,0.096896516,0.096795186,0.093794262,0.084719893,0.073498451,0.069444547,0.069306255,0.069162692,0.068808557,0.063542552,0.060346311,0.053895335,0.053796005,0.052413608,0.048655541,0.048558211,0.047771079,0.046933176,0.045221161,0.045057843,0.044937306,0.04267841,0.034813234,0.034690877,0.028199075,0.0279032,0.023929365,0.023832034,0.016530558,0.01018258,0.006849334,0.006772257,0.002695208,0,,-1,-1,-1,-1,-1,-1,-1,-1,-1,-1,-1,-1,-1,-1,-1,-1,-1,-1,-1,-1,-1,-1,-1,-1,-1,-1,-1,-1,-1,-1,-1,-1,-1,-1,-1,-1,-1,-1,-1,-1,-1,-1,-1,-1,-1,-1,-1,-1,,-1,-1,-1,-1,-1,-1,-1,-1,-1,-1,-1,-1,-1,-1,-1,-1,-1,-1,-1,-1,-1,-1,-1,-1,-1,-1,-1,-1,-1,-1,-1,-1,-1,-1,-1,-1,-1,-1,-1,-1,-1,-1,-1,-1,-1,-1,-1,-1,,-1,-1,-1,-1,-1,-1,-1,-1,-1,-1,-1,-1,-1,-1,-1,-1,-1,-1,-1,-1,-1,-1,-1,-1,-1,-1,-1,-1,-1,-1,-1,-1,-1,-1,-1,-1,-1,-1,-1,-1,-1,-1,-1,-1,-1,-1,-1,-1,,-1,-1,-1,-1,-1,-1,-1,-1,-1,-1,-1,-1,-1,-1,-1,-1,-1,-1,-1,-1,-1,-1,-1,-1,-1,-1,-1,-1,-1,-1,-1,-1,-1,-1,-1,-1,-1,-1,-1,-1,-1,-1,-1,-1,-1,-1,-1,-1,,-1,-1,-1,-1,-1,-1,-1,-1,-1,-1,-1,-1,-1,-1,-1,-1,-1,-1,-1,-1,-1,-1,-1,-1,-1,-1,-1,-1,-1,-1,-1,-1,-1,-1,-1,-1,-1,-1,-1,-1,-1,-1,-1,-1,-1,-1,-1,-1
0.01,null,0.65,0.5,60,40,0.6,0.01,17,IGEMRandomRemoveSequence,20,268003,,0.958333333,0.958333333,0.958333333,0.958333333,0.958333333,0.979166667,0.979166667,1,1,1,1,1,1,1,1,1,1,1,1,1,1,1,1,1,1,1,1,1,1,1,1,1,1,1,1,1,1,1,1,1,1,1,1,1,1,1,1,1,1,,0.147910783,0.108636362,0.082059098,0.056022974,0.037910217,0.077613146,0.021777554,0.015092168,0.009090085,0.006046352,0.005176688,0.004606495,0.004123705,0.003646148,0.003169494,0.002701936,0.002246872,0.001986614,0.001736356,0.001486098,0.001239703,0.001003307,7.67E-04,5.31E-04,3.95E-04,2.70E-04,1.45E-04,2.00E-05,1.00E-05,0,0,0,0,0,0,0,0,0,0,0,0,0,0,0,0,0,0,0,0,,0.55,0.4,1,0.333333333,1,1,1,1,1,1,1,1,1,1,1,1,1,1,1,1,1,1,1,1,1,1,1,1,1,1,1,1,1,1,1,1,1,1,1,1,1,1,1,1,1,1,1,1,,1,0.181818182,0.090909091,0.090909091,0,0,0,0,0,0,0,0,0,0,0,0,0,0,0,0,0,0,0,0,0,0,0,0,0,0,0,0,0,0,0,0,0,0,0,0,0,0,0,0,0,0,0,0,,0.55,0.4,1,0.333333333,1,1,1,1,1,1,1,1,1,1,1,1,1,1,1,1,1,1,1,1,1,1,1,1,1,1,1,1,1,1,1,1,1,1,1,1,1,1,1,1,1,1,1,1,,1,0.181818182,0.090909091,0.090909091,0,0,0,0,0,0,0,0,0,0,0,0,0,0,0,0,0,0,0,0,0,0,0,0,0,0,0,0,0,0,0,0,0,0,0,0,0,0,0,0,0,0,0,0,,32,20,16,26,37,23,8,19,46,38,39,31,17,34,42,3,36,2,43,9,5,40,28,12,30,25,47,29,14,45,44,41,35,33,27,24,22,21,18,15,13,11,10,7,6,4,1,0
0.01,0.95,0.65,0.5,60,40,0.6,0.01,18,RandomEMDetectRandom,20,5157,,0.979166667,0.979166667,0.979166667,0.979166667,0.983333333,0.9875,0.9875,0.9875,0.9875,0.991666667,0.991666667,0.991666667,0.9875,0.9875,0.991666667,0.995833333,0.995833333,0.995833333,0.995833333,1,1,1,1,1,1,1,1,1,1,1,1,1,1,1,1,1,1,1,1,1,1,1,1,1,1,1,1,1,1,,0.267931163,0.267753445,0.265951022,0.26456399,0.267456784,0.270786239,0.266095655,0.266025208,0.265589323,0.240587503,0.24022875,0.24022875,0.212489281,0.212097032,0.227066774,0.226566784,0.224659547,0.224400725,0.223473672,0.197271438,0.197177927,0.197012883,0.194164461,0.184616009,0.172267565,0.171751178,0.171000318,0.170585537,0.170585537,0.170535485,0.169055477,0.167965804,0.167850039,0.167799988,0.157633461,0.157218023,0.157149537,0.13539887,0.135255307,0.123501367,0.123137769,0.123135855,0.118677219,0.118459005,0.118381928,0.041786892,0.041759866,0.041684789,0,,-1,-1,-1,-1,-1,-1,-1,-1,-1,-1,-1,-1,-1,-1,-1,-1,-1,-1,-1,-1,-1,-1,-1,-1,-1,-1,-1,-1,-1,-1,-1,-1,-1,-1,-1,-1,-1,-1,-1,-1,-1,-1,-1,-1,-1,-1,-1,-1,,-1,-1,-1,-1,-1,-1,-1,-1,-1,-1,-1,-1,-1,-1,-1,-1,-1,-1,-1,-1,-1,-1,-1,-1,-1,-1,-1,-1,-1,-1,-1,-1,-1,-1,-1,-1,-1,-1,-1,-1,-1,-1,-1,-1,-1,-1,-1,-1,,-1,-1,-1,-1,-1,-1,-1,-1,-1,-1,-1,-1,-1,-1,-1,-1,-1,-1,-1,-1,-1,-1,-1,-1,-1,-1,-1,-1,-1,-1,-1,-1,-1,-1,-1,-1,-1,-1,-1,-1,-1,-1,-1,-1,-1,-1,-1,-1,,-1,-1,-1,-1,-1,-1,-1,-1,-1,-1,-1,-1,-1,-1,-1,-1,-1,-1,-1,-1,-1,-1,-1,-1,-1,-1,-1,-1,-1,-1,-1,-1,-1,-1,-1,-1,-1,-1,-1,-1,-1,-1,-1,-1,-1,-1,-1,-1,,-1,-1,-1,-1,-1,-1,-1,-1,-1,-1,-1,-1,-1,-1,-1,-1,-1,-1,-1,-1,-1,-1,-1,-1,-1,-1,-1,-1,-1,-1,-1,-1,-1,-1,-1,-1,-1,-1,-1,-1,-1,-1,-1,-1,-1,-1,-1,-1
0.01,null,0.65,0.5,60,40,0.6,0.01,18,IGEMRandomRemoveSequence,20,286873,,0.979166667,1,1,1,1,1,1,1,1,1,1,1,1,1,1,1,1,1,1,1,1,1,1,1,1,1,1,1,1,1,1,1,1,1,1,1,1,1,1,1,1,1,1,1,1,1,1,1,1,,0.267931163,0.13952889,0.084888068,0.036409652,0.022711694,0.014345203,0.011164703,0.008869161,0.006936037,0.005040245,0.003647915,0.002803241,0.002053553,0.001711124,0.001368695,0.001118436,8.68E-04,6.32E-04,3.95E-04,2.60E-04,1.35E-04,1.00E-05,0,0,0,0,0,0,0,0,0,0,0,0,0,0,0,0,0,0,0,0,0,0,0,0,0,0,0,,0.35,0.35,0,0,1,1,1,1,1,1,1,1,1,1,1,1,1,1,1,1,1,1,1,1,1,1,1,1,1,1,1,1,1,1,1,1,1,1,1,1,1,1,1,1,1,1,1,1,,1,1,0,0,0,0,0,0,0,0,0,0,0,0,0,0,0,0,0,0,0,0,0,0,0,0,0,0,0,0,0,0,0,0,0,0,0,0,0,0,0,0,0,0,0,0,0,0,,0.35,0.35,0,0,1,1,1,1,1,1,1,1,1,1,1,1,1,1,1,1,1,1,1,1,1,1,1,1,1,1,1,1,1,1,1,1,1,1,1,1,1,1,1,1,1,1,1,1,,1,1,0,0,0,0,0,0,0,0,0,0,0,0,0,0,0,0,0,0,0,0,0,0,0,0,0,0,0,0,0,0,0,0,0,0,0,0,0,0,0,0,0,0,0,0,0,0,,17,20,46,26,42,14,27,45,36,9,37,24,41,29,32,19,13,12,31,22,23,44,47,43,40,39,38,35,34,33,30,28,25,21,18,16,15,11,10,8,7,6,5,4,3,2,1,0
0.01,0.95,0.65,0.5,60,40,0.6,0.01,19,RandomEMDetectRandom,20,2283,,1,1,1,1,1,1,1,1,1,1,1,1,1,1,1,1,1,1,1,1,1,1,1,1,1,1,1,1,1,1,1,1,1,1,1,1,1,1,1,1,1,1,1,1,1,1,1,1,1,,0.029697651,0.02932947,0.028674812,0.025868574,0.025332433,0.025283154,0.024485695,0.024312731,0.02421922,0.023200664,0.022365945,0.022248181,0.02045554,0.020364527,0.02016731,0.02016531,0.019567414,0.019520135,0.019472856,0.019315357,0.018682953,0.017573382,0.015924048,0.015851743,0.013640934,0.013523169,0.012486592,0.010224506,0.01015402,0.010128995,0.009033189,0.00898391,0.008913424,0.008838347,0.008615273,0.007729747,0.006801166,0.006710153,0.006616642,0.006498603,0.004208629,0.004119616,0.004119616,0.003978552,0.003858513,0.003808462,0.002527697,1.73E-04,0,,-1,-1,-1,-1,-1,-1,-1,-1,-1,-1,-1,-1,-1,-1,-1,-1,-1,-1,-1,-1,-1,-1,-1,-1,-1,-1,-1,-1,-1,-1,-1,-1,-1,-1,-1,-1,-1,-1,-1,-1,-1,-1,-1,-1,-1,-1,-1,-1,,-1,-1,-1,-1,-1,-1,-1,-1,-1,-1,-1,-1,-1,-1,-1,-1,-1,-1,-1,-1,-1,-1,-1,-1,-1,-1,-1,-1,-1,-1,-1,-1,-1,-1,-1,-1,-1,-1,-1,-1,-1,-1,-1,-1,-1,-1,-1,-1,,-1,-1,-1,-1,-1,-1,-1,-1,-1,-1,-1,-1,-1,-1,-1,-1,-1,-1,-1,-1,-1,-1,-1,-1,-1,-1,-1,-1,-1,-1,-1,-1,-1,-1,-1,-1,-1,-1,-1,-1,-1,-1,-1,-1,-1,-1,-1,-1,,-1,-1,-1,-1,-1,-1,-1,-1,-1,-1,-1,-1,-1,-1,-1,-1,-1,-1,-1,-1,-1,-1,-1,-1,-1,-1,-1,-1,-1,-1,-1,-1,-1,-1,-1,-1,-1,-1,-1,-1,-1,-1,-1,-1,-1,-1,-1,-1,,-1,-1,-1,-1,-1,-1,-1,-1,-1,-1,-1,-1,-1,-1,-1,-1,-1,-1,-1,-1,-1,-1,-1,-1,-1,-1,-1,-1,-1,-1,-1,-1,-1,-1,-1,-1,-1,-1,-1,-1,-1,-1,-1,-1,-1,-1,-1,-1
0.01,null,0.65,0.5,60,40,0.6,0.01,19,IGEMRandomRemoveSequence,20,231932,,1,1,1,1,1,1,1,1,1,1,1,1,1,1,1,1,1,1,1,1,1,1,1,1,1,1,1,1,1,1,1,1,1,1,1,1,1,1,1,1,1,1,1,1,1,1,1,1,1,,0.029697651,0.018703352,0.013675957,0.009979921,0.007021416,0.004702237,0.003962548,0.003292247,0.002824689,0.002369625,0.00192456,0.001572132,0.001229703,9.93E-04,7.57E-04,5.21E-04,3.95E-04,2.70E-04,1.45E-04,2.00E-05,1.00E-05,0,0,0,0,0,0,0,0,0,0,0,0,0,0,0,0,0,0,0,0,0,0,0,0,0,0,0,0,,0.4,0.166666667,0,0,0,1,1,1,1,1,1,1,1,1,1,1,1,1,1,1,1,1,1,1,1,1,1,1,1,1,1,1,1,1,1,1,1,1,1,1,1,1,1,1,1,1,1,1,,1,0.125,0,0,0,0,0,0,0,0,0,0,0,0,0,0,0,0,0,0,0,0,0,0,0,0,0,0,0,0,0,0,0,0,0,0,0,0,0,0,0,0,0,0,0,0,0,0,,0.4,0.166666667,0,0,0,1,1,1,1,1,1,1,1,1,1,1,1,1,1,1,1,1,1,1,1,1,1,1,1,1,1,1,1,1,1,1,1,1,1,1,1,1,1,1,1,1,1,1,,1,0.125,0,0,0,0,0,0,0,0,0,0,0,0,0,0,0,0,0,0,0,0,0,0,0,0,0,0,0,0,0,0,0,0,0,0,0,0,0,0,0,0,0,0,0,0,0,0,,42,11,40,46,5,16,33,22,20,27,9,18,6,1,8,26,14,34,10,17,4,47,45,44,43,41,39,38,37,36,35,32,31,30,29,28,25,24,23,21,19,15,13,12,7,3,2,0
0.01,0.95,0.65,0.5,60,40,0.6,0.01,20,RandomEMDetectRandom,20,3176,,1,1,1,1,1,1,1,1,1,1,1,1,1,1,1,1,1,1,1,1,1,1,1,1,1,1,1,1,1,1,1,1,1,1,1,1,1,1,1,1,1,1,1,1,1,1,1,1,1,,0.133539314,0.133319135,0.133040561,0.132859843,0.132770831,0.132497293,0.130083257,0.129334238,0.128821507,0.127220991,0.126305208,0.123808251,0.123387032,0.119691946,0.119641894,0.119413817,0.108436793,0.10120673,0.10120673,0.100532405,0.091427621,0.091313582,0.081961828,0.081252478,0.079018421,0.078813643,0.076821688,0.070545568,0.070406777,0.068547392,0.067839531,0.060453556,0.059695289,0.059606277,0.058282003,0.051042492,0.050368151,0.049116862,0.04906681,0.047901078,0.047897078,0.041169899,0.041076388,0.031912827,0.025426002,0.017294537,0.013334647,0.013334647,0,,-1,-1,-1,-1,-1,-1,-1,-1,-1,-1,-1,-1,-1,-1,-1,-1,-1,-1,-1,-1,-1,-1,-1,-1,-1,-1,-1,-1,-1,-1,-1,-1,-1,-1,-1,-1,-1,-1,-1,-1,-1,-1,-1,-1,-1,-1,-1,-1,,-1,-1,-1,-1,-1,-1,-1,-1,-1,-1,-1,-1,-1,-1,-1,-1,-1,-1,-1,-1,-1,-1,-1,-1,-1,-1,-1,-1,-1,-1,-1,-1,-1,-1,-1,-1,-1,-1,-1,-1,-1,-1,-1,-1,-1,-1,-1,-1,,-1,-1,-1,-1,-1,-1,-1,-1,-1,-1,-1,-1,-1,-1,-1,-1,-1,-1,-1,-1,-1,-1,-1,-1,-1,-1,-1,-1,-1,-1,-1,-1,-1,-1,-1,-1,-1,-1,-1,-1,-1,-1,-1,-1,-1,-1,-1,-1,,-1,-1,-1,-1,-1,-1,-1,-1,-1,-1,-1,-1,-1,-1,-1,-1,-1,-1,-1,-1,-1,-1,-1,-1,-1,-1,-1,-1,-1,-1,-1,-1,-1,-1,-1,-1,-1,-1,-1,-1,-1,-1,-1,-1,-1,-1,-1,-1,,-1,-1,-1,-1,-1,-1,-1,-1,-1,-1,-1,-1,-1,-1,-1,-1,-1,-1,-1,-1,-1,-1,-1,-1,-1,-1,-1,-1,-1,-1,-1,-1,-1,-1,-1,-1,-1,-1,-1,-1,-1,-1,-1,-1,-1,-1,-1,-1
0.01,null,0.65,0.5,60,40,0.6,0.01,20,IGEMRandomRemoveSequence,20,257406,,1,1,1,1,1,1,1,1,1,1,1,1,1,1,1,1,1,1,1,1,1,1,1,1,1,1,1,1,1,1,1,1,1,1,1,1,1,1,1,1,1,1,1,1,1,1,1,1,1,,0.133539314,0.087880587,0.056488626,0.040830589,0.029708657,0.020670135,0.015767863,0.012221113,0.009327522,0.007170739,0.005788407,0.004953732,0.004268875,0.003698682,0.003241123,0.002796059,0.002350994,0.00190593,0.001460866,0.001118437,8.82E-04,6.46E-04,5.21E-04,3.95E-04,2.70E-04,1.45E-04,2.00E-05,1.00E-05,0,0,0,0,0,0,0,0,0,0,0,0,0,0,0,0,0,0,0,0,0,,0.45,0.45,1,1,1,1,1,1,1,1,1,1,1,1,1,1,1,1,1,1,1,1,1,1,1,1,1,1,1,1,1,1,1,1,1,1,1,1,1,1,1,1,1,1,1,1,1,1,,1,1,0,0,0,0,0,0,0,0,0,0,0,0,0,0,0,0,0,0,0,0,0,0,0,0,0,0,0,0,0,0,0,0,0,0,0,0,0,0,0,0,0,0,0,0,0,0,,0.45,0.45,1,1,1,1,1,1,1,1,1,1,1,1,1,1,1,1,1,1,1,1,1,1,1,1,1,1,1,1,1,1,1,1,1,1,1,1,1,1,1,1,1,1,1,1,1,1,,1,1,0,0,0,0,0,0,0,0,0,0,0,0,0,0,0,0,0,0,0,0,0,0,0,0,0,0,0,0,0,0,0,0,0,0,0,0,0,0,0,0,0,0,0,0,0,0,,3,8,19,10,43,23,39,17,7,28,2,22,5,18,38,46,42,16,45,44,14,25,40,11,6,1,15,12,47,41,37,36,35,34,33,32,31,30,29,27,26,24,21,20,13,9,4,0
0.01,0.95,0.65,0.5,60,40,0.6,0.01,21,RandomEMDetectRandom,20,5233,,0.9375,0.9375,0.941666667,0.941666667,0.95,0.958333333,0.958333333,0.958333333,0.9625,0.9625,0.9625,0.9625,0.9625,0.966666667,0.966666667,0.966666667,0.970833333,0.970833333,0.970833333,0.970833333,0.970833333,0.975,0.975,0.9875,0.9875,0.9875,0.9875,0.9875,0.9875,0.9875,0.9875,0.9875,0.9875,0.991666667,0.991666667,0.991666667,0.991666667,0.991666667,0.991666667,0.991666667,0.991666667,0.991666667,0.991666667,0.991666667,0.991666667,0.991666667,0.995833333,0.995833333,1,,0.168154083,0.16798515,0.147911779,0.1477581,0.246782071,0.331150688,0.330037829,0.329979521,0.350738519,0.350494354,0.350465934,0.345594741,0.344893747,0.366956456,0.365883311,0.270911913,0.253708412,0.253541477,0.251867148,0.25107767,0.25105234,0.247596169,0.247334486,0.225513709,0.225286482,0.225263425,0.225131305,0.221215113,0.220289476,0.172377973,0.146472573,0.145964304,0.136905103,0.110260893,0.109968059,0.107833873,0.091603469,0.088970849,0.086413525,0.080088883,0.079949818,0.078934679,0.076144152,0.076144152,0.049061482,0.045539833,0.037029988,0.011894866,0,,-1,-1,-1,-1,-1,-1,-1,-1,-1,-1,-1,-1,-1,-1,-1,-1,-1,-1,-1,-1,-1,-1,-1,-1,-1,-1,-1,-1,-1,-1,-1,-1,-1,-1,-1,-1,-1,-1,-1,-1,-1,-1,-1,-1,-1,-1,-1,-1,,-1,-1,-1,-1,-1,-1,-1,-1,-1,-1,-1,-1,-1,-1,-1,-1,-1,-1,-1,-1,-1,-1,-1,-1,-1,-1,-1,-1,-1,-1,-1,-1,-1,-1,-1,-1,-1,-1,-1,-1,-1,-1,-1,-1,-1,-1,-1,-1,,-1,-1,-1,-1,-1,-1,-1,-1,-1,-1,-1,-1,-1,-1,-1,-1,-1,-1,-1,-1,-1,-1,-1,-1,-1,-1,-1,-1,-1,-1,-1,-1,-1,-1,-1,-1,-1,-1,-1,-1,-1,-1,-1,-1,-1,-1,-1,-1,,-1,-1,-1,-1,-1,-1,-1,-1,-1,-1,-1,-1,-1,-1,-1,-1,-1,-1,-1,-1,-1,-1,-1,-1,-1,-1,-1,-1,-1,-1,-1,-1,-1,-1,-1,-1,-1,-1,-1,-1,-1,-1,-1,-1,-1,-1,-1,-1,,-1,-1,-1,-1,-1,-1,-1,-1,-1,-1,-1,-1,-1,-1,-1,-1,-1,-1,-1,-1,-1,-1,-1,-1,-1,-1,-1,-1,-1,-1,-1,-1,-1,-1,-1,-1,-1,-1,-1,-1,-1,-1,-1,-1,-1,-1,-1,-1
0.01,null,0.65,0.5,60,40,0.6,0.01,21,IGEMRandomRemoveSequence,20,293322,,0.9375,0.9375,0.958333333,0.979166667,1,1,1,1,1,1,1,1,1,1,1,1,1,1,1,1,1,1,1,1,1,1,1,1,1,1,1,1,1,1,1,1,1,1,1,1,1,1,1,1,1,1,1,1,1,,0.168154083,0.077518273,0.071783347,0.158158166,0.114150528,0.069365986,0.049721784,0.036662743,0.024377989,0.017870191,0.012897692,0.009164916,0.00793714,0.006846796,0.005886992,0.00500733,0.004172654,0.003391087,0.002720785,0.002077517,0.001532344,9.87E-04,6.26E-04,5.01E-04,3.75E-04,2.50E-04,1.25E-04,0,0,0,0,0,0,0,0,0,0,0,0,0,0,0,0,0,0,0,0,0,0,,0.45,0.6,1,1,1,1,1,1,1,1,1,1,1,1,1,1,1,1,1,1,1,1,1,1,1,1,1,1,1,1,1,1,1,1,1,1,1,1,1,1,1,1,1,1,1,1,1,1,,1,0.333333333,0.111111111,0,0,0,0,0,0,0,0,0,0,0,0,0,0,0,0,0,0,0,0,0,0,0,0,0,0,0,0,0,0,0,0,0,0,0,0,0,0,0,0,0,0,0,0,0,,0.45,0.6,1,1,1,1,1,1,1,1,1,1,1,1,1,1,1,1,1,1,1,1,1,1,1,1,1,1,1,1,1,1,1,1,1,1,1,1,1,1,1,1,1,1,1,1,1,1,,1,0.333333333,0.111111111,0,0,0,0,0,0,0,0,0,0,0,0,0,0,0,0,0,0,0,0,0,0,0,0,0,0,0,0,0,0,0,0,0,0,0,0,0,0,0,0,0,0,0,0,0,,46,26,2,5,42,39,40,4,24,19,21,34,36,38,0,28,22,35,23,32,7,41,17,20,27,9,45,47,44,43,37,33,31,30,29,25,18,16,15,14,13,12,11,10,8,6,3,1
0.01,0.95,0.65,0.5,60,40,0.6,0.01,22,RandomEMDetectRandom,20,3352,,0.979166667,0.979166667,0.979166667,0.979166667,0.979166667,0.979166667,0.983333333,0.983333333,0.9875,0.9875,0.9875,0.9875,0.9875,0.9875,0.9875,0.9875,0.9875,0.9875,0.9875,0.9875,0.991666667,0.991666667,0.991666667,0.991666667,0.991666667,0.991666667,0.991666667,0.991666667,0.991666667,0.991666667,0.991666667,0.991666667,0.991666667,0.995833333,0.995833333,0.995833333,0.995833333,0.995833333,0.995833333,0.995833333,0.995833333,0.995833333,0.995833333,0.995833333,0.995833333,0.995833333,0.995833333,0.995833333,1,,0.10030455,0.09978493,0.097901242,0.095990528,0.080964854,0.080194113,0.080683663,0.080226565,0.077581242,0.076968358,0.076558512,0.076426451,0.075978705,0.075789863,0.075531461,0.075531461,0.074761231,0.074550524,0.074368,0.07391931,0.071458301,0.07141025,0.071071051,0.071023772,0.071023772,0.068289518,0.067750267,0.052454778,0.049987821,0.049962795,0.049529812,0.049525812,0.034689159,0.022895335,0.022687785,0.021892677,0.021629964,0.02150638,0.020897516,0.020714992,0.008158133,0.006962359,0.006350685,0.005010136,0.003733958,0.003157203,0.001855998,7.11E-04,0,,-1,-1,-1,-1,-1,-1,-1,-1,-1,-1,-1,-1,-1,-1,-1,-1,-1,-1,-1,-1,-1,-1,-1,-1,-1,-1,-1,-1,-1,-1,-1,-1,-1,-1,-1,-1,-1,-1,-1,-1,-1,-1,-1,-1,-1,-1,-1,-1,,-1,-1,-1,-1,-1,-1,-1,-1,-1,-1,-1,-1,-1,-1,-1,-1,-1,-1,-1,-1,-1,-1,-1,-1,-1,-1,-1,-1,-1,-1,-1,-1,-1,-1,-1,-1,-1,-1,-1,-1,-1,-1,-1,-1,-1,-1,-1,-1,,-1,-1,-1,-1,-1,-1,-1,-1,-1,-1,-1,-1,-1,-1,-1,-1,-1,-1,-1,-1,-1,-1,-1,-1,-1,-1,-1,-1,-1,-1,-1,-1,-1,-1,-1,-1,-1,-1,-1,-1,-1,-1,-1,-1,-1,-1,-1,-1,,-1,-1,-1,-1,-1,-1,-1,-1,-1,-1,-1,-1,-1,-1,-1,-1,-1,-1,-1,-1,-1,-1,-1,-1,-1,-1,-1,-1,-1,-1,-1,-1,-1,-1,-1,-1,-1,-1,-1,-1,-1,-1,-1,-1,-1,-1,-1,-1,,-1,-1,-1,-1,-1,-1,-1,-1,-1,-1,-1,-1,-1,-1,-1,-1,-1,-1,-1,-1,-1,-1,-1,-1,-1,-1,-1,-1,-1,-1,-1,-1,-1,-1,-1,-1,-1,-1,-1,-1,-1,-1,-1,-1,-1,-1,-1,-1
0.01,null,0.65,0.5,60,40,0.6,0.01,22,IGEMRandomRemoveSequence,20,245193,,0.979166667,0.979166667,0.979166667,0.979166667,0.979166667,0.979166667,0.979166667,0.979166667,0.979166667,1,1,1,1,1,1,1,1,1,1,1,1,1,1,1,1,1,1,1,1,1,1,1,1,1,1,1,1,1,1,1,1,1,1,1,1,1,1,1,1,,0.10030455,0.025186181,0.016862741,0.012358662,0.009779208,0.007747983,0.006762288,0.005833879,0.004927183,0.007007526,0.00490392,0.003171877,0.002259256,0.001598953,0.001247429,0.00100717,7.71E-04,6.36E-04,5.11E-04,3.85E-04,2.60E-04,1.35E-04,1.00E-05,0,0,0,0,0,0,0,0,0,0,0,0,0,0,0,0,0,0,0,0,0,0,0,0,0,0,,0.35,0.666666667,1,1,1,1,1,1,1,1,1,1,1,1,1,1,1,1,1,1,1,1,1,1,1,1,1,1,1,1,1,1,1,1,1,1,1,1,1,1,1,1,1,1,1,1,1,1,,1,0.571428571,0.285714286,0,0,0,0,0,0,0,0,0,0,0,0,0,0,0,0,0,0,0,0,0,0,0,0,0,0,0,0,0,0,0,0,0,0,0,0,0,0,0,0,0,0,0,0,0,,0.35,0.666666667,1,1,1,1,1,1,1,1,1,1,1,1,1,1,1,1,1,1,1,1,1,1,1,1,1,1,1,1,1,1,1,1,1,1,1,1,1,1,1,1,1,1,1,1,1,1,,1,0.571428571,0.285714286,0,0,0,0,0,0,0,0,0,0,0,0,0,0,0,0,0,0,0,0,0,0,0,0,0,0,0,0,0,0,0,0,0,0,0,0,0,0,0,0,0,0,0,0,0,,35,3,41,30,23,22,28,12,5,34,4,26,40,0,27,13,2,47,9,14,46,21,20,45,44,43,42,39,38,37,36,33,32,31,29,25,24,19,18,17,16,15,11,10,8,7,6,1
0.01,0.95,0.65,0.5,60,40,0.6,0.01,23,RandomEMDetectRandom,20,2942,,1,1,1,1,1,1,1,1,1,1,1,1,1,1,1,1,1,1,1,1,1,1,1,1,1,1,1,1,1,1,1,1,1,1,1,1,1,1,1,1,1,1,1,1,1,1,1,1,1,,0.107066649,0.106160597,0.106088292,0.105626506,0.102645404,0.090232746,0.087058716,0.086032682,0.086032682,0.086032682,0.084947337,0.084922311,0.08395398,0.083856469,0.082936505,0.070131788,0.069007378,0.067818421,0.064782814,0.050214705,0.050167425,0.049866637,0.049819358,0.04688937,0.046794039,0.043889077,0.043839025,0.042872695,0.042683672,0.042237924,0.040168259,0.040031287,0.039889724,0.039712204,0.039195971,0.039120893,0.038747439,0.037814512,0.037596443,0.035315036,0.022138918,0.019034009,0.005598793,0.003529127,0.002204324,0.002067353,0.001992275,0.001696218,0,,-1,-1,-1,-1,-1,-1,-1,-1,-1,-1,-1,-1,-1,-1,-1,-1,-1,-1,-1,-1,-1,-1,-1,-1,-1,-1,-1,-1,-1,-1,-1,-1,-1,-1,-1,-1,-1,-1,-1,-1,-1,-1,-1,-1,-1,-1,-1,-1,,-1,-1,-1,-1,-1,-1,-1,-1,-1,-1,-1,-1,-1,-1,-1,-1,-1,-1,-1,-1,-1,-1,-1,-1,-1,-1,-1,-1,-1,-1,-1,-1,-1,-1,-1,-1,-1,-1,-1,-1,-1,-1,-1,-1,-1,-1,-1,-1,,-1,-1,-1,-1,-1,-1,-1,-1,-1,-1,-1,-1,-1,-1,-1,-1,-1,-1,-1,-1,-1,-1,-1,-1,-1,-1,-1,-1,-1,-1,-1,-1,-1,-1,-1,-1,-1,-1,-1,-1,-1,-1,-1,-1,-1,-1,-1,-1,,-1,-1,-1,-1,-1,-1,-1,-1,-1,-1,-1,-1,-1,-1,-1,-1,-1,-1,-1,-1,-1,-1,-1,-1,-1,-1,-1,-1,-1,-1,-1,-1,-1,-1,-1,-1,-1,-1,-1,-1,-1,-1,-1,-1,-1,-1,-1,-1,,-1,-1,-1,-1,-1,-1,-1,-1,-1,-1,-1,-1,-1,-1,-1,-1,-1,-1,-1,-1,-1,-1,-1,-1,-1,-1,-1,-1,-1,-1,-1,-1,-1,-1,-1,-1,-1,-1,-1,-1,-1,-1,-1,-1,-1,-1,-1,-1
0.01,null,0.65,0.5,60,40,0.6,0.01,23,IGEMRandomRemoveSequence,20,246293,,1,1,1,1,1,1,1,1,1,1,1,1,1,1,1,1,1,1,1,1,1,1,1,1,1,1,1,1,1,1,1,1,1,1,1,1,1,1,1,1,1,1,1,1,1,1,1,1,1,,0.107066649,0.045261206,0.030801803,0.020588603,0.015206808,0.010736678,0.006558699,0.004455093,0.003760236,0.003075379,0.002530206,0.002062648,0.001701124,0.001349599,0.00100717,7.67E-04,5.31E-04,3.95E-04,2.70E-04,1.45E-04,2.00E-05,1.00E-05,0,0,0,0,0,0,0,0,0,0,0,0,0,0,0,0,0,0,0,0,0,0,0,0,0,0,0,,0.3,0.25,0,1,1,1,1,1,1,1,1,1,1,1,1,1,1,1,1,1,1,1,1,1,1,1,1,1,1,1,1,1,1,1,1,1,1,1,1,1,1,1,1,1,1,1,1,1,,1,0.333333333,0,0,0,0,0,0,0,0,0,0,0,0,0,0,0,0,0,0,0,0,0,0,0,0,0,0,0,0,0,0,0,0,0,0,0,0,0,0,0,0,0,0,0,0,0,0,,0.3,0.25,0,1,1,1,1,1,1,1,1,1,1,1,1,1,1,1,1,1,1,1,1,1,1,1,1,1,1,1,1,1,1,1,1,1,1,1,1,1,1,1,1,1,1,1,1,1,,1,0.333333333,0,0,0,0,0,0,0,0,0,0,0,0,0,0,0,0,0,0,0,0,0,0,0,0,0,0,0,0,0,0,0,0,0,0,0,0,0,0,0,0,0,0,0,0,0,0,,24,21,3,5,4,7,46,29,0,28,36,25,18,47,15,20,12,1,42,30,34,31,45,44,43,41,40,39,38,37,35,33,32,27,26,23,22,19,17,16,14,13,11,10,9,8,6,2
0.01,0.95,0.65,0.5,60,40,0.6,0.01,24,RandomEMDetectRandom,20,2565,,0.979166667,0.983333333,0.983333333,0.983333333,0.983333333,0.983333333,0.983333333,0.983333333,0.9875,0.9875,0.9875,0.9875,0.9875,0.9875,0.9875,0.9875,0.9875,0.9875,0.9875,0.9875,0.9875,0.9875,0.9875,0.9875,0.9875,0.9875,0.9875,0.9875,0.9875,0.9875,0.9875,0.9875,0.9875,0.991666667,0.991666667,0.991666667,0.991666667,0.991666667,0.991666667,0.991666667,0.991666667,0.991666667,0.991666667,0.991666667,0.991666667,0.995833333,0.995833333,1,1,,0.040245876,0.036117605,0.035636432,0.034932731,0.034646579,0.034292423,0.033709933,0.033637628,0.030017769,0.029099326,0.02823568,0.026845781,0.026033073,0.025434866,0.02536638,0.025112895,0.024892653,0.024258531,0.023437851,0.023195159,0.022707324,0.022616311,0.02234373,0.022123661,0.021075843,0.020218843,0.020102804,0.019209388,0.018818021,0.01863445,0.018493385,0.018012213,0.017333837,0.012627896,0.012050667,0.011822683,0.011763107,0.011609428,0.011584402,0.011085488,0.011085488,0.011017002,0.010285875,0.010074506,0.009997429,0.005415886,0.0053454,4.30E-04,0,,-1,-1,-1,-1,-1,-1,-1,-1,-1,-1,-1,-1,-1,-1,-1,-1,-1,-1,-1,-1,-1,-1,-1,-1,-1,-1,-1,-1,-1,-1,-1,-1,-1,-1,-1,-1,-1,-1,-1,-1,-1,-1,-1,-1,-1,-1,-1,-1,,-1,-1,-1,-1,-1,-1,-1,-1,-1,-1,-1,-1,-1,-1,-1,-1,-1,-1,-1,-1,-1,-1,-1,-1,-1,-1,-1,-1,-1,-1,-1,-1,-1,-1,-1,-1,-1,-1,-1,-1,-1,-1,-1,-1,-1,-1,-1,-1,,-1,-1,-1,-1,-1,-1,-1,-1,-1,-1,-1,-1,-1,-1,-1,-1,-1,-1,-1,-1,-1,-1,-1,-1,-1,-1,-1,-1,-1,-1,-1,-1,-1,-1,-1,-1,-1,-1,-1,-1,-1,-1,-1,-1,-1,-1,-1,-1,,-1,-1,-1,-1,-1,-1,-1,-1,-1,-1,-1,-1,-1,-1,-1,-1,-1,-1,-1,-1,-1,-1,-1,-1,-1,-1,-1,-1,-1,-1,-1,-1,-1,-1,-1,-1,-1,-1,-1,-1,-1,-1,-1,-1,-1,-1,-1,-1,,-1,-1,-1,-1,-1,-1,-1,-1,-1,-1,-1,-1,-1,-1,-1,-1,-1,-1,-1,-1,-1,-1,-1,-1,-1,-1,-1,-1,-1,-1,-1,-1,-1,-1,-1,-1,-1,-1,-1,-1,-1,-1,-1,-1,-1,-1,-1,-1
0.01,null,0.65,0.5,60,40,0.6,0.01,24,IGEMRandomRemoveSequence,20,230738,,0.979166667,1,1,1,1,1,1,1,1,1,1,1,1,1,1,1,1,1,1,1,1,1,1,1,1,1,1,1,1,1,1,1,1,1,1,1,1,1,1,1,1,1,1,1,1,1,1,1,1,,0.040245876,0.019604519,0.015262567,0.012349584,0.010650098,0.009004446,0.007747024,0.006569921,0.005457274,0.004717586,0.003977897,0.003296438,0.00265317,0.002009902,0.001464728,0.0011223,8.72E-04,6.36E-04,5.01E-04,3.75E-04,2.50E-04,1.25E-04,0,0,0,0,0,0,0,0,0,0,0,0,0,0,0,0,0,0,0,0,0,0,0,0,0,0,0,,0.4,0.666666667,0.333333333,0.5,0,1,1,1,1,1,1,1,1,1,1,1,1,1,1,1,1,1,1,1,1,1,1,1,1,1,1,1,1,1,1,1,1,1,1,1,1,1,1,1,1,1,1,1,,1,0.5,0.125,0.125,0,0,0,0,0,0,0,0,0,0,0,0,0,0,0,0,0,0,0,0,0,0,0,0,0,0,0,0,0,0,0,0,0,0,0,0,0,0,0,0,0,0,0,0,,0.4,0.666666667,0.333333333,0.5,0,1,1,1,1,1,1,1,1,1,1,1,1,1,1,1,1,1,1,1,1,1,1,1,1,1,1,1,1,1,1,1,1,1,1,1,1,1,1,1,1,1,1,1,,1,0.5,0.125,0.125,0,0,0,0,0,0,0,0,0,0,0,0,0,0,0,0,0,0,0,0,0,0,0,0,0,0,0,0,0,0,0,0,0,0,0,0,0,0,0,0,0,0,0,0,,2,18,47,1,6,22,11,40,3,29,38,42,43,4,16,41,28,10,15,23,9,0,46,45,44,39,37,36,35,34,33,32,31,30,27,26,25,24,21,20,19,17,14,13,12,8,7,5
