0.01,0.8,0.6,0.5,100,0,0.6,0.01,0,RandomMV,20,206,0.86,0.8640000000000001,0.868,0.8720000000000001,0.8720000000000001,0.8720000000000001,0.8720000000000001,0.8800000000000001,0.8800000000000001,0.8800000000000001,0.884,0.892,0.8960000000000001,0.9,0.9039999999999999,0.908,0.908,0.9119999999999999,0.9119999999999999,0.916,0.924,0.9279999999999999,0.9359999999999999,0.9359999999999999,0.9359999999999999,0.9359999999999999,0.9399999999999998,0.9399999999999998,0.9399999999999998,0.944,0.9480000000000001,0.952,0.952,0.9559999999999998,0.96,0.9640000000000001,0.9640000000000001,0.9719999999999999,0.976,0.9800000000000001,0.9800000000000001,0.9879999999999999,0.9879999999999999,0.9879999999999999,0.9879999999999999,0.9879999999999999,0.992,0.992,0.992,0.9960000000000001,1.0,,31.976947312846175,31.315427265740986,30.648794213040865,29.97484469294481,29.35243932042612,28.726378975101955,28.063593319282546,27.41502553957563,26.78837205777661,26.11139710833968,25.554464225218645,24.895969607454315,24.225045516699115,23.59595974203408,22.976098305189623,22.33003316041617,21.68755916816574,21.02294987143722,20.404090107962027,19.84802212115558,19.185236465336175,18.524282141413135,17.84530384523766,17.208944531951428,16.55373927887291,15.954009335067184,15.341548130433376,14.662485604742386,14.06692000540229,13.409992784189393,12.787587411670707,12.227126249333628,11.5826285011116,10.910766557269593,10.303899851897345,9.634241369856365,8.973543290291015,8.28642655917975,7.616768077138768,7.040175111180401,6.450807955619204,5.7989937400012295,5.148402204322721,4.537424631425636,3.883607069069119,3.23481828279201,2.6223570781582,1.9433787819827262,1.2848841642184008,0.6599526505537661,0.0,,-1.0,-1.0,-1.0,-1.0,-1.0,-1.0,-1.0,-1.0,-1.0,-1.0,-1.0,-1.0,-1.0,-1.0,-1.0,-1.0,-1.0,-1.0,-1.0,-1.0,-1.0,-1.0,-1.0,-1.0,-1.0,-1.0,-1.0,-1.0,-1.0,-1.0,-1.0,-1.0,-1.0,-1.0,-1.0,-1.0,-1.0,-1.0,-1.0,-1.0,-1.0,-1.0,-1.0,-1.0,-1.0,-1.0,-1.0,-1.0,-1.0,-1.0,,-1.0,-1.0,-1.0,-1.0,-1.0,-1.0,-1.0,-1.0,-1.0,-1.0,-1.0,-1.0,-1.0,-1.0,-1.0,-1.0,-1.0,-1.0,-1.0,-1.0,-1.0,-1.0,-1.0,-1.0,-1.0,-1.0,-1.0,-1.0,-1.0,-1.0,-1.0,-1.0,-1.0,-1.0,-1.0,-1.0,-1.0,-1.0,-1.0,-1.0,-1.0,-1.0,-1.0,-1.0,-1.0,-1.0,-1.0,-1.0,-1.0,-1.0,,-1,-1,-1,-1,-1,-1,-1,-1,-1,-1,-1,-1,-1,-1,-1,-1,-1,-1,-1,-1,-1,-1,-1,-1,-1,-1,-1,-1,-1,-1,-1,-1,-1,-1,-1,-1,-1,-1,-1,-1,-1,-1,-1,-1,-1,-1,-1,-1,-1,-1
0.01,0.8,0.6,0.5,100,0,0.6,0.01,0,CombinedEMSequence,6,109170,0.72,0.72,0.72,0.76,0.78,0.8,0.64,0.76,0.84,0.8,0.9,0.9,0.9,0.92,0.92,0.92,0.92,0.92,0.92,0.92,0.92,0.94,0.94,0.94,0.94,0.94,0.94,0.94,0.96,0.96,0.98,0.98,0.98,1.0,1.0,1.0,1.0,1.0,1.0,1.0,1.0,1.0,1.0,1.0,1.0,1.0,1.0,1.0,1.0,1.0,1.0,,22.036270097721,20.554358967900907,19.44040087210699,18.637129705587725,17.889585373102115,17.13996637331379,26.957326249314555,26.943354442779533,26.50246878636675,26.78746356001469,25.266910880715823,24.64357302015279,23.950485901595336,23.257538334517587,22.564790520925133,21.921098726455114,21.23114535468404,20.538843839734426,19.846542324784817,19.154315631691947,18.462310350042596,17.78741195440516,17.213426182211133,16.52152852237197,15.832851240991452,15.151288707895933,14.599932294585322,13.92110368228705,13.253358993824394,12.590963736124861,11.924862023558132,11.294178715589961,10.631783457890428,9.971380386075296,9.313638480461838,8.6626632901796,8.014507661183364,7.366137405141943,6.722374659619449,6.081392259536479,5.44241412598623,4.825734894951966,4.200092583437054,3.5904362496383406,2.9727187128603694,2.3650480368765763,1.9610114309452853,1.42763742341395,0.902405225832763,0.3872981489906203,0.0,,1.0,0.0,1.0,0.0,1.0,0.0,1.0,0.0,1.0,0.0,0.8333333333333334,0.0,1.0,0.0,1.0,0.0,1.0,0.0,1.0,0.0,0.75,0.0,1.0,0.0,1.0,0.0,1.0,0.0,1.0,0.0,1.0,0.0,1.0,0.0,1.0,0.0,1.0,0.0,1.0,0.0,1.0,0.0,1.0,0.0,1.0,0.0,1.0,0.0,1.0,0.0,1.0,0.0,1.0,0.0,1.0,0.0,1.0,0.0,1.0,0.0,1.0,0.0,1.0,0.0,1.0,0.0,1.0,0.0,1.0,0.0,1.0,0.0,1.0,0.0,1.0,0.0,1.0,0.0,1.0,0.0,1.0,0.0,1.0,0.0,1.0,0.0,1.0,0.0,1.0,0.0,1.0,0.0,1.0,0.0,1.0,0.0,1.0,0.0,1.0,0.0,,0.0,1.0,0.0,1.0,0.0,1.0,0.0,1.0,0.0,1.0,0.4166666666666667,1.0,0.0,1.0,0.0,1.0,0.14285714285714285,1.0,0.0,1.0,0.42857142857142855,1.0,0.0,1.0,0.0,1.0,0.0,1.0,0.0,1.0,0.0,1.0,0.0,1.0,0.3333333333333333,1.0,0.0,1.0,0.0,1.0,0.0,1.0,0.3333333333333333,1.0,0.3333333333333333,1.0,0.3333333333333333,1.0,0.3333333333333333,1.0,0.3333333333333333,1.0,0.0,1.0,0.0,1.0,0.0,1.0,0.0,1.0,0.0,1.0,0.0,1.0,0.0,1.0,0.0,1.0,0.0,1.0,0.0,1.0,0.0,1.0,0.0,1.0,0.0,1.0,0.0,1.0,0.0,1.0,0.0,1.0,0.0,1.0,0.0,1.0,0.0,1.0,0.0,1.0,0.0,1.0,0.0,1.0,0.0,1.0,0.0,1.0,,0,38,5,41,13,15,24,43,16,6,26,30,33,14,42,19,36,12,47,28,44,35,8,7,3,23,29,40,4,49,9,45,18,46,1,48,11,39,37,31,20,22,2,27,25,34,21,32,17,10
0.01,0.8,0.6,0.5,100,0,0.6,0.01,1,RandomMV,20,36,0.86,0.8640000000000001,0.8640000000000001,0.8640000000000001,0.868,0.868,0.8720000000000001,0.8720000000000001,0.8720000000000001,0.8720000000000001,0.8720000000000001,0.8720000000000001,0.8720000000000001,0.8800000000000001,0.8800000000000001,0.8800000000000001,0.8800000000000001,0.8880000000000001,0.8880000000000001,0.8880000000000001,0.892,0.892,0.9,0.9,0.9040000000000001,0.908,0.9120000000000001,0.9120000000000001,0.9120000000000001,0.9120000000000001,0.916,0.924,0.924,0.932,0.932,0.9359999999999999,0.9400000000000001,0.9480000000000001,0.9480000000000001,0.952,0.9559999999999998,0.96,0.968,0.968,0.968,0.976,0.9800000000000001,0.9800000000000001,0.9879999999999999,0.992,1.0,,31.928714198914086,31.242599141172093,30.6070617954257,30.087802883929186,29.423823130665284,28.789792344735538,28.118868253980338,27.542952189311524,26.933321006395666,26.33381206916014,25.6974527558739,25.04022374682379,24.37661612346454,23.698639500658338,23.10622602424856,22.47117315571649,21.822605376009573,21.16770191076827,20.52163676599482,19.84877314878354,19.199246624482107,18.5364609686627,17.872853345303447,17.2186497655942,16.589606919703918,15.969925188688887,15.31811097307091,14.673613224848884,13.991525269817027,13.362482423926739,12.75864114789536,12.073527763522637,11.49354376010373,10.839641968231696,10.169983486190713,9.49932333078046,8.904843169624336,8.238210116924218,7.573664640478164,6.986364169663308,6.343324454230722,5.68539555964855,5.021787936289301,4.389719661058146,3.7754956522499996,3.1576575066763217,2.5310040248773027,1.9322757544408475,1.2606139256613216,0.6470668181427242,0.0,,-1.0,-1.0,-1.0,-1.0,-1.0,-1.0,-1.0,-1.0,-1.0,-1.0,-1.0,-1.0,-1.0,-1.0,-1.0,-1.0,-1.0,-1.0,-1.0,-1.0,-1.0,-1.0,-1.0,-1.0,-1.0,-1.0,-1.0,-1.0,-1.0,-1.0,-1.0,-1.0,-1.0,-1.0,-1.0,-1.0,-1.0,-1.0,-1.0,-1.0,-1.0,-1.0,-1.0,-1.0,-1.0,-1.0,-1.0,-1.0,-1.0,-1.0,,-1.0,-1.0,-1.0,-1.0,-1.0,-1.0,-1.0,-1.0,-1.0,-1.0,-1.0,-1.0,-1.0,-1.0,-1.0,-1.0,-1.0,-1.0,-1.0,-1.0,-1.0,-1.0,-1.0,-1.0,-1.0,-1.0,-1.0,-1.0,-1.0,-1.0,-1.0,-1.0,-1.0,-1.0,-1.0,-1.0,-1.0,-1.0,-1.0,-1.0,-1.0,-1.0,-1.0,-1.0,-1.0,-1.0,-1.0,-1.0,-1.0,-1.0,,-1,-1,-1,-1,-1,-1,-1,-1,-1,-1,-1,-1,-1,-1,-1,-1,-1,-1,-1,-1,-1,-1,-1,-1,-1,-1,-1,-1,-1,-1,-1,-1,-1,-1,-1,-1,-1,-1,-1,-1,-1,-1,-1,-1,-1,-1,-1,-1,-1,-1
0.01,0.8,0.6,0.5,100,0,0.6,0.01,1,CombinedEMSequence,6,133334,0.82,0.84,0.82,0.86,0.84,0.86,0.52,0.52,0.62,0.64,0.64,0.66,0.68,0.68,0.7,0.72,0.66,0.7,0.66,0.68,0.72,0.68,0.7,0.7,0.7,0.76,0.78,0.8,0.8,0.8,0.8,0.82,0.84,0.84,0.84,0.84,0.86,0.88,0.9,0.92,0.92,0.94,0.94,0.94,0.94,0.94,0.96,0.96,0.96,0.98,1.0,,22.142242445627026,22.183512578389408,20.01055965908741,19.33468629116457,17.48398940031359,16.899509207138966,26.676169109725006,23.855760453844965,25.825111727651535,25.77801925183264,24.053231300949896,24.615823871685595,24.56749363465165,23.014439935744512,22.80063259628926,21.88328901424054,22.78687976911174,21.672423266870087,20.915414501719848,19.731990880106405,18.85724050339294,19.648541696072456,19.069655453878955,18.214223216693437,17.410862385921817,16.664603232449636,15.787731373672719,15.045077222913491,14.316961870364256,13.542354314291273,12.806685513236806,12.205553848404723,11.668369647934547,10.925857845546526,10.197838130484673,9.484562836266832,9.154093798572605,8.677124458529743,8.099410984287056,7.455850109652474,6.7385713029853775,6.144072854752525,5.4258121197946325,4.712194627048397,4.006301223201284,3.309969005822407,2.6703236880270853,1.98245768991213,1.303741333609952,0.6340510891250026,0.0,,1.0,0.0,1.0,0.0,1.0,0.0,0.5,0.0,1.0,0.0,0.4,0.0,0.5,0.0,1.0,0.0,0.0,0.0,0.0,0.0,0.5,0.0,1.0,0.0,1.0,0.0,1.0,0.0,1.0,0.0,1.0,0.0,1.0,0.0,1.0,0.0,1.0,0.0,0.6666666666666666,0.0,1.0,0.0,1.0,0.0,1.0,0.0,1.0,0.0,1.0,0.0,1.0,0.0,1.0,0.0,1.0,0.0,1.0,0.0,1.0,0.0,1.0,0.0,1.0,0.0,1.0,0.0,1.0,0.0,1.0,0.0,1.0,0.0,1.0,0.0,1.0,0.0,1.0,0.0,1.0,0.0,1.0,0.0,1.0,0.0,1.0,0.0,1.0,0.0,1.0,0.0,1.0,0.0,1.0,0.0,1.0,0.0,1.0,0.0,1.0,0.0,,0.0,1.0,0.0,1.0,0.0,1.0,0.18181818181818182,1.0,0.0,1.0,0.18181818181818182,1.0,0.2222222222222222,1.0,0.0,1.0,0.0,1.0,0.0,1.0,0.1111111111111111,1.0,0.0,1.0,0.125,1.0,0.0,1.0,0.25,1.0,0.25,1.0,0.16666666666666666,1.0,0.3333333333333333,1.0,0.3333333333333333,1.0,0.3333333333333333,1.0,0.3333333333333333,1.0,0.0,1.0,0.25,1.0,0.0,1.0,0.25,1.0,0.25,1.0,0.0,1.0,0.0,1.0,0.0,1.0,0.0,1.0,0.3333333333333333,1.0,0.5,1.0,0.0,1.0,0.0,1.0,0.0,1.0,0.0,1.0,0.5,1.0,0.5,1.0,0.5,1.0,0.5,1.0,0.5,1.0,0.0,1.0,0.0,1.0,0.0,1.0,1.0,1.0,0.0,1.0,0.0,1.0,1.0,1.0,1.0,1.0,0.0,1.0,,0,33,19,36,46,40,24,10,1,30,23,5,47,29,42,8,49,44,39,13,9,32,43,38,31,15,45,26,48,6,7,22,35,28,27,17,41,37,34,25,3,21,4,18,16,12,14,11,2,20
0.01,0.8,0.6,0.5,100,0,0.7,0.01,0,RandomMV,20,21,0.86,0.8640000000000001,0.868,0.876,0.876,0.8800000000000001,0.8800000000000001,0.8800000000000001,0.8800000000000001,0.8800000000000001,0.8880000000000001,0.892,0.892,0.892,0.9,0.908,0.9120000000000001,0.9120000000000001,0.9120000000000001,0.916,0.924,0.924,0.924,0.9279999999999999,0.932,0.9359999999999999,0.9400000000000001,0.944,0.944,0.9480000000000001,0.952,0.9559999999999998,0.96,0.96,0.9640000000000001,0.9640000000000001,0.968,0.976,0.976,0.976,0.9800000000000001,0.9800000000000001,0.9800000000000001,0.9800000000000001,0.9800000000000001,0.984,0.992,0.9960000000000001,1.0,1.0,1.0,,32.00229769694705,31.37893357983384,30.730408728901683,30.060570541031268,29.38259391822507,28.735070740662174,28.12080380307928,27.486773017149535,26.91588619326094,26.265793945777354,25.596135463736367,24.947346677459258,24.280713624759148,23.69585553027554,23.034335483170345,22.390659702488165,21.75425746042718,21.13465949422685,20.463735403471652,19.824307732069805,19.176741625732166,18.596757622313255,17.97615798274366,17.30631979487325,16.719978068652917,16.063050847440017,15.40209652351698,14.750918373148602,14.089398326043408,13.426876605568946,12.774060716581701,12.120158924709667,11.482232214872004,10.858343210616596,10.170224806136059,9.517408917148813,8.881685669112173,8.217076372383652,7.565483163335872,6.954241655093844,6.325500597040767,5.715608462327653,5.054088415222461,4.397161194009562,3.7608018807233257,3.169390077682818,2.5236267207465763,1.8651321029822505,1.221456322300067,0.6163115850622047,0.0,,-1.0,-1.0,-1.0,-1.0,-1.0,-1.0,-1.0,-1.0,-1.0,-1.0,-1.0,-1.0,-1.0,-1.0,-1.0,-1.0,-1.0,-1.0,-1.0,-1.0,-1.0,-1.0,-1.0,-1.0,-1.0,-1.0,-1.0,-1.0,-1.0,-1.0,-1.0,-1.0,-1.0,-1.0,-1.0,-1.0,-1.0,-1.0,-1.0,-1.0,-1.0,-1.0,-1.0,-1.0,-1.0,-1.0,-1.0,-1.0,-1.0,-1.0,,-1.0,-1.0,-1.0,-1.0,-1.0,-1.0,-1.0,-1.0,-1.0,-1.0,-1.0,-1.0,-1.0,-1.0,-1.0,-1.0,-1.0,-1.0,-1.0,-1.0,-1.0,-1.0,-1.0,-1.0,-1.0,-1.0,-1.0,-1.0,-1.0,-1.0,-1.0,-1.0,-1.0,-1.0,-1.0,-1.0,-1.0,-1.0,-1.0,-1.0,-1.0,-1.0,-1.0,-1.0,-1.0,-1.0,-1.0,-1.0,-1.0,-1.0,,-1,-1,-1,-1,-1,-1,-1,-1,-1,-1,-1,-1,-1,-1,-1,-1,-1,-1,-1,-1,-1,-1,-1,-1,-1,-1,-1,-1,-1,-1,-1,-1,-1,-1,-1,-1,-1,-1,-1,-1,-1,-1,-1,-1,-1,-1,-1,-1,-1,-1
0.01,0.8,0.6,0.5,100,0,0.7,0.01,0,CombinedEMSequence,10,130745,0.82,0.82,0.82,0.86,0.84,0.86,0.88,0.88,0.88,0.88,0.9,0.8,0.84,0.84,0.86,0.88,0.82,0.86,0.86,0.9,0.88,0.84,0.84,0.88,0.88,0.88,0.88,0.9,0.9,0.9,0.9,0.9,0.92,0.94,0.94,0.96,0.96,0.96,0.96,0.96,0.96,0.96,0.98,0.98,0.98,1.0,1.0,1.0,1.0,1.0,1.0,,13.995158343736444,13.290729664205834,12.646322084003094,11.69870847650204,10.597073614593384,9.16270537117136,11.164965115002286,10.022355215008632,9.406842289616169,8.514704892891784,8.381003677065756,20.034614965097276,18.864070315934057,18.189233123702248,16.70509351161135,15.670353007174183,19.167608371826596,18.441359903159533,17.39211908421371,16.188734441000534,15.134888267340063,18.348960551238402,17.482621819231156,16.741581384565038,16.006783983270257,15.050396559468266,15.038205446995434,14.320666042980692,13.398991775180706,12.569191127725436,11.686847166791754,10.824195257620724,10.059466646589792,9.356942197848792,8.516876668960695,7.955255140660948,7.300259126499424,6.397767657061886,5.565367146434169,4.821960766605634,4.115037456994416,3.4912418821456965,3.0842590921735606,2.4855542882832555,1.9775840557418611,1.7329509732117372,1.3093636976296241,0.9024956170574153,0.5532190217372632,0.2546207816602376,0.0,,1.0,0.0,1.0,0.0,1.0,0.0,1.0,0.0,1.0,0.0,1.0,0.0,1.0,0.0,0.0,0.0,0.25,0.0,1.0,0.0,0.0,0.0,1.0,0.0,0.0,0.0,1.0,0.0,0.5,0.0,0.0,0.0,1.0,0.0,1.0,0.0,1.0,0.0,1.0,0.0,1.0,0.0,1.0,0.0,1.0,0.0,0.5,0.0,0.6666666666666666,0.0,1.0,0.0,0.0,0.0,1.0,0.0,0.0,0.0,0.0,0.0,1.0,0.0,1.0,0.0,1.0,0.0,1.0,0.0,1.0,0.0,1.0,0.0,1.0,0.0,1.0,0.0,1.0,0.0,1.0,0.0,1.0,0.0,1.0,0.0,1.0,0.0,1.0,0.0,1.0,0.0,1.0,0.0,1.0,0.0,1.0,0.0,1.0,0.0,1.0,0.0,,0.0,1.0,0.0,1.0,0.0,1.0,0.0,1.0,0.0,1.0,0.0,1.0,0.0,1.0,0.0,1.0,0.125,1.0,0.0,1.0,0.0,1.0,0.0,1.0,0.0,1.0,0.0,1.0,0.2,1.0,0.0,1.0,0.0,1.0,0.0,1.0,0.0,1.0,0.2,1.0,0.2,1.0,0.5,1.0,0.5,1.0,0.25,1.0,0.5,1.0,0.25,1.0,0.0,1.0,0.0,1.0,0.0,1.0,0.0,1.0,0.0,1.0,0.0,1.0,0.0,1.0,0.0,1.0,0.0,1.0,0.0,1.0,0.0,1.0,0.0,1.0,0.0,1.0,0.0,1.0,0.0,1.0,0.0,1.0,0.0,1.0,0.0,1.0,0.0,1.0,0.0,1.0,0.0,1.0,0.3333333333333333,1.0,0.3333333333333333,1.0,0.0,1.0,,0,6,21,11,13,2,44,41,22,32,40,31,10,35,48,16,36,23,42,15,37,27,49,43,29,1,24,7,8,19,3,14,20,25,39,30,9,12,26,38,5,4,28,46,33,45,34,47,17,18
0.01,0.8,0.6,0.5,100,0,0.7,0.01,1,RandomMV,20,22,0.8400000000000001,0.8480000000000001,0.8560000000000001,0.868,0.8720000000000001,0.8720000000000001,0.876,0.8800000000000001,0.8880000000000001,0.8880000000000001,0.8880000000000001,0.8880000000000001,0.892,0.8960000000000001,0.8960000000000001,0.8960000000000001,0.9039999999999999,0.908,0.908,0.908,0.908,0.9120000000000001,0.916,0.924,0.9279999999999999,0.9279999999999999,0.932,0.9359999999999999,0.9359999999999999,0.9399999999999998,0.944,0.944,0.944,0.944,0.944,0.944,0.9480000000000001,0.9480000000000001,0.9559999999999998,0.96,0.9640000000000001,0.968,0.968,0.9719999999999999,0.9800000000000001,0.984,0.992,0.9960000000000001,0.9960000000000001,1.0,1.0,,32.00730606379341,31.37601682732735,30.709383774627234,30.02326871688524,29.345292094079035,28.758950367858706,28.10777221749033,27.457416034661797,26.852573085261145,26.233236070858073,25.60016612225765,24.94223722767548,24.328690120156885,23.639570042307074,23.01870646739253,22.366892251774555,21.705372204669366,21.054194054300986,20.406491170908666,19.734565406784196,19.082385583046545,18.43688616145525,17.827450386162305,17.206586811247764,16.562089063025734,15.9263658149891,15.360675761510132,14.738270388991447,14.055180760590321,13.415796017963217,12.79339064544453,12.151436832896731,11.537889725378134,10.890366547815242,10.298828051185287,9.625964433974008,8.96646814284041,8.337466132990075,7.672856836261554,7.015929615048654,6.392522569160696,5.735679577463313,5.058704628026382,4.419276956624531,3.789598045484645,3.1240508956693156,2.492284408275372,1.8518979922789982,1.2705855068388914,0.6096311829158539,0.0,,-1.0,-1.0,-1.0,-1.0,-1.0,-1.0,-1.0,-1.0,-1.0,-1.0,-1.0,-1.0,-1.0,-1.0,-1.0,-1.0,-1.0,-1.0,-1.0,-1.0,-1.0,-1.0,-1.0,-1.0,-1.0,-1.0,-1.0,-1.0,-1.0,-1.0,-1.0,-1.0,-1.0,-1.0,-1.0,-1.0,-1.0,-1.0,-1.0,-1.0,-1.0,-1.0,-1.0,-1.0,-1.0,-1.0,-1.0,-1.0,-1.0,-1.0,,-1.0,-1.0,-1.0,-1.0,-1.0,-1.0,-1.0,-1.0,-1.0,-1.0,-1.0,-1.0,-1.0,-1.0,-1.0,-1.0,-1.0,-1.0,-1.0,-1.0,-1.0,-1.0,-1.0,-1.0,-1.0,-1.0,-1.0,-1.0,-1.0,-1.0,-1.0,-1.0,-1.0,-1.0,-1.0,-1.0,-1.0,-1.0,-1.0,-1.0,-1.0,-1.0,-1.0,-1.0,-1.0,-1.0,-1.0,-1.0,-1.0,-1.0,,-1,-1,-1,-1,-1,-1,-1,-1,-1,-1,-1,-1,-1,-1,-1,-1,-1,-1,-1,-1,-1,-1,-1,-1,-1,-1,-1,-1,-1,-1,-1,-1,-1,-1,-1,-1,-1,-1,-1,-1,-1,-1,-1,-1,-1,-1,-1,-1,-1,-1
0.01,0.8,0.6,0.5,100,0,0.7,0.01,1,CombinedEMSequence,12,148547,0.78,0.78,0.76,0.78,0.78,0.8,0.8,0.8,0.8,0.84,0.84,0.78,0.76,0.8,0.8,0.84,0.84,0.88,0.88,0.88,0.9,0.88,0.88,0.9,0.92,0.92,0.92,0.92,0.92,0.94,0.94,0.94,0.94,0.96,0.96,0.98,0.98,0.98,0.98,0.98,0.98,0.98,0.98,1.0,1.0,1.0,1.0,1.0,1.0,1.0,1.0,,19.593994016088654,17.635494638316004,16.775566025581664,15.618521138894405,14.244158609250603,14.227337852087091,13.956277954357684,12.765168905692812,11.51814499687821,10.87544067823499,9.735676483442397,19.46700012641702,18.54112718924535,17.64148276957779,16.42511028625898,16.218530703188602,15.061095062810173,14.299589097914883,12.566264969169396,11.411266301054173,10.274452941880552,10.840285266383734,10.159627084792108,9.227748344948209,8.524916106918123,7.5362094986382715,14.181457007973858,12.569123601046709,11.596303824761959,12.522115273812833,11.35155411111951,10.264121192316534,9.231262781759124,8.425225044753027,7.4121640863291525,7.030784470701983,6.134638222159558,5.3342966983742155,4.597123687625352,3.922742224437442,3.329167286596628,2.920518497648815,2.4262104985287096,2.4581185546308717,1.8912297513675234,1.4055038133550017,1.1177245581409,0.7137245400397025,0.437179365065102,0.18729166233581115,0.0,,1.0,0.0,1.0,0.0,1.0,0.0,0.5,0.0,1.0,0.0,1.0,0.0,1.0,0.0,0.5,0.0,0.5,0.0,0.5,0.0,0.5,0.0,1.0,0.0,1.0,0.0,1.0,0.0,0.5,0.0,1.0,0.0,1.0,0.0,0.5,0.0,0.5,0.0,0.75,0.0,1.0,0.0,0.5,0.0,0.0,0.0,0.5,0.0,0.5,0.0,1.0,0.0,0.0,0.0,1.0,0.0,0.0,0.0,0.0,0.0,1.0,0.0,1.0,0.0,1.0,0.0,0.0,0.0,1.0,0.0,1.0,0.0,1.0,0.0,1.0,0.0,1.0,0.0,1.0,0.0,1.0,0.0,1.0,0.0,1.0,0.0,1.0,0.0,1.0,0.0,1.0,0.0,1.0,0.0,1.0,0.0,1.0,0.0,1.0,0.0,,0.0,1.0,0.0,1.0,0.0,1.0,0.375,1.0,0.0,1.0,0.0,1.0,0.0,1.0,0.125,1.0,0.375,1.0,0.25,1.0,0.375,1.0,0.0,1.0,0.4,1.0,0.0,1.0,0.2,1.0,0.0,1.0,0.2,1.0,0.4,1.0,0.2,1.0,0.6,1.0,0.2,1.0,0.25,1.0,0.0,1.0,0.25,1.0,0.25,1.0,0.25,1.0,0.0,1.0,0.0,1.0,0.0,1.0,0.0,1.0,0.0,1.0,0.0,1.0,0.0,1.0,0.0,1.0,0.0,1.0,0.0,1.0,0.0,1.0,0.0,1.0,0.0,1.0,0.0,1.0,0.0,1.0,0.0,1.0,0.0,1.0,0.0,1.0,0.0,1.0,0.0,1.0,0.0,1.0,0.0,1.0,0.0,1.0,0.0,1.0,,0,44,23,37,27,47,14,33,7,31,1,40,4,22,21,28,16,13,35,20,48,39,18,2,43,19,5,6,3,34,17,9,32,49,29,8,42,41,30,36,11,10,25,46,24,45,15,38,12,26
0.01,0.8,0.6,0.5,100,0,0.8,0.01,0,RandomMV,20,22,0.86,0.8640000000000001,0.8640000000000001,0.868,0.876,0.876,0.876,0.8880000000000001,0.8880000000000001,0.892,0.8960000000000001,0.8960000000000001,0.9,0.9120000000000001,0.9120000000000001,0.916,0.916,0.9200000000000002,0.924,0.9280000000000002,0.9280000000000002,0.932,0.932,0.932,0.9359999999999999,0.9359999999999999,0.9359999999999999,0.9359999999999999,0.944,0.9480000000000001,0.9559999999999998,0.96,0.96,0.96,0.96,0.96,0.96,0.96,0.96,0.96,0.96,0.9640000000000001,0.968,0.9719999999999999,0.984,0.9879999999999999,0.992,0.992,0.992,0.9960000000000001,1.0,,31.832095921809195,31.258267433394433,30.645806228760627,29.97614774671964,29.301196553254307,28.705493712158717,28.096975845420342,27.423026325324276,26.812504647146547,26.206358236539415,25.610835565974064,24.996175606978802,24.37731584350362,23.69631379135655,23.08507228311452,22.444685867118146,21.868574859527236,21.213369606448715,20.58003572250335,19.918515675398158,19.245652058186877,18.579019005486764,17.981513414989774,17.349402210983875,16.74245174079693,16.05230958034479,15.408633799662613,14.780412921312166,14.098409195795824,13.450843089458184,12.822579282332992,12.149715665121713,11.48610804176246,10.884270577170442,10.289749579974366,9.667387136230428,9.005867089125237,8.334005145283232,7.695256467905726,7.076396704430539,6.398420081624336,5.872480767981473,5.218663205624955,4.573163784033656,3.897210917199048,3.2398022023195105,2.559738003259249,1.9543293306764433,1.3311785291461748,0.6584946177643255,0.0,,-1.0,-1.0,-1.0,-1.0,-1.0,-1.0,-1.0,-1.0,-1.0,-1.0,-1.0,-1.0,-1.0,-1.0,-1.0,-1.0,-1.0,-1.0,-1.0,-1.0,-1.0,-1.0,-1.0,-1.0,-1.0,-1.0,-1.0,-1.0,-1.0,-1.0,-1.0,-1.0,-1.0,-1.0,-1.0,-1.0,-1.0,-1.0,-1.0,-1.0,-1.0,-1.0,-1.0,-1.0,-1.0,-1.0,-1.0,-1.0,-1.0,-1.0,,-1.0,-1.0,-1.0,-1.0,-1.0,-1.0,-1.0,-1.0,-1.0,-1.0,-1.0,-1.0,-1.0,-1.0,-1.0,-1.0,-1.0,-1.0,-1.0,-1.0,-1.0,-1.0,-1.0,-1.0,-1.0,-1.0,-1.0,-1.0,-1.0,-1.0,-1.0,-1.0,-1.0,-1.0,-1.0,-1.0,-1.0,-1.0,-1.0,-1.0,-1.0,-1.0,-1.0,-1.0,-1.0,-1.0,-1.0,-1.0,-1.0,-1.0,,-1,-1,-1,-1,-1,-1,-1,-1,-1,-1,-1,-1,-1,-1,-1,-1,-1,-1,-1,-1,-1,-1,-1,-1,-1,-1,-1,-1,-1,-1,-1,-1,-1,-1,-1,-1,-1,-1,-1,-1,-1,-1,-1,-1,-1,-1,-1,-1,-1,-1
0.01,0.8,0.6,0.5,100,0,0.8,0.01,0,CombinedEMSequence,7,120747,0.82,0.8,0.8,0.82,0.84,0.84,0.64,0.66,0.68,0.74,0.76,0.6,0.58,0.62,0.68,0.72,0.68,0.68,0.7,0.7,0.7,0.68,0.68,0.7,0.72,0.72,0.74,0.74,0.76,0.76,0.78,0.76,0.78,0.8,0.82,0.84,0.84,0.86,0.86,0.88,0.88,0.9,0.92,0.94,0.94,0.96,0.96,0.96,0.98,0.98,1.0,,19.52328036098559,18.16921060669168,16.594072277541844,14.865089802685011,13.787120920625563,12.571214323826126,25.81583296310729,25.451498501214747,24.616707445488572,24.21696641208581,23.360217633869205,25.39079993549807,23.982086338126898,23.86952150180899,23.52905958709909,23.071281208324127,22.094271980940732,20.90134982054062,20.496360528395282,19.478686050865797,18.319801250997514,17.290069545522613,16.335759255142598,15.792472370954034,15.337604847672937,14.148570847517007,14.054990514724626,13.320571341502317,12.939734295626696,12.046952124259134,11.6357631132369,11.267851453121377,10.590388148385601,9.735755095199947,9.349192387064187,8.814555880283953,7.992869918966747,7.372752882054773,6.607706204940906,6.201761000226658,5.427222932479964,5.348768378302689,4.724708134427871,4.061536108050994,3.38191253252974,2.83920215934543,2.212656610085808,1.5698696839130162,1.1386856264237721,0.5491124379205998,0.0,,1.0,0.0,1.0,0.0,1.0,0.0,1.0,0.0,1.0,0.0,0.5,0.0,1.0,0.0,0.0,0.0,0.5,0.0,0.5,0.0,0.5,0.0,1.0,0.0,1.0,0.0,1.0,0.0,1.0,0.0,1.0,0.0,1.0,0.0,1.0,0.0,1.0,0.0,1.0,0.0,1.0,0.0,1.0,0.0,1.0,0.0,1.0,0.0,1.0,0.0,1.0,0.0,1.0,0.0,1.0,0.0,1.0,0.0,1.0,0.0,1.0,0.0,1.0,0.0,1.0,0.0,1.0,0.0,1.0,0.0,1.0,0.0,1.0,0.0,1.0,0.0,1.0,0.0,1.0,0.0,1.0,0.0,1.0,0.0,1.0,0.0,1.0,0.0,1.0,0.0,1.0,0.0,1.0,0.0,1.0,0.0,1.0,0.0,1.0,0.0,,0.0,1.0,0.0,1.0,0.0,1.0,0.0,1.0,0.0,1.0,0.3,1.0,0.0,1.0,0.0,1.0,0.14285714285714285,1.0,0.14285714285714285,1.0,0.14285714285714285,1.0,0.0,1.0,0.16666666666666666,1.0,0.16666666666666666,1.0,0.16666666666666666,1.0,0.16666666666666666,1.0,0.0,1.0,0.0,1.0,0.0,1.0,0.0,1.0,0.0,1.0,0.0,1.0,0.0,1.0,0.0,1.0,0.0,1.0,0.0,1.0,0.0,1.0,0.0,1.0,0.0,1.0,0.2,1.0,0.2,1.0,0.0,1.0,0.0,1.0,0.0,1.0,0.0,1.0,0.0,1.0,0.0,1.0,0.0,1.0,0.25,1.0,0.0,1.0,0.25,1.0,0.3333333333333333,1.0,0.0,1.0,0.0,1.0,0.0,1.0,0.0,1.0,0.0,1.0,0.0,1.0,0.0,1.0,0.0,1.0,,0,17,27,31,6,42,43,46,19,47,16,48,35,9,23,39,30,26,25,44,20,22,7,33,40,37,36,32,4,28,3,41,14,13,10,45,5,49,34,11,24,8,2,29,18,15,1,38,21,12
0.01,0.8,0.6,0.5,100,0,0.8,0.01,1,RandomMV,20,26,0.8,0.8039999999999999,0.8039999999999999,0.808,0.808,0.812,0.8240000000000001,0.8240000000000001,0.8240000000000001,0.828,0.828,0.828,0.828,0.8320000000000001,0.8320000000000001,0.836,0.836,0.836,0.8400000000000001,0.8480000000000001,0.8480000000000001,0.852,0.852,0.852,0.8560000000000001,0.86,0.8640000000000001,0.8720000000000001,0.884,0.884,0.892,0.9039999999999999,0.9079999999999998,0.9079999999999998,0.916,0.9199999999999999,0.9239999999999998,0.932,0.9359999999999999,0.944,0.9559999999999998,0.9559999999999998,0.9640000000000001,0.9719999999999999,0.9719999999999999,0.9800000000000001,0.984,0.984,0.9960000000000001,1.0,1.0,,32.007306063793415,31.337467875923004,30.680540654710107,30.023613433497207,29.389977761714626,28.73716187272738,28.075205875435067,27.483751143619816,26.817940058459545,26.14828157641856,25.46828119764076,24.83625375844956,24.16532966769436,23.532561506931145,22.957731345147113,22.292184195331785,21.65279945270468,21.009123672022497,20.34148894595311,19.71383379078482,19.10137258615101,18.500100844741148,17.87773840099721,17.216218353892017,16.5495853011919,15.894681835950598,15.263435528259288,14.633431845039677,13.991657738321305,13.347981957639124,12.724574911751166,12.119731962350516,11.562842008004221,10.977179275808236,10.322795990269565,9.651871899514365,8.985238846814251,8.343850757448605,7.680243134089355,7.029886951260821,6.3652776545322975,5.702299574637666,5.070008664802335,4.386919036401208,3.7645136638825223,3.1159458841756087,2.435965914630864,1.844470346775656,1.1859757290113304,0.616656301674164,0.0,,-1.0,-1.0,-1.0,-1.0,-1.0,-1.0,-1.0,-1.0,-1.0,-1.0,-1.0,-1.0,-1.0,-1.0,-1.0,-1.0,-1.0,-1.0,-1.0,-1.0,-1.0,-1.0,-1.0,-1.0,-1.0,-1.0,-1.0,-1.0,-1.0,-1.0,-1.0,-1.0,-1.0,-1.0,-1.0,-1.0,-1.0,-1.0,-1.0,-1.0,-1.0,-1.0,-1.0,-1.0,-1.0,-1.0,-1.0,-1.0,-1.0,-1.0,,-1.0,-1.0,-1.0,-1.0,-1.0,-1.0,-1.0,-1.0,-1.0,-1.0,-1.0,-1.0,-1.0,-1.0,-1.0,-1.0,-1.0,-1.0,-1.0,-1.0,-1.0,-1.0,-1.0,-1.0,-1.0,-1.0,-1.0,-1.0,-1.0,-1.0,-1.0,-1.0,-1.0,-1.0,-1.0,-1.0,-1.0,-1.0,-1.0,-1.0,-1.0,-1.0,-1.0,-1.0,-1.0,-1.0,-1.0,-1.0,-1.0,-1.0,,-1,-1,-1,-1,-1,-1,-1,-1,-1,-1,-1,-1,-1,-1,-1,-1,-1,-1,-1,-1,-1,-1,-1,-1,-1,-1,-1,-1,-1,-1,-1,-1,-1,-1,-1,-1,-1,-1,-1,-1,-1,-1,-1,-1,-1,-1,-1,-1,-1,-1
0.01,0.8,0.6,0.5,100,0,0.8,0.01,1,CombinedEMSequence,7,118008,0.76,0.76,0.76,0.76,0.8,0.8,0.8,0.8,0.82,0.82,0.82,0.78,0.8,0.8,0.82,0.82,0.82,0.82,0.82,0.86,0.86,0.86,0.88,0.9,0.9,0.92,0.94,0.94,0.94,0.94,0.94,0.94,0.96,0.96,0.96,0.96,0.96,0.96,0.96,0.96,0.96,0.96,0.96,0.96,0.96,0.96,0.98,1.0,1.0,1.0,1.0,,16.08369769846753,15.818053136280831,14.084105677988228,12.825920718085928,11.61773537263588,10.41793664364563,10.1582756133234,8.885002914743088,8.227895026963992,7.139341861271404,6.38531155852825,15.558840623044437,13.933884622671194,12.523860802211802,11.478086900057528,10.852419255884964,19.564650971511558,18.531902446383523,17.557859072884504,16.9455818586403,16.159386088588878,14.896407569614349,15.2175618304394,14.39603269437863,13.278004809382917,12.434267387632607,11.85787443016584,10.818940887516954,9.834730888124792,8.948332596131959,7.91692981267532,9.36092578044201,8.792498155818022,7.882545680755356,7.024304645792659,6.219093282893911,6.294605059349297,5.591815434909586,4.935998366944,4.324637153042334,3.7553274419317537,3.2005513314966807,2.6937947693955024,2.215782473871013,1.786333539620064,1.400187794462874,1.38212623599913,1.2158158931469012,0.771251229654882,0.3668452864896373,0.0,,1.0,0.0,1.0,0.0,1.0,0.0,0.3333333333333333,0.0,1.0,0.0,1.0,0.0,1.0,0.0,0.5,0.0,0.5,0.0,0.5,0.0,0.8,0.0,1.0,0.0,0.0,0.0,1.0,0.0,0.3333333333333333,0.0,0.3333333333333333,0.0,1.0,0.0,1.0,0.0,1.0,0.0,1.0,0.0,1.0,0.0,1.0,0.0,1.0,0.0,1.0,0.0,1.0,0.0,1.0,0.0,1.0,0.0,1.0,0.0,1.0,0.0,1.0,0.0,1.0,0.0,1.0,0.0,1.0,0.0,1.0,0.0,1.0,0.0,1.0,0.0,1.0,0.0,1.0,0.0,1.0,0.0,1.0,0.0,1.0,0.0,1.0,0.0,1.0,0.0,1.0,0.0,1.0,0.0,1.0,0.0,1.0,0.0,1.0,0.0,1.0,0.0,1.0,0.0,,0.0,1.0,0.0,1.0,0.0,1.0,0.09090909090909091,1.0,0.0,1.0,0.0,1.0,0.0,1.0,0.09090909090909091,1.0,0.2727272727272727,1.0,0.09090909090909091,1.0,0.36363636363636365,1.0,0.0,1.0,0.0,1.0,0.0,1.0,0.16666666666666666,1.0,0.16666666666666666,1.0,0.0,1.0,0.0,1.0,0.0,1.0,0.2,1.0,0.0,1.0,0.0,1.0,0.0,1.0,0.0,1.0,0.0,1.0,0.0,1.0,0.4,1.0,0.2,1.0,0.2,1.0,0.4,1.0,0.2,1.0,0.25,1.0,0.5,1.0,0.5,1.0,0.25,1.0,0.25,1.0,0.0,1.0,0.0,1.0,0.0,1.0,0.0,1.0,0.3333333333333333,1.0,0.0,1.0,0.0,1.0,0.0,1.0,0.0,1.0,0.0,1.0,0.0,1.0,0.0,1.0,0.0,1.0,0.0,1.0,,0,4,10,38,20,9,43,28,5,36,24,21,18,35,1,7,49,40,48,44,15,31,45,34,22,25,27,6,47,19,37,26,23,17,12,16,33,32,29,8,30,2,39,46,42,13,41,14,11,3
0.01,0.8,0.7,0.5,100,0,0.6,0.01,0,RandomMV,20,27,0.9800000000000001,0.9800000000000001,0.9800000000000001,0.9800000000000001,0.9800000000000001,0.9800000000000001,0.9800000000000001,0.9800000000000001,0.9800000000000001,0.9800000000000001,0.9800000000000001,0.9800000000000001,0.9800000000000001,0.9800000000000001,0.9800000000000001,0.9800000000000001,0.9800000000000001,0.9800000000000001,0.9800000000000001,0.9800000000000001,0.9800000000000001,0.9800000000000001,0.984,0.984,0.984,0.9879999999999999,0.9879999999999999,0.992,0.992,0.992,0.992,0.992,0.992,0.992,0.992,0.992,0.992,0.992,0.992,0.992,0.992,0.992,0.992,0.992,0.992,0.9960000000000001,0.9960000000000001,1.0,1.0,1.0,1.0,,28.97453075827147,28.40801873725266,27.82618607210992,27.23469050425471,26.627740034067763,26.027469966027166,25.49824366949958,24.94542211860419,24.453826864926373,23.827507660539744,23.205102288021056,22.67898518564903,22.02314386732092,21.452257043432326,21.01799584421636,20.411045374029417,19.815342532933826,19.350588969534872,18.794198127748963,18.255152439825675,17.660588513854854,17.052154411931184,16.39877279976178,15.781198589533044,15.210311765644454,14.597850561010642,14.025809584904618,13.391494919097692,12.779951623018453,12.195093528534848,11.565414617394964,11.010830262325237,10.466243087380366,9.867431052129211,9.306969889792134,8.747011577330225,8.163695280450762,7.625369422591772,6.996326576701485,6.407417697660722,5.801332123788366,5.207112914429502,4.655209272088683,4.014257132910156,3.4949144565989427,2.865235545459057,2.307166129014329,1.6708068157280926,1.0565398781451982,0.5121202328297288,0.0,,-1.0,-1.0,-1.0,-1.0,-1.0,-1.0,-1.0,-1.0,-1.0,-1.0,-1.0,-1.0,-1.0,-1.0,-1.0,-1.0,-1.0,-1.0,-1.0,-1.0,-1.0,-1.0,-1.0,-1.0,-1.0,-1.0,-1.0,-1.0,-1.0,-1.0,-1.0,-1.0,-1.0,-1.0,-1.0,-1.0,-1.0,-1.0,-1.0,-1.0,-1.0,-1.0,-1.0,-1.0,-1.0,-1.0,-1.0,-1.0,-1.0,-1.0,,-1.0,-1.0,-1.0,-1.0,-1.0,-1.0,-1.0,-1.0,-1.0,-1.0,-1.0,-1.0,-1.0,-1.0,-1.0,-1.0,-1.0,-1.0,-1.0,-1.0,-1.0,-1.0,-1.0,-1.0,-1.0,-1.0,-1.0,-1.0,-1.0,-1.0,-1.0,-1.0,-1.0,-1.0,-1.0,-1.0,-1.0,-1.0,-1.0,-1.0,-1.0,-1.0,-1.0,-1.0,-1.0,-1.0,-1.0,-1.0,-1.0,-1.0,,-1,-1,-1,-1,-1,-1,-1,-1,-1,-1,-1,-1,-1,-1,-1,-1,-1,-1,-1,-1,-1,-1,-1,-1,-1,-1,-1,-1,-1,-1,-1,-1,-1,-1,-1,-1,-1,-1,-1,-1,-1,-1,-1,-1,-1,-1,-1,-1,-1,-1
0.01,0.8,0.7,0.5,100,0,0.6,0.01,0,CombinedEMSequence,11,77077,1.0,1.0,1.0,1.0,1.0,1.0,0.96,0.96,0.96,0.96,0.96,0.9,0.94,0.94,0.94,0.94,0.94,0.96,0.96,0.96,0.96,0.96,0.96,0.98,1.0,1.0,1.0,1.0,1.0,1.0,1.0,1.0,1.0,1.0,1.0,1.0,1.0,1.0,1.0,1.0,1.0,1.0,1.0,1.0,1.0,1.0,1.0,1.0,1.0,1.0,1.0,,4.718481991552522,4.717127517339904,3.6453105988612706,2.890227492052974,2.090969597224314,1.7089349855235911,6.432420789959117,5.62451700851509,5.075411116513659,4.162347607232305,3.488051224505333,14.80837735032923,13.686237815728404,12.600431017918797,11.530330597080393,10.857631426615015,11.993666859952448,11.079737635846907,10.104816059741362,9.029669766510974,8.121310023240229,7.082184106433562,6.590142446822477,5.7747690169974,5.236718082677283,4.3474616474761145,4.120604407886569,3.536893371381844,3.0953457104873046,2.631310513311025,2.286026947472463,2.13785482952299,1.8468811135496577,1.563539772281148,1.3067287044207962,1.0744249984956147,1.0048010635517393,0.8259814193077197,0.689668320147496,0.569781027610183,0.4560632330375098,0.4142258827128837,0.3271224918494818,0.2712818438275843,0.19721837724117966,0.14329392372219768,0.15409368828045772,0.10729920549311042,0.06172601381009664,0.020248589355876485,0.0,,1.0,0.0,1.0,0.0,1.0,0.0,1.0,0.0,1.0,0.0,0.25,0.0,0.25,0.0,1.0,0.0,1.0,0.0,1.0,0.0,1.0,0.0,0.0,0.0,0.0,0.0,1.0,0.0,0.0,0.0,0.0,0.0,1.0,0.0,1.0,0.0,1.0,0.0,1.0,0.0,1.0,0.0,1.0,0.0,1.0,0.0,1.0,0.0,0.0,0.0,1.0,0.0,1.0,0.0,0.0,0.0,0.0,0.0,0.0,0.0,1.0,0.0,1.0,0.0,1.0,0.0,1.0,0.0,1.0,0.0,1.0,0.0,1.0,0.0,1.0,0.0,1.0,0.0,1.0,0.0,1.0,0.0,1.0,0.0,1.0,0.0,1.0,0.0,1.0,0.0,1.0,0.0,1.0,0.0,1.0,0.0,1.0,0.0,1.0,0.0,,0.0,1.0,0.0,1.0,0.0,1.0,0.0,1.0,0.0,1.0,0.3333333333333333,1.0,0.5,1.0,0.0,1.0,0.0,1.0,0.0,1.0,0.0,1.0,0.0,1.0,0.0,1.0,0.0,1.0,0.0,1.0,0.0,1.0,0.0,1.0,0.0,1.0,0.0,1.0,0.0,1.0,0.0,1.0,0.5,1.0,0.0,1.0,0.0,1.0,0.0,1.0,0.0,1.0,0.0,1.0,0.0,1.0,0.0,1.0,0.0,1.0,0.0,1.0,0.0,1.0,0.0,1.0,0.0,1.0,0.0,1.0,0.0,1.0,0.0,1.0,0.0,1.0,0.0,1.0,0.0,1.0,0.0,1.0,0.0,1.0,0.0,1.0,0.5,1.0,0.0,1.0,0.5,1.0,0.0,1.0,0.0,1.0,0.0,1.0,0.0,1.0,,0,47,33,25,14,37,45,17,15,16,22,1,27,18,5,32,6,13,40,21,36,11,19,2,48,4,30,42,12,34,3,20,31,38,28,10,43,8,26,7,24,49,41,44,46,29,23,9,39,35
0.01,0.8,0.7,0.5,100,0,0.6,0.01,1,RandomMV,20,20,0.9800000000000001,0.9800000000000001,0.9800000000000001,0.9800000000000001,0.9800000000000001,0.9800000000000001,0.9800000000000001,0.9800000000000001,0.9800000000000001,0.9800000000000001,0.9800000000000001,0.9800000000000001,0.984,0.984,0.984,0.984,0.984,0.984,0.984,0.984,0.984,0.984,0.984,0.984,0.984,0.984,0.984,0.984,0.984,0.984,0.984,0.9879999999999999,0.9879999999999999,0.9879999999999999,0.9879999999999999,0.9879999999999999,0.992,0.992,0.992,0.992,0.992,0.9960000000000001,0.9960000000000001,0.9960000000000001,0.9960000000000001,0.9960000000000001,0.9960000000000001,0.9960000000000001,0.9960000000000001,1.0,1.0,,28.875192688989586,28.308221789703737,27.718770869327834,27.199511957831326,26.58372055247175,26.094628222793677,25.52526795941656,24.91004227723915,24.380773051936806,23.814521982715252,23.24520255537809,22.693770323238677,22.083132759513983,21.526701081688124,20.921795258980485,20.273006472703376,19.638214555968563,18.992971378734957,18.368998609664846,17.77443468369402,17.207076139021463,16.584713695277525,16.02366994463165,15.494443648104053,14.858084334817818,14.188246146947407,13.589477040470996,12.993472411538198,12.457649477678954,11.929186229056688,11.359909730494271,10.84058659017707,10.246887560520838,9.752682225247844,9.15084476065582,8.557644843559975,7.96653250271819,7.371093596967545,6.781642676591646,6.26212221155127,5.780430114083848,5.170454214556034,4.581348010792096,3.969804714712857,3.42262059185378,2.9357317239767324,2.3869802045662305,1.7976130490050326,1.2364749853784058,0.669658482040983,0.0,,-1.0,-1.0,-1.0,-1.0,-1.0,-1.0,-1.0,-1.0,-1.0,-1.0,-1.0,-1.0,-1.0,-1.0,-1.0,-1.0,-1.0,-1.0,-1.0,-1.0,-1.0,-1.0,-1.0,-1.0,-1.0,-1.0,-1.0,-1.0,-1.0,-1.0,-1.0,-1.0,-1.0,-1.0,-1.0,-1.0,-1.0,-1.0,-1.0,-1.0,-1.0,-1.0,-1.0,-1.0,-1.0,-1.0,-1.0,-1.0,-1.0,-1.0,,-1.0,-1.0,-1.0,-1.0,-1.0,-1.0,-1.0,-1.0,-1.0,-1.0,-1.0,-1.0,-1.0,-1.0,-1.0,-1.0,-1.0,-1.0,-1.0,-1.0,-1.0,-1.0,-1.0,-1.0,-1.0,-1.0,-1.0,-1.0,-1.0,-1.0,-1.0,-1.0,-1.0,-1.0,-1.0,-1.0,-1.0,-1.0,-1.0,-1.0,-1.0,-1.0,-1.0,-1.0,-1.0,-1.0,-1.0,-1.0,-1.0,-1.0,,-1,-1,-1,-1,-1,-1,-1,-1,-1,-1,-1,-1,-1,-1,-1,-1,-1,-1,-1,-1,-1,-1,-1,-1,-1,-1,-1,-1,-1,-1,-1,-1,-1,-1,-1,-1,-1,-1,-1,-1,-1,-1,-1,-1,-1,-1,-1,-1,-1,-1
0.01,0.8,0.7,0.5,100,0,0.6,0.01,1,CombinedEMSequence,14,88552,0.98,0.98,0.98,0.98,0.98,0.98,0.98,0.98,0.98,0.98,0.98,0.98,0.98,0.98,1.0,1.0,1.0,1.0,1.0,1.0,1.0,1.0,1.0,1.0,1.0,1.0,1.0,1.0,1.0,1.0,1.0,1.0,1.0,1.0,1.0,1.0,1.0,1.0,1.0,1.0,1.0,1.0,1.0,1.0,1.0,1.0,1.0,1.0,1.0,1.0,1.0,,3.821249271061835,3.805849491468966,3.2009453034028574,2.637191755572067,2.1425129880862754,1.6483238562842264,1.6468075146004308,1.2298881723169859,1.2294735015085316,0.9058307426123662,0.5652911841171485,2.241705931317611,1.6423870785352543,1.0315478330664998,0.7458805819188626,0.670597501494437,4.044529146900458,3.285392593480532,2.726038474902896,2.422097333205311,2.1261950748043827,1.9814964950591332,1.816362189488065,1.546409008746666,1.3019594236412875,1.1249960922150377,0.9649969187998415,0.8129292395806087,0.6743436478376651,0.589564657927891,0.4867918254180752,0.7479889517119397,0.5742449191280754,0.4739475041411697,0.3907201600570324,0.3117701231646351,0.28864039111413126,0.22251048733337137,0.17558280032493706,0.13420275941612134,0.09790062325353387,0.10144330268535771,0.07309512878593927,0.06374962016513629,0.04472393902779318,0.03339840986745994,0.025145934572998175,0.017654923669755677,0.01016108694118924,0.004376230842331281,0.0,,1.0,0.0,1.0,0.0,1.0,0.0,0.5,0.0,1.0,0.0,1.0,0.0,1.0,0.0,1.0,0.0,1.0,0.0,1.0,0.0,0.0,0.0,1.0,0.0,0.0,0.0,0.0,0.0,0.0,0.0,0.0,0.0,1.0,0.0,0.0,0.0,0.0,0.0,0.0,0.0,0.0,0.0,1.0,0.0,1.0,0.0,1.0,0.0,0.0,0.0,1.0,0.0,1.0,0.0,1.0,0.0,1.0,0.0,0.6666666666666666,0.0,0.0,0.0,1.0,0.0,1.0,0.0,1.0,0.0,1.0,0.0,1.0,0.0,1.0,0.0,1.0,0.0,1.0,0.0,1.0,0.0,1.0,0.0,1.0,0.0,1.0,0.0,1.0,0.0,1.0,0.0,1.0,0.0,1.0,0.0,1.0,0.0,1.0,0.0,1.0,0.0,,0.0,1.0,0.0,1.0,0.0,1.0,0.6666666666666666,1.0,0.0,1.0,0.0,1.0,0.0,1.0,0.0,1.0,0.0,1.0,0.0,1.0,0.0,1.0,0.0,1.0,0.0,1.0,0.0,1.0,0.0,1.0,0.0,1.0,0.0,1.0,0.0,1.0,0.0,1.0,0.0,1.0,0.0,1.0,0.0,1.0,0.0,1.0,0.0,1.0,0.0,1.0,0.0,1.0,0.0,1.0,0.0,1.0,0.0,1.0,0.6666666666666666,1.0,0.0,1.0,0.0,1.0,0.0,1.0,0.0,1.0,0.0,1.0,0.0,1.0,0.0,1.0,0.0,1.0,0.0,1.0,0.3333333333333333,1.0,0.3333333333333333,1.0,0.0,1.0,0.0,1.0,0.5,1.0,0.5,1.0,0.0,1.0,0.0,1.0,0.0,1.0,0.0,1.0,0.0,1.0,,0,10,4,34,32,16,39,46,19,8,37,15,1,18,21,36,28,12,47,49,38,2,7,5,20,6,14,40,9,26,22,25,11,24,31,41,3,17,43,44,33,48,35,30,42,29,45,23,13,27
0.01,0.8,0.7,0.5,100,0,0.7,0.01,0,RandomMV,20,21,0.9800000000000001,0.9800000000000001,0.9800000000000001,0.9800000000000001,0.9800000000000001,0.984,0.984,0.984,0.984,0.984,0.984,0.9879999999999999,0.9879999999999999,0.9879999999999999,0.992,0.992,0.992,0.992,0.992,0.992,0.992,0.992,0.992,0.992,0.992,0.992,0.992,0.992,0.992,0.992,0.992,0.992,0.992,0.992,0.992,0.992,0.992,0.9960000000000001,0.9960000000000001,0.9960000000000001,0.9960000000000001,0.9960000000000001,0.9960000000000001,0.9960000000000001,0.9960000000000001,0.9960000000000001,0.9960000000000001,0.9960000000000001,1.0,1.0,1.0,,28.994264408178203,28.37999747059531,27.748708234129246,27.247229360235053,26.725403295918113,26.111179287109962,25.54440571254729,25.007385697695867,24.416795862195205,23.848341331172627,23.262864501266886,22.618366753044864,22.00201223920791,21.507806903934917,20.924011030489076,20.30743849362961,19.778711309662405,19.22734970865672,18.59099039537049,18.03392265229503,17.365086137793888,16.78295168481394,16.18107129144717,15.579317591669849,14.998088871044445,14.466359650517106,13.812978038347705,13.196321736673543,12.547532950396432,12.092682543207868,11.578994913826714,11.024410558756987,10.464756126867087,9.892327505374352,9.317218171152712,8.770969575741953,8.191987245692317,7.60262009013112,6.963192418729269,6.447001865348371,5.873089612118912,5.2491168430488,4.707504002305082,4.121162276084751,3.5142118058978036,2.8953520424226165,2.343990441416933,1.8120834321604318,1.1742660860847554,0.5821344529799501,0.0,,-1.0,-1.0,-1.0,-1.0,-1.0,-1.0,-1.0,-1.0,-1.0,-1.0,-1.0,-1.0,-1.0,-1.0,-1.0,-1.0,-1.0,-1.0,-1.0,-1.0,-1.0,-1.0,-1.0,-1.0,-1.0,-1.0,-1.0,-1.0,-1.0,-1.0,-1.0,-1.0,-1.0,-1.0,-1.0,-1.0,-1.0,-1.0,-1.0,-1.0,-1.0,-1.0,-1.0,-1.0,-1.0,-1.0,-1.0,-1.0,-1.0,-1.0,,-1.0,-1.0,-1.0,-1.0,-1.0,-1.0,-1.0,-1.0,-1.0,-1.0,-1.0,-1.0,-1.0,-1.0,-1.0,-1.0,-1.0,-1.0,-1.0,-1.0,-1.0,-1.0,-1.0,-1.0,-1.0,-1.0,-1.0,-1.0,-1.0,-1.0,-1.0,-1.0,-1.0,-1.0,-1.0,-1.0,-1.0,-1.0,-1.0,-1.0,-1.0,-1.0,-1.0,-1.0,-1.0,-1.0,-1.0,-1.0,-1.0,-1.0,,-1,-1,-1,-1,-1,-1,-1,-1,-1,-1,-1,-1,-1,-1,-1,-1,-1,-1,-1,-1,-1,-1,-1,-1,-1,-1,-1,-1,-1,-1,-1,-1,-1,-1,-1,-1,-1,-1,-1,-1,-1,-1,-1,-1,-1,-1,-1,-1,-1,-1
0.01,0.8,0.7,0.5,100,0,0.7,0.01,0,CombinedEMSequence,9,61888,0.96,0.96,0.98,0.98,0.98,0.98,0.98,0.98,0.98,0.98,0.98,0.64,0.68,0.78,0.82,0.82,0.64,0.82,0.82,0.82,0.82,0.86,0.84,0.86,0.86,0.88,0.9,0.9,0.9,0.9,0.92,0.92,0.92,0.92,0.92,0.92,0.94,0.94,0.94,0.96,0.96,0.98,0.98,0.98,0.98,0.98,0.98,0.98,0.98,0.98,1.0,,3.9444362634861863,3.9442065351722206,3.2054640639288783,2.680309232302737,2.2664498074431045,1.9049254908369215,1.8950548850348643,1.5585515016770457,1.5585515016770457,1.2584718525374174,0.9998136284847537,26.443889056737145,26.067244348894615,25.34131213796417,24.59362446314857,23.746602839534408,22.90778317358381,22.146517852731794,21.328536916896,20.545938956212467,19.639880739620526,19.18821158230079,18.352787498128173,17.650642574875754,16.92842623016409,16.33960520642825,15.687854666819842,14.865276067320146,14.090056167723452,13.327305672892878,12.669231842942258,11.835216205222224,11.062129622727737,10.236008781077311,9.438167620722165,8.646654162649115,8.086929969710816,7.328414471276598,6.543294715597534,5.972369646271475,5.219915863682129,4.638003664322673,3.895142151741893,3.2272006347437774,2.624090265694009,2.0760452703185126,1.5753618045774307,1.1156575760148864,0.6919009284729869,0.3320361117746568,0.0,,1.0,0.0,1.0,0.0,1.0,0.0,0.0,0.0,1.0,0.0,1.0,0.0,1.0,0.0,1.0,0.0,1.0,0.0,0.5,0.0,0.25,0.0,1.0,0.0,1.0,0.0,1.0,0.0,1.0,0.0,1.0,0.0,1.0,0.0,0.0,0.0,1.0,0.0,0.0,0.0,0.0,0.0,1.0,0.0,1.0,0.0,1.0,0.0,1.0,0.0,1.0,0.0,1.0,0.0,1.0,0.0,1.0,0.0,1.0,0.0,1.0,0.0,1.0,0.0,1.0,0.0,1.0,0.0,1.0,0.0,1.0,0.0,1.0,0.0,1.0,0.0,1.0,0.0,1.0,0.0,1.0,0.0,1.0,0.0,1.0,0.0,1.0,0.0,1.0,0.0,1.0,0.0,1.0,0.0,1.0,0.0,1.0,0.0,1.0,0.0,,0.0,1.0,0.0,1.0,0.0,1.0,0.0,1.0,0.0,1.0,0.0,1.0,0.0,1.0,0.0,1.0,0.0,1.0,1.0,1.0,1.0,1.0,1.0,1.0,1.0,1.0,1.0,1.0,1.0,1.0,1.0,1.0,1.0,1.0,1.0,1.0,1.0,1.0,1.0,1.0,1.0,1.0,1.0,1.0,1.0,1.0,1.0,1.0,1.0,1.0,1.0,1.0,1.0,1.0,1.0,1.0,1.0,1.0,1.0,1.0,1.0,1.0,1.0,1.0,1.0,1.0,1.0,1.0,1.0,1.0,1.0,1.0,1.0,1.0,1.0,1.0,1.0,1.0,1.0,1.0,1.0,1.0,1.0,1.0,1.0,1.0,1.0,1.0,1.0,1.0,1.0,1.0,1.0,1.0,1.0,1.0,1.0,1.0,1.0,1.0,,0,36,49,41,14,9,13,17,34,45,15,48,4,37,29,2,42,18,40,46,33,47,32,1,31,43,19,26,21,16,44,7,25,22,39,38,20,24,23,3,12,11,10,35,27,6,8,5,30,28
0.01,0.8,0.7,0.5,100,0,0.7,0.01,1,RandomMV,20,23,0.96,0.96,0.96,0.96,0.9640000000000001,0.968,0.976,0.976,0.976,0.976,0.976,0.976,0.976,0.976,0.976,0.976,0.976,0.976,0.976,0.976,0.976,0.976,0.976,0.976,0.976,0.976,0.976,0.976,0.9800000000000001,0.9800000000000001,0.984,0.9879999999999999,0.9879999999999999,0.992,0.9960000000000001,0.9960000000000001,0.9960000000000001,1.0,1.0,1.0,1.0,1.0,1.0,1.0,1.0,1.0,1.0,1.0,1.0,1.0,1.0,,29.002555995409516,28.416214269189187,27.862433508998457,27.31793009886829,26.656410051763096,26.086131879831406,25.532310572667008,24.93399764997624,24.289499901754215,23.640711115477103,23.122994001584733,22.639798736386574,22.070438473009457,21.434079159723222,20.857486193764856,20.261106451379714,19.741585986339338,19.232968433778364,18.57573942472826,17.982760225136325,17.411957166062432,16.755550124552165,16.121914452769584,15.609794219939852,14.977766780748656,14.37388466867732,13.78750210641704,13.220728531854366,12.678375571285239,12.191416072274466,11.591146004233869,11.119337526982829,10.53452236127397,9.977632406927677,9.31813611579408,8.702344710434508,8.09539424024756,7.4631033304122285,6.830289626169491,6.270718959094291,5.596769438998225,5.118209928467108,4.581667164543566,3.9937836407190943,3.4053972670194526,2.846939916121733,2.2784853850991587,1.6906191911021502,1.1574063388380869,0.5535650628067067,0.0,,-1.0,-1.0,-1.0,-1.0,-1.0,-1.0,-1.0,-1.0,-1.0,-1.0,-1.0,-1.0,-1.0,-1.0,-1.0,-1.0,-1.0,-1.0,-1.0,-1.0,-1.0,-1.0,-1.0,-1.0,-1.0,-1.0,-1.0,-1.0,-1.0,-1.0,-1.0,-1.0,-1.0,-1.0,-1.0,-1.0,-1.0,-1.0,-1.0,-1.0,-1.0,-1.0,-1.0,-1.0,-1.0,-1.0,-1.0,-1.0,-1.0,-1.0,,-1.0,-1.0,-1.0,-1.0,-1.0,-1.0,-1.0,-1.0,-1.0,-1.0,-1.0,-1.0,-1.0,-1.0,-1.0,-1.0,-1.0,-1.0,-1.0,-1.0,-1.0,-1.0,-1.0,-1.0,-1.0,-1.0,-1.0,-1.0,-1.0,-1.0,-1.0,-1.0,-1.0,-1.0,-1.0,-1.0,-1.0,-1.0,-1.0,-1.0,-1.0,-1.0,-1.0,-1.0,-1.0,-1.0,-1.0,-1.0,-1.0,-1.0,,-1,-1,-1,-1,-1,-1,-1,-1,-1,-1,-1,-1,-1,-1,-1,-1,-1,-1,-1,-1,-1,-1,-1,-1,-1,-1,-1,-1,-1,-1,-1,-1,-1,-1,-1,-1,-1,-1,-1,-1,-1,-1,-1,-1,-1,-1,-1,-1,-1,-1
0.01,0.8,0.7,0.5,100,0,0.7,0.01,1,CombinedEMSequence,9,61748,0.94,0.94,0.94,0.94,0.96,0.98,0.98,0.98,0.98,0.98,0.98,0.9,0.88,0.92,0.92,0.92,0.86,0.86,0.86,0.86,0.86,0.88,0.88,0.82,0.9,0.84,0.84,0.92,0.92,0.92,0.88,0.94,0.94,0.94,0.94,0.94,0.96,0.96,0.96,0.96,0.96,0.96,0.96,0.98,0.98,0.98,1.0,1.0,1.0,1.0,1.0,,3.948841746682408,3.574944616648955,2.850435196605497,2.3499471287455918,2.2727324978236307,1.9586962815343476,1.948622071334253,1.5564573773746169,1.5563322481699675,1.2660658503119593,0.9772202215362541,25.07715206827179,24.0652785533762,23.16862481187304,22.087240809787488,21.078730632094018,22.477546354735637,21.61206496285426,20.77813832965952,19.878389695274944,18.995772895710815,18.497005518363643,17.598855726709576,16.897171243515483,16.10477325478302,15.38535200728362,14.495542572471404,13.691276207139028,12.854702918293906,11.986643722741238,11.291638021442916,10.468867826571675,9.640527320828136,8.805053864927253,7.970505825543015,7.142160488755811,7.296684083245945,6.536121272148963,5.831498500101002,5.180232585127952,4.579997043791152,3.9530286833200137,3.4226902283908114,3.3490322475128154,2.7532795621619144,2.202639915299711,1.9124887751517141,1.3721024655498772,0.8694768679925344,0.4023956466552435,0.0,,1.0,0.0,1.0,0.0,1.0,0.0,1.0,0.0,1.0,0.0,1.0,0.0,1.0,0.0,1.0,0.0,1.0,0.0,0.0,0.0,0.0,0.0,1.0,0.0,1.0,0.0,1.0,0.0,1.0,0.0,0.0,0.0,1.0,0.0,1.0,0.0,1.0,0.0,1.0,0.0,1.0,0.0,1.0,0.0,1.0,0.0,1.0,0.0,1.0,0.0,1.0,0.0,1.0,0.0,1.0,0.0,1.0,0.0,1.0,0.0,1.0,0.0,1.0,0.0,1.0,0.0,1.0,0.0,1.0,0.0,1.0,0.0,1.0,0.0,1.0,0.0,1.0,0.0,1.0,0.0,1.0,0.0,1.0,0.0,1.0,0.0,1.0,0.0,1.0,0.0,1.0,0.0,1.0,0.0,1.0,0.0,1.0,0.0,1.0,0.0,,1.0,1.0,1.0,1.0,1.0,1.0,1.0,1.0,1.0,1.0,1.0,1.0,1.0,1.0,1.0,1.0,1.0,1.0,1.0,1.0,1.0,1.0,1.0,1.0,1.0,1.0,1.0,1.0,1.0,1.0,1.0,1.0,1.0,1.0,1.0,1.0,1.0,1.0,1.0,1.0,1.0,1.0,1.0,1.0,1.0,1.0,1.0,1.0,1.0,1.0,1.0,1.0,1.0,1.0,1.0,1.0,1.0,1.0,1.0,1.0,1.0,1.0,1.0,1.0,1.0,1.0,1.0,1.0,1.0,1.0,1.0,1.0,1.0,1.0,1.0,1.0,1.0,1.0,1.0,1.0,1.0,1.0,1.0,1.0,1.0,1.0,1.0,1.0,1.0,1.0,1.0,1.0,1.0,1.0,1.0,1.0,1.0,1.0,1.0,1.0,,0,32,8,35,39,16,49,20,45,37,9,36,24,13,47,19,46,33,42,4,10,29,12,40,27,41,18,25,2,17,44,15,11,3,38,1,28,26,23,7,30,6,31,48,43,34,22,21,14,5
0.01,0.8,0.7,0.5,100,0,0.8,0.01,0,RandomMV,20,21,0.9800000000000001,0.9800000000000001,0.9800000000000001,0.9800000000000001,0.9800000000000001,0.9800000000000001,0.9800000000000001,0.984,0.984,0.984,0.984,0.984,0.984,0.984,0.984,0.984,0.984,0.984,0.984,0.9879999999999999,0.9879999999999999,0.9879999999999999,0.9879999999999999,0.9879999999999999,0.9879999999999999,0.992,0.992,0.992,0.992,0.992,0.9960000000000001,0.9960000000000001,0.9960000000000001,0.9960000000000001,0.9960000000000001,0.9960000000000001,0.9960000000000001,0.9960000000000001,0.9960000000000001,0.9960000000000001,0.9960000000000001,0.9960000000000001,0.9960000000000001,0.9960000000000001,1.0,1.0,1.0,1.0,1.0,1.0,1.0,,28.88296400334184,28.24514665726617,27.63268545263236,27.051372967192247,26.412624289814744,25.82863109164573,25.28958540372244,24.675361394914297,24.086476197720557,23.592313791222313,22.951927375225935,22.35831211038441,21.730091232033967,21.14379243458838,20.554341514212485,19.984981250835368,19.4083045200623,18.902935320512647,18.348893006778056,17.750164736341596,17.138966156874314,16.548376321373656,15.964580447927815,15.418415617331757,14.779852842244495,14.16895903416211,13.56712156957009,13.08027563046779,12.514501812174124,11.990994791397277,11.354635478111039,10.866327207317957,10.359454840037568,9.82317362965789,9.231041996553085,8.616775058970191,8.051568880958943,7.518356028694879,6.889313182804591,6.435284743155869,5.796721968068611,5.203106703227079,4.678128515979818,4.0572241050253215,3.4658123019848133,2.841839532914702,2.257846334745688,1.681126675197873,1.2025671646667555,0.5718865801575991,0.0,,-1.0,-1.0,-1.0,-1.0,-1.0,-1.0,-1.0,-1.0,-1.0,-1.0,-1.0,-1.0,-1.0,-1.0,-1.0,-1.0,-1.0,-1.0,-1.0,-1.0,-1.0,-1.0,-1.0,-1.0,-1.0,-1.0,-1.0,-1.0,-1.0,-1.0,-1.0,-1.0,-1.0,-1.0,-1.0,-1.0,-1.0,-1.0,-1.0,-1.0,-1.0,-1.0,-1.0,-1.0,-1.0,-1.0,-1.0,-1.0,-1.0,-1.0,,-1.0,-1.0,-1.0,-1.0,-1.0,-1.0,-1.0,-1.0,-1.0,-1.0,-1.0,-1.0,-1.0,-1.0,-1.0,-1.0,-1.0,-1.0,-1.0,-1.0,-1.0,-1.0,-1.0,-1.0,-1.0,-1.0,-1.0,-1.0,-1.0,-1.0,-1.0,-1.0,-1.0,-1.0,-1.0,-1.0,-1.0,-1.0,-1.0,-1.0,-1.0,-1.0,-1.0,-1.0,-1.0,-1.0,-1.0,-1.0,-1.0,-1.0,,-1,-1,-1,-1,-1,-1,-1,-1,-1,-1,-1,-1,-1,-1,-1,-1,-1,-1,-1,-1,-1,-1,-1,-1,-1,-1,-1,-1,-1,-1,-1,-1,-1,-1,-1,-1,-1,-1,-1,-1,-1,-1,-1,-1,-1,-1,-1,-1,-1,-1
0.01,0.8,0.7,0.5,100,0,0.8,0.01,0,CombinedEMSequence,12,59542,0.98,0.98,0.98,1.0,1.0,1.0,1.0,1.0,1.0,1.0,1.0,0.92,0.94,0.94,0.96,0.96,0.96,0.98,0.98,0.98,0.98,1.0,1.0,1.0,1.0,1.0,1.0,1.0,1.0,1.0,1.0,1.0,1.0,1.0,1.0,1.0,1.0,1.0,1.0,1.0,1.0,1.0,1.0,1.0,1.0,1.0,1.0,1.0,1.0,1.0,1.0,,2.257337518028942,2.2554305235981693,1.630746933562196,1.0371420351349587,0.9067448959348725,0.7735801835637727,0.7733437881980858,0.6527504422761938,0.6527504422761938,0.5397521693255171,0.44370269683492786,7.8639729693933695,7.105385766369552,6.053544253194842,5.597725380723393,5.26894776095266,7.594843924393793,6.690539286668714,5.794564569572384,5.0491741222241675,4.243638143210954,4.507561316127632,4.338829065970647,3.5846790087898173,2.8877134934963027,2.1927172882796855,5.836279256739843,4.880354223098188,4.157333789670917,3.3865749227682227,2.772973746661478,2.244203180564115,1.6917784258353175,1.287074610992159,0.9314239807457719,0.7837771031102005,0.747172275126869,0.6088530787185061,0.4816571130074456,0.391029839976252,0.3246659432736626,0.2644974638048383,0.2066101900496324,0.17612177797807058,0.14572506478725564,0.11604129925769394,0.09615058130802895,0.06705510312167445,0.03850971349849068,0.019137278310746273,0.0,,1.0,0.0,1.0,0.0,1.0,0.0,1.0,0.0,1.0,0.0,1.0,0.0,1.0,0.0,0.3333333333333333,0.0,0.16666666666666666,0.0,0.5,0.0,0.3333333333333333,0.0,1.0,0.0,1.0,0.0,1.0,0.0,1.0,0.0,0.0,0.0,1.0,0.0,1.0,0.0,1.0,0.0,1.0,0.0,1.0,0.0,0.0,0.0,0.0,0.0,0.0,0.0,0.0,0.0,0.0,0.0,1.0,0.0,1.0,0.0,1.0,0.0,1.0,0.0,1.0,0.0,1.0,0.0,1.0,0.0,1.0,0.0,1.0,0.0,1.0,0.0,1.0,0.0,1.0,0.0,1.0,0.0,1.0,0.0,1.0,0.0,1.0,0.0,1.0,0.0,1.0,0.0,1.0,0.0,1.0,0.0,1.0,0.0,1.0,0.0,1.0,0.0,1.0,0.0,,0.0,1.0,0.0,1.0,0.0,1.0,0.0,1.0,0.0,1.0,0.0,1.0,0.0,1.0,1.0,1.0,1.0,1.0,1.0,1.0,1.0,1.0,1.0,1.0,1.0,1.0,1.0,1.0,1.0,1.0,1.0,1.0,1.0,1.0,1.0,1.0,1.0,1.0,1.0,1.0,1.0,1.0,1.0,1.0,1.0,1.0,1.0,1.0,1.0,1.0,1.0,1.0,1.0,1.0,1.0,1.0,1.0,1.0,1.0,1.0,1.0,1.0,1.0,1.0,1.0,1.0,1.0,1.0,1.0,1.0,1.0,1.0,1.0,1.0,1.0,1.0,1.0,1.0,1.0,1.0,1.0,1.0,1.0,1.0,1.0,1.0,1.0,1.0,1.0,1.0,1.0,1.0,1.0,1.0,1.0,1.0,1.0,1.0,1.0,1.0,,0,42,41,46,26,34,25,2,37,6,39,35,18,32,23,8,3,14,33,21,13,11,24,9,40,44,29,31,15,16,1,30,22,12,49,4,28,5,47,27,10,17,20,48,45,36,43,19,38,7
0.01,0.8,0.7,0.5,100,0,0.8,0.01,1,RandomMV,20,21,0.9800000000000001,0.9800000000000001,0.9800000000000001,0.9800000000000001,0.984,0.9879999999999999,0.9879999999999999,0.9879999999999999,0.9879999999999999,0.9879999999999999,0.9879999999999999,0.9879999999999999,0.9879999999999999,0.9879999999999999,0.9879999999999999,0.9879999999999999,0.9879999999999999,0.9879999999999999,0.9879999999999999,0.9879999999999999,0.9879999999999999,0.9879999999999999,0.9879999999999999,0.9879999999999999,0.9879999999999999,0.9879999999999999,0.9879999999999999,0.9879999999999999,0.9879999999999999,0.9879999999999999,0.9879999999999999,0.9879999999999999,0.9879999999999999,0.9879999999999999,0.9879999999999999,0.992,0.992,0.992,0.992,0.992,0.9960000000000001,0.9960000000000001,0.9960000000000001,0.9960000000000001,0.9960000000000001,0.9960000000000001,0.9960000000000001,0.9960000000000001,0.9960000000000001,1.0,1.0,,29.33055191034498,28.744126419309946,28.19337108846009,27.622484264571494,26.967644619612656,26.40343819787041,25.83411877053325,25.321914772888825,24.694916574477844,24.173090510160897,23.55457546329767,22.98253448719165,22.37701463650145,21.875713551336414,21.218304836456877,20.571603626433827,19.905792541273552,19.341586119531314,18.79754098592157,18.249552514416404,17.680233087079237,17.043873773793,16.468918835519787,15.895351298902288,15.34731960955608,14.758933235856437,14.160342207175479,13.568210574070672,12.945059772540407,12.386686186457386,11.794554553352583,11.21807514730269,10.601763562240487,10.042192895165284,9.457334800681679,8.820975487395442,8.175476065804142,7.593770094250853,7.060514313212042,6.421765635834535,5.827244638638461,5.370891063719158,4.767569967390411,4.117213784561876,3.5436462479443778,2.905719538106716,2.27604062696683,1.6896580647065473,1.1929927342085576,0.5967673877718458,0.0,,-1.0,-1.0,-1.0,-1.0,-1.0,-1.0,-1.0,-1.0,-1.0,-1.0,-1.0,-1.0,-1.0,-1.0,-1.0,-1.0,-1.0,-1.0,-1.0,-1.0,-1.0,-1.0,-1.0,-1.0,-1.0,-1.0,-1.0,-1.0,-1.0,-1.0,-1.0,-1.0,-1.0,-1.0,-1.0,-1.0,-1.0,-1.0,-1.0,-1.0,-1.0,-1.0,-1.0,-1.0,-1.0,-1.0,-1.0,-1.0,-1.0,-1.0,,-1.0,-1.0,-1.0,-1.0,-1.0,-1.0,-1.0,-1.0,-1.0,-1.0,-1.0,-1.0,-1.0,-1.0,-1.0,-1.0,-1.0,-1.0,-1.0,-1.0,-1.0,-1.0,-1.0,-1.0,-1.0,-1.0,-1.0,-1.0,-1.0,-1.0,-1.0,-1.0,-1.0,-1.0,-1.0,-1.0,-1.0,-1.0,-1.0,-1.0,-1.0,-1.0,-1.0,-1.0,-1.0,-1.0,-1.0,-1.0,-1.0,-1.0,,-1,-1,-1,-1,-1,-1,-1,-1,-1,-1,-1,-1,-1,-1,-1,-1,-1,-1,-1,-1,-1,-1,-1,-1,-1,-1,-1,-1,-1,-1,-1,-1,-1,-1,-1,-1,-1,-1,-1,-1,-1,-1,-1,-1,-1,-1,-1,-1,-1,-1
0.01,0.8,0.7,0.5,100,0,0.8,0.01,1,CombinedEMSequence,10,63866,0.98,0.98,0.98,1.0,1.0,1.0,1.0,1.0,1.0,1.0,1.0,0.9,0.92,0.9,0.94,0.92,0.94,0.92,0.94,0.94,0.94,0.96,0.96,0.96,0.96,0.96,0.96,0.96,0.96,0.96,0.96,0.98,1.0,1.0,1.0,1.0,1.0,1.0,1.0,1.0,1.0,1.0,1.0,1.0,1.0,1.0,1.0,1.0,1.0,1.0,1.0,,3.621898968647355,3.218144507272352,2.2881744102816444,1.8451912956417504,1.5316163662369717,1.1589236233430718,1.158276236909644,0.939325397255605,0.939325397255605,0.7573079986043624,0.6264511761495825,16.101397872229356,15.070031535469218,13.844493156205111,12.587592678221792,11.892973677149824,17.139685162595857,16.07133490910751,15.01376972825032,13.931336517003293,12.631440568985514,12.987910197317971,11.833884720476394,10.72686874567453,9.58979347872446,8.537242633610244,8.018175143906847,7.003528412769341,6.116267942694918,5.765194706809662,4.9370364115074645,5.367197501655359,4.87572104346847,4.174000386214306,3.5010984054842043,2.985769483341011,2.6519976972354544,2.2514741084347545,1.8865902079147872,1.5519349898317225,1.2943252307957622,1.0990022869149592,0.8862219836495246,0.7223575064859937,0.5858856232132996,0.45531004995906454,0.3300837283362397,0.2099234058438651,0.09424779257563237,0.046353252307222925,0.0,,1.0,0.0,1.0,0.0,1.0,0.0,0.0,0.0,1.0,0.0,1.0,0.0,1.0,0.0,1.0,0.0,1.0,0.0,0.0,0.0,0.3333333333333333,0.0,1.0,0.0,0.0,0.0,1.0,0.0,0.5,0.0,0.3333333333333333,0.0,1.0,0.0,1.0,0.0,1.0,0.0,1.0,0.0,1.0,0.0,1.0,0.0,1.0,0.0,1.0,0.0,1.0,0.0,1.0,0.0,1.0,0.0,1.0,0.0,1.0,0.0,1.0,0.0,1.0,0.0,1.0,0.0,1.0,0.0,1.0,0.0,1.0,0.0,1.0,0.0,1.0,0.0,1.0,0.0,1.0,0.0,1.0,0.0,1.0,0.0,1.0,0.0,1.0,0.0,1.0,0.0,1.0,0.0,1.0,0.0,1.0,0.0,1.0,0.0,1.0,0.0,1.0,0.0,,0.0,1.0,0.0,1.0,0.0,1.0,0.0,1.0,0.0,1.0,0.0,1.0,0.0,1.0,0.0,1.0,0.0,1.0,0.0,1.0,0.5,1.0,0.0,1.0,0.0,1.0,0.0,1.0,1.0,1.0,1.0,1.0,1.0,1.0,1.0,1.0,1.0,1.0,1.0,1.0,1.0,1.0,1.0,1.0,1.0,1.0,1.0,1.0,1.0,1.0,1.0,1.0,1.0,1.0,1.0,1.0,1.0,1.0,1.0,1.0,1.0,1.0,1.0,1.0,1.0,1.0,1.0,1.0,1.0,1.0,1.0,1.0,1.0,1.0,1.0,1.0,1.0,1.0,1.0,1.0,1.0,1.0,1.0,1.0,1.0,1.0,1.0,1.0,1.0,1.0,1.0,1.0,1.0,1.0,1.0,1.0,1.0,1.0,1.0,1.0,,0,4,9,31,24,29,47,16,48,33,25,46,20,10,8,19,14,28,17,15,40,30,7,3,43,36,12,11,2,1,35,34,45,41,5,42,37,32,6,39,44,21,22,38,27,23,26,13,49,18
0.01,0.8,0.8,0.5,100,0,0.6,0.01,0,RandomMV,20,19,1.0,1.0,1.0,1.0,1.0,1.0,1.0,1.0,1.0,1.0,1.0,1.0,1.0,1.0,1.0,1.0,1.0,1.0,1.0,1.0,1.0,1.0,1.0,1.0,1.0,1.0,1.0,1.0,1.0,1.0,1.0,1.0,1.0,1.0,1.0,1.0,1.0,1.0,1.0,1.0,1.0,1.0,1.0,1.0,1.0,1.0,1.0,1.0,1.0,1.0,1.0,,23.44978587105076,22.984987795118787,22.59860874637146,22.092237584386258,21.55789828226374,21.061232951765753,20.529617291146888,20.115421772390704,19.593511943259056,19.08702722136538,18.59282030233412,18.04870453759066,17.507269485576103,17.082783165222818,16.538738031613086,16.091550628646942,15.607228913590324,15.155359423209614,14.583275518328838,14.134016109543305,13.757565193545371,13.232931722910072,12.694605865051086,12.255096800285783,11.881213037108285,11.394253538097512,10.882049540453083,10.290596901372624,9.756186968116378,9.196532536226476,8.788935238560208,8.337108676954243,7.802698743697997,7.394293131826286,6.989872491932775,6.643305233208328,6.165580155483363,5.658988275994245,5.247404422591507,4.823503072348105,4.383994007582804,3.9718704946460113,3.5200439330400455,3.06351256939158,2.464700534140424,2.0706828411705045,1.5513401648592908,1.137213693478564,0.8237073663395289,0.3270420358415391,0.0,,-1.0,-1.0,-1.0,-1.0,-1.0,-1.0,-1.0,-1.0,-1.0,-1.0,-1.0,-1.0,-1.0,-1.0,-1.0,-1.0,-1.0,-1.0,-1.0,-1.0,-1.0,-1.0,-1.0,-1.0,-1.0,-1.0,-1.0,-1.0,-1.0,-1.0,-1.0,-1.0,-1.0,-1.0,-1.0,-1.0,-1.0,-1.0,-1.0,-1.0,-1.0,-1.0,-1.0,-1.0,-1.0,-1.0,-1.0,-1.0,-1.0,-1.0,,-1.0,-1.0,-1.0,-1.0,-1.0,-1.0,-1.0,-1.0,-1.0,-1.0,-1.0,-1.0,-1.0,-1.0,-1.0,-1.0,-1.0,-1.0,-1.0,-1.0,-1.0,-1.0,-1.0,-1.0,-1.0,-1.0,-1.0,-1.0,-1.0,-1.0,-1.0,-1.0,-1.0,-1.0,-1.0,-1.0,-1.0,-1.0,-1.0,-1.0,-1.0,-1.0,-1.0,-1.0,-1.0,-1.0,-1.0,-1.0,-1.0,-1.0,,-1,-1,-1,-1,-1,-1,-1,-1,-1,-1,-1,-1,-1,-1,-1,-1,-1,-1,-1,-1,-1,-1,-1,-1,-1,-1,-1,-1,-1,-1,-1,-1,-1,-1,-1,-1,-1,-1,-1,-1,-1,-1,-1,-1,-1,-1,-1,-1,-1,-1
0.01,0.8,0.8,0.5,100,0,0.6,0.01,0,CombinedEMSequence,11,27913,1.0,1.0,1.0,1.0,1.0,1.0,1.0,1.0,1.0,1.0,1.0,1.0,1.0,1.0,1.0,1.0,1.0,1.0,1.0,1.0,1.0,1.0,1.0,1.0,1.0,1.0,1.0,1.0,1.0,1.0,1.0,1.0,1.0,1.0,1.0,1.0,1.0,1.0,1.0,1.0,1.0,1.0,1.0,1.0,1.0,1.0,1.0,1.0,1.0,1.0,1.0,,0.1337581825601001,0.1337581825601001,0.017280732091212458,0.0018969334695773633,8.759044325464309E-4,7.507752278969408E-4,7.507752278969408E-4,6.256460232474506E-4,6.256460232474506E-4,5.005168185979605E-4,3.753876139484703E-4,0.2578213254010478,0.20416599939253402,0.16670929694354403,0.13414202889345458,0.1340168996888051,0.13161631330977175,0.10693965797677837,0.08714345150984482,0.07110524362307848,0.05636801956445098,0.05437967698027277,0.054254547775623274,0.04106289440057527,0.028032244581817453,0.023960849453393104,0.020815941786467892,0.017443385059622254,0.014070828332776621,0.01333113971071973,0.01134279712654152,0.1288897276736308,0.09873733198327846,0.07479234121725628,0.05781489914066703,0.04121381366421713,0.03992058522060722,0.026041487476427323,0.020184065218670826,0.014168337372615998,0.010953815830848288,0.009480840615086299,0.0062663190733185875,0.00562305091361011,0.004419695856076251,0.0032163407985423918,0.0025730726388339133,0.0019298044791254349,0.0012865363194169567,6.432681597084783E-4,0.0,,1.0,0.0,1.0,0.0,1.0,0.0,0.0,0.0,1.0,0.0,1.0,0.0,1.0,0.0,1.0,0.0,0.0,0.0,1.0,0.0,1.0,0.0,1.0,0.0,1.0,0.0,1.0,0.0,1.0,0.0,1.0,0.0,1.0,0.0,1.0,0.0,1.0,0.0,1.0,0.0,1.0,0.0,1.0,0.0,1.0,0.0,1.0,0.0,1.0,0.0,1.0,0.0,1.0,0.0,1.0,0.0,1.0,0.0,1.0,0.0,1.0,0.0,1.0,0.0,1.0,0.0,1.0,0.0,1.0,0.0,1.0,0.0,1.0,0.0,1.0,0.0,1.0,0.0,1.0,0.0,1.0,0.0,1.0,0.0,1.0,0.0,1.0,0.0,1.0,0.0,1.0,0.0,1.0,0.0,1.0,0.0,1.0,0.0,1.0,0.0,,1.0,1.0,1.0,1.0,1.0,1.0,1.0,1.0,1.0,1.0,1.0,1.0,1.0,1.0,1.0,1.0,1.0,1.0,1.0,1.0,1.0,1.0,1.0,1.0,1.0,1.0,1.0,1.0,1.0,1.0,1.0,1.0,1.0,1.0,1.0,1.0,1.0,1.0,1.0,1.0,1.0,1.0,1.0,1.0,1.0,1.0,1.0,1.0,1.0,1.0,1.0,1.0,1.0,1.0,1.0,1.0,1.0,1.0,1.0,1.0,1.0,1.0,1.0,1.0,1.0,1.0,1.0,1.0,1.0,1.0,1.0,1.0,1.0,1.0,1.0,1.0,1.0,1.0,1.0,1.0,1.0,1.0,1.0,1.0,1.0,1.0,1.0,1.0,1.0,1.0,1.0,1.0,1.0,1.0,1.0,1.0,1.0,1.0,1.0,1.0,,0,47,38,32,6,4,34,40,44,15,31,3,46,20,24,12,43,45,37,39,22,19,41,36,8,1,23,35,16,21,17,25,14,33,9,42,28,49,48,27,18,26,2,30,11,5,29,13,10,7
0.01,0.8,0.8,0.5,100,0,0.6,0.01,1,RandomMV,20,22,1.0,1.0,1.0,1.0,1.0,1.0,1.0,1.0,1.0,1.0,1.0,1.0,1.0,1.0,1.0,1.0,1.0,1.0,1.0,1.0,1.0,1.0,1.0,1.0,1.0,1.0,1.0,1.0,1.0,1.0,1.0,1.0,1.0,1.0,1.0,1.0,1.0,1.0,1.0,1.0,1.0,1.0,1.0,1.0,1.0,1.0,1.0,1.0,1.0,1.0,1.0,,23.17648995875366,22.729842215321575,22.21049953901036,21.869068000508765,21.437850182869415,20.879392831971693,20.36718883432727,19.957746034119385,19.4584261094932,19.00392223913111,18.512504774182457,18.06984358648684,17.71548504619225,17.336422464840872,16.94121171139073,16.50433884682132,15.970042473473551,15.49553856605436,15.075554724171969,14.556034259131593,14.024305038604254,13.577657295172168,13.058314618860956,12.545525651106646,12.058094741894461,11.615433554198846,11.096632919222767,10.703223933162361,10.306665205972717,9.868417451020287,9.384138664738423,8.899682089727396,8.480419898123817,8.005846943329168,7.566337878563867,7.119690135131782,6.658044182130125,6.253623542236615,5.717080778313073,5.170832182902314,4.816473642607724,4.345121858118848,3.801006093375386,3.2692768728480486,2.71280226624744,2.3363513502495095,1.9124500000061069,1.3651821123323296,0.9257420949424876,0.5863825622602832,0.0,,-1.0,-1.0,-1.0,-1.0,-1.0,-1.0,-1.0,-1.0,-1.0,-1.0,-1.0,-1.0,-1.0,-1.0,-1.0,-1.0,-1.0,-1.0,-1.0,-1.0,-1.0,-1.0,-1.0,-1.0,-1.0,-1.0,-1.0,-1.0,-1.0,-1.0,-1.0,-1.0,-1.0,-1.0,-1.0,-1.0,-1.0,-1.0,-1.0,-1.0,-1.0,-1.0,-1.0,-1.0,-1.0,-1.0,-1.0,-1.0,-1.0,-1.0,,-1.0,-1.0,-1.0,-1.0,-1.0,-1.0,-1.0,-1.0,-1.0,-1.0,-1.0,-1.0,-1.0,-1.0,-1.0,-1.0,-1.0,-1.0,-1.0,-1.0,-1.0,-1.0,-1.0,-1.0,-1.0,-1.0,-1.0,-1.0,-1.0,-1.0,-1.0,-1.0,-1.0,-1.0,-1.0,-1.0,-1.0,-1.0,-1.0,-1.0,-1.0,-1.0,-1.0,-1.0,-1.0,-1.0,-1.0,-1.0,-1.0,-1.0,,-1,-1,-1,-1,-1,-1,-1,-1,-1,-1,-1,-1,-1,-1,-1,-1,-1,-1,-1,-1,-1,-1,-1,-1,-1,-1,-1,-1,-1,-1,-1,-1,-1,-1,-1,-1,-1,-1,-1,-1,-1,-1,-1,-1,-1,-1,-1,-1,-1,-1
0.01,0.8,0.8,0.5,100,0,0.6,0.01,1,CombinedEMSequence,14,27943,1.0,1.0,1.0,1.0,1.0,1.0,1.0,1.0,1.0,1.0,1.0,1.0,1.0,1.0,1.0,1.0,1.0,1.0,1.0,1.0,1.0,1.0,1.0,1.0,1.0,1.0,1.0,1.0,1.0,1.0,1.0,1.0,1.0,1.0,1.0,1.0,1.0,1.0,1.0,1.0,1.0,1.0,1.0,1.0,1.0,1.0,1.0,1.0,1.0,1.0,1.0,,0.004113170582604198,0.003876775216917305,0.002058780835757837,0.0010377517987269049,5.926873545835183E-4,2.5025840929898024E-4,2.5025840929898024E-4,1.2512920464949012E-4,1.2512920464949012E-4,0.0,0.0,0.015593309439988951,0.010915384963869929,0.008100962158085458,0.0068976071005515975,0.0068976071005515975,0.006254338940843119,0.00505098388330926,0.003938336612392147,0.003009927582626557,0.00246475445502059,0.002019690010877204,0.002019690010877204,0.0016772610655926658,0.0013348321203081276,0.0010984367546212352,9.733075499717452E-4,7.369121842848528E-4,5.005168185979605E-4,5.005168185979605E-4,3.753876139484703E-4,0.001749643461824848,0.0012044703342188809,8.62041388934343E-4,6.256460232474506E-4,5.005168185979605E-4,3.753876139484703E-4,2.5025840929898024E-4,1.2512920464949012E-4,0.0,0.0,0.0,0.0,0.0,0.0,0.0,0.0,0.0,0.0,0.0,0.0,,1.0,0.0,1.0,0.0,1.0,0.0,0.0,0.0,1.0,0.0,1.0,0.0,1.0,0.0,1.0,0.0,1.0,0.0,1.0,0.0,1.0,0.0,1.0,0.0,1.0,0.0,1.0,0.0,1.0,0.0,1.0,0.0,1.0,0.0,1.0,0.0,1.0,0.0,1.0,0.0,1.0,0.0,1.0,0.0,1.0,0.0,1.0,0.0,1.0,0.0,1.0,0.0,1.0,0.0,1.0,0.0,1.0,0.0,1.0,0.0,1.0,0.0,1.0,0.0,1.0,0.0,1.0,0.0,1.0,0.0,1.0,0.0,1.0,0.0,1.0,0.0,1.0,0.0,1.0,0.0,1.0,0.0,1.0,0.0,1.0,0.0,1.0,0.0,1.0,0.0,1.0,0.0,1.0,0.0,1.0,0.0,1.0,0.0,1.0,0.0,,1.0,1.0,1.0,1.0,1.0,1.0,1.0,1.0,1.0,1.0,1.0,1.0,1.0,1.0,1.0,1.0,1.0,1.0,1.0,1.0,1.0,1.0,1.0,1.0,1.0,1.0,1.0,1.0,1.0,1.0,1.0,1.0,1.0,1.0,1.0,1.0,1.0,1.0,1.0,1.0,1.0,1.0,1.0,1.0,1.0,1.0,1.0,1.0,1.0,1.0,1.0,1.0,1.0,1.0,1.0,1.0,1.0,1.0,1.0,1.0,1.0,1.0,1.0,1.0,1.0,1.0,1.0,1.0,1.0,1.0,1.0,1.0,1.0,1.0,1.0,1.0,1.0,1.0,1.0,1.0,1.0,1.0,1.0,1.0,1.0,1.0,1.0,1.0,1.0,1.0,1.0,1.0,1.0,1.0,1.0,1.0,1.0,1.0,1.0,1.0,,0,8,23,21,35,49,22,45,24,48,3,41,39,5,40,1,33,13,25,28,9,6,46,37,44,43,2,17,31,7,4,42,47,34,36,10,12,38,16,32,26,30,29,27,20,19,18,15,14,11
0.01,0.8,0.8,0.5,100,0,0.7,0.01,0,RandomMV,20,21,1.0,1.0,1.0,1.0,1.0,1.0,1.0,1.0,1.0,1.0,1.0,1.0,1.0,1.0,1.0,1.0,1.0,1.0,1.0,1.0,1.0,1.0,1.0,1.0,1.0,1.0,1.0,1.0,1.0,1.0,1.0,1.0,1.0,1.0,1.0,1.0,1.0,1.0,1.0,1.0,1.0,1.0,1.0,1.0,1.0,1.0,1.0,1.0,1.0,1.0,1.0,,23.197311681081825,22.675288292041703,22.126536772631198,21.6453671805049,21.179194214189913,20.783218075309073,20.280719909151863,19.790608287210773,19.37062444532838,18.894567858797007,18.402972605119192,17.940786194540667,17.5331888968744,17.039204279105313,16.569879189860007,16.31098651047567,15.807004712581733,15.345358759580074,14.991000219285485,14.516427264490838,13.965065663485154,13.528192798915745,13.071299564462388,12.62215371558533,12.100130326545209,11.586442697164054,11.037513389024388,10.64809095870045,10.341118007291474,9.86972329402785,9.39848506944745,8.958976004682148,8.552642398629832,8.096288823710529,7.517222728846194,7.195316413227504,6.77337350889502,6.309594725226066,5.755730200220638,5.216684512297351,4.673765828546072,4.122333596406662,3.685460731837252,3.255726545934627,2.7935401353561025,2.2910419691988904,1.8949570889643463,1.3827530913199173,0.89854335241351,0.4115838534027373,0.0,,-1.0,-1.0,-1.0,-1.0,-1.0,-1.0,-1.0,-1.0,-1.0,-1.0,-1.0,-1.0,-1.0,-1.0,-1.0,-1.0,-1.0,-1.0,-1.0,-1.0,-1.0,-1.0,-1.0,-1.0,-1.0,-1.0,-1.0,-1.0,-1.0,-1.0,-1.0,-1.0,-1.0,-1.0,-1.0,-1.0,-1.0,-1.0,-1.0,-1.0,-1.0,-1.0,-1.0,-1.0,-1.0,-1.0,-1.0,-1.0,-1.0,-1.0,,-1.0,-1.0,-1.0,-1.0,-1.0,-1.0,-1.0,-1.0,-1.0,-1.0,-1.0,-1.0,-1.0,-1.0,-1.0,-1.0,-1.0,-1.0,-1.0,-1.0,-1.0,-1.0,-1.0,-1.0,-1.0,-1.0,-1.0,-1.0,-1.0,-1.0,-1.0,-1.0,-1.0,-1.0,-1.0,-1.0,-1.0,-1.0,-1.0,-1.0,-1.0,-1.0,-1.0,-1.0,-1.0,-1.0,-1.0,-1.0,-1.0,-1.0,,-1,-1,-1,-1,-1,-1,-1,-1,-1,-1,-1,-1,-1,-1,-1,-1,-1,-1,-1,-1,-1,-1,-1,-1,-1,-1,-1,-1,-1,-1,-1,-1,-1,-1,-1,-1,-1,-1,-1,-1,-1,-1,-1,-1,-1,-1,-1,-1,-1,-1
0.01,0.8,0.8,0.5,100,0,0.7,0.01,0,CombinedEMSequence,15,27108,1.0,1.0,1.0,1.0,1.0,1.0,1.0,1.0,1.0,1.0,1.0,1.0,1.0,1.0,1.0,1.0,1.0,1.0,1.0,1.0,1.0,1.0,1.0,1.0,1.0,1.0,1.0,1.0,1.0,1.0,1.0,1.0,1.0,1.0,1.0,1.0,1.0,1.0,1.0,1.0,1.0,1.0,1.0,1.0,1.0,1.0,1.0,1.0,1.0,1.0,1.0,,0.03143451865948394,0.03143451865948394,0.005743525943132386,0.001748861087857447,8.204520580918571E-4,3.753876139484703E-4,0.05224374693387715,0.038795204517803106,0.038795204517803106,0.03315591169356624,0.027866276287449802,0.06967114730470714,0.053784562140294326,0.047147535271473084,0.04104187067880376,0.04104187067880376,0.03774819634288688,0.03196334024402892,0.026543501713016105,0.021865577236897086,0.017489346394565803,0.014354255560494642,0.013909191116351255,0.010536634389505618,0.007966071725822244,0.006495351686804599,0.005950178559198632,0.0046569501155887295,0.003544302844671616,0.003544302844671616,0.0025232738076406843,0.0019781006800347178,0.0015330362358913312,0.0011906072906067932,8.48178345322255E-4,6.117829796353627E-4,4.8665377498587254E-4,2.5025840929898024E-4,1.2512920464949012E-4,0.0,0.0,0.0,0.0,0.0,0.0,0.0,0.0,0.0,0.0,0.0,0.0,,1.0,0.0,1.0,0.0,1.0,0.0,1.0,0.0,1.0,0.0,0.0,0.0,1.0,0.0,1.0,0.0,1.0,0.0,1.0,0.0,0.0,0.0,1.0,0.0,1.0,0.0,1.0,0.0,1.0,0.0,1.0,0.0,1.0,0.0,0.0,0.0,1.0,0.0,1.0,0.0,1.0,0.0,1.0,0.0,1.0,0.0,1.0,0.0,1.0,0.0,1.0,0.0,1.0,0.0,1.0,0.0,1.0,0.0,1.0,0.0,1.0,0.0,1.0,0.0,1.0,0.0,1.0,0.0,1.0,0.0,1.0,0.0,1.0,0.0,1.0,0.0,1.0,0.0,1.0,0.0,1.0,0.0,1.0,0.0,1.0,0.0,1.0,0.0,1.0,0.0,1.0,0.0,1.0,0.0,1.0,0.0,1.0,0.0,1.0,0.0,,1.0,1.0,1.0,1.0,1.0,1.0,1.0,1.0,1.0,1.0,1.0,1.0,1.0,1.0,1.0,1.0,1.0,1.0,1.0,1.0,1.0,1.0,1.0,1.0,1.0,1.0,1.0,1.0,1.0,1.0,1.0,1.0,1.0,1.0,1.0,1.0,1.0,1.0,1.0,1.0,1.0,1.0,1.0,1.0,1.0,1.0,1.0,1.0,1.0,1.0,1.0,1.0,1.0,1.0,1.0,1.0,1.0,1.0,1.0,1.0,1.0,1.0,1.0,1.0,1.0,1.0,1.0,1.0,1.0,1.0,1.0,1.0,1.0,1.0,1.0,1.0,1.0,1.0,1.0,1.0,1.0,1.0,1.0,1.0,1.0,1.0,1.0,1.0,1.0,1.0,1.0,1.0,1.0,1.0,1.0,1.0,1.0,1.0,1.0,1.0,,0,20,43,12,21,35,31,44,19,8,6,49,33,37,7,27,40,5,15,14,30,47,16,1,29,13,17,36,26,24,32,2,10,25,39,42,18,9,48,46,38,45,28,41,34,3,23,22,11,4
0.01,0.8,0.8,0.5,100,0,0.7,0.01,1,RandomMV,20,19,1.0,1.0,1.0,1.0,1.0,1.0,1.0,1.0,1.0,1.0,1.0,1.0,1.0,1.0,1.0,1.0,1.0,1.0,1.0,1.0,1.0,1.0,1.0,1.0,1.0,1.0,1.0,1.0,1.0,1.0,1.0,1.0,1.0,1.0,1.0,1.0,1.0,1.0,1.0,1.0,1.0,1.0,1.0,1.0,1.0,1.0,1.0,1.0,1.0,1.0,1.0,,23.049699666043004,22.74993023866067,22.357871608140844,21.826142387613505,21.34711384868206,20.86844559679724,20.42501902367093,20.010283047337875,19.74046632460449,19.337173718327698,18.942503422454422,18.381365358827797,17.884769075705265,17.37125923505327,16.969450260513206,16.57228044461298,16.1183852811604,15.678989776303576,15.229774880051059,14.6922128238645,14.258605642133878,13.837271444710908,13.517976794445667,12.973861029702206,12.477195699204215,11.895448891610972,11.470962571257687,10.976977953488603,10.577671902948287,10.152576875685488,9.860623264715741,9.474352957322118,8.949762415461565,8.520028229558939,7.9382384931909495,7.369783962168374,6.875799344399292,6.34914020069213,5.81484382734436,5.2136424280019344,4.726796488899636,4.213065930743733,3.785943410194556,3.298512500982375,2.8519338049257486,2.4248112843765717,1.9626248737980467,1.490554843003142,0.9587826937010557,0.44657869605662653,0.0,,-1.0,-1.0,-1.0,-1.0,-1.0,-1.0,-1.0,-1.0,-1.0,-1.0,-1.0,-1.0,-1.0,-1.0,-1.0,-1.0,-1.0,-1.0,-1.0,-1.0,-1.0,-1.0,-1.0,-1.0,-1.0,-1.0,-1.0,-1.0,-1.0,-1.0,-1.0,-1.0,-1.0,-1.0,-1.0,-1.0,-1.0,-1.0,-1.0,-1.0,-1.0,-1.0,-1.0,-1.0,-1.0,-1.0,-1.0,-1.0,-1.0,-1.0,,-1.0,-1.0,-1.0,-1.0,-1.0,-1.0,-1.0,-1.0,-1.0,-1.0,-1.0,-1.0,-1.0,-1.0,-1.0,-1.0,-1.0,-1.0,-1.0,-1.0,-1.0,-1.0,-1.0,-1.0,-1.0,-1.0,-1.0,-1.0,-1.0,-1.0,-1.0,-1.0,-1.0,-1.0,-1.0,-1.0,-1.0,-1.0,-1.0,-1.0,-1.0,-1.0,-1.0,-1.0,-1.0,-1.0,-1.0,-1.0,-1.0,-1.0,,-1,-1,-1,-1,-1,-1,-1,-1,-1,-1,-1,-1,-1,-1,-1,-1,-1,-1,-1,-1,-1,-1,-1,-1,-1,-1,-1,-1,-1,-1,-1,-1,-1,-1,-1,-1,-1,-1,-1,-1,-1,-1,-1,-1,-1,-1,-1,-1,-1,-1
0.01,0.8,0.8,0.5,100,0,0.7,0.01,1,CombinedEMSequence,17,29197,1.0,1.0,1.0,1.0,1.0,1.0,1.0,1.0,1.0,1.0,1.0,1.0,1.0,1.0,1.0,1.0,1.0,1.0,1.0,1.0,1.0,1.0,1.0,1.0,1.0,1.0,1.0,1.0,1.0,1.0,1.0,1.0,1.0,1.0,1.0,1.0,1.0,1.0,1.0,1.0,1.0,1.0,1.0,1.0,1.0,1.0,1.0,1.0,1.0,1.0,1.0,,0.011295262733532865,0.011295262733532865,0.0020254625550799902,0.0014802894274740233,9.351162998680563E-4,5.926873545835183E-4,0.1302068775345003,0.07531714271462114,0.07531714271462114,0.05500180997235804,0.04095873077228425,0.04012405525850639,0.030917914461181268,0.021782766743386275,0.015136013936799688,0.015136013936799688,0.01479358499151515,0.009081438013628231,0.004781111804695787,0.004041423182638898,0.0034962500550329307,0.003051185610889544,0.002506012483283577,0.0019608393556776104,0.001515774911534224,0.0010707104673908373,9.455812627413472E-4,5.005168185979605E-4,3.753876139484703E-4,3.753876139484703E-4,2.5025840929898024E-4,2.5025840929898024E-4,1.2512920464949012E-4,0.0,0.0,0.0,0.0,0.0,0.0,0.0,0.0,0.0,0.0,0.0,0.0,0.0,0.0,0.0,0.0,0.0,0.0,,1.0,0.0,1.0,0.0,1.0,0.0,1.0,0.0,1.0,0.0,0.0,0.0,0.0,0.0,1.0,0.0,1.0,0.0,1.0,0.0,1.0,0.0,1.0,0.0,1.0,0.0,1.0,0.0,1.0,0.0,1.0,0.0,1.0,0.0,1.0,0.0,1.0,0.0,1.0,0.0,1.0,0.0,1.0,0.0,1.0,0.0,1.0,0.0,1.0,0.0,1.0,0.0,1.0,0.0,1.0,0.0,1.0,0.0,1.0,0.0,1.0,0.0,1.0,0.0,1.0,0.0,1.0,0.0,1.0,0.0,1.0,0.0,1.0,0.0,1.0,0.0,1.0,0.0,1.0,0.0,1.0,0.0,1.0,0.0,1.0,0.0,1.0,0.0,1.0,0.0,1.0,0.0,1.0,0.0,1.0,0.0,1.0,0.0,1.0,0.0,,1.0,1.0,1.0,1.0,1.0,1.0,1.0,1.0,1.0,1.0,1.0,1.0,1.0,1.0,1.0,1.0,1.0,1.0,1.0,1.0,1.0,1.0,1.0,1.0,1.0,1.0,1.0,1.0,1.0,1.0,1.0,1.0,1.0,1.0,1.0,1.0,1.0,1.0,1.0,1.0,1.0,1.0,1.0,1.0,1.0,1.0,1.0,1.0,1.0,1.0,1.0,1.0,1.0,1.0,1.0,1.0,1.0,1.0,1.0,1.0,1.0,1.0,1.0,1.0,1.0,1.0,1.0,1.0,1.0,1.0,1.0,1.0,1.0,1.0,1.0,1.0,1.0,1.0,1.0,1.0,1.0,1.0,1.0,1.0,1.0,1.0,1.0,1.0,1.0,1.0,1.0,1.0,1.0,1.0,1.0,1.0,1.0,1.0,1.0,1.0,,0,20,14,46,32,35,19,23,30,4,38,22,7,9,12,37,8,48,44,41,49,28,1,10,6,34,26,40,24,18,5,3,43,47,45,33,42,39,36,31,27,29,2,25,21,13,17,16,15,11
0.01,0.8,0.8,0.5,100,0,0.8,0.01,0,RandomMV,20,20,1.0,1.0,1.0,1.0,1.0,1.0,1.0,1.0,1.0,1.0,1.0,1.0,1.0,1.0,1.0,1.0,1.0,1.0,1.0,1.0,1.0,1.0,1.0,1.0,1.0,1.0,1.0,1.0,1.0,1.0,1.0,1.0,1.0,1.0,1.0,1.0,1.0,1.0,1.0,1.0,1.0,1.0,1.0,1.0,1.0,1.0,1.0,1.0,1.0,1.0,1.0,,23.722508872946968,23.270682311340998,22.70954424771438,22.24474775554067,21.672663850659895,21.150711092753504,20.826847298442992,20.336735676501903,19.880382101582605,19.36817810393817,18.89099506754834,18.422254948412917,17.963289708140167,17.47502436612183,17.07893948588729,16.629681660860022,16.04793485326678,15.595523321550933,15.17162197130753,14.732112906542227,14.275759331622925,13.832332758496614,13.438315065526698,12.856568257933452,12.37224654287684,11.887967756594973,11.388690760743534,10.847077919999816,10.29981003232604,9.826931687325692,9.362178123926734,8.81222952352405,8.25840792729337,7.729787900921599,7.233122570423609,6.764339522513434,6.492608249862968,5.968017708002414,5.388951613138079,4.826616468519271,4.392355269303309,3.893078273451871,3.431432320450212,2.9919232556849122,2.6396367212097163,2.15535793492785,1.62106156158008,1.12439623108209,0.7602628119248249,0.30951977140256587,0.0,,-1.0,-1.0,-1.0,-1.0,-1.0,-1.0,-1.0,-1.0,-1.0,-1.0,-1.0,-1.0,-1.0,-1.0,-1.0,-1.0,-1.0,-1.0,-1.0,-1.0,-1.0,-1.0,-1.0,-1.0,-1.0,-1.0,-1.0,-1.0,-1.0,-1.0,-1.0,-1.0,-1.0,-1.0,-1.0,-1.0,-1.0,-1.0,-1.0,-1.0,-1.0,-1.0,-1.0,-1.0,-1.0,-1.0,-1.0,-1.0,-1.0,-1.0,,-1.0,-1.0,-1.0,-1.0,-1.0,-1.0,-1.0,-1.0,-1.0,-1.0,-1.0,-1.0,-1.0,-1.0,-1.0,-1.0,-1.0,-1.0,-1.0,-1.0,-1.0,-1.0,-1.0,-1.0,-1.0,-1.0,-1.0,-1.0,-1.0,-1.0,-1.0,-1.0,-1.0,-1.0,-1.0,-1.0,-1.0,-1.0,-1.0,-1.0,-1.0,-1.0,-1.0,-1.0,-1.0,-1.0,-1.0,-1.0,-1.0,-1.0,,-1,-1,-1,-1,-1,-1,-1,-1,-1,-1,-1,-1,-1,-1,-1,-1,-1,-1,-1,-1,-1,-1,-1,-1,-1,-1,-1,-1,-1,-1,-1,-1,-1,-1,-1,-1,-1,-1,-1,-1,-1,-1,-1,-1,-1,-1,-1,-1,-1,-1
0.01,0.8,0.8,0.5,100,0,0.8,0.01,0,CombinedEMSequence,17,30479,1.0,1.0,1.0,1.0,1.0,1.0,1.0,1.0,1.0,1.0,1.0,1.0,1.0,1.0,1.0,1.0,1.0,1.0,1.0,1.0,1.0,1.0,1.0,1.0,1.0,1.0,1.0,1.0,1.0,1.0,1.0,1.0,1.0,1.0,1.0,1.0,1.0,1.0,1.0,1.0,1.0,1.0,1.0,1.0,1.0,1.0,1.0,1.0,1.0,1.0,1.0,,0.037047122129300364,0.037047122129300364,0.01040450856489248,0.0026355900952610787,0.0014322350377272198,9.87170593583833E-4,8.62041388934343E-4,6.256460232474506E-4,6.256460232474506E-4,5.005168185979605E-4,3.753876139484703E-4,0.11298817433672406,0.05160620873848533,0.022551692407791434,0.008124477545615318,0.008124477545615318,0.006221058908665559,0.004662617830511361,0.0037342088007457715,0.003090940641037293,0.002545767513431326,0.002545767513431326,0.002000594385825359,0.0016581654405408213,0.001315736495256283,9.733075499717452E-4,9.733075499717452E-4,7.369121842848528E-4,5.005168185979605E-4,5.005168185979605E-4,3.753876139484703E-4,2.5025840929898024E-4,1.2512920464949012E-4,0.0,0.0,0.0,0.0,0.0,0.0,0.0,0.0,0.0,0.0,0.0,0.0,0.0,0.0,0.0,0.0,0.0,0.0,,1.0,0.0,1.0,0.0,1.0,0.0,0.0,0.0,1.0,0.0,1.0,0.0,1.0,0.0,0.0,0.0,0.0,0.0,0.0,0.0,0.0,0.0,1.0,0.0,0.0,0.0,1.0,0.0,1.0,0.0,1.0,0.0,1.0,0.0,0.0,0.0,0.0,0.0,0.0,0.0,1.0,0.0,1.0,0.0,1.0,0.0,1.0,0.0,1.0,0.0,1.0,0.0,1.0,0.0,1.0,0.0,1.0,0.0,1.0,0.0,1.0,0.0,1.0,0.0,1.0,0.0,1.0,0.0,1.0,0.0,1.0,0.0,1.0,0.0,1.0,0.0,1.0,0.0,1.0,0.0,1.0,0.0,1.0,0.0,1.0,0.0,1.0,0.0,1.0,0.0,1.0,0.0,1.0,0.0,1.0,0.0,1.0,0.0,1.0,0.0,,1.0,1.0,1.0,1.0,1.0,1.0,1.0,1.0,1.0,1.0,1.0,1.0,1.0,1.0,1.0,1.0,1.0,1.0,1.0,1.0,1.0,1.0,1.0,1.0,1.0,1.0,1.0,1.0,1.0,1.0,1.0,1.0,1.0,1.0,1.0,1.0,1.0,1.0,1.0,1.0,1.0,1.0,1.0,1.0,1.0,1.0,1.0,1.0,1.0,1.0,1.0,1.0,1.0,1.0,1.0,1.0,1.0,1.0,1.0,1.0,1.0,1.0,1.0,1.0,1.0,1.0,1.0,1.0,1.0,1.0,1.0,1.0,1.0,1.0,1.0,1.0,1.0,1.0,1.0,1.0,1.0,1.0,1.0,1.0,1.0,1.0,1.0,1.0,1.0,1.0,1.0,1.0,1.0,1.0,1.0,1.0,1.0,1.0,1.0,1.0,,0,28,20,35,46,5,48,41,1,37,3,13,18,30,47,45,32,9,40,44,36,16,21,11,38,19,33,17,34,49,43,23,10,42,39,12,31,29,27,26,15,25,14,24,22,8,7,6,4,2
0.01,0.8,0.8,0.5,100,0,0.8,0.01,1,RandomMV,20,19,1.0,1.0,1.0,1.0,1.0,1.0,1.0,1.0,1.0,1.0,1.0,1.0,1.0,1.0,1.0,1.0,1.0,1.0,1.0,1.0,1.0,1.0,1.0,1.0,1.0,1.0,1.0,1.0,1.0,1.0,1.0,1.0,1.0,1.0,1.0,1.0,1.0,1.0,1.0,1.0,1.0,1.0,1.0,1.0,1.0,1.0,1.0,1.0,1.0,1.0,1.0,,23.286951837270365,22.98837887434104,22.571573273989678,22.176902978116395,21.652312436255844,21.203054611228577,20.671325390701238,20.339713243595334,19.86782100152959,19.26393888945826,18.751734891813832,18.28038310732496,17.881185798138343,17.424832223219045,17.01063670446286,16.572280208156723,16.085389756521415,15.721800198913801,15.26675246700206,14.866430528171511,14.41007695325221,13.853103234091213,13.318221890633561,12.811850728648356,12.257266373578629,11.744477405824316,11.285512165551564,10.751215792203798,10.285042825888803,9.89616085314173,9.491199755671357,9.057592573940735,8.573313787658869,8.096173680043787,7.624281437978046,7.112077440333616,6.637504485538967,6.198064468149125,5.747321427626866,5.165531691258876,4.581538493089861,4.164190851403359,3.750761495459005,3.380864288017976,2.8621756291921043,2.3901055983971995,1.8335603606628652,1.421867765906423,0.9238965924008712,0.5416128407437182,0.0,,-1.0,-1.0,-1.0,-1.0,-1.0,-1.0,-1.0,-1.0,-1.0,-1.0,-1.0,-1.0,-1.0,-1.0,-1.0,-1.0,-1.0,-1.0,-1.0,-1.0,-1.0,-1.0,-1.0,-1.0,-1.0,-1.0,-1.0,-1.0,-1.0,-1.0,-1.0,-1.0,-1.0,-1.0,-1.0,-1.0,-1.0,-1.0,-1.0,-1.0,-1.0,-1.0,-1.0,-1.0,-1.0,-1.0,-1.0,-1.0,-1.0,-1.0,,-1.0,-1.0,-1.0,-1.0,-1.0,-1.0,-1.0,-1.0,-1.0,-1.0,-1.0,-1.0,-1.0,-1.0,-1.0,-1.0,-1.0,-1.0,-1.0,-1.0,-1.0,-1.0,-1.0,-1.0,-1.0,-1.0,-1.0,-1.0,-1.0,-1.0,-1.0,-1.0,-1.0,-1.0,-1.0,-1.0,-1.0,-1.0,-1.0,-1.0,-1.0,-1.0,-1.0,-1.0,-1.0,-1.0,-1.0,-1.0,-1.0,-1.0,,-1,-1,-1,-1,-1,-1,-1,-1,-1,-1,-1,-1,-1,-1,-1,-1,-1,-1,-1,-1,-1,-1,-1,-1,-1,-1,-1,-1,-1,-1,-1,-1,-1,-1,-1,-1,-1,-1,-1,-1,-1,-1,-1,-1,-1,-1,-1,-1,-1,-1
0.01,0.8,0.8,0.5,100,0,0.8,0.01,1,CombinedEMSequence,14,30478,1.0,1.0,1.0,1.0,1.0,1.0,1.0,1.0,1.0,1.0,1.0,1.0,1.0,1.0,1.0,1.0,1.0,1.0,1.0,1.0,1.0,1.0,1.0,1.0,1.0,1.0,1.0,1.0,1.0,1.0,1.0,1.0,1.0,1.0,1.0,1.0,1.0,1.0,1.0,1.0,1.0,1.0,1.0,1.0,1.0,1.0,1.0,1.0,1.0,1.0,1.0,,0.13028331685233094,0.13028331685233094,0.012239325103779553,0.005663687431047756,0.001515774911534224,0.0010707104673908373,0.0010707104673908373,6.256460232474506E-4,6.256460232474506E-4,5.005168185979605E-4,3.753876139484703E-4,0.6278812370096951,0.4010799569306819,0.28130534841062516,0.18317886705510014,0.1530038381005631,0.15077490624029735,0.1164391237016556,0.08509440114658953,0.05754236570415897,0.042547618098728916,0.04072962371756945,0.04049322835188256,0.027234458342812705,0.02130461087595605,0.017156698356442516,0.015338703975283053,0.013098363585277963,0.011110021001099752,0.011110021001099752,0.009206602364149993,0.007388607982990524,0.005570613601831056,0.003925076992094573,0.003281808832386094,0.0028367443882427075,0.0026003490225558154,0.002363953656868923,0.002127558291182031,0.0018911629254951387,0.0016547675598082463,0.001418372194121354,0.0011819768284344616,9.455814627475693E-4,7.09186097060677E-4,4.727907313737847E-4,4.727907313737847E-4,2.3639536568689234E-4,0.0,0.0,0.0,,1.0,0.0,1.0,0.0,1.0,0.0,0.0,0.0,1.0,0.0,1.0,0.0,1.0,0.0,1.0,0.0,1.0,0.0,1.0,0.0,0.0,0.0,1.0,0.0,1.0,0.0,1.0,0.0,1.0,0.0,1.0,0.0,0.0,0.0,0.0,0.0,1.0,0.0,1.0,0.0,1.0,0.0,1.0,0.0,1.0,0.0,1.0,0.0,1.0,0.0,1.0,0.0,1.0,0.0,1.0,0.0,1.0,0.0,1.0,0.0,1.0,0.0,1.0,0.0,1.0,0.0,1.0,0.0,1.0,0.0,1.0,0.0,1.0,0.0,1.0,0.0,1.0,0.0,1.0,0.0,1.0,0.0,1.0,0.0,1.0,0.0,1.0,0.0,1.0,0.0,1.0,0.0,1.0,0.0,1.0,0.0,1.0,0.0,1.0,0.0,,1.0,1.0,1.0,1.0,1.0,1.0,1.0,1.0,1.0,1.0,1.0,1.0,1.0,1.0,1.0,1.0,1.0,1.0,1.0,1.0,1.0,1.0,1.0,1.0,1.0,1.0,1.0,1.0,1.0,1.0,1.0,1.0,1.0,1.0,1.0,1.0,1.0,1.0,1.0,1.0,1.0,1.0,1.0,1.0,1.0,1.0,1.0,1.0,1.0,1.0,1.0,1.0,1.0,1.0,1.0,1.0,1.0,1.0,1.0,1.0,1.0,1.0,1.0,1.0,1.0,1.0,1.0,1.0,1.0,1.0,1.0,1.0,1.0,1.0,1.0,1.0,1.0,1.0,1.0,1.0,1.0,1.0,1.0,1.0,1.0,1.0,1.0,1.0,1.0,1.0,1.0,1.0,1.0,1.0,1.0,1.0,1.0,1.0,1.0,1.0,,0,15,37,33,8,4,22,17,48,41,34,38,25,14,11,23,19,5,7,16,20,49,27,10,32,44,40,29,30,39,42,18,36,28,9,46,43,24,47,21,26,12,6,31,13,2,35,1,45,3
