0.01,0.8,0.5,40,60,0.01,0,RandomMV,36,230,0.4,0.40800000000000003,0.42400000000000004,0.43600000000000005,0.44800000000000006,0.45999999999999996,0.476,0.488,0.5,0.512,0.52,0.536,0.544,0.548,0.556,0.5720000000000001,0.5840000000000001,0.5960000000000001,0.6080000000000001,0.6240000000000001,0.6280000000000001,0.632,0.6440000000000001,0.6599999999999999,0.68,0.6960000000000001,0.708,0.724,0.74,0.7519999999999999,0.764,0.776,0.796,0.804,0.8160000000000001,0.8320000000000001,0.8360000000000001,0.8440000000000001,0.8520000000000001,0.868,0.876,0.8880000000000001,0.9039999999999999,0.916,0.9239999999999998,0.9359999999999999,0.952,0.9640000000000001,0.976,0.992,1.0,,28.843503701552823,28.278233839056174,27.70204055172552,27.114393339002106,26.559685484806458,25.973232955700674,25.358235636160668,24.820048818042146,24.245184949316872,23.667603771919545,23.113650074543326,22.489337558620935,21.94154991114011,21.471070498008736,20.884270217142472,20.32401299069817,19.754578047044156,19.1742182882441,18.585229194864688,17.981744435782836,17.49027298297635,17.028329244232058,16.438134095339713,15.844725436907515,15.220828224347807,14.625063319192325,14.01458190348971,13.37994541452268,12.763402839271873,12.19676853304297,11.599156697406997,11.001317794510651,10.411126467178288,9.84196784894396,9.27099656611596,8.647408008043035,8.094017603229497,7.5280536275239385,7.0106636950186765,6.421480143121275,5.870853762168927,5.2809751614701685,4.64286464348738,4.059071920614826,3.4579789808842754,2.855044835248806,2.2722359287732483,1.778876563472307,1.2280078130000671,0.6134990764124219,0.0,,-1.0,-1.0,-1.0,-1.0,-1.0,-1.0,-1.0,-1.0,-1.0,-1.0,-1.0,-1.0,-1.0,-1.0,-1.0,-1.0,-1.0,-1.0,-1.0,-1.0,-1.0,-1.0,-1.0,-1.0,-1.0,-1.0,-1.0,-1.0,-1.0,-1.0,-1.0,-1.0,-1.0,-1.0,-1.0,-1.0,-1.0,-1.0,-1.0,-1.0,-1.0,-1.0,-1.0,-1.0,-1.0,-1.0,-1.0,-1.0,-1.0,-1.0,,-1.0,-1.0,-1.0,-1.0,-1.0,-1.0,-1.0,-1.0,-1.0,-1.0,-1.0,-1.0,-1.0,-1.0,-1.0,-1.0,-1.0,-1.0,-1.0,-1.0,-1.0,-1.0,-1.0,-1.0,-1.0,-1.0,-1.0,-1.0,-1.0,-1.0,-1.0,-1.0,-1.0,-1.0,-1.0,-1.0,-1.0,-1.0,-1.0,-1.0,-1.0,-1.0,-1.0,-1.0,-1.0,-1.0,-1.0,-1.0,-1.0,-1.0,,-1,-1,-1,-1,-1,-1,-1,-1,-1,-1,-1,-1,-1,-1,-1,-1,-1,-1,-1,-1,-1,-1,-1,-1,-1,-1,-1,-1,-1,-1,-1,-1,-1,-1,-1,-1,-1,-1,-1,-1,-1,-1,-1,-1,-1,-1,-1,-1,-1,-1
0.01,0.8,0.5,40,60,0.01,0,CombinedEMSequence,8,61165,0.4,0.42,0.44,0.46,0.48,0.5,0.5,0.52,0.54,0.56,0.58,0.94,0.94,0.94,0.94,0.94,0.96,0.96,0.96,0.96,0.96,0.96,0.98,1.0,1.0,1.0,1.0,1.0,1.0,1.0,1.0,1.0,1.0,1.0,1.0,1.0,1.0,1.0,1.0,1.0,1.0,1.0,1.0,1.0,1.0,1.0,1.0,1.0,1.0,1.0,1.0,,0.0,0.0,0.0,0.0,0.0,0.0,0.0,0.0,0.0,0.0,0.0,13.686552069093535,12.21086118212989,10.7974382686095,9.64241332289979,9.149330446184068,10.105543125588522,8.963224473212483,7.839379294841122,6.995131047395566,6.026599252268996,5.7355621187625925,5.293147427452782,4.823220521460604,3.9682217548767285,3.3062951690340165,2.895665831697999,2.564960288979853,2.2725877433542876,2.0512442989581046,1.8185375422643917,1.6399548155292114,1.4376406090797686,1.2561747311362093,1.080994860943671,0.9197032718761549,0.7715430377016127,0.6342521753849276,0.5066634275964742,0.3805780313789611,0.2628013553223534,0.24148990259193534,0.13868719355196157,0.1179572168870356,0.09722683495038488,0.07697810959906581,0.05671322849238342,0.04234785909142145,0.02810709511076068,0.013991090433472351,0.0,,1.0,0.0,1.0,0.0,1.0,0.8421052631578947,1.0,0.7619047619047619,1.0,0.7619047619047619,1.0,0.8421052631578947,1.0,0.7619047619047619,0.75,0.6956521739130435,0.8,0.8,1.0,0.8,1.0,0.7272727272727273,1.0,0.0,1.0,0.0,1.0,0.0,1.0,0.0,1.0,0.0,1.0,0.0,1.0,0.0,1.0,0.0,0.0,0.0,1.0,0.0,1.0,0.0,1.0,0.0,1.0,0.0,1.0,0.0,1.0,0.0,1.0,0.0,1.0,0.0,1.0,0.0,1.0,0.0,1.0,0.0,1.0,0.0,1.0,0.0,1.0,0.0,1.0,0.0,1.0,0.0,1.0,0.0,1.0,0.0,1.0,0.0,1.0,0.0,1.0,0.0,1.0,0.0,1.0,0.0,1.0,0.0,1.0,0.0,1.0,0.0,1.0,0.0,1.0,0.0,1.0,0.0,1.0,0.0,,0.0,0.0,0.0,0.0,0.0,1.0,0.0,1.0,0.0,1.0,0.0,1.0,0.0,1.0,0.1111111111111111,1.0,0.14814814814814814,1.0,0.1111111111111111,1.0,0.0,1.0,0.375,1.0,0.375,1.0,0.375,1.0,0.375,1.0,0.5,1.0,0.0,1.0,0.0,1.0,0.0,1.0,0.0,1.0,0.0,1.0,0.0,1.0,0.0,1.0,0.25,1.0,0.25,1.0,0.25,1.0,0.0,1.0,0.0,1.0,0.0,1.0,0.0,1.0,0.0,1.0,0.0,1.0,0.0,1.0,0.0,1.0,0.0,1.0,0.0,1.0,0.0,1.0,0.0,1.0,0.0,1.0,0.3333333333333333,1.0,0.0,1.0,0.0,1.0,0.0,1.0,0.3333333333333333,1.0,0.0,1.0,0.3333333333333333,1.0,0.0,1.0,0.0,1.0,0.0,1.0,0.0,1.0,,0,49,48,47,46,1,45,6,44,43,7,28,29,2,35,15,37,13,20,33,38,40,26,39,8,24,16,11,31,25,41,4,10,19,42,12,32,3,23,9,18,34,14,22,30,21,36,27,17,5
0.01,0.8,0.5,40,60,0.01,1,RandomMV,36,80,0.34,0.348,0.356,0.364,0.376,0.392,0.41200000000000003,0.42400000000000004,0.43200000000000005,0.44400000000000006,0.45199999999999996,0.46799999999999997,0.48,0.492,0.504,0.52,0.532,0.552,0.5640000000000001,0.576,0.588,0.608,0.616,0.628,0.64,0.656,0.6719999999999999,0.6920000000000001,0.704,0.716,0.724,0.736,0.7520000000000001,0.768,0.7840000000000001,0.796,0.808,0.8280000000000001,0.8480000000000001,0.8560000000000001,0.8720000000000001,0.8880000000000001,0.908,0.9279999999999999,0.9399999999999998,0.952,0.96,0.9719999999999999,0.984,0.9960000000000001,1.0,,28.99261966729826,28.44631063817058,27.93839826292601,27.406157649146838,26.786287258380376,26.167626555530575,25.53763532453223,24.979598902140832,24.414464533872,23.873014371359044,23.39166891892952,22.810198807965413,22.264325627703847,21.677955155407517,21.117243114354654,20.498704214196692,19.916279005975934,19.258326456880212,18.71404693780181,18.10640118465118,17.503271335337935,16.857857493127185,16.326192866272805,15.74810372313593,15.173834970463247,14.581891679583842,13.976824140428823,13.354342582542992,12.79423406542632,12.239921549562268,11.636695216312166,11.053731274032998,10.447389305491944,9.824907747606114,9.227903931289692,8.65878340050217,8.118866506243672,7.474380983887353,6.85902392513052,6.323173610519693,5.742747220846428,5.115781117694597,4.496807688211192,3.859305441464792,3.3276684351926606,2.7625901021259613,2.2204083117686415,1.6498668375105758,1.0847324692417402,0.5296320184875591,0.0,,-1.0,-1.0,-1.0,-1.0,-1.0,-1.0,-1.0,-1.0,-1.0,-1.0,-1.0,-1.0,-1.0,-1.0,-1.0,-1.0,-1.0,-1.0,-1.0,-1.0,-1.0,-1.0,-1.0,-1.0,-1.0,-1.0,-1.0,-1.0,-1.0,-1.0,-1.0,-1.0,-1.0,-1.0,-1.0,-1.0,-1.0,-1.0,-1.0,-1.0,-1.0,-1.0,-1.0,-1.0,-1.0,-1.0,-1.0,-1.0,-1.0,-1.0,,-1.0,-1.0,-1.0,-1.0,-1.0,-1.0,-1.0,-1.0,-1.0,-1.0,-1.0,-1.0,-1.0,-1.0,-1.0,-1.0,-1.0,-1.0,-1.0,-1.0,-1.0,-1.0,-1.0,-1.0,-1.0,-1.0,-1.0,-1.0,-1.0,-1.0,-1.0,-1.0,-1.0,-1.0,-1.0,-1.0,-1.0,-1.0,-1.0,-1.0,-1.0,-1.0,-1.0,-1.0,-1.0,-1.0,-1.0,-1.0,-1.0,-1.0,,-1,-1,-1,-1,-1,-1,-1,-1,-1,-1,-1,-1,-1,-1,-1,-1,-1,-1,-1,-1,-1,-1,-1,-1,-1,-1,-1,-1,-1,-1,-1,-1,-1,-1,-1,-1,-1,-1,-1,-1,-1,-1,-1,-1,-1,-1,-1,-1,-1,-1
0.01,0.8,0.5,40,60,0.01,1,CombinedEMSequence,9,60930,0.34,0.36,0.38,0.4,0.42,0.42,0.44,0.46,0.48,0.48,0.48,0.98,1.0,1.0,1.0,1.0,1.0,1.0,1.0,1.0,1.0,1.0,1.0,1.0,1.0,1.0,1.0,1.0,1.0,1.0,1.0,1.0,1.0,1.0,1.0,1.0,1.0,1.0,1.0,1.0,1.0,1.0,1.0,1.0,1.0,1.0,1.0,1.0,1.0,1.0,1.0,,0.0,0.0,0.0,0.0,0.0,0.0,0.0,0.0,0.0,0.0,0.0,4.414789422036868,3.4172570240252784,2.468087525632452,1.7077707639499449,1.6898446513675258,1.6810340989679378,1.074280745304034,0.6075534184024733,0.44266780115240995,0.2972898468930111,0.22624465627935744,0.21494590803637284,0.15290242056502848,0.11333589850672396,0.08008969257687888,0.07974726363159435,0.05759248158873024,0.03883333686803793,0.03859694150235103,0.03131547565581084,0.029333016105571846,0.025569866668636854,0.021650492355449486,0.018120953961775814,0.014591415568102136,0.01277342118694267,0.009479746851025797,0.008009026812008156,0.006626695073515797,0.005887006451458906,0.005382414057878667,0.004361385020847736,0.0038162118932417687,0.0032710387656358017,0.0027258656380298348,0.002180692510423868,0.0016355193828179009,0.001090346255211934,5.45173127605967E-4,0.0,,1.0,0.0,1.0,0.0,1.0,0.9411764705882353,1.0,0.7619047619047619,1.0,0.8421052631578947,1.0,0.6956521739130435,1.0,0.7272727272727273,1.0,0.6956521739130435,1.0,0.6666666666666666,1.0,0.6666666666666666,1.0,0.6666666666666666,1.0,0.0,1.0,0.0,1.0,0.0,1.0,0.0,1.0,0.0,1.0,0.0,1.0,0.0,1.0,0.0,1.0,0.0,1.0,0.0,1.0,0.0,1.0,0.0,1.0,0.0,1.0,0.0,1.0,0.0,1.0,0.0,1.0,0.0,1.0,0.0,1.0,0.0,1.0,0.0,1.0,0.0,1.0,0.0,1.0,0.0,1.0,0.0,1.0,0.0,1.0,0.0,1.0,0.0,1.0,0.0,1.0,0.0,1.0,0.0,1.0,0.0,1.0,0.0,1.0,0.0,1.0,0.0,1.0,0.0,1.0,0.0,1.0,0.0,1.0,0.0,1.0,0.0,,0.0,0.0,0.0,0.0,0.0,1.0,0.0,1.0,0.0,1.0,0.0,1.0,0.0,1.0,0.0,1.0,0.0,1.0,0.0,1.0,0.0,1.0,0.2,1.0,0.0,1.0,0.4,1.0,0.0,1.0,0.0,1.0,0.0,1.0,0.0,1.0,0.0,1.0,0.0,1.0,0.0,1.0,0.0,1.0,0.0,1.0,0.0,1.0,0.2,1.0,0.0,1.0,0.2,1.0,0.4,1.0,0.2,1.0,0.6,1.0,0.4,1.0,0.3333333333333333,1.0,0.0,1.0,0.3333333333333333,1.0,0.0,1.0,0.0,1.0,0.6666666666666666,1.0,0.3333333333333333,1.0,0.3333333333333333,1.0,0.0,1.0,0.3333333333333333,1.0,0.0,1.0,0.0,1.0,0.0,1.0,0.0,1.0,0.0,1.0,0.0,1.0,0.0,1.0,0.5,1.0,0.5,1.0,,0,49,48,47,46,1,45,44,43,42,40,33,26,27,3,8,15,35,22,5,10,14,38,39,28,29,21,20,7,36,6,25,16,24,18,4,17,23,2,30,11,19,13,41,37,34,32,31,12,9
0.01,0.8,0.5,40,60,0.01,2,RandomMV,36,53,0.36,0.376,0.392,0.40800000000000003,0.41200000000000003,0.42400000000000004,0.43200000000000005,0.44000000000000006,0.45199999999999996,0.46799999999999997,0.488,0.5,0.516,0.528,0.54,0.56,0.5720000000000001,0.5840000000000001,0.6040000000000001,0.62,0.632,0.644,0.652,0.664,0.6759999999999999,0.692,0.708,0.7200000000000001,0.732,0.744,0.756,0.768,0.776,0.792,0.808,0.8240000000000001,0.836,0.8560000000000001,0.86,0.868,0.8800000000000001,0.892,0.908,0.916,0.932,0.9399999999999998,0.952,0.9640000000000001,0.976,0.984,1.0,,28.594669294140875,27.970560637719778,27.361217580775644,26.77070170295741,26.22593910712022,25.642304927471468,25.085315122190682,24.58697704263598,23.996489706129005,23.4264241306601,22.81779449350919,22.247724254310945,21.654721982704608,21.020727864360637,20.451898130875712,19.84355732892372,19.295877386473155,18.767069736766473,18.125657439265815,17.49823511296029,16.94121751786777,16.40305472248341,15.858209691944381,15.279827446948326,14.70778916299524,14.111503922220052,13.522810838015266,12.946180634115233,12.350374809168747,11.833136647058428,11.282360049408533,10.689167633673087,10.085053900359556,9.501092352964807,8.881532117004195,8.304680486606555,7.756221288993085,7.099725918081665,6.598248750417137,6.058075924605663,5.512230534155835,4.954899291700707,4.345971538119253,3.8551021154898515,3.30228769760111,2.8078342081358634,2.2290734430604755,1.6831073767101408,1.1259034640597012,0.5503651926642699,0.0,,-1.0,-1.0,-1.0,-1.0,-1.0,-1.0,-1.0,-1.0,-1.0,-1.0,-1.0,-1.0,-1.0,-1.0,-1.0,-1.0,-1.0,-1.0,-1.0,-1.0,-1.0,-1.0,-1.0,-1.0,-1.0,-1.0,-1.0,-1.0,-1.0,-1.0,-1.0,-1.0,-1.0,-1.0,-1.0,-1.0,-1.0,-1.0,-1.0,-1.0,-1.0,-1.0,-1.0,-1.0,-1.0,-1.0,-1.0,-1.0,-1.0,-1.0,,-1.0,-1.0,-1.0,-1.0,-1.0,-1.0,-1.0,-1.0,-1.0,-1.0,-1.0,-1.0,-1.0,-1.0,-1.0,-1.0,-1.0,-1.0,-1.0,-1.0,-1.0,-1.0,-1.0,-1.0,-1.0,-1.0,-1.0,-1.0,-1.0,-1.0,-1.0,-1.0,-1.0,-1.0,-1.0,-1.0,-1.0,-1.0,-1.0,-1.0,-1.0,-1.0,-1.0,-1.0,-1.0,-1.0,-1.0,-1.0,-1.0,-1.0,,-1,-1,-1,-1,-1,-1,-1,-1,-1,-1,-1,-1,-1,-1,-1,-1,-1,-1,-1,-1,-1,-1,-1,-1,-1,-1,-1,-1,-1,-1,-1,-1,-1,-1,-1,-1,-1,-1,-1,-1,-1,-1,-1,-1,-1,-1,-1,-1,-1,-1
0.01,0.8,0.5,40,60,0.01,2,CombinedEMSequence,8,66456,0.36,0.38,0.38,0.4,0.42,0.44,0.46,0.46,0.46,0.48,0.48,0.96,0.98,1.0,1.0,1.0,1.0,1.0,1.0,1.0,1.0,1.0,1.0,1.0,1.0,1.0,1.0,1.0,1.0,1.0,1.0,1.0,1.0,1.0,1.0,1.0,1.0,1.0,1.0,1.0,1.0,1.0,1.0,1.0,1.0,1.0,1.0,1.0,1.0,1.0,1.0,,0.0,0.0,0.0,0.0,0.0,0.0,0.0,0.0,0.0,0.0,0.0,3.8547562868635135,2.9830620656830167,2.0102407107862916,1.4628660320722893,1.4612221966188788,1.379008858153559,1.031714766474484,0.7361867106007132,0.5763162320349561,0.4387750453747889,0.4003989855934718,0.39856008608999116,0.31529322159361056,0.2680092597579183,0.2250150623976393,0.2362982740919558,0.18158556049732807,0.1438294525262671,0.13938172091580348,0.10593530876606509,0.10163013005316095,0.07522365556000364,0.05151260659847679,0.04017212766990647,0.029770732530134448,0.02524327722270223,0.01880621650121535,0.014354277216533972,0.0115398544107495,0.008806380990257788,0.006902962353308029,0.004332399689624655,0.003689131529916176,0.0030458633702076976,0.002402595210499219,0.002166199844812327,0.001522931685103849,8.796635253953707E-4,2.3639536568689234E-4,0.0,,1.0,0.0,1.0,0.0,1.0,0.0,1.0,0.5925925925925926,1.0,0.6956521739130435,1.0,0.6956521739130435,1.0,0.7619047619047619,1.0,0.8,1.0,0.7619047619047619,1.0,0.8421052631578947,1.0,0.7619047619047619,0.6666666666666666,0.0,1.0,0.0,0.3333333333333333,0.0,1.0,0.0,1.0,0.0,1.0,0.0,1.0,0.0,1.0,0.0,1.0,0.0,1.0,0.0,1.0,0.0,1.0,0.0,1.0,0.0,1.0,0.0,1.0,0.0,1.0,0.0,1.0,0.0,1.0,0.0,1.0,0.0,1.0,0.0,1.0,0.0,1.0,0.0,1.0,0.0,1.0,0.0,1.0,0.0,1.0,0.0,1.0,0.0,1.0,0.0,1.0,0.0,1.0,0.0,1.0,0.0,1.0,0.0,1.0,0.0,1.0,0.0,1.0,0.0,1.0,0.0,1.0,0.0,1.0,0.0,1.0,0.0,,0.0,0.0,0.0,0.0,0.0,0.0,0.0,1.0,0.0,1.0,0.0,1.0,0.0,1.0,0.0,1.0,0.0,1.0,0.0,1.0,0.0,1.0,0.2857142857142857,1.0,0.0,1.0,0.14285714285714285,1.0,0.0,1.0,0.0,1.0,0.14285714285714285,1.0,0.2857142857142857,1.0,0.14285714285714285,1.0,0.42857142857142855,1.0,0.14285714285714285,1.0,0.0,1.0,0.5,1.0,0.0,1.0,0.5,1.0,0.3333333333333333,1.0,0.25,1.0,0.25,1.0,0.5,1.0,0.25,1.0,1.0,1.0,1.0,1.0,1.0,1.0,1.0,1.0,1.0,1.0,1.0,1.0,1.0,1.0,1.0,1.0,1.0,1.0,1.0,1.0,1.0,1.0,1.0,1.0,1.0,1.0,1.0,1.0,1.0,1.0,1.0,1.0,1.0,1.0,1.0,1.0,1.0,1.0,1.0,1.0,,0,49,48,47,46,1,45,14,44,43,24,10,36,34,40,6,38,35,19,9,17,22,15,3,18,30,26,16,37,29,4,2,11,12,20,27,32,28,41,33,39,25,31,23,13,42,8,7,5,21
0.01,0.8,0.5,40,60,0.01,3,RandomMV,36,40,0.36,0.372,0.388,0.392,0.4,0.41200000000000003,0.41600000000000004,0.41600000000000004,0.43200000000000005,0.44800000000000006,0.45599999999999996,0.476,0.496,0.504,0.52,0.536,0.552,0.5720000000000001,0.5880000000000001,0.5920000000000001,0.612,0.62,0.632,0.648,0.664,0.68,0.6880000000000001,0.692,0.708,0.7200000000000001,0.732,0.7479999999999999,0.7559999999999999,0.7639999999999999,0.784,0.7959999999999999,0.812,0.8240000000000001,0.828,0.836,0.852,0.868,0.8800000000000001,0.8960000000000001,0.9120000000000001,0.924,0.9399999999999998,0.96,0.976,0.9879999999999999,1.0,,28.554025487394124,27.94822800735953,27.32296635106756,26.801580591376933,26.244590786096147,25.66770244996414,25.150064404422714,24.694064455529674,24.07367537137239,23.52857240424211,23.009220482600455,22.371257678436837,21.767611707560516,21.27018297867611,20.648823799237128,20.04569394992388,19.451003436213124,18.818692445122092,18.26184686314336,17.80247501395631,17.15889337791503,16.570728653316507,15.970336719274394,15.354114106586518,14.773059298985098,14.190347467709582,13.685831350803127,13.194989717985461,12.57727533176064,11.977653610849815,11.411745199290102,10.784318538721049,10.302986977890772,9.775651937315857,9.193603936411368,8.67276116196177,8.06572414461936,7.468373824675365,6.936059428278698,6.429354353706847,5.819478602892914,5.244304142861137,4.703361179724783,4.093783650337203,3.5137131632367264,2.922719251302239,2.3297478255637403,1.7348271736730758,1.1435247776880089,0.5550106207215083,0.0,,-1.0,-1.0,-1.0,-1.0,-1.0,-1.0,-1.0,-1.0,-1.0,-1.0,-1.0,-1.0,-1.0,-1.0,-1.0,-1.0,-1.0,-1.0,-1.0,-1.0,-1.0,-1.0,-1.0,-1.0,-1.0,-1.0,-1.0,-1.0,-1.0,-1.0,-1.0,-1.0,-1.0,-1.0,-1.0,-1.0,-1.0,-1.0,-1.0,-1.0,-1.0,-1.0,-1.0,-1.0,-1.0,-1.0,-1.0,-1.0,-1.0,-1.0,,-1.0,-1.0,-1.0,-1.0,-1.0,-1.0,-1.0,-1.0,-1.0,-1.0,-1.0,-1.0,-1.0,-1.0,-1.0,-1.0,-1.0,-1.0,-1.0,-1.0,-1.0,-1.0,-1.0,-1.0,-1.0,-1.0,-1.0,-1.0,-1.0,-1.0,-1.0,-1.0,-1.0,-1.0,-1.0,-1.0,-1.0,-1.0,-1.0,-1.0,-1.0,-1.0,-1.0,-1.0,-1.0,-1.0,-1.0,-1.0,-1.0,-1.0,,-1,-1,-1,-1,-1,-1,-1,-1,-1,-1,-1,-1,-1,-1,-1,-1,-1,-1,-1,-1,-1,-1,-1,-1,-1,-1,-1,-1,-1,-1,-1,-1,-1,-1,-1,-1,-1,-1,-1,-1,-1,-1,-1,-1,-1,-1,-1,-1,-1,-1
0.01,0.8,0.5,40,60,0.01,3,CombinedEMSequence,9,59039,0.36,0.38,0.4,0.42,0.42,0.42,0.44,0.44,0.44,0.46,0.48,0.98,1.0,1.0,1.0,1.0,1.0,1.0,1.0,1.0,1.0,1.0,1.0,1.0,1.0,1.0,1.0,1.0,1.0,1.0,1.0,1.0,1.0,1.0,1.0,1.0,1.0,1.0,1.0,1.0,1.0,1.0,1.0,1.0,1.0,1.0,1.0,1.0,1.0,1.0,1.0,,0.0,0.0,0.0,0.0,0.0,0.0,0.0,0.0,0.0,0.0,0.0,2.947730527814608,2.7141206754653093,2.21122091339962,1.8996200112186412,1.8595514785969207,1.6856332002509966,1.414907622460876,1.1748759824070476,0.9978478792665275,0.8348339440872437,0.7479787508314154,0.7448853829709,0.5918721804225279,0.4806301328625181,0.3764715700708363,0.3538677630311221,0.26374687503497896,0.19282758509852993,0.17189689393127958,0.13697204178976974,0.10451588557547402,0.08070168233462266,0.05729061190857042,0.03728445814594993,0.025168778199614838,0.023011995464363503,0.019956621191194897,0.016901246918026292,0.01441266944958645,0.011924091981146606,0.010903062944115674,0.008414485475675831,0.005925908007235988,0.0034373305387961454,0.0019666104997785017,9.455814627475693E-4,7.09186097060677E-4,4.727907313737847E-4,2.3639536568689234E-4,0.0,,1.0,0.0,1.0,0.0,1.0,0.8888888888888888,1.0,0.6666666666666666,1.0,0.6666666666666666,1.0,0.6956521739130435,1.0,0.6666666666666666,0.0,0.5714285714285714,0.05,0.5925925925925926,1.0,0.7272727272727273,1.0,0.6956521739130435,1.0,0.0,1.0,0.0,1.0,0.0,1.0,0.0,1.0,0.0,1.0,0.0,1.0,0.0,1.0,0.0,1.0,0.0,1.0,0.0,1.0,0.0,1.0,0.0,1.0,0.0,1.0,0.0,1.0,0.0,1.0,0.0,1.0,0.0,1.0,0.0,1.0,0.0,1.0,0.0,1.0,0.0,1.0,0.0,1.0,0.0,1.0,0.0,1.0,0.0,1.0,0.0,1.0,0.0,1.0,0.0,1.0,0.0,1.0,0.0,1.0,0.0,1.0,0.0,1.0,0.0,1.0,0.0,1.0,0.0,1.0,0.0,1.0,0.0,1.0,0.0,1.0,0.0,,0.0,0.0,0.0,0.0,0.0,1.0,0.0,1.0,0.0,1.0,0.0,1.0,0.0,1.0,0.0,1.0,0.1,1.0,0.1,1.0,0.0,1.0,0.0,1.0,0.16666666666666666,1.0,0.0,1.0,0.16666666666666666,1.0,0.5,1.0,0.0,1.0,0.0,1.0,0.0,1.0,0.0,1.0,0.0,1.0,0.0,1.0,0.3333333333333333,1.0,0.3333333333333333,1.0,0.3333333333333333,1.0,0.0,1.0,0.0,1.0,0.0,1.0,0.0,1.0,0.0,1.0,0.0,1.0,0.0,1.0,0.0,1.0,0.0,1.0,0.0,1.0,0.0,1.0,0.0,1.0,0.3333333333333333,1.0,0.3333333333333333,1.0,0.3333333333333333,1.0,0.3333333333333333,1.0,0.0,1.0,0.0,1.0,0.0,1.0,0.0,1.0,0.0,1.0,0.5,1.0,0.5,1.0,0.5,1.0,0.5,1.0,,0,49,48,47,46,1,45,28,44,43,27,19,9,7,23,17,21,6,13,26,31,12,22,33,42,36,40,11,35,10,3,38,29,8,5,25,18,16,41,37,30,34,32,2,24,4,39,20,15,14
0.01,0.8,0.5,40,60,0.01,4,RandomMV,36,39,0.36,0.376,0.392,0.4,0.404,0.41200000000000003,0.42800000000000005,0.44799999999999995,0.45599999999999996,0.46799999999999997,0.484,0.496,0.512,0.532,0.544,0.552,0.56,0.5760000000000001,0.592,0.6,0.604,0.616,0.624,0.644,0.652,0.668,0.68,0.6880000000000001,0.7080000000000001,0.724,0.736,0.744,0.76,0.776,0.792,0.808,0.8160000000000001,0.8320000000000001,0.844,0.86,0.8640000000000001,0.876,0.8960000000000001,0.908,0.924,0.9400000000000001,0.944,0.9559999999999998,0.9719999999999999,0.984,1.0,,28.96450912907155,28.325130670234053,27.701487549242565,27.189498260717635,26.632978325129983,26.147842034501696,25.56102350995925,24.949174579604843,24.455316954936237,23.879414464908173,23.27476505286043,22.6820901490001,22.045574377022426,21.399803783315754,20.87955022835822,20.29253359803063,19.721383387964345,19.09542072598394,18.497712551563374,17.95943880684371,17.385700821562196,16.889752976164196,16.330412769163225,15.666322195707238,15.179751104232983,14.57751796428595,14.00187574181696,13.469976648782975,12.841230817476895,12.247432632564559,11.65354246136426,11.202231350151386,10.574845609373337,9.957164176272276,9.362738825868302,8.737901021259184,8.199674783593213,7.568007630361916,6.955334186074367,6.336526695145608,5.814634505342413,5.2157246096724394,4.596023150192746,4.057445972174702,3.4943500122588764,2.8720652387955274,2.3489049440446648,1.793578924800427,1.1849989229794504,0.5961887568383328,0.0,,-1.0,-1.0,-1.0,-1.0,-1.0,-1.0,-1.0,-1.0,-1.0,-1.0,-1.0,-1.0,-1.0,-1.0,-1.0,-1.0,-1.0,-1.0,-1.0,-1.0,-1.0,-1.0,-1.0,-1.0,-1.0,-1.0,-1.0,-1.0,-1.0,-1.0,-1.0,-1.0,-1.0,-1.0,-1.0,-1.0,-1.0,-1.0,-1.0,-1.0,-1.0,-1.0,-1.0,-1.0,-1.0,-1.0,-1.0,-1.0,-1.0,-1.0,,-1.0,-1.0,-1.0,-1.0,-1.0,-1.0,-1.0,-1.0,-1.0,-1.0,-1.0,-1.0,-1.0,-1.0,-1.0,-1.0,-1.0,-1.0,-1.0,-1.0,-1.0,-1.0,-1.0,-1.0,-1.0,-1.0,-1.0,-1.0,-1.0,-1.0,-1.0,-1.0,-1.0,-1.0,-1.0,-1.0,-1.0,-1.0,-1.0,-1.0,-1.0,-1.0,-1.0,-1.0,-1.0,-1.0,-1.0,-1.0,-1.0,-1.0,,-1,-1,-1,-1,-1,-1,-1,-1,-1,-1,-1,-1,-1,-1,-1,-1,-1,-1,-1,-1,-1,-1,-1,-1,-1,-1,-1,-1,-1,-1,-1,-1,-1,-1,-1,-1,-1,-1,-1,-1,-1,-1,-1,-1,-1,-1,-1,-1,-1,-1
0.01,0.8,0.5,40,60,0.01,4,CombinedEMSequence,8,64726,0.36,0.38,0.4,0.42,0.42,0.44,0.46,0.46,0.46,0.48,0.5,0.96,0.96,0.98,0.98,0.98,0.98,1.0,1.0,1.0,1.0,1.0,1.0,1.0,1.0,1.0,1.0,1.0,1.0,1.0,1.0,1.0,1.0,1.0,1.0,1.0,1.0,1.0,1.0,1.0,1.0,1.0,1.0,1.0,1.0,1.0,1.0,1.0,1.0,1.0,1.0,,0.0,0.0,0.0,0.0,0.0,0.0,0.0,0.0,0.0,0.0,0.0,7.0851706486897275,6.444840617532617,5.52046583897741,4.874639202238017,4.696193883378641,4.559202154097968,3.9873467175073167,3.284480735010922,2.5393027727742123,2.0533845528930437,1.8553700637129826,1.789290599401673,1.4102282865728015,1.091410442829305,0.7904442134383922,0.5742347531406379,0.41940167396716543,0.29336816957387063,0.27768482436765396,0.22277874181123264,0.184834665313024,0.16692854866113396,0.14916746431283082,0.13152714011281832,0.11412633570784325,0.09994567473780674,0.08287895272137291,0.06868161130480721,0.054357882053471904,0.04284607025431456,0.036843936571784454,0.027305827254539436,0.02583510721552179,0.01976068731731823,0.013830839850461572,0.008779701745123096,0.003877430154085362,0.002406710115067718,0.001203355057533859,0.0,,1.0,0.0,1.0,0.0,1.0,0.8421052631578947,1.0,0.8421052631578947,1.0,0.7272727272727273,1.0,0.7272727272727273,1.0,0.7272727272727273,1.0,0.6666666666666666,0.8333333333333334,0.6956521739130435,1.0,0.7272727272727273,1.0,0.7272727272727273,1.0,0.0,1.0,0.0,1.0,0.0,1.0,0.0,1.0,0.0,1.0,0.0,1.0,0.0,1.0,0.0,1.0,0.0,1.0,0.0,1.0,0.0,1.0,0.0,1.0,0.0,1.0,0.0,1.0,0.0,1.0,0.0,1.0,0.0,1.0,0.0,1.0,0.0,1.0,0.0,1.0,0.0,1.0,0.0,1.0,0.0,1.0,0.0,1.0,0.0,1.0,0.0,1.0,0.0,1.0,0.0,1.0,0.0,1.0,0.0,1.0,0.0,1.0,0.0,1.0,0.0,1.0,0.0,1.0,0.0,1.0,0.0,1.0,0.0,1.0,0.0,1.0,0.0,,0.0,0.0,0.0,0.0,0.0,1.0,0.0,1.0,0.0,1.0,0.0,1.0,0.0,1.0,0.1111111111111111,1.0,0.5555555555555556,1.0,0.3333333333333333,1.0,0.0,1.0,0.0,1.0,0.3333333333333333,1.0,0.3333333333333333,1.0,0.3333333333333333,1.0,0.6666666666666666,1.0,0.0,1.0,0.0,1.0,0.0,1.0,0.0,1.0,0.0,1.0,0.0,1.0,0.0,1.0,0.0,1.0,0.0,1.0,0.0,1.0,0.5,1.0,0.5,1.0,1.0,1.0,1.0,1.0,1.0,1.0,1.0,1.0,1.0,1.0,1.0,1.0,1.0,1.0,1.0,1.0,1.0,1.0,1.0,1.0,1.0,1.0,1.0,1.0,1.0,1.0,1.0,1.0,1.0,1.0,1.0,1.0,1.0,1.0,1.0,1.0,1.0,1.0,1.0,1.0,1.0,1.0,1.0,1.0,,0,49,48,47,46,1,45,17,44,43,12,11,26,24,13,29,19,25,41,33,36,21,42,10,32,18,31,3,37,20,38,39,28,35,7,14,9,6,40,5,8,15,34,23,2,16,22,27,30,4
0.01,0.8,0.5,40,60,0.01,5,RandomMV,36,46,0.4,0.41200000000000003,0.43200000000000005,0.44400000000000006,0.45600000000000007,0.46399999999999997,0.46799999999999997,0.476,0.488,0.5,0.516,0.532,0.54,0.556,0.5640000000000001,0.58,0.588,0.608,0.62,0.628,0.648,0.66,0.672,0.684,0.692,0.7080000000000001,0.728,0.74,0.7559999999999999,0.768,0.772,0.776,0.788,0.808,0.8160000000000001,0.828,0.844,0.8560000000000001,0.868,0.8800000000000001,0.8880000000000001,0.8960000000000001,0.9,0.9199999999999999,0.9279999999999999,0.9359999999999999,0.952,0.9640000000000001,0.968,0.9879999999999999,1.0,,28.218963650230428,27.636348302891765,26.987166064719514,26.433740210954692,25.901539191992242,25.39107836450554,24.9271247404864,24.33621494260861,23.752268181478524,23.222616961818865,22.617997650009716,22.036866411443054,21.477831540756053,20.850322291733306,20.309956073285097,19.69947465758248,19.124469957665337,18.481634581367032,17.976434956849953,17.44559178787261,16.811890795978155,16.22448912650279,15.705320206142636,15.135766882545102,14.626652887951996,14.004733189196298,13.344097025631289,12.755932301032761,12.125739437540727,11.553090984346868,11.033391310944735,10.515991713772788,10.02020657508646,9.453987572220244,8.872224528626456,8.34319611764594,7.749167777161754,7.201380129680929,6.606519110840483,6.009450421075426,5.4747856229585725,4.947080883059078,4.489681479531894,3.871403098849843,3.3433708741464754,2.795051814591685,2.2581928038168977,1.647520328267376,1.1899328087718455,0.6035523106840579,0.0,,-1.0,-1.0,-1.0,-1.0,-1.0,-1.0,-1.0,-1.0,-1.0,-1.0,-1.0,-1.0,-1.0,-1.0,-1.0,-1.0,-1.0,-1.0,-1.0,-1.0,-1.0,-1.0,-1.0,-1.0,-1.0,-1.0,-1.0,-1.0,-1.0,-1.0,-1.0,-1.0,-1.0,-1.0,-1.0,-1.0,-1.0,-1.0,-1.0,-1.0,-1.0,-1.0,-1.0,-1.0,-1.0,-1.0,-1.0,-1.0,-1.0,-1.0,,-1.0,-1.0,-1.0,-1.0,-1.0,-1.0,-1.0,-1.0,-1.0,-1.0,-1.0,-1.0,-1.0,-1.0,-1.0,-1.0,-1.0,-1.0,-1.0,-1.0,-1.0,-1.0,-1.0,-1.0,-1.0,-1.0,-1.0,-1.0,-1.0,-1.0,-1.0,-1.0,-1.0,-1.0,-1.0,-1.0,-1.0,-1.0,-1.0,-1.0,-1.0,-1.0,-1.0,-1.0,-1.0,-1.0,-1.0,-1.0,-1.0,-1.0,,-1,-1,-1,-1,-1,-1,-1,-1,-1,-1,-1,-1,-1,-1,-1,-1,-1,-1,-1,-1,-1,-1,-1,-1,-1,-1,-1,-1,-1,-1,-1,-1,-1,-1,-1,-1,-1,-1,-1,-1,-1,-1,-1,-1,-1,-1,-1,-1,-1,-1
0.01,0.8,0.5,40,60,0.01,5,CombinedEMSequence,11,66511,0.4,0.42,0.44,0.46,0.46,0.48,0.5,0.5,0.52,0.52,0.54,0.98,0.98,1.0,1.0,1.0,1.0,1.0,1.0,1.0,1.0,1.0,1.0,1.0,1.0,1.0,1.0,1.0,1.0,1.0,1.0,1.0,1.0,1.0,1.0,1.0,1.0,1.0,1.0,1.0,1.0,1.0,1.0,1.0,1.0,1.0,1.0,1.0,1.0,1.0,1.0,,0.0,0.0,0.0,0.0,0.0,0.0,0.0,0.0,0.0,0.0,0.0,3.632822714611299,2.922173525425557,2.383727590809179,1.8798882482752748,1.8781561137243359,1.8446265725161657,1.345731374325265,0.918301438634207,0.6206627224241257,0.36480819318588587,0.32649451396557877,0.3263693847609293,0.17011293082128864,0.14039505544922332,0.11904965813597818,0.10235289763277423,0.08465611546885479,0.07103592755444707,0.06974269911083716,0.05617995025391495,0.05419160766973674,0.04195797967097648,0.03309316091914496,0.026874983777575696,0.021288109432376884,0.019470115051217415,0.014717230566923298,0.010954081129988306,0.008220607709496593,0.007107960438579481,0.006464692278871003,0.005352045007953889,0.005226915803304399,0.004298506773538809,0.003463831259760945,0.0026291557459830815,0.0017944802322052177,9.598047184273539E-4,1.2512920464949012E-4,0.0,,1.0,0.0,1.0,0.0,1.0,0.8888888888888888,1.0,0.8888888888888888,1.0,0.9411764705882353,1.0,0.8421052631578947,1.0,0.8421052631578947,1.0,0.8,1.0,0.8,1.0,0.8,1.0,0.8,1.0,0.0,1.0,0.0,1.0,0.0,1.0,0.0,1.0,0.0,1.0,0.0,1.0,0.0,1.0,0.0,1.0,0.0,1.0,0.0,1.0,0.0,1.0,0.0,1.0,0.0,1.0,0.0,1.0,0.0,1.0,0.0,1.0,0.0,1.0,0.0,1.0,0.0,1.0,0.0,1.0,0.0,1.0,0.0,1.0,0.0,1.0,0.0,1.0,0.0,1.0,0.0,1.0,0.0,1.0,0.0,1.0,0.0,1.0,0.0,1.0,0.0,1.0,0.0,1.0,0.0,1.0,0.0,1.0,0.0,1.0,0.0,1.0,0.0,1.0,0.0,1.0,0.0,,0.0,0.0,0.0,0.0,0.0,1.0,0.0,1.0,0.0,1.0,0.0,1.0,0.0,1.0,0.07142857142857142,1.0,0.07142857142857142,1.0,0.07142857142857142,1.0,0.07142857142857142,1.0,0.0,1.0,0.0,1.0,0.0,1.0,0.0,1.0,0.0,1.0,0.14285714285714285,1.0,0.14285714285714285,1.0,0.14285714285714285,1.0,0.14285714285714285,1.0,0.0,1.0,0.14285714285714285,1.0,0.2857142857142857,1.0,0.14285714285714285,1.0,0.2857142857142857,1.0,0.2857142857142857,1.0,0.0,1.0,0.0,1.0,0.0,1.0,0.2,1.0,0.0,1.0,0.0,1.0,0.0,1.0,0.0,1.0,0.2,1.0,0.0,1.0,0.0,1.0,0.0,1.0,0.2,1.0,0.2,1.0,0.2,1.0,0.0,1.0,0.0,1.0,0.0,1.0,0.0,1.0,0.0,1.0,0.0,1.0,0.25,1.0,0.25,1.0,0.0,1.0,,0,49,48,47,46,1,45,38,44,43,25,22,37,6,39,12,16,8,31,42,33,17,24,23,29,35,9,21,32,4,26,10,11,19,7,36,18,13,5,20,34,15,2,41,27,40,30,14,3,28
0.01,0.8,0.5,40,60,0.01,6,RandomMV,36,36,0.42000000000000004,0.44000000000000006,0.44800000000000006,0.45599999999999996,0.46399999999999997,0.476,0.492,0.5,0.516,0.532,0.548,0.5640000000000001,0.576,0.596,0.608,0.62,0.64,0.652,0.668,0.68,0.692,0.6960000000000001,0.712,0.7280000000000001,0.7360000000000001,0.74,0.7479999999999999,0.76,0.772,0.784,0.8,0.8160000000000001,0.8240000000000001,0.836,0.8480000000000001,0.852,0.8560000000000001,0.868,0.876,0.8879999999999999,0.8959999999999999,0.908,0.9199999999999999,0.932,0.944,0.96,0.968,0.9719999999999999,0.976,0.9879999999999999,1.0,,27.506782505655032,26.87808788529057,26.292964774790164,25.7661923448449,25.221268304952908,24.680176191835514,24.10554869923464,23.590224216150073,23.041269012168094,22.498900904252856,21.938188863199994,21.3065217099687,20.739050559735304,20.127201629380895,19.547642929579954,18.992826767376446,18.380977837022037,17.79335318737489,17.240112217735437,16.662554486672523,16.129710348957154,15.711492034666794,15.128042256338494,14.518386617913013,14.035793693763807,13.53822873677098,13.029302858146224,12.429450999055492,11.892784311471608,11.355008966556175,10.775419420887403,10.187679307211777,9.68093905250856,9.08340980532628,8.559155386411112,8.115272339194343,7.619423560743188,7.0611627333470635,6.579215250740445,6.044550452623592,5.499277740242121,4.967312015720749,4.4060664031896,3.837964699700957,3.256492453409758,2.667687499140668,2.095953161189506,1.5811538491196049,1.0751804023921214,0.5259705968426565,0.0,,-1.0,-1.0,-1.0,-1.0,-1.0,-1.0,-1.0,-1.0,-1.0,-1.0,-1.0,-1.0,-1.0,-1.0,-1.0,-1.0,-1.0,-1.0,-1.0,-1.0,-1.0,-1.0,-1.0,-1.0,-1.0,-1.0,-1.0,-1.0,-1.0,-1.0,-1.0,-1.0,-1.0,-1.0,-1.0,-1.0,-1.0,-1.0,-1.0,-1.0,-1.0,-1.0,-1.0,-1.0,-1.0,-1.0,-1.0,-1.0,-1.0,-1.0,,-1.0,-1.0,-1.0,-1.0,-1.0,-1.0,-1.0,-1.0,-1.0,-1.0,-1.0,-1.0,-1.0,-1.0,-1.0,-1.0,-1.0,-1.0,-1.0,-1.0,-1.0,-1.0,-1.0,-1.0,-1.0,-1.0,-1.0,-1.0,-1.0,-1.0,-1.0,-1.0,-1.0,-1.0,-1.0,-1.0,-1.0,-1.0,-1.0,-1.0,-1.0,-1.0,-1.0,-1.0,-1.0,-1.0,-1.0,-1.0,-1.0,-1.0,,-1,-1,-1,-1,-1,-1,-1,-1,-1,-1,-1,-1,-1,-1,-1,-1,-1,-1,-1,-1,-1,-1,-1,-1,-1,-1,-1,-1,-1,-1,-1,-1,-1,-1,-1,-1,-1,-1,-1,-1,-1,-1,-1,-1,-1,-1,-1,-1,-1,-1
0.01,0.8,0.5,40,60,0.01,6,CombinedEMSequence,9,63063,0.42,0.44,0.46,0.48,0.48,0.5,0.52,0.52,0.52,0.52,0.54,0.96,0.96,0.96,0.96,0.96,0.96,0.98,0.98,0.98,0.98,0.98,0.98,0.98,0.98,1.0,1.0,1.0,1.0,1.0,1.0,1.0,1.0,1.0,1.0,1.0,1.0,1.0,1.0,1.0,1.0,1.0,1.0,1.0,1.0,1.0,1.0,1.0,1.0,1.0,1.0,,0.0,0.0,0.0,0.0,0.0,0.0,0.0,0.0,0.0,0.0,0.0,5.507359716052058,5.117765159851071,4.231149144094468,3.4824945750332503,3.333091414136563,3.0832941106701157,2.881440580687183,2.0597380867272794,1.4943940926153212,0.9837442733057495,0.9212500146241513,0.9203612387496565,0.78443366126169,0.6733381227462831,0.6900929471331398,0.5530263826945189,0.45715935892628184,0.3807087472397875,0.36483797850179694,0.2963475590942316,0.23895275148319126,0.17371237565613384,0.132883161605575,0.1031906309525132,0.0890640099797642,0.0751279230487434,0.06380303976633164,0.05266700232420877,0.0420025233815671,0.03361235652101873,0.0292475359361793,0.02031160205049299,0.013735964377761195,0.006594743250546496,0.004776748869387028,0.0029587544882275596,0.0022190658661706696,0.0014793772441137798,7.396886220568899E-4,0.0,,1.0,0.0,1.0,0.0,1.0,0.8888888888888888,1.0,0.7272727272727273,1.0,0.7619047619047619,1.0,0.8888888888888888,1.0,0.8888888888888888,0.6666666666666666,0.8,0.9545454545454546,0.8421052631578947,1.0,0.9411764705882353,0.8571428571428571,0.9411764705882353,1.0,0.0,1.0,0.0,1.0,0.0,1.0,0.0,1.0,0.0,1.0,0.0,1.0,0.0,1.0,0.0,1.0,0.0,1.0,0.0,1.0,0.0,1.0,0.0,1.0,0.0,1.0,0.0,1.0,0.0,1.0,0.0,1.0,0.0,1.0,0.0,1.0,0.0,1.0,0.0,1.0,0.0,1.0,0.0,1.0,0.0,1.0,0.0,1.0,0.0,1.0,0.0,1.0,0.0,1.0,0.0,1.0,0.0,1.0,0.0,1.0,0.0,1.0,0.0,1.0,0.0,1.0,0.0,1.0,0.0,1.0,0.0,1.0,0.0,1.0,0.0,1.0,0.0,,0.0,0.0,0.0,0.0,0.0,1.0,0.0,1.0,0.0,1.0,0.0,1.0,0.0,1.0,0.07142857142857142,1.0,0.75,1.0,0.10714285714285714,1.0,0.21428571428571427,1.0,0.0,1.0,0.0,1.0,0.0,1.0,0.2,1.0,0.2,1.0,0.0,1.0,0.0,1.0,0.0,1.0,0.0,1.0,0.0,1.0,0.0,1.0,0.0,1.0,0.0,1.0,0.25,1.0,0.0,1.0,0.5,1.0,0.0,1.0,0.5,1.0,0.25,1.0,0.25,1.0,0.0,1.0,0.3333333333333333,1.0,0.0,1.0,0.3333333333333333,1.0,0.0,1.0,0.3333333333333333,1.0,0.3333333333333333,1.0,0.3333333333333333,1.0,0.3333333333333333,1.0,0.3333333333333333,1.0,0.0,1.0,0.0,1.0,0.0,1.0,0.0,1.0,0.0,1.0,0.0,1.0,0.0,1.0,0.0,1.0,0.0,1.0,,0,49,48,47,46,1,45,23,44,43,30,26,22,33,5,27,8,39,14,25,13,31,9,15,32,11,24,35,21,18,29,28,6,16,4,40,41,34,20,12,38,3,10,37,42,19,36,17,7,2
0.01,0.8,0.5,40,60,0.01,7,RandomMV,36,40,0.44000000000000006,0.44800000000000006,0.46399999999999997,0.476,0.488,0.5,0.508,0.516,0.532,0.536,0.548,0.56,0.5640000000000001,0.584,0.596,0.612,0.624,0.636,0.6519999999999999,0.6599999999999999,0.6719999999999999,0.6839999999999999,0.7000000000000001,0.708,0.716,0.724,0.736,0.752,0.764,0.78,0.792,0.796,0.8039999999999999,0.8160000000000001,0.8320000000000001,0.844,0.8480000000000001,0.86,0.876,0.876,0.884,0.9,0.9119999999999999,0.924,0.9359999999999999,0.944,0.952,0.96,0.976,0.9800000000000001,1.0,,28.14033590378714,27.58229948139574,26.993406726800924,26.455822742085957,25.872557618941165,25.287559754800213,24.73605726248113,24.219544074310996,23.606857379223094,23.108519299668394,22.58649609362881,22.008435636955443,21.528198200289474,20.901328581074498,20.378234039646287,19.804154511846967,19.248307047120967,18.693478409693846,18.08141370121452,17.517870317009766,16.93390876961502,16.374325272365155,15.752600032127456,15.217690444991394,14.65777946293765,14.048598760925078,13.530304444561747,12.888225240759311,12.315161484202768,11.678621758836789,11.14824062617234,10.64650767859156,10.114142642323142,9.524329035010599,8.908803606451173,8.336118447522944,7.807658549576738,7.255347003064896,6.635842328007686,6.216017199757563,5.6504047973724685,5.072665238240288,4.527301512761682,3.962356369366207,3.4245064763293946,2.854563566935833,2.3128041948288134,1.787984089353253,1.1605713242673565,0.6239046366834728,0.0,,-1.0,-1.0,-1.0,-1.0,-1.0,-1.0,-1.0,-1.0,-1.0,-1.0,-1.0,-1.0,-1.0,-1.0,-1.0,-1.0,-1.0,-1.0,-1.0,-1.0,-1.0,-1.0,-1.0,-1.0,-1.0,-1.0,-1.0,-1.0,-1.0,-1.0,-1.0,-1.0,-1.0,-1.0,-1.0,-1.0,-1.0,-1.0,-1.0,-1.0,-1.0,-1.0,-1.0,-1.0,-1.0,-1.0,-1.0,-1.0,-1.0,-1.0,,-1.0,-1.0,-1.0,-1.0,-1.0,-1.0,-1.0,-1.0,-1.0,-1.0,-1.0,-1.0,-1.0,-1.0,-1.0,-1.0,-1.0,-1.0,-1.0,-1.0,-1.0,-1.0,-1.0,-1.0,-1.0,-1.0,-1.0,-1.0,-1.0,-1.0,-1.0,-1.0,-1.0,-1.0,-1.0,-1.0,-1.0,-1.0,-1.0,-1.0,-1.0,-1.0,-1.0,-1.0,-1.0,-1.0,-1.0,-1.0,-1.0,-1.0,,-1,-1,-1,-1,-1,-1,-1,-1,-1,-1,-1,-1,-1,-1,-1,-1,-1,-1,-1,-1,-1,-1,-1,-1,-1,-1,-1,-1,-1,-1,-1,-1,-1,-1,-1,-1,-1,-1,-1,-1,-1,-1,-1,-1,-1,-1,-1,-1,-1,-1
0.01,0.8,0.5,40,60,0.01,7,CombinedEMSequence,8,56020,0.44,0.44,0.44,0.44,0.44,0.44,0.46,0.48,0.5,0.52,0.52,0.96,0.98,0.98,0.98,0.98,0.98,0.98,0.98,0.98,0.98,0.98,0.98,0.98,0.98,1.0,1.0,1.0,1.0,1.0,1.0,1.0,1.0,1.0,1.0,1.0,1.0,1.0,1.0,1.0,1.0,1.0,1.0,1.0,1.0,1.0,1.0,1.0,1.0,1.0,1.0,,0.0,0.0,0.0,0.0,0.0,0.0,0.0,0.0,0.0,0.0,0.0,4.345658269592005,3.4137529526978025,2.9949608371780108,2.587687448830941,2.582942545480193,2.3006930327681063,1.9595252448274794,1.6096496948484709,1.3112750625367962,1.068122543475117,1.0435103832435533,0.9952908198839913,0.7560812171576287,0.5711663912386767,0.591197177651854,0.35772021351637845,0.3182470780223273,0.28485932677200293,0.282565291647008,0.250868370054045,0.22794584652079158,0.19756756460745695,0.17571815060200885,0.15415278986013664,0.13210483189102068,0.11607818066295306,0.09479308740623986,0.07913305376190195,0.06395651161460333,0.0490271541441974,0.03771272603529212,0.023158233889541347,0.012101250338409846,0.010028460277630089,0.007955670216850333,0.006484950177832689,0.004412160117052932,0.002941440078035288,0.001470720039017644,0.0,,1.0,0.0,1.0,0.0,1.0,0.0,1.0,0.0,1.0,0.0,1.0,0.0,1.0,0.6956521739130435,0.75,0.7272727272727273,0.8333333333333334,0.8,0.8333333333333334,0.8,0.8333333333333334,0.8,1.0,0.0,1.0,0.0,1.0,0.0,1.0,0.0,1.0,0.0,1.0,0.0,1.0,0.0,1.0,0.0,1.0,0.0,1.0,0.0,1.0,0.0,1.0,0.0,1.0,0.0,1.0,0.0,1.0,0.0,1.0,0.0,1.0,0.0,1.0,0.0,1.0,0.0,1.0,0.0,1.0,0.0,1.0,0.0,1.0,0.0,1.0,0.0,1.0,0.0,1.0,0.0,1.0,0.0,1.0,0.0,1.0,0.0,1.0,0.0,1.0,0.0,1.0,0.0,1.0,0.0,1.0,0.0,1.0,0.0,1.0,0.0,1.0,0.0,1.0,0.0,1.0,0.0,,0.0,0.0,0.0,0.0,0.0,0.0,0.0,0.0,0.0,0.0,0.0,0.0,0.0,1.0,0.10714285714285714,1.0,0.17857142857142858,1.0,0.17857142857142858,1.0,0.17857142857142858,1.0,0.0,1.0,0.0,1.0,0.0,1.0,0.0,1.0,0.0,1.0,0.0,1.0,0.0,1.0,0.0,1.0,0.25,1.0,0.25,1.0,0.0,1.0,0.0,1.0,0.0,1.0,0.0,1.0,0.0,1.0,0.0,1.0,0.0,1.0,0.0,1.0,0.0,1.0,0.0,1.0,0.0,1.0,0.0,1.0,0.0,1.0,0.0,1.0,0.0,1.0,0.0,1.0,0.0,1.0,0.0,1.0,0.0,1.0,0.0,1.0,0.0,1.0,0.0,1.0,0.3333333333333333,1.0,0.3333333333333333,1.0,0.3333333333333333,1.0,0.0,1.0,0.0,1.0,0.0,1.0,0.0,1.0,,0,49,48,47,46,1,45,26,44,43,19,7,6,18,41,33,12,15,42,24,8,37,27,28,36,11,14,22,4,20,17,25,35,29,3,39,5,21,38,9,10,2,31,40,30,13,16,34,32,23
0.01,0.8,0.5,40,60,0.01,8,RandomMV,36,40,0.4,0.41200000000000003,0.42000000000000004,0.42400000000000004,0.43600000000000005,0.44400000000000006,0.45599999999999996,0.476,0.492,0.504,0.516,0.528,0.544,0.548,0.56,0.5720000000000001,0.58,0.592,0.608,0.624,0.636,0.648,0.656,0.66,0.668,0.68,0.6880000000000001,0.7080000000000001,0.72,0.732,0.74,0.756,0.764,0.784,0.796,0.8039999999999999,0.8160000000000001,0.8240000000000001,0.836,0.844,0.8640000000000001,0.8800000000000001,0.8960000000000001,0.908,0.9199999999999999,0.9279999999999999,0.9399999999999998,0.96,0.9719999999999999,0.984,1.0,,28.798099079004402,28.220832145244078,27.731142511163426,27.169221498682578,26.550513919154685,25.999104858304747,25.40476209635447,24.750221191724318,24.164235176922833,23.552386246568425,23.02184078476514,22.47205216854629,21.864187390802762,21.315005375065034,20.70734062821197,20.122999118705728,19.587419055894063,19.033906533147867,18.395709237600116,17.78450534997663,17.20542592085213,16.61643668232046,16.077545856939814,15.529351822633123,14.974372047779449,14.440910468555014,13.938829607724808,13.315653001037617,12.77145034112164,12.177612483843607,11.652830474414458,11.063841235882792,10.538870581094844,9.889487950925126,9.33215670847,8.830465433435817,8.260619007979107,7.70401861926486,7.132195116504799,6.563550779848785,5.9405574346634165,5.315969507565884,4.698673248448339,4.126849745688278,3.5657532471405644,3.0197833506306417,2.435472370867921,1.7825816122957796,1.2164574226111473,0.6210388789041033,0.0,,-1.0,-1.0,-1.0,-1.0,-1.0,-1.0,-1.0,-1.0,-1.0,-1.0,-1.0,-1.0,-1.0,-1.0,-1.0,-1.0,-1.0,-1.0,-1.0,-1.0,-1.0,-1.0,-1.0,-1.0,-1.0,-1.0,-1.0,-1.0,-1.0,-1.0,-1.0,-1.0,-1.0,-1.0,-1.0,-1.0,-1.0,-1.0,-1.0,-1.0,-1.0,-1.0,-1.0,-1.0,-1.0,-1.0,-1.0,-1.0,-1.0,-1.0,,-1.0,-1.0,-1.0,-1.0,-1.0,-1.0,-1.0,-1.0,-1.0,-1.0,-1.0,-1.0,-1.0,-1.0,-1.0,-1.0,-1.0,-1.0,-1.0,-1.0,-1.0,-1.0,-1.0,-1.0,-1.0,-1.0,-1.0,-1.0,-1.0,-1.0,-1.0,-1.0,-1.0,-1.0,-1.0,-1.0,-1.0,-1.0,-1.0,-1.0,-1.0,-1.0,-1.0,-1.0,-1.0,-1.0,-1.0,-1.0,-1.0,-1.0,,-1,-1,-1,-1,-1,-1,-1,-1,-1,-1,-1,-1,-1,-1,-1,-1,-1,-1,-1,-1,-1,-1,-1,-1,-1,-1,-1,-1,-1,-1,-1,-1,-1,-1,-1,-1,-1,-1,-1,-1,-1,-1,-1,-1,-1,-1,-1,-1,-1,-1
0.01,0.8,0.5,40,60,0.01,8,CombinedEMSequence,9,71988,0.4,0.42,0.42,0.42,0.44,0.46,0.48,0.48,0.5,0.52,0.52,1.0,1.0,1.0,1.0,1.0,1.0,1.0,1.0,1.0,1.0,1.0,1.0,1.0,1.0,1.0,1.0,1.0,1.0,1.0,1.0,1.0,1.0,1.0,1.0,1.0,1.0,1.0,1.0,1.0,1.0,1.0,1.0,1.0,1.0,1.0,1.0,1.0,1.0,1.0,1.0,,0.0,0.0,0.0,0.0,0.0,0.0,0.0,0.0,0.0,0.0,0.0,3.4972749104405776,2.8416657271327006,2.2143960388406767,1.7418850484622246,1.6270318946912519,1.463215582155361,1.0374800141855747,0.8720049988269124,0.7418306851558112,0.6470500951385703,0.741411503730616,0.6344669846961893,0.5058965156407219,0.4198052530960552,0.3394757819746607,0.29612653035883785,0.24029273694363382,0.18851061118711043,0.1864570242438948,0.15452892965414627,0.1540838652100029,0.13125340916425382,0.11301986130778448,0.09691122174078617,0.08120424416378662,0.07673585310826758,0.06317541370347167,0.053224443079138976,0.04388744217213594,0.0354365721385714,0.026880408705935672,0.020662231564366407,0.01910379048621221,0.013216201430052176,0.00838853561855918,0.0056762984512663366,0.004030761841529854,0.002385225231793372,7.396886220568899E-4,0.0,,1.0,0.0,1.0,0.0,1.0,0.0,1.0,0.8,1.0,0.8421052631578947,1.0,0.8421052631578947,1.0,0.8421052631578947,1.0,0.8421052631578947,1.0,0.8421052631578947,1.0,0.8421052631578947,1.0,0.8421052631578947,1.0,0.0,1.0,0.0,1.0,0.0,1.0,0.0,1.0,0.0,1.0,0.0,1.0,0.0,1.0,0.0,1.0,0.0,1.0,0.0,1.0,0.0,1.0,0.0,1.0,0.0,1.0,0.0,1.0,0.0,1.0,0.0,1.0,0.0,1.0,0.0,1.0,0.0,1.0,0.0,1.0,0.0,1.0,0.0,1.0,0.0,1.0,0.0,1.0,0.0,1.0,0.0,1.0,0.0,1.0,0.0,1.0,0.0,1.0,0.0,1.0,0.0,1.0,0.0,1.0,0.0,1.0,0.0,1.0,0.0,1.0,0.0,1.0,0.0,1.0,0.0,1.0,0.0,,0.0,0.0,0.0,0.0,0.0,0.0,0.0,1.0,0.0,1.0,0.0,1.0,0.0,1.0,0.037037037037037035,1.0,0.037037037037037035,1.0,0.0,1.0,0.037037037037037035,1.0,0.0,1.0,0.125,1.0,0.125,1.0,0.125,1.0,0.0,1.0,0.125,1.0,0.375,1.0,0.25,1.0,0.25,1.0,0.25,1.0,0.16666666666666666,1.0,0.16666666666666666,1.0,0.0,1.0,0.0,1.0,0.0,1.0,0.0,1.0,0.0,1.0,0.0,1.0,0.16666666666666666,1.0,0.0,1.0,0.5,1.0,0.3333333333333333,1.0,0.5,1.0,0.3333333333333333,1.0,0.5,1.0,0.0,1.0,0.3333333333333333,1.0,0.0,1.0,0.0,1.0,0.3333333333333333,1.0,0.0,1.0,0.0,1.0,0.0,1.0,0.5,1.0,0.5,1.0,0.0,1.0,0.0,1.0,0.0,1.0,0.0,1.0,,0,49,48,47,46,1,45,12,44,43,22,31,27,25,40,6,9,36,24,42,8,14,10,13,18,20,3,11,41,19,39,26,37,34,29,33,17,35,5,28,15,23,32,21,30,4,38,7,2,16
0.01,0.8,0.5,40,60,0.01,9,RandomMV,36,43,0.4,0.41200000000000003,0.41200000000000003,0.42000000000000004,0.42400000000000004,0.43600000000000005,0.45599999999999996,0.472,0.484,0.496,0.512,0.528,0.544,0.552,0.5680000000000001,0.584,0.592,0.608,0.62,0.632,0.64,0.656,0.668,0.6839999999999999,0.692,0.704,0.708,0.724,0.7399999999999999,0.748,0.7600000000000001,0.772,0.792,0.808,0.8160000000000001,0.828,0.836,0.8480000000000001,0.8560000000000001,0.868,0.876,0.8880000000000001,0.9,0.908,0.9279999999999999,0.944,0.952,0.9640000000000001,0.9800000000000001,0.984,1.0,,28.0008892017541,27.42592540028006,27.014326360024903,26.511924002649778,25.99340892501262,25.419650119654722,24.788762207361327,24.27403883372485,23.696533765976802,23.162193520460953,22.550176220303957,21.958232929424547,21.359604401816796,20.801374420288504,20.195729635875903,19.611556285668087,19.104384436571614,18.479376871847865,17.902157515639356,17.325269179507348,16.802168162004044,16.222469802327065,15.72525351782372,15.217825737174275,14.6715167080466,14.078545282308099,13.568560981567739,12.946162012135606,12.37275930339095,11.840612349804035,11.27356083719686,10.665108165180568,10.072775288505138,9.520785384549537,8.996621549895881,8.447818131172282,7.9437568288743865,7.407432808146997,6.961553361882051,6.38252302168737,5.810088821015427,5.226251779680774,4.637924859527943,4.080814523498914,3.4210822462489388,2.8268710032146176,2.303044091042126,1.7192822140374062,1.128372416159618,0.6223989694321348,0.0,,-1.0,-1.0,-1.0,-1.0,-1.0,-1.0,-1.0,-1.0,-1.0,-1.0,-1.0,-1.0,-1.0,-1.0,-1.0,-1.0,-1.0,-1.0,-1.0,-1.0,-1.0,-1.0,-1.0,-1.0,-1.0,-1.0,-1.0,-1.0,-1.0,-1.0,-1.0,-1.0,-1.0,-1.0,-1.0,-1.0,-1.0,-1.0,-1.0,-1.0,-1.0,-1.0,-1.0,-1.0,-1.0,-1.0,-1.0,-1.0,-1.0,-1.0,,-1.0,-1.0,-1.0,-1.0,-1.0,-1.0,-1.0,-1.0,-1.0,-1.0,-1.0,-1.0,-1.0,-1.0,-1.0,-1.0,-1.0,-1.0,-1.0,-1.0,-1.0,-1.0,-1.0,-1.0,-1.0,-1.0,-1.0,-1.0,-1.0,-1.0,-1.0,-1.0,-1.0,-1.0,-1.0,-1.0,-1.0,-1.0,-1.0,-1.0,-1.0,-1.0,-1.0,-1.0,-1.0,-1.0,-1.0,-1.0,-1.0,-1.0,,-1,-1,-1,-1,-1,-1,-1,-1,-1,-1,-1,-1,-1,-1,-1,-1,-1,-1,-1,-1,-1,-1,-1,-1,-1,-1,-1,-1,-1,-1,-1,-1,-1,-1,-1,-1,-1,-1,-1,-1,-1,-1,-1,-1,-1,-1,-1,-1,-1,-1
0.01,0.8,0.5,40,60,0.01,9,CombinedEMSequence,6,58685,0.4,0.42,0.44,0.46,0.46,0.48,0.5,0.52,0.54,0.54,0.56,0.96,0.98,0.98,0.98,1.0,1.0,1.0,1.0,1.0,1.0,1.0,1.0,1.0,1.0,1.0,1.0,1.0,1.0,1.0,1.0,1.0,1.0,1.0,1.0,1.0,1.0,1.0,1.0,1.0,1.0,1.0,1.0,1.0,1.0,1.0,1.0,1.0,1.0,1.0,1.0,,0.0,0.0,0.0,0.0,0.0,0.0,0.0,0.0,0.0,0.0,0.0,6.779127744194365,6.269052483020372,5.563030388677049,4.689099829167579,3.9228289742563804,3.4762194386698653,2.93881765718054,2.1543036889515004,1.5746622962370735,1.156147130198454,1.0877297189997976,1.0527540765102168,0.877927954667579,0.7116893430584263,0.568109417440543,0.5381729987292844,0.46246986989336164,0.3891709169071834,0.3869251152986332,0.3182048379388483,0.2953787690854401,0.23964047108475908,0.19430931262322143,0.15066857859802107,0.1252249114181772,0.38288183769443623,0.2885714969677809,0.20531540307588025,0.16191719740196991,0.12044586849418054,0.24323854957650287,0.2123617518520742,0.18240134148238457,0.1530962892524207,0.12421717349240266,0.10294548922477448,0.07489175009721923,0.047383630784323505,0.020364846344000622,0.0,,1.0,0.0,1.0,0.0,1.0,0.9411764705882353,1.0,0.8421052631578947,1.0,0.7619047619047619,1.0,0.9411764705882353,1.0,0.8421052631578947,1.0,0.7272727272727273,1.0,0.8,1.0,0.8421052631578947,1.0,0.7272727272727273,1.0,0.0,1.0,0.0,1.0,0.0,1.0,0.0,1.0,0.0,1.0,0.0,1.0,0.0,1.0,0.0,1.0,0.0,1.0,0.0,1.0,0.0,1.0,0.0,1.0,0.0,1.0,0.0,1.0,0.0,1.0,0.0,1.0,0.0,1.0,0.0,0.0,0.0,1.0,0.0,0.5,0.0,1.0,0.0,0.5,0.0,1.0,0.0,0.5,0.0,1.0,0.0,1.0,0.0,1.0,0.0,1.0,0.0,1.0,0.0,1.0,0.0,1.0,0.0,1.0,0.0,1.0,0.0,1.0,0.0,1.0,0.0,1.0,0.0,1.0,0.0,1.0,0.0,,0.0,0.0,0.0,0.0,0.0,1.0,0.0,1.0,0.0,1.0,0.0,1.0,0.0,1.0,0.07407407407407407,1.0,0.07407407407407407,1.0,0.07407407407407407,1.0,0.07407407407407407,1.0,0.0,1.0,0.0,1.0,0.0,1.0,0.0,1.0,0.0,1.0,0.2,1.0,0.2,1.0,0.2,1.0,0.4,1.0,0.4,1.0,0.0,1.0,0.0,1.0,0.0,1.0,0.0,1.0,0.3333333333333333,1.0,0.5,1.0,0.0,1.0,0.0,1.0,0.0,1.0,0.0,1.0,0.5,1.0,0.0,1.0,0.5,1.0,0.5,1.0,0.5,1.0,0.0,1.0,0.0,1.0,1.0,1.0,0.0,1.0,1.0,1.0,1.0,1.0,1.0,1.0,1.0,1.0,1.0,1.0,1.0,1.0,1.0,1.0,1.0,1.0,1.0,1.0,1.0,1.0,,0,49,48,47,46,1,45,13,44,43,24,39,11,8,33,29,3,9,26,27,15,42,16,25,22,10,18,6,21,28,19,38,34,12,32,35,17,37,40,30,4,41,36,31,23,20,7,5,2,14
