0.2,1,7,0,IGEMRandomRemoveSequence,0.72
0.2,1,7,1,IGEMRandomRemoveSequence,0.86
0.2,1,7,2,IGEMRandomRemoveSequence,0.76
0.2,1,7,3,IGEMRandomRemoveSequence,0.78
0.2,1,7,4,IGEMRandomRemoveSequence,0.82
0.2,1,7,5,IGEMRandomRemoveSequence,0.74
0.2,1,7,6,IGEMRandomRemoveSequence,0.88
0.2,1,7,7,IGEMRandomRemoveSequence,0.82
0.2,1,7,8,IGEMRandomRemoveSequence,0.86
0.2,1,7,9,IGEMRandomRemoveSequence,0.9
0.2,1,7,10,IGEMRandomRemoveSequence,0.74
0.2,1,7,11,IGEMRandomRemoveSequence,0.7
0.2,1,7,12,IGEMRandomRemoveSequence,0.76
0.2,1,7,13,IGEMRandomRemoveSequence,0.86
0.2,1,7,14,IGEMRandomRemoveSequence,0.7
0.2,1,7,15,IGEMRandomRemoveSequence,0.72
0.2,1,7,16,IGEMRandomRemoveSequence,0.82
0.2,1,7,17,IGEMRandomRemoveSequence,0.68
0.2,1,7,18,IGEMRandomRemoveSequence,0.84
0.2,1,7,19,IGEMRandomRemoveSequence,0.66
0.2,2,5,0,IGEMRandomRemoveSequence,0.86
0.2,2,5,1,IGEMRandomRemoveSequence,0.82
0.2,2,5,2,IGEMRandomRemoveSequence,0.78
0.2,2,5,3,IGEMRandomRemoveSequence,0.82
0.2,2,5,4,IGEMRandomRemoveSequence,0.84
0.2,2,5,5,IGEMRandomRemoveSequence,0.72
0.2,2,5,6,IGEMRandomRemoveSequence,0.82
0.2,2,5,7,IGEMRandomRemoveSequence,0.86
0.2,2,5,8,IGEMRandomRemoveSequence,0.88
0.2,2,5,9,IGEMRandomRemoveSequence,0.84
0.2,2,5,10,IGEMRandomRemoveSequence,0.68
0.2,2,5,11,IGEMRandomRemoveSequence,0.84
0.2,2,5,12,IGEMRandomRemoveSequence,0.86
0.2,2,5,13,IGEMRandomRemoveSequence,0.88
0.2,2,5,14,IGEMRandomRemoveSequence,0.82
0.2,2,5,15,IGEMRandomRemoveSequence,0.84
0.2,2,5,16,IGEMRandomRemoveSequence,0.72
0.2,2,5,17,IGEMRandomRemoveSequence,0.74
0.2,2,5,18,IGEMRandomRemoveSequence,0.74
0.2,2,5,19,IGEMRandomRemoveSequence,0.74
0.2,3,2,0,IGEMRandomRemoveSequence,0.86
0.2,3,2,1,IGEMRandomRemoveSequence,0.9
0.2,3,2,2,IGEMRandomRemoveSequence,0.84
0.2,3,2,3,IGEMRandomRemoveSequence,0.82
0.2,3,2,4,IGEMRandomRemoveSequence,0.84
0.2,3,2,5,IGEMRandomRemoveSequence,0.78
0.2,3,2,6,IGEMRandomRemoveSequence,0.86
0.2,3,2,7,IGEMRandomRemoveSequence,0.9
0.2,3,2,8,IGEMRandomRemoveSequence,0.68
0.2,3,2,9,IGEMRandomRemoveSequence,0.78
0.2,3,2,10,IGEMRandomRemoveSequence,0.88
0.2,3,2,11,IGEMRandomRemoveSequence,0.8
0.2,3,2,12,IGEMRandomRemoveSequence,0.72
0.2,3,2,13,IGEMRandomRemoveSequence,0.88
0.2,3,2,14,IGEMRandomRemoveSequence,0.74
0.2,3,2,15,IGEMRandomRemoveSequence,0.66
0.2,3,2,16,IGEMRandomRemoveSequence,0.74
0.2,3,2,17,IGEMRandomRemoveSequence,0.82
0.2,3,2,18,IGEMRandomRemoveSequence,0.86
0.2,3,2,19,IGEMRandomRemoveSequence,0.76
0.2,4,0,0,EMSequence,0.78
0.2,4,0,1,EMSequence,0.9
0.2,4,0,2,EMSequence,0.84
0.2,4,0,3,EMSequence,0.86
0.2,4,0,4,EMSequence,0.82
0.2,4,0,5,EMSequence,0.8
0.2,4,0,6,EMSequence,0.94
0.2,4,0,7,EMSequence,0.86
0.2,4,0,8,EMSequence,0.86
0.2,4,0,9,EMSequence,0.9
0.2,4,0,10,EMSequence,0.86
0.2,4,0,11,EMSequence,0.84
0.2,4,0,12,EMSequence,0.9
0.2,4,0,13,EMSequence,0.86
0.2,4,0,14,EMSequence,0.92
0.2,4,0,15,EMSequence,0.9
0.2,4,0,16,EMSequence,0.86
0.2,4,0,17,EMSequence,0.78
0.2,4,0,18,EMSequence,0.8
0.2,4,0,19,EMSequence,0.76
0.3,1,12,0,IGEMRandomRemoveSequence,0.84
0.3,1,12,1,IGEMRandomRemoveSequence,0.86
0.3,1,12,2,IGEMRandomRemoveSequence,0.88
0.3,1,12,3,IGEMRandomRemoveSequence,0.84
0.3,1,12,4,IGEMRandomRemoveSequence,0.84
0.3,1,12,5,IGEMRandomRemoveSequence,0.84
0.3,1,12,6,IGEMRandomRemoveSequence,0.9
0.3,1,12,7,IGEMRandomRemoveSequence,0.84
0.3,1,12,8,IGEMRandomRemoveSequence,0.82
0.3,1,12,9,IGEMRandomRemoveSequence,0.86
0.3,1,12,10,IGEMRandomRemoveSequence,0.88
0.3,1,12,11,IGEMRandomRemoveSequence,0.86
0.3,1,12,12,IGEMRandomRemoveSequence,0.94
0.3,1,12,13,IGEMRandomRemoveSequence,0.88
0.3,1,12,14,IGEMRandomRemoveSequence,0.88
0.3,1,12,15,IGEMRandomRemoveSequence,0.74
0.3,1,12,16,IGEMRandomRemoveSequence,0.9
0.3,1,12,17,IGEMRandomRemoveSequence,0.74
0.3,1,12,18,IGEMRandomRemoveSequence,0.88
0.3,1,12,19,IGEMRandomRemoveSequence,0.9
0.3,2,10,0,IGEMRandomRemoveSequence,0.98
0.3,2,10,1,IGEMRandomRemoveSequence,0.72
0.3,2,10,2,IGEMRandomRemoveSequence,0.92
0.3,2,10,3,IGEMRandomRemoveSequence,0.92
0.3,2,10,4,IGEMRandomRemoveSequence,0.78
0.3,2,10,5,IGEMRandomRemoveSequence,0.86
0.3,2,10,6,IGEMRandomRemoveSequence,0.82
0.3,2,10,7,IGEMRandomRemoveSequence,0.88
0.3,2,10,8,IGEMRandomRemoveSequence,0.84
0.3,2,10,9,IGEMRandomRemoveSequence,0.88
0.3,2,10,10,IGEMRandomRemoveSequence,0.88
0.3,2,10,11,IGEMRandomRemoveSequence,0.82
0.3,2,10,12,IGEMRandomRemoveSequence,0.82
0.3,2,10,13,IGEMRandomRemoveSequence,0.84
0.3,2,10,14,IGEMRandomRemoveSequence,0.94
0.3,2,10,15,IGEMRandomRemoveSequence,0.8
0.3,2,10,16,IGEMRandomRemoveSequence,0.94
0.3,2,10,17,IGEMRandomRemoveSequence,0.96
0.3,2,10,18,IGEMRandomRemoveSequence,0.88
0.3,2,10,19,IGEMRandomRemoveSequence,0.88
0.3,3,7,0,IGEMRandomRemoveSequence,0.82
0.3,3,7,1,IGEMRandomRemoveSequence,0.86
0.3,3,7,2,IGEMRandomRemoveSequence,0.86
0.3,3,7,3,IGEMRandomRemoveSequence,0.78
0.3,3,7,4,IGEMRandomRemoveSequence,0.92
0.3,3,7,5,IGEMRandomRemoveSequence,0.92
0.3,3,7,6,IGEMRandomRemoveSequence,0.86
0.3,3,7,7,IGEMRandomRemoveSequence,0.88
0.3,3,7,8,IGEMRandomRemoveSequence,0.86
0.3,3,7,9,IGEMRandomRemoveSequence,0.92
0.3,3,7,10,IGEMRandomRemoveSequence,0.9
0.3,3,7,11,IGEMRandomRemoveSequence,0.84
0.3,3,7,12,IGEMRandomRemoveSequence,0.92
0.3,3,7,13,IGEMRandomRemoveSequence,0.9
0.3,3,7,14,IGEMRandomRemoveSequence,0.9
0.3,3,7,15,IGEMRandomRemoveSequence,0.9
0.3,3,7,16,IGEMRandomRemoveSequence,0.86
0.3,3,7,17,IGEMRandomRemoveSequence,0.86
0.3,3,7,18,IGEMRandomRemoveSequence,0.76
0.3,3,7,19,IGEMRandomRemoveSequence,0.9
0.3,4,5,0,IGEMRandomRemoveSequence,0.82
0.3,4,5,1,IGEMRandomRemoveSequence,0.92
0.3,4,5,2,IGEMRandomRemoveSequence,0.9
0.3,4,5,3,IGEMRandomRemoveSequence,0.88
0.3,4,5,4,IGEMRandomRemoveSequence,0.88
0.3,4,5,5,IGEMRandomRemoveSequence,0.84
0.3,4,5,6,IGEMRandomRemoveSequence,0.88
0.3,4,5,7,IGEMRandomRemoveSequence,0.78
0.3,4,5,8,IGEMRandomRemoveSequence,0.88
0.3,4,5,9,IGEMRandomRemoveSequence,0.98
0.3,4,5,10,IGEMRandomRemoveSequence,0.9
0.3,4,5,11,IGEMRandomRemoveSequence,0.82
0.3,4,5,12,IGEMRandomRemoveSequence,0.84
0.3,4,5,13,IGEMRandomRemoveSequence,0.86
0.3,4,5,14,IGEMRandomRemoveSequence,0.84
0.3,4,5,15,IGEMRandomRemoveSequence,0.88
0.3,4,5,16,IGEMRandomRemoveSequence,0.88
0.3,4,5,17,IGEMRandomRemoveSequence,0.88
0.3,4,5,18,IGEMRandomRemoveSequence,0.92
0.3,4,5,19,IGEMRandomRemoveSequence,0.84
0.3,5,2,0,IGEMRandomRemoveSequence,0.82
0.3,5,2,1,IGEMRandomRemoveSequence,0.92
0.3,5,2,2,IGEMRandomRemoveSequence,0.76
0.3,5,2,3,IGEMRandomRemoveSequence,0.84
0.3,5,2,4,IGEMRandomRemoveSequence,0.88
0.3,5,2,5,IGEMRandomRemoveSequence,0.78
0.3,5,2,6,IGEMRandomRemoveSequence,0.9
0.3,5,2,7,IGEMRandomRemoveSequence,0.86
0.3,5,2,8,IGEMRandomRemoveSequence,0.82
0.3,5,2,9,IGEMRandomRemoveSequence,0.84
0.3,5,2,10,IGEMRandomRemoveSequence,0.8
0.3,5,2,11,IGEMRandomRemoveSequence,0.8
0.3,5,2,12,IGEMRandomRemoveSequence,0.82
0.3,5,2,13,IGEMRandomRemoveSequence,0.76
0.3,5,2,14,IGEMRandomRemoveSequence,0.9
0.3,5,2,15,IGEMRandomRemoveSequence,0.88
0.3,5,2,16,IGEMRandomRemoveSequence,0.82
0.3,5,2,17,IGEMRandomRemoveSequence,0.84
0.3,5,2,18,IGEMRandomRemoveSequence,0.86
0.3,5,2,19,IGEMRandomRemoveSequence,0.9
0.3,6,0,0,EMSequence,0.92
0.3,6,0,1,EMSequence,0.98
0.3,6,0,2,EMSequence,0.8
0.3,6,0,3,EMSequence,0.92
0.3,6,0,4,EMSequence,0.9
0.3,6,0,5,EMSequence,0.9
0.3,6,0,6,EMSequence,0.94
0.3,6,0,7,EMSequence,0.82
0.3,6,0,8,EMSequence,0.94
0.3,6,0,9,EMSequence,0.86
0.3,6,0,10,EMSequence,0.86
0.3,6,0,11,EMSequence,0.84
0.3,6,0,12,EMSequence,0.86
0.3,6,0,13,EMSequence,0.84
0.3,6,0,14,EMSequence,0.84
0.3,6,0,15,EMSequence,0.88
0.3,6,0,16,EMSequence,0.9
0.3,6,0,17,EMSequence,0.84
0.3,6,0,18,EMSequence,0.84
0.3,6,0,19,EMSequence,0.92
0.4,1,17,0,IGEMRandomRemoveSequence,0.86
0.4,1,17,1,IGEMRandomRemoveSequence,0.92
0.4,1,17,2,IGEMRandomRemoveSequence,0.88
0.4,1,17,3,IGEMRandomRemoveSequence,0.9
0.4,1,17,4,IGEMRandomRemoveSequence,0.86
0.4,1,17,5,IGEMRandomRemoveSequence,0.8
0.4,1,17,6,IGEMRandomRemoveSequence,0.94
0.4,1,17,7,IGEMRandomRemoveSequence,0.92
0.4,1,17,8,IGEMRandomRemoveSequence,0.92
0.4,1,17,9,IGEMRandomRemoveSequence,0.84
0.4,1,17,10,IGEMRandomRemoveSequence,0.82
0.4,1,17,11,IGEMRandomRemoveSequence,0.88
0.4,1,17,12,IGEMRandomRemoveSequence,0.9
0.4,1,17,13,IGEMRandomRemoveSequence,0.94
0.4,1,17,14,IGEMRandomRemoveSequence,0.96
0.4,1,17,15,IGEMRandomRemoveSequence,0.98
0.4,1,17,16,IGEMRandomRemoveSequence,0.82
0.4,1,17,17,IGEMRandomRemoveSequence,0.84
0.4,1,17,18,IGEMRandomRemoveSequence,0.84
0.4,1,17,19,IGEMRandomRemoveSequence,0.84
0.4,2,15,0,IGEMRandomRemoveSequence,0.94
0.4,2,15,1,IGEMRandomRemoveSequence,0.96
0.4,2,15,2,IGEMRandomRemoveSequence,0.9
0.4,2,15,3,IGEMRandomRemoveSequence,0.9
0.4,2,15,4,IGEMRandomRemoveSequence,0.94
0.4,2,15,5,IGEMRandomRemoveSequence,0.92
0.4,2,15,6,IGEMRandomRemoveSequence,0.86
0.4,2,15,7,IGEMRandomRemoveSequence,0.92
0.4,2,15,8,IGEMRandomRemoveSequence,0.82
0.4,2,15,9,IGEMRandomRemoveSequence,0.94
0.4,2,15,10,IGEMRandomRemoveSequence,0.92
0.4,2,15,11,IGEMRandomRemoveSequence,0.86
0.4,2,15,12,IGEMRandomRemoveSequence,0.88
0.4,2,15,13,IGEMRandomRemoveSequence,0.92
0.4,2,15,14,IGEMRandomRemoveSequence,0.98
0.4,2,15,15,IGEMRandomRemoveSequence,0.8
0.4,2,15,16,IGEMRandomRemoveSequence,0.9
0.4,2,15,17,IGEMRandomRemoveSequence,0.82
0.4,2,15,18,IGEMRandomRemoveSequence,0.9
0.4,2,15,19,IGEMRandomRemoveSequence,0.78
0.4,3,12,0,IGEMRandomRemoveSequence,0.92
0.4,3,12,1,IGEMRandomRemoveSequence,0.9
0.4,3,12,2,IGEMRandomRemoveSequence,0.9
0.4,3,12,3,IGEMRandomRemoveSequence,0.96
0.4,3,12,4,IGEMRandomRemoveSequence,0.9
0.4,3,12,5,IGEMRandomRemoveSequence,0.9
0.4,3,12,6,IGEMRandomRemoveSequence,0.96
0.4,3,12,7,IGEMRandomRemoveSequence,0.88
0.4,3,12,8,IGEMRandomRemoveSequence,0.94
0.4,3,12,9,IGEMRandomRemoveSequence,0.92
0.4,3,12,10,IGEMRandomRemoveSequence,0.92
0.4,3,12,11,IGEMRandomRemoveSequence,0.94
0.4,3,12,12,IGEMRandomRemoveSequence,0.84
0.4,3,12,13,IGEMRandomRemoveSequence,0.72
0.4,3,12,14,IGEMRandomRemoveSequence,0.78
0.4,3,12,15,IGEMRandomRemoveSequence,0.98
0.4,3,12,16,IGEMRandomRemoveSequence,0.96
0.4,3,12,17,IGEMRandomRemoveSequence,0.92
0.4,3,12,18,IGEMRandomRemoveSequence,0.92
0.4,3,12,19,IGEMRandomRemoveSequence,0.84
0.4,4,10,0,IGEMRandomRemoveSequence,0.96
0.4,4,10,1,IGEMRandomRemoveSequence,0.98
0.4,4,10,2,IGEMRandomRemoveSequence,0.86
0.4,4,10,3,IGEMRandomRemoveSequence,0.86
0.4,4,10,4,IGEMRandomRemoveSequence,0.9
0.4,4,10,5,IGEMRandomRemoveSequence,0.86
0.4,4,10,6,IGEMRandomRemoveSequence,0.86
0.4,4,10,7,IGEMRandomRemoveSequence,0.94
0.4,4,10,8,IGEMRandomRemoveSequence,0.9
0.4,4,10,9,IGEMRandomRemoveSequence,0.88
0.4,4,10,10,IGEMRandomRemoveSequence,0.9
0.4,4,10,11,IGEMRandomRemoveSequence,0.92
0.4,4,10,12,IGEMRandomRemoveSequence,0.9
0.4,4,10,13,IGEMRandomRemoveSequence,0.76
0.4,4,10,14,IGEMRandomRemoveSequence,0.96
0.4,4,10,15,IGEMRandomRemoveSequence,0.9
0.4,4,10,16,IGEMRandomRemoveSequence,0.92
0.4,4,10,17,IGEMRandomRemoveSequence,0.78
0.4,4,10,18,IGEMRandomRemoveSequence,0.92
0.4,4,10,19,IGEMRandomRemoveSequence,0.96
0.4,5,7,0,IGEMRandomRemoveSequence,0.92
0.4,5,7,1,IGEMRandomRemoveSequence,0.92
0.4,5,7,2,IGEMRandomRemoveSequence,0.96
0.4,5,7,3,IGEMRandomRemoveSequence,0.98
0.4,5,7,4,IGEMRandomRemoveSequence,0.78
0.4,5,7,5,IGEMRandomRemoveSequence,0.92
0.4,5,7,6,IGEMRandomRemoveSequence,0.92
0.4,5,7,7,IGEMRandomRemoveSequence,0.96
0.4,5,7,8,IGEMRandomRemoveSequence,0.8
0.4,5,7,9,IGEMRandomRemoveSequence,0.96
0.4,5,7,10,IGEMRandomRemoveSequence,0.84
0.4,5,7,11,IGEMRandomRemoveSequence,0.88
0.4,5,7,12,IGEMRandomRemoveSequence,0.94
0.4,5,7,13,IGEMRandomRemoveSequence,0.86
0.4,5,7,14,IGEMRandomRemoveSequence,0.94
0.4,5,7,15,IGEMRandomRemoveSequence,0.92
0.4,5,7,16,IGEMRandomRemoveSequence,0.88
0.4,5,7,17,IGEMRandomRemoveSequence,0.9
0.4,5,7,18,IGEMRandomRemoveSequence,0.9
0.4,5,7,19,IGEMRandomRemoveSequence,0.9
0.4,6,5,0,IGEMRandomRemoveSequence,0.9
0.4,6,5,1,IGEMRandomRemoveSequence,0.92
0.4,6,5,2,IGEMRandomRemoveSequence,0.92
0.4,6,5,3,IGEMRandomRemoveSequence,0.94
0.4,6,5,4,IGEMRandomRemoveSequence,0.88
0.4,6,5,5,IGEMRandomRemoveSequence,0.94
0.4,6,5,6,IGEMRandomRemoveSequence,0.96
0.4,6,5,7,IGEMRandomRemoveSequence,0.94
0.4,6,5,8,IGEMRandomRemoveSequence,0.88
0.4,6,5,9,IGEMRandomRemoveSequence,0.92
0.4,6,5,10,IGEMRandomRemoveSequence,0.9
0.4,6,5,11,IGEMRandomRemoveSequence,0.92
0.4,6,5,12,IGEMRandomRemoveSequence,0.92
0.4,6,5,13,IGEMRandomRemoveSequence,0.92
0.4,6,5,14,IGEMRandomRemoveSequence,0.92
0.4,6,5,15,IGEMRandomRemoveSequence,0.9
0.4,6,5,16,IGEMRandomRemoveSequence,0.88
0.4,6,5,17,IGEMRandomRemoveSequence,0.92
0.4,6,5,18,IGEMRandomRemoveSequence,0.9
0.4,6,5,19,IGEMRandomRemoveSequence,0.88
0.4,7,2,0,IGEMRandomRemoveSequence,0.96
0.4,7,2,1,IGEMRandomRemoveSequence,0.86
0.4,7,2,2,IGEMRandomRemoveSequence,0.76
0.4,7,2,3,IGEMRandomRemoveSequence,0.94
0.4,7,2,4,IGEMRandomRemoveSequence,0.9
0.4,7,2,5,IGEMRandomRemoveSequence,0.98
0.4,7,2,6,IGEMRandomRemoveSequence,0.9
0.4,7,2,7,IGEMRandomRemoveSequence,0.84
0.4,7,2,8,IGEMRandomRemoveSequence,0.9
0.4,7,2,9,IGEMRandomRemoveSequence,0.94
0.4,7,2,10,IGEMRandomRemoveSequence,0.96
0.4,7,2,11,IGEMRandomRemoveSequence,0.94
0.4,7,2,12,IGEMRandomRemoveSequence,0.96
0.4,7,2,13,IGEMRandomRemoveSequence,0.88
0.4,7,2,14,IGEMRandomRemoveSequence,0.92
0.4,7,2,15,IGEMRandomRemoveSequence,0.94
0.4,7,2,16,IGEMRandomRemoveSequence,0.92
0.4,7,2,17,IGEMRandomRemoveSequence,0.92
0.4,7,2,18,IGEMRandomRemoveSequence,0.8
0.4,7,2,19,IGEMRandomRemoveSequence,0.96
0.4,8,0,0,EMSequence,0.9
0.4,8,0,1,EMSequence,0.86
0.4,8,0,2,EMSequence,0.78
0.4,8,0,3,EMSequence,0.82
0.4,8,0,4,EMSequence,0.78
0.4,8,0,5,EMSequence,0.94
0.4,8,0,6,EMSequence,0.86
0.4,8,0,7,EMSequence,0.92
0.4,8,0,8,EMSequence,0.92
0.4,8,0,9,EMSequence,0.96
0.4,8,0,10,EMSequence,0.8
0.4,8,0,11,EMSequence,0.94
0.4,8,0,12,EMSequence,0.84
0.4,8,0,13,EMSequence,0.84
0.4,8,0,14,EMSequence,0.94
0.4,8,0,15,EMSequence,0.9
0.4,8,0,16,EMSequence,0.96
0.4,8,0,17,EMSequence,0.92
0.4,8,0,18,EMSequence,0.84
0.4,8,0,19,EMSequence,0.9
0.5,1,22,0,IGEMRandomRemoveSequence,0.94
0.5,1,22,1,IGEMRandomRemoveSequence,0.94
0.5,1,22,2,IGEMRandomRemoveSequence,0.9
0.5,1,22,3,IGEMRandomRemoveSequence,0.96
0.5,1,22,4,IGEMRandomRemoveSequence,0.88
0.5,1,22,5,IGEMRandomRemoveSequence,0.88
0.5,1,22,6,IGEMRandomRemoveSequence,0.86
0.5,1,22,7,IGEMRandomRemoveSequence,0.92
0.5,1,22,8,IGEMRandomRemoveSequence,0.94
0.5,1,22,9,IGEMRandomRemoveSequence,0.92
0.5,1,22,10,IGEMRandomRemoveSequence,0.92
0.5,1,22,11,IGEMRandomRemoveSequence,0.98
0.5,1,22,12,IGEMRandomRemoveSequence,0.9
0.5,1,22,13,IGEMRandomRemoveSequence,0.96
0.5,1,22,14,IGEMRandomRemoveSequence,0.9
0.5,1,22,15,IGEMRandomRemoveSequence,0.88
0.5,1,22,16,IGEMRandomRemoveSequence,0.94
0.5,1,22,17,IGEMRandomRemoveSequence,0.92
0.5,1,22,18,IGEMRandomRemoveSequence,0.94
0.5,1,22,19,IGEMRandomRemoveSequence,0.96
0.5,2,20,0,IGEMRandomRemoveSequence,0.94
0.5,2,20,1,IGEMRandomRemoveSequence,0.96
0.5,2,20,2,IGEMRandomRemoveSequence,0.9
0.5,2,20,3,IGEMRandomRemoveSequence,0.94
0.5,2,20,4,IGEMRandomRemoveSequence,0.92
0.5,2,20,5,IGEMRandomRemoveSequence,0.92
0.5,2,20,6,IGEMRandomRemoveSequence,0.98
0.5,2,20,7,IGEMRandomRemoveSequence,0.96
0.5,2,20,8,IGEMRandomRemoveSequence,0.9
0.5,2,20,9,IGEMRandomRemoveSequence,0.92
0.5,2,20,10,IGEMRandomRemoveSequence,0.92
0.5,2,20,11,IGEMRandomRemoveSequence,0.88
0.5,2,20,12,IGEMRandomRemoveSequence,0.98
0.5,2,20,13,IGEMRandomRemoveSequence,0.86
0.5,2,20,14,IGEMRandomRemoveSequence,0.96
0.5,2,20,15,IGEMRandomRemoveSequence,0.94
0.5,2,20,16,IGEMRandomRemoveSequence,0.94
0.5,2,20,17,IGEMRandomRemoveSequence,1.0
0.5,2,20,18,IGEMRandomRemoveSequence,0.98
0.5,2,20,19,IGEMRandomRemoveSequence,0.9
0.5,3,17,0,IGEMRandomRemoveSequence,1.0
0.5,3,17,1,IGEMRandomRemoveSequence,1.0
0.5,3,17,2,IGEMRandomRemoveSequence,0.96
0.5,3,17,3,IGEMRandomRemoveSequence,0.98
0.5,3,17,4,IGEMRandomRemoveSequence,0.9
0.5,3,17,5,IGEMRandomRemoveSequence,0.98
0.5,3,17,6,IGEMRandomRemoveSequence,0.9
0.5,3,17,7,IGEMRandomRemoveSequence,0.88
0.5,3,17,8,IGEMRandomRemoveSequence,0.94
0.5,3,17,9,IGEMRandomRemoveSequence,0.9
0.5,3,17,10,IGEMRandomRemoveSequence,0.98
0.5,3,17,11,IGEMRandomRemoveSequence,0.92
0.5,3,17,12,IGEMRandomRemoveSequence,0.92
0.5,3,17,13,IGEMRandomRemoveSequence,0.94
0.5,3,17,14,IGEMRandomRemoveSequence,0.98
0.5,3,17,15,IGEMRandomRemoveSequence,0.96
0.5,3,17,16,IGEMRandomRemoveSequence,0.98
0.5,3,17,17,IGEMRandomRemoveSequence,0.96
0.5,3,17,18,IGEMRandomRemoveSequence,0.92
0.5,3,17,19,IGEMRandomRemoveSequence,0.96
0.5,4,15,0,IGEMRandomRemoveSequence,0.98
0.5,4,15,1,IGEMRandomRemoveSequence,0.98
0.5,4,15,2,IGEMRandomRemoveSequence,0.98
0.5,4,15,3,IGEMRandomRemoveSequence,0.9
0.5,4,15,4,IGEMRandomRemoveSequence,1.0
0.5,4,15,5,IGEMRandomRemoveSequence,0.92
0.5,4,15,6,IGEMRandomRemoveSequence,0.96
0.5,4,15,7,IGEMRandomRemoveSequence,0.98
0.5,4,15,8,IGEMRandomRemoveSequence,0.98
0.5,4,15,9,IGEMRandomRemoveSequence,0.98
0.5,4,15,10,IGEMRandomRemoveSequence,0.96
0.5,4,15,11,IGEMRandomRemoveSequence,0.92
0.5,4,15,12,IGEMRandomRemoveSequence,0.92
0.5,4,15,13,IGEMRandomRemoveSequence,0.92
0.5,4,15,14,IGEMRandomRemoveSequence,0.98
0.5,4,15,15,IGEMRandomRemoveSequence,0.94
0.5,4,15,16,IGEMRandomRemoveSequence,0.98
0.5,4,15,17,IGEMRandomRemoveSequence,0.92
0.5,4,15,18,IGEMRandomRemoveSequence,1.0
0.5,4,15,19,IGEMRandomRemoveSequence,0.94
0.5,5,12,0,IGEMRandomRemoveSequence,0.9
0.5,5,12,1,IGEMRandomRemoveSequence,0.96
0.5,5,12,2,IGEMRandomRemoveSequence,0.94
0.5,5,12,3,IGEMRandomRemoveSequence,1.0
0.5,5,12,4,IGEMRandomRemoveSequence,0.94
0.5,5,12,5,IGEMRandomRemoveSequence,0.98
0.5,5,12,6,IGEMRandomRemoveSequence,0.9
0.5,5,12,7,IGEMRandomRemoveSequence,0.92
0.5,5,12,8,IGEMRandomRemoveSequence,0.98
0.5,5,12,9,IGEMRandomRemoveSequence,0.96
0.5,5,12,10,IGEMRandomRemoveSequence,0.96
0.5,5,12,11,IGEMRandomRemoveSequence,0.9
0.5,5,12,12,IGEMRandomRemoveSequence,1.0
0.5,5,12,13,IGEMRandomRemoveSequence,0.94
0.5,5,12,14,IGEMRandomRemoveSequence,0.94
0.5,5,12,15,IGEMRandomRemoveSequence,0.98
0.5,5,12,16,IGEMRandomRemoveSequence,0.96
0.5,5,12,17,IGEMRandomRemoveSequence,0.92
0.5,5,12,18,IGEMRandomRemoveSequence,0.96
0.5,5,12,19,IGEMRandomRemoveSequence,0.98
0.5,6,10,0,IGEMRandomRemoveSequence,0.84
0.5,6,10,1,IGEMRandomRemoveSequence,0.94
0.5,6,10,2,IGEMRandomRemoveSequence,0.94
0.5,6,10,3,IGEMRandomRemoveSequence,0.9
0.5,6,10,4,IGEMRandomRemoveSequence,0.86
0.5,6,10,5,IGEMRandomRemoveSequence,0.92
0.5,6,10,6,IGEMRandomRemoveSequence,0.94
0.5,6,10,7,IGEMRandomRemoveSequence,0.96
0.5,6,10,8,IGEMRandomRemoveSequence,0.9
0.5,6,10,9,IGEMRandomRemoveSequence,0.98
0.5,6,10,10,IGEMRandomRemoveSequence,1.0
0.5,6,10,11,IGEMRandomRemoveSequence,0.9
0.5,6,10,12,IGEMRandomRemoveSequence,0.96
0.5,6,10,13,IGEMRandomRemoveSequence,0.94
0.5,6,10,14,IGEMRandomRemoveSequence,0.96
0.5,6,10,15,IGEMRandomRemoveSequence,0.94
0.5,6,10,16,IGEMRandomRemoveSequence,0.98
0.5,6,10,17,IGEMRandomRemoveSequence,0.92
0.5,6,10,18,IGEMRandomRemoveSequence,0.88
0.5,6,10,19,IGEMRandomRemoveSequence,0.94
0.5,7,7,0,IGEMRandomRemoveSequence,0.94
0.5,7,7,1,IGEMRandomRemoveSequence,0.98
0.5,7,7,2,IGEMRandomRemoveSequence,0.96
0.5,7,7,3,IGEMRandomRemoveSequence,0.84
0.5,7,7,4,IGEMRandomRemoveSequence,0.94
0.5,7,7,5,IGEMRandomRemoveSequence,0.96
0.5,7,7,6,IGEMRandomRemoveSequence,0.92
0.5,7,7,7,IGEMRandomRemoveSequence,0.94
0.5,7,7,8,IGEMRandomRemoveSequence,0.92
0.5,7,7,9,IGEMRandomRemoveSequence,0.94
0.5,7,7,10,IGEMRandomRemoveSequence,0.98
0.5,7,7,11,IGEMRandomRemoveSequence,0.96
0.5,7,7,12,IGEMRandomRemoveSequence,0.98
0.5,7,7,13,IGEMRandomRemoveSequence,1.0
0.5,7,7,14,IGEMRandomRemoveSequence,0.9
0.5,7,7,15,IGEMRandomRemoveSequence,0.96
0.5,7,7,16,IGEMRandomRemoveSequence,1.0
0.5,7,7,17,IGEMRandomRemoveSequence,0.98
0.5,7,7,18,IGEMRandomRemoveSequence,0.96
0.5,7,7,19,IGEMRandomRemoveSequence,0.94
0.5,8,5,0,IGEMRandomRemoveSequence,0.94
0.5,8,5,1,IGEMRandomRemoveSequence,0.92
0.5,8,5,2,IGEMRandomRemoveSequence,0.96
0.5,8,5,3,IGEMRandomRemoveSequence,0.92
0.5,8,5,4,IGEMRandomRemoveSequence,0.9
0.5,8,5,5,IGEMRandomRemoveSequence,0.96
0.5,8,5,6,IGEMRandomRemoveSequence,0.94
0.5,8,5,7,IGEMRandomRemoveSequence,0.96
0.5,8,5,8,IGEMRandomRemoveSequence,0.94
0.5,8,5,9,IGEMRandomRemoveSequence,0.88
0.5,8,5,10,IGEMRandomRemoveSequence,0.96
0.5,8,5,11,IGEMRandomRemoveSequence,0.94
0.5,8,5,12,IGEMRandomRemoveSequence,0.96
0.5,8,5,13,IGEMRandomRemoveSequence,0.9
0.5,8,5,14,IGEMRandomRemoveSequence,0.9
0.5,8,5,15,IGEMRandomRemoveSequence,0.94
0.5,8,5,16,IGEMRandomRemoveSequence,0.86
0.5,8,5,17,IGEMRandomRemoveSequence,0.94
0.5,8,5,18,IGEMRandomRemoveSequence,0.9
0.5,8,5,19,IGEMRandomRemoveSequence,0.98
0.5,9,2,0,IGEMRandomRemoveSequence,0.86
0.5,9,2,1,IGEMRandomRemoveSequence,0.9
0.5,9,2,2,IGEMRandomRemoveSequence,1.0
0.5,9,2,3,IGEMRandomRemoveSequence,0.88
