0.01,null,0.9,0.5,60,40,0.6,0.01,0,IGEMRandomRemoveSequence,20,14297,,1,1,1,1,1,1,1,1,1,1,1,1,1,1,1,1,1,1,1,1,1,,0,0,0,0,0,0,0,0,0,0,0,0,0,0,0,0,0,0,0,0,0,,0.25,0.25,0.25,0.25,0.25,1,1,1,1,1,1,1,1,1,1,1,1,1,1,1,,1,1,1,1,1,0,0,0,0,0,0,0,0,0,0,0,0,0,0,0,,0.25,0.25,0.25,0.25,0.25,1,1,1,1,1,1,1,1,1,1,1,1,1,1,1,,1,1,1,1,1,0,0,0,0,0,0,0,0,0,0,0,0,0,0,0,,19,18,17,16,15,14,13,12,11,10,9,8,7,6,5,4,3,2,1,0
0.01,null,0.9,0.5,60,40,0.6,0.01,1,IGEMRandomRemoveSequence,20,12842,,1,1,1,1,1,1,1,1,1,1,1,1,1,1,1,1,1,1,1,1,1,,0,0,0,0,0,0,0,0,0,0,0,0,0,0,0,0,0,0,0,0,0,,0.25,0.25,0.25,0.25,0.25,1,1,1,1,1,1,1,1,1,1,1,1,1,1,1,,1,1,1,1,1,0,0,0,0,0,0,0,0,0,0,0,0,0,0,0,,0.25,0.25,0.25,0.25,0.25,1,1,1,1,1,1,1,1,1,1,1,1,1,1,1,,1,1,1,1,1,0,0,0,0,0,0,0,0,0,0,0,0,0,0,0,,19,18,17,16,15,14,13,12,11,10,9,8,7,6,5,4,3,2,1,0
0.01,null,0.9,0.5,60,40,0.6,0.01,2,IGEMRandomRemoveSequence,20,12809,,1,1,1,1,1,1,1,1,1,1,1,1,1,1,1,1,1,1,1,1,1,,0,0,0,0,0,0,0,0,0,0,0,0,0,0,0,0,0,0,0,0,0,,0.25,0.25,0.25,0.25,0.25,1,1,1,1,1,1,1,1,1,1,1,1,1,1,1,,1,1,1,1,1,0,0,0,0,0,0,0,0,0,0,0,0,0,0,0,,0.25,0.25,0.25,0.25,0.25,1,1,1,1,1,1,1,1,1,1,1,1,1,1,1,,1,1,1,1,1,0,0,0,0,0,0,0,0,0,0,0,0,0,0,0,,19,18,17,16,15,14,13,12,11,10,9,8,7,6,5,4,3,2,1,0
0.01,null,0.9,0.5,60,40,0.6,0.01,3,IGEMRandomRemoveSequence,20,12897,,1,1,1,1,1,1,1,1,1,1,1,1,1,1,1,1,1,1,1,1,1,,0,0,0,0,0,0,0,0,0,0,0,0,0,0,0,0,0,0,0,0,0,,0.25,0.25,0.25,0.25,0.25,0,1,1,1,1,1,1,1,1,1,1,1,1,1,1,,1,1,1,1,1,0,0,0,0,0,0,0,0,0,0,0,0,0,0,0,,0.25,0.25,0.25,0.25,0.25,0,1,1,1,1,1,1,1,1,1,1,1,1,1,1,,1,1,1,1,1,0,0,0,0,0,0,0,0,0,0,0,0,0,0,0,,19,18,17,16,15,14,13,12,11,10,9,8,7,6,5,4,3,2,1,0
0.01,null,0.9,0.5,60,40,0.6,0.01,4,IGEMRandomRemoveSequence,20,12691,,1,1,1,1,1,1,1,1,1,1,1,1,1,1,1,1,1,1,1,1,1,,0,0,0,0,0,0,0,0,0,0,0,0,0,0,0,0,0,0,0,0,0,,0.35,0.35,0.35,0.35,0.35,1,1,1,1,1,1,1,1,1,1,1,1,1,1,1,,1,1,1,1,1,0,0,0,0,0,0,0,0,0,0,0,0,0,0,0,,0.35,0.35,0.35,0.35,0.35,1,1,1,1,1,1,1,1,1,1,1,1,1,1,1,,1,1,1,1,1,0,0,0,0,0,0,0,0,0,0,0,0,0,0,0,,19,18,17,16,15,14,13,12,11,10,9,8,7,6,5,4,3,2,1,0
0.01,null,0.9,0.5,60,40,0.6,0.01,5,IGEMRandomRemoveSequence,20,12786,,1,1,1,1,1,1,1,1,1,1,1,1,1,1,1,1,1,1,1,1,1,,0,0,0,0,0,0,0,0,0,0,0,0,0,0,0,0,0,0,0,0,0,,0.3,0.3,0.3,0.3,0.3,1,1,1,1,1,1,1,1,1,1,1,1,1,1,1,,1,1,1,1,1,0,0,0,0,0,0,0,0,0,0,0,0,0,0,0,,0.3,0.3,0.3,0.3,0.3,1,1,1,1,1,1,1,1,1,1,1,1,1,1,1,,1,1,1,1,1,0,0,0,0,0,0,0,0,0,0,0,0,0,0,0,,19,18,17,16,15,14,13,12,11,10,9,8,7,6,5,4,3,2,1,0
0.01,null,0.9,0.5,60,40,0.6,0.01,6,IGEMRandomRemoveSequence,20,12967,,1,1,1,1,1,1,1,1,1,1,1,1,1,1,1,1,1,1,1,1,1,,0,0,0,0,0,0,0,0,0,0,0,0,0,0,0,0,0,0,0,0,0,,0.3,0.3,0.3,0.3,0.3,1,1,1,1,1,1,1,1,1,1,1,1,1,1,1,,1,1,1,1,1,0,0,0,0,0,0,0,0,0,0,0,0,0,0,0,,0.3,0.3,0.3,0.3,0.3,1,1,1,1,1,1,1,1,1,1,1,1,1,1,1,,1,1,1,1,1,0,0,0,0,0,0,0,0,0,0,0,0,0,0,0,,19,18,17,16,15,14,13,12,11,10,9,8,7,6,5,4,3,2,1,0
0.01,null,0.9,0.5,60,40,0.6,0.01,7,IGEMRandomRemoveSequence,20,13625,,1,1,1,1,1,1,1,1,1,1,1,1,1,1,1,1,1,1,1,1,1,,0,0,0,0,0,0,0,0,0,0,0,0,0,0,0,0,0,0,0,0,0,,0.35,0.35,0.35,0.35,0.35,1,1,1,1,1,1,1,1,1,1,1,1,1,1,1,,1,1,1,1,1,0,0,0,0,0,0,0,0,0,0,0,0,0,0,0,,0.35,0.35,0.35,0.35,0.35,1,1,1,1,1,1,1,1,1,1,1,1,1,1,1,,1,1,1,1,1,0,0,0,0,0,0,0,0,0,0,0,0,0,0,0,,19,18,17,16,15,14,13,12,11,10,9,8,7,6,5,4,3,2,1,0
0.01,null,0.9,0.5,60,40,0.6,0.01,8,IGEMRandomRemoveSequence,20,12937,,1,1,1,1,1,1,1,1,1,1,1,1,1,1,1,1,1,1,1,1,1,,0,0,0,0,0,0,0,0,0,0,0,0,0,0,0,0,0,0,0,0,0,,0.3,0.3,0.3,0.3,0.3,1,1,1,1,1,1,1,1,1,1,1,1,1,1,1,,1,1,1,1,1,0,0,0,0,0,0,0,0,0,0,0,0,0,0,0,,0.3,0.3,0.3,0.3,0.3,1,1,1,1,1,1,1,1,1,1,1,1,1,1,1,,1,1,1,1,1,0,0,0,0,0,0,0,0,0,0,0,0,0,0,0,,19,18,17,16,15,14,13,12,11,10,9,8,7,6,5,4,3,2,1,0
0.01,null,0.9,0.5,60,40,0.6,0.01,9,IGEMRandomRemoveSequence,20,12880,,1,1,1,1,1,1,1,1,1,1,1,1,1,1,1,1,1,1,1,1,1,,0,0,0,0,0,0,0,0,0,0,0,0,0,0,0,0,0,0,0,0,0,,0.3,0.3,0.3,0.3,0.3,1,1,1,1,1,1,1,1,1,1,1,1,1,1,1,,1,1,1,1,1,0.166666667,0,0,0,0.166666667,0,0,0,0,0,0,0,0,0,0,,0.3,0.3,0.3,0.3,0.3,1,1,1,1,1,1,1,1,1,1,1,1,1,1,1,,1,1,1,1,1,0.166666667,0,0,0,0.166666667,0,0,0,0,0,0,0,0,0,0,,19,18,17,16,15,14,13,12,11,10,9,8,7,6,5,4,3,2,1,0
0.01,null,0.9,0.5,60,40,0.6,0.01,10,IGEMRandomRemoveSequence,20,13446,,1,1,1,1,1,1,1,1,1,1,1,1,1,1,1,1,1,1,1,1,1,,0,0,0,0,0,0,0,0,0,0,0,0,0,0,0,0,0,0,0,0,0,,0.25,0.25,0.25,0.25,0.25,1,1,1,1,1,1,1,1,1,1,1,1,1,1,1,,1,1,1,1,1,0,0,0,0,0,0,0,0,0,0,0,0,0,0,0,,0.25,0.25,0.25,0.25,0.25,1,1,1,1,1,1,1,1,1,1,1,1,1,1,1,,1,1,1,1,1,0,0,0,0,0,0,0,0,0,0,0,0,0,0,0,,19,18,17,16,15,14,13,12,11,10,9,8,7,6,5,4,3,2,1,0
0.01,null,0.9,0.5,60,40,0.6,0.01,11,IGEMRandomRemoveSequence,20,13779,,1,1,1,1,1,1,1,1,1,1,1,1,1,1,1,1,1,1,1,1,1,,0,0,0,0,0,0,0,0,0,0,0,0,0,0,0,0,0,0,0,0,0,,0.15,0.15,0.15,0.15,0.15,1,1,1,1,1,1,1,1,1,1,1,1,1,1,1,,1,1,1,1,1,0,0,0,0,0,0,0,0,0,0,0,0,0,0,0,,0.15,0.15,0.15,0.15,0.15,1,1,1,1,1,1,1,1,1,1,1,1,1,1,1,,1,1,1,1,1,0,0,0,0,0,0,0,0,0,0,0,0,0,0,0,,19,18,17,16,15,14,13,12,11,10,9,8,7,6,5,4,3,2,1,0
0.01,null,0.9,0.5,60,40,0.6,0.01,12,IGEMRandomRemoveSequence,20,14108,,1,1,1,1,1,1,1,1,1,1,1,1,1,1,1,1,1,1,1,1,1,,0,0,0,0,0,0,0,0,0,0,0,0,0,0,0,0,0,0,0,0,0,,0.25,0.25,0.25,0.25,0.25,0,1,1,1,0,1,1,1,1,1,1,1,1,1,1,,1,1,1,1,1,0,0,0,0,0,0,0,0,0,0,0,0,0,0,0,,0.25,0.25,0.25,0.25,0.25,0,1,1,1,0,1,1,1,1,1,1,1,1,1,1,,1,1,1,1,1,0,0,0,0,0,0,0,0,0,0,0,0,0,0,0,,19,18,17,16,15,14,13,12,11,10,9,8,7,6,5,4,3,2,1,0
0.01,null,0.9,0.5,60,40,0.6,0.01,13,IGEMRandomRemoveSequence,20,13509,,1,1,1,1,1,1,1,1,1,1,1,1,1,1,1,1,1,1,1,1,1,,0,0,0,0,0,0,0,0,0,0,0,0,0,0,0,0,0,0,0,0,0,,0.2,0.2,0.2,0.2,0.2,1,1,1,1,1,1,1,1,1,1,1,1,1,1,1,,1,1,1,1,1,0,0,0,0,0,0,0,0,0,0,0,0,0,0,0,,0.2,0.2,0.2,0.2,0.2,1,1,1,1,1,1,1,1,1,1,1,1,1,1,1,,1,1,1,1,1,0,0,0,0,0,0,0,0,0,0,0,0,0,0,0,,19,18,17,16,15,14,13,12,11,10,9,8,7,6,5,4,3,2,1,0
0.01,null,0.9,0.5,60,40,0.6,0.01,14,IGEMRandomRemoveSequence,20,12899,,1,1,1,1,1,1,1,1,1,1,1,1,1,1,1,1,1,1,1,1,1,,0,0,0,0,0,0,0,0,0,0,0,0,0,0,0,0,0,0,0,0,0,,0.25,0.25,0.25,0.25,0.25,1,1,1,1,1,1,1,1,1,1,1,1,1,1,1,,1,1,1,1,1,0,0,0,0,0,0,0,0,0,0,0,0,0,0,0,,0.25,0.25,0.25,0.25,0.25,1,1,1,1,1,1,1,1,1,1,1,1,1,1,1,,1,1,1,1,1,0,0,0,0,0,0,0,0,0,0,0,0,0,0,0,,19,18,17,16,15,14,13,12,11,10,9,8,7,6,5,4,3,2,1,0
,,,,,,,,,,,13231.46667,,,,,,,,,,,,,,,,,,,,,,,,,,,,,,,,,,,,,,,,,,,,,,,,,,,,,,,,,,,,,,,,,,,,,,,,,,,,,,,,,,,,,,,,,,,,,,,,,,,,,,,,,,,,,,,,,,,,,,,,,,,,,,,,,,,,,,,,,,,,,,,,,,,,,
