CopyRatio,CopyThreshold,Rel1,Rel2,Per1,Per2,Std,Id,Algor,#Src,Time,P1,P2,P3,P4,P5,P6,P7,P8,P9,P10,P11,P12,P13,P14,P15,P16,P17,P18,P19,P20,P21,P22,P23,P24,P25,P26,P27,P28,P29,P30,P31,P32,P33,P34,P35,P36,P37,P38,P39,P40,P41,P42,P43,P44,P45,P46,P47,P48,P49,P50,P51,A,E1,E2,E3,E4,E5,E6,E7,E8,E9,E10,E11,E12,E13,E14,E15,E16,E17,E18,E19,E20,E21,E22,E23,E24,E25,E26,E27,E28,E29,E30,E31,E32,E33,E34,E35,E36,E37,E38,E39,E40,E41,E42,E43,E44,E45,E46,E47,E48,E49,E50,E51,B,SP1,SP2,SP3,SP4,SP5,SP6,SP7,SP8,SP9,SP10,SP11,SP12,SP13,SP14,SP15,SP16,SP17,SP18,SP19,SP20,SP21,SP22,SP23,SP24,SP25,SP26,SP27,SP28,SP29,SP30,SP31,SP32,SP33,SP34,SP35,SP36,SP37,SP38,SP39,SP40,SP41,SP42,SP43,SP44,SP45,SP46,SP47,SP48,SP49,SP50,C,SR1,SR2,SR3,SR4,SR5,SR6,SR7,SR8,SR9,SR10,SR11,SR12,SR13,SR14,SR15,SR16,SR17,SR18,SR19,SR20,SR21,SR22,SR23,SR24,SR25,SR26,SR27,SR28,SR29,SR30,SR31,SR32,SR33,SR34,SR35,SR36,SR37,SR38,SR39,SR40,SR41,SR42,SR43,SR44,SR45,SR46,SR47,SR48,SR49,SR50,,,,,,,,,,,,,,,,,,,,,,,,,,,,,,,,,,,,,,,,,,,,,,,,,,,
0.8,0.8,0.8,0,90,10,0.01,0,RandomEMDetectCopiers,36,2643,0,0.02,0.04,0.06,0.08,0.1,0.12,0.14,0.16,0.18,0.2,0.22,0.24,0.26,0.28,0.3,0.32,0.34,0.36,0.38,0.4,0.42,0.776,1,1,1,1,1,1,1,1,1,1,1,1,1,1,1,1,1,1,1,1,1,1,1,1,1,1,1,1,,0,0,0,0,0,0,0,0,0,0,0,0,0,0,0,0,0,2.50E-05,5.20E-04,0.004512926,0.025614193,0.142710791,0.179530623,0,0,0,0,0,0,0,0,0,0,0,0,0,0,0,0,0,0,0,0,0,0,0,0,0,0,0,0,,0,0,0.888888889,0.871111111,0.861754386,0.853333333,0.879532164,0.763290043,0.77474371,0.785454545,0.8,0.791111111,0.821010101,0.838787879,0.838787879,0.756965933,0.800140536,0.826666667,0.791111111,0.826666667,0.853333333,0.853333333,0.813391053,0.81015873,0.827936508,0.835555556,0.803232323,0.803232323,0.835555556,0.853333333,0.808888889,0.821010101,0.821010101,0.853333333,0.853333333,0.871111111,0.871111111,0.853333333,0.817777778,0.835555556,0.835555556,0.853333333,0.817777778,0.817777778,0.853333333,0.853333333,0.835555556,0.871111111,0.888888889,0.888888889,,0,0,1,1,1,1,1,1,1,1,1,1,1,1,1,1,1,1,1,1,1,1,1,1,1,1,1,1,1,1,1,1,1,1,1,1,1,1,1,1,1,1,1,1,1,1,1,1,1,1,,-1,-1,-1,-1,-1,-1,-1,-1,-1,-1,-1,-1,-1,-1,-1,-1,-1,-1,-1,-1,-1,-1,-1,-1,-1,-1,-1,-1,-1,-1,-1,-1,-1,-1,-1,-1,-1,-1,-1,-1,-1,-1,-1,-1,-1,-1,-1,-1,-1,-1
0.8,0.8,0.8,0,90,10,0.01,0,RandomEMRemoveCopiers,36,1373,0,0.02,0.04,0.06,0.08,0.1,0.12,0.14,0.16,0.18,0.2,1,1,1,1,1,1,1,1,1,1,0.992,0.992,0.992,0.992,0.992,0.992,0.996,0.996,0.996,0.996,0.992,0.992,0.992,0.996,0.996,0.996,0.996,0.996,0.996,0.996,0.996,0.996,1,1,1,1,1,1,1,1,,0,0,0,0,0,0,0,0,0,0,0,0.915474813,0.866218909,0.865204252,0.856991413,0.851625687,0.847600212,0.825494209,0.825437998,0.825294625,0.812882587,1.388949214,1.369577048,1.307220462,1.282566748,1.267591202,1.257630398,1.103404489,1.097729322,1.080790786,1.024313667,1.088808605,1.082382919,1.074681664,0.91554907,0.898876529,0.895828224,0.889726564,0.859167667,0.732770769,0.725526387,0.564509265,0.550900301,0.432681914,0.413412748,0.324268928,0.280982684,0.266026844,0.158262638,0.044774927,0,,0,0,0.870175439,0.835555556,0.835555556,0.835555556,0.835555556,0.711715415,0.742141414,0.766522367,0.813391053,0,0,0,0,0,0,0,0,0,0,0,0,0,0,0,0,0,0,0,0,0,0,0,0,0,0,0,0,0,0,0,0,0,0,0,0,0,0,0,,0,0,1,1,1,1,1,1,1,1,1,1,1,1,1,1,1,1,1,1,1,1,1,1,1,1,1,1,1,1,1,1,1,1,1,1,1,1,1,1,1,1,1,1,1,1,1,1,1,1,,-1,-1,-1,-1,-1,-1,-1,-1,-1,-1,-1,-1,-1,-1,-1,-1,-1,-1,-1,-1,-1,-1,-1,-1,-1,-1,-1,-1,-1,-1,-1,-1,-1,-1,-1,-1,-1,-1,-1,-1,-1,-1,-1,-1,-1,-1,-1,-1,-1,-1
0.8,0.8,0.8,0,90,10,0.01,1,RandomEMDetectCopiers,36,2398,0,0.02,0.04,0.06,0.08,0.1,0.12,0.14,0.16,0.18,0.2,0.22,0.24,0.26,0.28,0.3,0.32,0.34,0.36,0.38,0.4,0.42,0.888,1,1,1,1,1,1,1,1,1,1,1,1,1,1,1,1,1,1,1,1,1,1,1,1,1,1,1,1,,0,0,0,0,0,0,0,0,0,0,0,0,0,0,0,0,0,1.00E-04,0.00142521,0.010061337,0.046305708,0.214311881,0.10078333,0,0,0,0,0,0,0,0,0,0,0,0,0,0,0,0,0,0,0,0,0,0,0,0,0,0,0,0,,0,0,0.88998968,0.847208931,0.824242424,0.821010101,0.821010101,0.669770165,0.708417508,0.724686869,0.789010101,0.776565657,0.74989899,0.774141414,0.838787879,0.734309246,0.759111111,0.771232323,0.762343434,0.789010101,0.81468599,0.845714286,0.839111111,0.803555556,0.826666667,0.844444444,0.776565657,0.808888889,0.821010101,0.838787879,0.853333333,0.853333333,0.856565657,0.853333333,0.871111111,0.888888889,0.888888889,0.888888889,0.888888889,0.888888889,0.888888889,0.888888889,0.888888889,0.888888889,0.888888889,0.888888889,0.888888889,0.888888889,0.888888889,0.888888889,,0,0,1,1,1,1,1,1,1,1,1,1,1,1,1,1,1,1,1,1,1,1,1,1,1,1,1,1,1,1,1,1,1,1,1,1,1,1,1,1,1,1,1,1,1,1,1,1,1,1,,-1,-1,-1,-1,-1,-1,-1,-1,-1,-1,-1,-1,-1,-1,-1,-1,-1,-1,-1,-1,-1,-1,-1,-1,-1,-1,-1,-1,-1,-1,-1,-1,-1,-1,-1,-1,-1,-1,-1,-1,-1,-1,-1,-1,-1,-1,-1,-1,-1,-1
0.8,0.8,0.8,0,90,10,0.01,1,RandomEMRemoveCopiers,36,1290,0,0.02,0.04,0.06,0.08,0.1,0.12,0.14,0.16,0.18,0.2,1,1,1,1,1,1,1,1,1,1,0.988,0.988,0.988,0.988,0.992,0.992,0.992,0.992,0.992,0.992,0.992,0.992,0.992,0.992,0.992,0.992,0.992,0.992,0.992,0.996,1,1,1,1,1,1,1,1,1,1,,0,0,0,0,0,0,0,0,0,0,0,0.473296432,0.466457225,0.462547282,0.451488517,0.311118386,0.297659656,0.290615422,0.244277353,0.228667075,0.154415028,1.516181637,1.416368261,1.37870196,1.323769686,1.189877168,1.078788234,1.043597211,0.991673051,0.937284993,0.935695981,0.893119231,0.617215765,0.585434838,0.584094233,0.560160592,0.554634673,0.539715609,0.528327945,0.524679265,0.330113608,0.18858491,0.183501407,0.181830602,0.074370199,0.048009685,0.02861715,0.016276112,0.012902247,0.004373798,0,,0,0,0.888888889,0.853333333,0.832463768,0.827936508,0.804034328,0.738118022,0.752663477,0.779330144,0.788686869,0,0,0,0,0,0,0,0,0,0,0,0,0,0,0,0,0,0,0,0,0,0,0,0,0,0,0,0,0,0,0,0,0,0,0,0,0,0,0,,0,0,1,1,1,1,1,1,1,1,1,1,1,1,1,1,1,1,1,1,1,1,1,1,1,1,1,1,1,1,1,1,1,1,1,1,1,1,1,1,1,1,1,1,1,1,1,1,1,1,,-1,-1,-1,-1,-1,-1,-1,-1,-1,-1,-1,-1,-1,-1,-1,-1,-1,-1,-1,-1,-1,-1,-1,-1,-1,-1,-1,-1,-1,-1,-1,-1,-1,-1,-1,-1,-1,-1,-1,-1,-1,-1,-1,-1,-1,-1,-1,-1,-1,-1
0.8,0.8,0.8,0,90,10,0.01,2,RandomEMDetectCopiers,36,2452,0,0.02,0.04,0.06,0.08,0.1,0.12,0.14,0.16,0.18,0.2,0.22,0.24,0.26,0.28,0.3,0.32,0.34,0.36,0.38,0.4,0.42,0.664,1,1,1,1,1,1,1,1,1,1,1,1,1,1,1,1,1,1,1,1,1,1,1,1,1,1,1,1,,0,0,0,0,0,0,0,0,0,0,0,0,0,0,0,0,0,7.51E-05,9.39E-04,0.005077559,0.030430315,0.168421389,0.419520483,0,0,0,0,0,0,0,0,0,0,0,0,0,0,0,0,0,0,0,0,0,0,0,0,0,0,0,0,,0,0,0.888888889,0.853333333,0.81015873,0.835555556,0.853333333,0.747838828,0.759985136,0.736410256,0.776565657,0.717306397,0.755696091,0.762020202,0.773333333,0.692246884,0.776565657,0.776565657,0.734309246,0.750362758,0.771232323,0.771232323,0.680242424,0.695661903,0.75826087,0.777835498,0.751168831,0.765714286,0.777835498,0.785454545,0.770909091,0.756363636,0.785454545,0.785454545,0.747130435,0.768,0.779130435,0.779130435,0.785454545,0.785454545,0.803232323,0.788686869,0.770909091,0.777835498,0.777835498,0.756363636,0.763290043,0.727272727,0.727272727,0.727272727,,0,0,1,1,1,1,1,1,1,1,1,1,1,1,1,1,1,1,1,1,1,1,1,1,1,1,1,1,1,1,1,1,1,1,1,1,1,1,1,1,1,1,1,1,1,1,1,1,1,1,,-1,-1,-1,-1,-1,-1,-1,-1,-1,-1,-1,-1,-1,-1,-1,-1,-1,-1,-1,-1,-1,-1,-1,-1,-1,-1,-1,-1,-1,-1,-1,-1,-1,-1,-1,-1,-1,-1,-1,-1,-1,-1,-1,-1,-1,-1,-1,-1,-1,-1
0.8,0.8,0.8,0,90,10,0.01,2,RandomEMRemoveCopiers,36,1250,0,0.02,0.04,0.06,0.08,0.1,0.12,0.14,0.16,0.18,0.2,0.988,0.988,0.988,0.988,0.988,0.988,0.988,0.988,0.988,0.988,0.98,0.98,0.98,0.98,0.984,0.984,0.984,0.984,0.984,0.984,0.984,0.988,0.988,0.988,0.988,0.988,0.992,0.996,1,1,1,1,1,1,1,1,1,1,1,1,,0,0,0,0,0,0,0,0,0,0,0,0.926602888,0.923134847,0.922633177,0.920421528,0.862856535,0.862271882,0.851628564,0.851533918,0.814908499,0.800544965,4.914678496,4.707451314,4.591701814,4.367936755,4.059769628,3.960180611,3.81077697,3.647811186,3.402918254,3.201819468,4.951258597,4.779736715,4.427890064,4.148999986,3.904371359,3.471894712,3.284541764,2.968579049,2.695911458,2.44316167,2.217357374,1.721986177,1.49479773,1.343873283,1.086223354,0.809180171,0.572827773,0.458434184,0.255329122,0,,0,0,0.888888889,0.845714286,0.844778613,0.863492063,0.871111111,0.691868132,0.723457875,0.737918314,0.756363636,0,0,0,0,0,0,0,0,0,0,0,0,0,0,0,0,0,0,0,0,0,0,0,0,0,0,0,0,0,0,0,0,0,0,0,0,0,0,0,,0,0,1,1,1,1,1,1,1,1,1,1,1,1,1,1,1,1,1,1,1,1,1,1,1,1,1,1,1,1,1,1,1,1,1,1,1,1,1,1,1,1,1,1,1,1,1,1,1,1,,-1,-1,-1,-1,-1,-1,-1,-1,-1,-1,-1,-1,-1,-1,-1,-1,-1,-1,-1,-1,-1,-1,-1,-1,-1,-1,-1,-1,-1,-1,-1,-1,-1,-1,-1,-1,-1,-1,-1,-1,-1,-1,-1,-1,-1,-1,-1,-1,-1,-1
0.8,0.8,0.8,0,90,10,0.01,3,RandomEMDetectCopiers,36,2372,0,0.02,0.04,0.06,0.08,0.1,0.12,0.14,0.16,0.18,0.2,0.22,0.24,0.26,0.28,0.3,0.32,0.34,0.36,0.38,0.4,0.42,0.664,1,1,1,1,1,1,1,1,1,1,1,1,1,1,1,1,1,1,1,1,1,1,1,1,1,1,1,1,,0,0,0,0,0,0,0,0,0,0,0,0,0,0,0,0,0,0,9.82E-04,0.006129711,0.03387823,0.173657541,0.317813098,0,0,0,0,0,0,0,0,0,0,0,0,0,0,0,0,0,0,0,0,0,0,0,0,0,0,0,0,,0,0,0.879532164,0.813391053,0.821010101,0.806464646,0.806464646,0.67432857,0.686449782,0.745439681,0.780854701,0.801269841,0.813391053,0.821010101,0.821010101,0.795936508,0.807066943,0.835555556,0.795613276,0.795613276,0.795613276,0.803232323,0.835555556,0.788686869,0.788686869,0.817777778,0.803232323,0.835555556,0.853333333,0.853333333,0.835555556,0.853333333,0.871111111,0.853333333,0.853333333,0.871111111,0.888888889,0.888888889,0.835555556,0.871111111,0.853333333,0.871111111,0.871111111,0.888888889,0.888888889,0.888888889,0.888888889,0.888888889,0.888888889,0.888888889,,0,0,1,1,1,1,1,1,1,1,1,1,1,1,1,1,1,1,1,1,1,1,1,1,1,1,1,1,1,1,1,1,1,1,1,1,1,1,1,1,1,1,1,1,1,1,1,1,1,1,,-1,-1,-1,-1,-1,-1,-1,-1,-1,-1,-1,-1,-1,-1,-1,-1,-1,-1,-1,-1,-1,-1,-1,-1,-1,-1,-1,-1,-1,-1,-1,-1,-1,-1,-1,-1,-1,-1,-1,-1,-1,-1,-1,-1,-1,-1,-1,-1,-1,-1
0.8,0.8,0.8,0,90,10,0.01,3,RandomEMRemoveCopiers,36,1250,0,0.02,0.04,0.06,0.08,0.1,0.12,0.14,0.16,0.18,0.2,0.984,0.984,0.984,0.984,0.984,0.984,0.988,0.988,0.988,0.988,0.988,0.988,0.988,0.988,0.988,0.992,0.992,0.992,0.992,0.992,0.992,0.992,0.992,0.992,0.992,0.992,0.996,0.996,0.996,0.996,0.996,0.996,0.996,0.996,0.996,0.996,0.996,0.996,0.996,1,,0,0,0,0,0,0,0,0,0,0,0,1.473090668,1.472046168,1.37433013,1.37396744,1.363068289,1.246834966,1.261166451,1.241461851,1.231137807,1.226864266,1.620654753,1.58376026,1.518646105,1.330501313,1.244652322,1.154211171,0.971593291,0.918273231,0.793206734,0.777294395,0.734679852,0.641873877,0.633229626,0.630648197,0.620603473,0.60306741,0.593272027,0.590070862,0.542998878,0.535833829,0.482231242,0.446147968,0.422469928,0.353670337,0.319715044,0.122033959,0.107103038,0.102147241,0.045299878,0,,0,0,0.879532164,0.871111111,0.861754386,0.871111111,0.853333333,0.704895105,0.707319347,0.785777778,0.750039526,0,0,0,0,0,0,0,0,0,0,0,0,0,0,0,0,0,0,0,0,0,0,0,0,0,0,0,0,0,0,0,0,0,0,0,0,0,0,0,,0,0,1,1,1,1,1,1,1,1,1,1,1,1,1,1,1,1,1,1,1,1,1,1,1,1,1,1,1,1,1,1,1,1,1,1,1,1,1,1,1,1,1,1,1,1,1,1,1,1,,-1,-1,-1,-1,-1,-1,-1,-1,-1,-1,-1,-1,-1,-1,-1,-1,-1,-1,-1,-1,-1,-1,-1,-1,-1,-1,-1,-1,-1,-1,-1,-1,-1,-1,-1,-1,-1,-1,-1,-1,-1,-1,-1,-1,-1,-1,-1,-1,-1,-1
0.8,0.8,0.8,0,90,10,0.01,4,RandomEMDetectCopiers,36,2393,0,0.02,0.04,0.06,0.08,0.1,0.12,0.14,0.16,0.18,0.2,0.22,0.24,0.26,0.28,0.3,0.32,0.34,0.36,0.38,0.4,0.42,0.664,1,1,1,1,1,1,1,1,1,1,1,1,1,1,1,1,1,1,1,1,1,1,1,1,1,1,1,1,,0,0,0,0,0,0,0,0,0,0,0,0,0,0,0,0,0,2.50E-05,5.34E-04,0.004724005,0.025947404,0.138902425,0.339810118,0,0,0,0,0,0,0,0,0,0,0,0,0,0,0,0,0,0,0,0,0,0,0,0,0,0,0,0,,0,0,0.88998968,0.861754386,0.845714286,0.843976608,0.843976608,0.75062841,0.759985136,0.770241546,0.788686869,0.684941725,0.704410256,0.732444444,0.755696091,0.68431562,0.696436832,0.721864802,0.751168831,0.741752933,0.801269841,0.801269841,0.783492063,0.773333333,0.792380952,0.8,0.817777778,0.802539683,0.789289165,0.82031746,0.81015873,0.81015873,0.81015873,0.827936508,0.838095238,0.845714286,0.863492063,0.871111111,0.82031746,0.827936508,0.853333333,0.853333333,0.81015873,0.817777778,0.835555556,0.835555556,0.845714286,0.845714286,0.853333333,0.888888889,,0,0,1,1,1,1,1,1,1,1,1,1,1,1,1,1,1,1,1,1,1,1,1,1,1,1,1,1,1,1,1,1,1,1,1,1,1,1,1,1,1,1,1,1,1,1,1,1,1,1,,-1,-1,-1,-1,-1,-1,-1,-1,-1,-1,-1,-1,-1,-1,-1,-1,-1,-1,-1,-1,-1,-1,-1,-1,-1,-1,-1,-1,-1,-1,-1,-1,-1,-1,-1,-1,-1,-1,-1,-1,-1,-1,-1,-1,-1,-1,-1,-1,-1,-1
0.8,0.8,0.8,0,90,10,0.01,4,RandomEMRemoveCopiers,36,1226,0,0.02,0.04,0.06,0.08,0.1,0.12,0.14,0.16,0.18,0.2,0.992,0.996,0.996,0.996,0.996,0.996,0.996,0.996,0.996,0.996,0.98,0.984,0.984,0.988,0.988,0.992,0.992,0.996,1,1,1,1,1,1,1,1,1,1,1,1,1,1,1,1,1,1,1,1,1,1,,0,0,0,0,0,0,0,0,0,0,0,1.610786699,1.4917107,1.438411699,1.389863368,1.379967996,1.33768009,1.296672932,1.290193965,1.286243107,1.271296255,2.786502705,2.692731472,2.5422311,2.2525652,2.076848021,1.824663765,1.786281117,1.65087521,1.51702228,1.257362848,1.000083675,0.984086183,0.953709114,0.945611134,0.805887665,0.78615378,0.722559457,0.70759716,0.48659833,0.439609753,0.49270897,0.411560099,0.35891065,0.324668551,0.293394605,0.229788324,0.221744747,0.144677707,0.119943587,0,,0,0,0.899346405,0.867023173,0.835087719,0.837124183,0.838787879,0.705918314,0.751168831,0.754401154,0.754401154,0,0,0,0,0,0,0,0,0,0,0,0,0,0,0,0,0,0,0,0,0,0,0,0,0,0,0,0,0,0,0,0,0,0,0,0,0,0,0,,0,0,1,1,1,1,1,1,1,1,1,1,1,1,1,1,1,1,1,1,1,1,1,1,1,1,1,1,1,1,1,1,1,1,1,1,1,1,1,1,1,1,1,1,1,1,1,1,1,1,,-1,-1,-1,-1,-1,-1,-1,-1,-1,-1,-1,-1,-1,-1,-1,-1,-1,-1,-1,-1,-1,-1,-1,-1,-1,-1,-1,-1,-1,-1,-1,-1,-1,-1,-1,-1,-1,-1,-1,-1,-1,-1,-1,-1,-1,-1,-1,-1,-1,-1
0.8,0.8,0.8,0,90,10,0.01,5,RandomEMDetectCopiers,36,2395,0,0.02,0.04,0.06,0.08,0.1,0.12,0.14,0.16,0.18,0.2,0.22,0.24,0.26,0.28,0.3,0.32,0.34,0.36,0.38,0.4,0.42,0.776,1,1,1,1,1,1,1,1,1,1,1,1,1,1,1,1,1,1,1,1,1,1,1,1,1,1,1,1,,0,0,0,0,0,0,0,0,0,0,0,0,0,0,0,0,0,5.01E-05,7.37E-04,0.00533848,0.021253425,0.108706605,0.212373497,0,0,0,0,0,0,0,0,0,0,0,0,0,0,0,0,0,0,0,0,0,0,0,0,0,0,0,0,,0,0,0.888888889,0.853333333,0.861754386,0.888888889,0.863492063,0.634258778,0.635851852,0.669986014,0.732121212,0.679608392,0.698570994,0.701986014,0.788686869,0.786197378,0.786197378,0.831168831,0.776565657,0.792380952,0.81015873,0.835555556,0.835555556,0.81468599,0.832463768,0.832463768,0.81468599,0.821010101,0.821010101,0.821010101,0.791111111,0.803232323,0.838787879,0.871111111,0.871111111,0.871111111,0.871111111,0.871111111,0.871111111,0.871111111,0.871111111,0.853333333,0.871111111,0.888888889,0.888888889,0.888888889,0.888888889,0.888888889,0.888888889,0.888888889,,0,0,1,1,1,1,1,1,1,1,1,1,1,1,1,1,1,1,1,1,1,1,1,1,1,1,1,1,1,1,1,1,1,1,1,1,1,1,1,1,1,1,1,1,1,1,1,1,1,1,,-1,-1,-1,-1,-1,-1,-1,-1,-1,-1,-1,-1,-1,-1,-1,-1,-1,-1,-1,-1,-1,-1,-1,-1,-1,-1,-1,-1,-1,-1,-1,-1,-1,-1,-1,-1,-1,-1,-1,-1,-1,-1,-1,-1,-1,-1,-1,-1,-1,-1
0.8,0.8,0.8,0,90,10,0.01,5,RandomEMRemoveCopiers,36,1337,0,0.02,0.04,0.06,0.08,0.1,0.12,0.14,0.16,0.18,0.2,1,1,1,1,1,1,1,1,1,1,1,1,1,1,1,1,1,1,1,1,0.992,0.992,0.992,0.996,1,1,1,1,1,1,1,1,1,1,1,1,1,1,1,1,,0,0,0,0,0,0,0,0,0,0,0,0.509941834,0.509123342,0.501563362,0.498532855,0.453236901,0.453165152,0.447035491,0.428901606,0.427759625,0.391891768,0.586531253,0.471083075,0.33607562,0.334705745,0.334118936,0.324424027,0.324424027,0.323606991,0.18001044,0.176071868,1.004164973,0.912946785,0.895999114,0.686495276,0.522627958,0.511056642,0.489406403,0.47917005,0.470515188,0.30418178,0.289522728,0.245538473,0.184303124,0.178163647,0.116399737,0.109474356,0.101387668,0.093845014,0.076799413,0,,0,0,0.879532164,0.853333333,0.871111111,0.871111111,0.871111111,0.71789899,0.72969697,0.774141414,0.803232323,0,0,0,0,0,0,0,0,0,0,0,0,0,0,0,0,0,0,0,0,0,0,0,0,0,0,0,0,0,0,0,0,0,0,0,0,0,0,0,,0,0,1,1,1,1,1,1,1,1,1,1,1,1,1,1,1,1,1,1,1,1,1,1,1,1,1,1,1,1,1,1,1,1,1,1,1,1,1,1,1,1,1,1,1,1,1,1,1,1,,-1,-1,-1,-1,-1,-1,-1,-1,-1,-1,-1,-1,-1,-1,-1,-1,-1,-1,-1,-1,-1,-1,-1,-1,-1,-1,-1,-1,-1,-1,-1,-1,-1,-1,-1,-1,-1,-1,-1,-1,-1,-1,-1,-1,-1,-1,-1,-1,-1,-1
0.8,0.8,0.8,0,90,10,0.01,6,RandomEMDetectCopiers,36,2445,0,0.02,0.04,0.06,0.08,0.1,0.12,0.14,0.16,0.18,0.2,0.22,0.24,0.26,0.28,0.3,0.32,0.34,0.36,0.38,0.4,0.42,0.664,1,1,1,1,1,1,1,1,1,1,1,1,1,1,1,1,1,1,1,1,1,1,1,1,1,1,1,1,,0,0,0,0,0,0,0,0,0,0,0,0,0,0,0,0,0,7.51E-05,9.88E-04,0.006734258,0.03530571,0.168034078,0.285656905,0,0,0,0,0,0,0,0,0,0,0,0,0,0,0,0,0,0,0,0,0,0,0,0,0,0,0,0,,0,0,0.888888889,0.827936508,0.803232323,0.835555556,0.843976608,0.74989899,0.750039526,0.756363636,0.741818182,0.71421461,0.738241546,0.715540691,0.711251647,0.751763792,0.821010101,0.835555556,0.764444444,0.808888889,0.838787879,0.853333333,0.871111111,0.853333333,0.871111111,0.871111111,0.856565657,0.871111111,0.871111111,0.888888889,0.832463768,0.832463768,0.850241546,0.850241546,0.850241546,0.871111111,0.871111111,0.888888889,0.888888889,0.888888889,0.888888889,0.888888889,0.888888889,0.888888889,0.888888889,0.888888889,0.888888889,0.888888889,0.888888889,0.888888889,,0,0,1,1,1,1,1,1,1,1,1,1,1,1,1,1,1,1,1,1,1,1,1,1,1,1,1,1,1,1,1,1,1,1,1,1,1,1,1,1,1,1,1,1,1,1,1,1,1,1,,-1,-1,-1,-1,-1,-1,-1,-1,-1,-1,-1,-1,-1,-1,-1,-1,-1,-1,-1,-1,-1,-1,-1,-1,-1,-1,-1,-1,-1,-1,-1,-1,-1,-1,-1,-1,-1,-1,-1,-1,-1,-1,-1,-1,-1,-1,-1,-1,-1,-1
0.8,0.8,0.8,0,90,10,0.01,6,RandomEMRemoveCopiers,36,1366,0,0.02,0.04,0.06,0.08,0.1,0.12,0.14,0.16,0.18,0.2,0.992,0.992,0.992,0.992,0.992,0.992,0.992,0.996,0.996,0.996,0.996,0.996,0.996,0.996,0.996,0.996,0.996,0.996,0.996,0.996,0.996,0.996,0.996,0.996,0.996,0.996,1,1,1,1,1,1,1,1,1,1,1,1,1,1,,0,0,0,0,0,0,0,0,0,0,0,1.243766622,1.193597358,1.164661598,1.060152888,1.010873855,1.008110078,0.99956075,0.857099799,0.849945478,0.83233295,1.504177097,1.454038861,1.445612987,1.391879308,1.283226096,1.229555381,1.21841749,1.217075506,1.212713468,1.045770807,0.965192362,0.962100966,0.871575444,0.870828619,0.704329976,0.688080993,0.560767515,0.508443231,0.398996019,0.37705873,0.352758809,0.349946131,0.300575587,0.29538778,0.214726911,0.085108581,0.083864299,0.053562851,0.005897951,0,,0,0,0.870175439,0.82619883,0.843976608,0.817777778,0.803232323,0.682882155,0.703030303,0.744242424,0.773333333,0,0,0,0,0,0,0,0,0,0,0,0,0,0,0,0,0,0,0,0,0,0,0,0,0,0,0,0,0,0,0,0,0,0,0,0,0,0,0,,0,0,1,1,1,1,1,1,1,1,1,1,1,1,1,1,1,1,1,1,1,1,1,1,1,1,1,1,1,1,1,1,1,1,1,1,1,1,1,1,1,1,1,1,1,1,1,1,1,1,,-1,-1,-1,-1,-1,-1,-1,-1,-1,-1,-1,-1,-1,-1,-1,-1,-1,-1,-1,-1,-1,-1,-1,-1,-1,-1,-1,-1,-1,-1,-1,-1,-1,-1,-1,-1,-1,-1,-1,-1,-1,-1,-1,-1,-1,-1,-1,-1,-1,-1
0.8,0.8,0.8,0,90,10,0.01,7,RandomEMDetectCopiers,36,2381,0,0.02,0.04,0.06,0.08,0.1,0.12,0.14,0.16,0.18,0.2,0.22,0.24,0.26,0.28,0.3,0.32,0.34,0.36,0.38,0.4,0.42,0.664,1,1,1,1,1,1,1,1,1,1,1,1,1,1,1,1,1,1,1,1,1,1,1,1,1,1,1,1,,0,0,0,0,0,0,0,0,0,0,0,0,0,0,0,0,0,5.01E-05,0.001283734,0.007375313,0.039891552,0.178040428,0.318356352,0,0,0,0,0,0,0,0,0,0,0,0,0,0,0,0,0,0,0,0,0,0,0,0,0,0,0,0,,0,0,0.879532164,0.817777778,0.817777778,0.821010101,0.821010101,0.693797101,0.720948617,0.753271849,0.821010101,0.724827765,0.729750842,0.729750842,0.789010101,0.756893348,0.78268599,0.788019324,0.781670117,0.787994228,0.787994228,0.787994228,0.782362758,0.767817303,0.779130435,0.81468599,0.813391053,0.827936508,0.827936508,0.853333333,0.78268599,0.800140536,0.800140536,0.838787879,0.871111111,0.888888889,0.888888889,0.888888889,0.853333333,0.871111111,0.871111111,0.871111111,0.871111111,0.871111111,0.888888889,0.888888889,0.888888889,0.888888889,0.888888889,0.888888889,,0,0,1,1,1,1,1,1,1,1,1,1,1,1,1,1,1,1,1,1,1,1,1,1,1,1,1,1,1,1,1,1,1,1,1,1,1,1,1,1,1,1,1,1,1,1,1,1,1,1,,-1,-1,-1,-1,-1,-1,-1,-1,-1,-1,-1,-1,-1,-1,-1,-1,-1,-1,-1,-1,-1,-1,-1,-1,-1,-1,-1,-1,-1,-1,-1,-1,-1,-1,-1,-1,-1,-1,-1,-1,-1,-1,-1,-1,-1,-1,-1,-1,-1,-1
0.8,0.8,0.8,0,90,10,0.01,7,RandomEMRemoveCopiers,36,1317,0,0.02,0.04,0.06,0.08,0.1,0.12,0.14,0.16,0.18,0.2,0.98,0.98,0.98,0.98,0.98,0.98,0.98,0.98,0.98,0.98,0.972,0.972,0.98,0.98,0.98,0.98,0.98,0.98,0.98,0.98,0.984,0.984,0.988,0.988,0.988,0.988,0.992,0.992,0.992,0.996,0.996,0.996,0.996,0.996,0.996,0.996,0.996,1,1,1,,0,0,0,0,0,0,0,0,0,0,0,2.756921463,2.698767164,2.604593891,2.440052126,2.325800343,2.309827963,2.25911279,2.166246982,2.076032725,2.066286851,3.548298785,3.371491927,3.369873725,3.183464253,2.944010653,2.831328253,2.615345156,2.456733602,2.312446496,2.209695853,1.991270059,1.836095163,1.631167327,1.591961727,1.550526819,1.480182383,1.405770433,1.28135403,1.147711346,0.985447936,0.869677254,0.685323384,0.533674019,0.481816291,0.435209418,0.395382559,0.380936952,0.138116256,0.052483044,0,,0,0,0.879532164,0.871111111,0.82619883,0.853333333,0.853333333,0.720463768,0.739511387,0.771511387,0.785777778,0,0,0,0,0,0,0,0,0,0,0,0,0,0,0,0,0,0,0,0,0,0,0,0,0,0,0,0,0,0,0,0,0,0,0,0,0,0,0,,0,0,1,1,1,1,1,1,1,1,1,1,1,1,1,1,1,1,1,1,1,1,1,1,1,1,1,1,1,1,1,1,1,1,1,1,1,1,1,1,1,1,1,1,1,1,1,1,1,1,,-1,-1,-1,-1,-1,-1,-1,-1,-1,-1,-1,-1,-1,-1,-1,-1,-1,-1,-1,-1,-1,-1,-1,-1,-1,-1,-1,-1,-1,-1,-1,-1,-1,-1,-1,-1,-1,-1,-1,-1,-1,-1,-1,-1,-1,-1,-1,-1,-1,-1
0.8,0.8,0.8,0,90,10,0.01,8,RandomEMDetectCopiers,36,2365,0,0.02,0.04,0.06,0.08,0.1,0.12,0.14,0.16,0.18,0.2,0.22,0.24,0.26,0.28,0.3,0.32,0.34,0.36,0.38,0.4,0.42,0.552,1,1,1,1,1,1,1,1,1,1,1,1,1,1,1,1,1,1,1,1,1,1,1,1,1,1,1,1,,0,0,0,0,0,0,0,0,0,0,0,0,0,0,0,0,0,2.50E-05,5.67E-04,0.005499656,0.029675899,0.143981477,0.614818798,0,0,0,0,0,0,0,0,0,0,0,0,0,0,0,0,0,0,0,0,0,0,0,0,0,0,0,0,,0,0,0.888888889,0.821010101,0.853333333,0.853333333,0.853333333,0.755696091,0.755696091,0.808888889,0.853333333,0.776565657,0.838787879,0.856565657,0.826666667,0.795613276,0.803232323,0.81468599,0.77474371,0.798845599,0.821010101,0.838787879,0.831168831,0.863492063,0.871111111,0.871111111,0.838787879,0.838787879,0.853333333,0.871111111,0.853333333,0.853333333,0.853333333,0.853333333,0.853333333,0.888888889,0.888888889,0.888888889,0.888888889,0.888888889,0.888888889,0.888888889,0.888888889,0.888888889,0.888888889,0.888888889,0.888888889,0.888888889,0.888888889,0.888888889,,0,0,1,1,1,1,1,1,1,1,1,1,1,1,1,1,1,1,1,1,1,1,1,1,1,1,1,1,1,1,1,1,1,1,1,1,1,1,1,1,1,1,1,1,1,1,1,1,1,1,,-1,-1,-1,-1,-1,-1,-1,-1,-1,-1,-1,-1,-1,-1,-1,-1,-1,-1,-1,-1,-1,-1,-1,-1,-1,-1,-1,-1,-1,-1,-1,-1,-1,-1,-1,-1,-1,-1,-1,-1,-1,-1,-1,-1,-1,-1,-1,-1,-1,-1
0.8,0.8,0.8,0,90,10,0.01,8,RandomEMRemoveCopiers,36,1230,0,0.02,0.04,0.06,0.08,0.1,0.12,0.14,0.16,0.18,0.2,0.996,0.996,0.996,0.996,0.996,0.996,0.996,0.996,0.996,0.996,0.992,0.992,0.992,0.992,0.992,0.992,0.992,0.992,0.992,0.992,0.996,0.996,0.996,0.996,0.996,0.996,0.996,0.996,0.996,1,0.996,1,1,1,1,1,1,1,1,1,,0,0,0,0,0,0,0,0,0,0,0,0.875341803,0.874893973,0.872900311,0.825943618,0.745293143,0.738810128,0.712737661,0.709963062,0.709354159,0.703217548,1.365577687,1.346802,1.30192935,1.149767924,1.13982577,1.102810332,1.092317421,1.054661178,1.011596235,1.001684339,1.204328997,1.169505258,1.064632777,0.956640572,0.766304723,0.647317713,0.637298749,0.626417003,0.586073052,0.469677547,0.299678304,0.151610749,0.138306355,0.119461663,0.089451437,0.082599966,0.066778569,0.017562635,0.01499424,0,,0,0,0.888888889,0.853333333,0.853333333,0.835555556,0.821010101,0.71421461,0.720011711,0.730020202,0.762020202,0,0,0,0,0,0,0,0,0,0,0,0,0,0,0,0,0,0,0,0,0,0,0,0,0,0,0,0,0,0,0,0,0,0,0,0,0,0,0,,0,0,1,1,1,1,1,1,1,1,1,1,1,1,1,1,1,1,1,1,1,1,1,1,1,1,1,1,1,1,1,1,1,1,1,1,1,1,1,1,1,1,1,1,1,1,1,1,1,1,,-1,-1,-1,-1,-1,-1,-1,-1,-1,-1,-1,-1,-1,-1,-1,-1,-1,-1,-1,-1,-1,-1,-1,-1,-1,-1,-1,-1,-1,-1,-1,-1,-1,-1,-1,-1,-1,-1,-1,-1,-1,-1,-1,-1,-1,-1,-1,-1,-1,-1
0.8,0.8,0.8,0,90,10,0.01,9,RandomEMDetectCopiers,36,2417,0,0.02,0.04,0.06,0.08,0.1,0.12,0.14,0.16,0.18,0.2,0.22,0.24,0.26,0.28,0.3,0.32,0.34,0.36,0.38,0.4,0.42,0.552,1,1,1,1,1,1,1,1,1,1,1,1,1,1,1,1,1,1,1,1,1,1,1,1,1,1,1,1,,0,0,0,0,0,0,0,0,0,0,0,0,0,0,0,0,0,7.51E-05,7.81E-04,0.005674835,0.031217468,0.140586187,0.470126916,0,0,0,0,0,0,0,0,0,0,0,0,0,0,0,0,0,0,0,0,0,0,0,0,0,0,0,0,,0,0,0.870175439,0.77021645,0.761327561,0.748077044,0.760198256,0.72,0.745299145,0.784087024,0.812121212,0.719168831,0.748744589,0.817777778,0.806464646,0.72969697,0.767817303,0.806464646,0.73258498,0.770241546,0.762020202,0.806464646,0.806464646,0.768946609,0.838787879,0.821010101,0.838787879,0.856565657,0.856565657,0.856565657,0.806464646,0.821010101,0.821010101,0.856565657,0.826666667,0.853333333,0.871111111,0.853333333,0.835555556,0.853333333,0.853333333,0.835555556,0.853333333,0.835555556,0.817777778,0.853333333,0.853333333,0.871111111,0.888888889,0.888888889,,0,0,1,1,1,1,1,1,1,1,1,1,1,1,1,1,1,1,1,1,1,1,1,1,1,1,1,1,1,1,1,1,1,1,1,1,1,1,1,1,1,1,1,1,1,1,1,1,1,1,,-1,-1,-1,-1,-1,-1,-1,-1,-1,-1,-1,-1,-1,-1,-1,-1,-1,-1,-1,-1,-1,-1,-1,-1,-1,-1,-1,-1,-1,-1,-1,-1,-1,-1,-1,-1,-1,-1,-1,-1,-1,-1,-1,-1,-1,-1,-1,-1,-1,-1
0.8,0.8,0.8,0,90,10,0.01,9,RandomEMRemoveCopiers,36,1475,0,0.02,0.04,0.06,0.08,0.1,0.12,0.14,0.16,0.18,0.2,0.996,0.996,0.996,0.996,0.996,0.996,0.996,0.996,0.996,0.996,0.996,1,1,1,1,1,1,1,1,1,1,1,1,1,1,1,1,1,1,1,1,1,1,1,1,1,1,1,1,1,,0,0,0,0,0,0,0,0,0,0,0,0.585661164,0.58528659,0.585163716,0.581820078,0.57409533,0.574073028,0.573260925,0.573048178,0.541323362,0.540790637,0.606903829,0.461523479,0.461103282,0.459091678,0.437365035,0.335498841,0.335153077,0.33474107,0.333199062,0.320165123,0.358014359,0.339793439,0.330619029,0.319790398,0.316971758,0.279779427,0.274728836,0.234089331,0.212617946,0.204327828,0.187637234,0.079803386,0.078639513,0.077300552,0.075881604,0.075703709,0.074200965,0.07360621,0.066479951,0,,0,0,0.888888889,0.845714286,0.836357561,0.835555556,0.81015873,0.734309246,0.750362758,0.767817303,0.831168831,0,0,0,0,0,0,0,0,0,0,0,0,0,0,0,0,0,0,0,0,0,0,0,0,0,0,0,0,0,0,0,0,0,0,0,0,0,0,0,,0,0,1,1,1,1,1,1,1,1,1,1,1,1,1,1,1,1,1,1,1,1,1,1,1,1,1,1,1,1,1,1,1,1,1,1,1,1,1,1,1,1,1,1,1,1,1,1,1,1,,-1,-1,-1,-1,-1,-1,-1,-1,-1,-1,-1,-1,-1,-1,-1,-1,-1,-1,-1,-1,-1,-1,-1,-1,-1,-1,-1,-1,-1,-1,-1,-1,-1,-1,-1,-1,-1,-1,-1,-1,-1,-1,-1,-1,-1,-1,-1,-1,-1,-1
0.8,0.8,0.8,0,90,10,0.01,10,RandomEMDetectCopiers,36,2383,0,0.02,0.04,0.06,0.08,0.1,0.12,0.14,0.16,0.18,0.2,0.22,0.24,0.26,0.28,0.3,0.32,0.34,0.36,0.38,0.4,0.42,0.552,1,1,1,1,1,1,1,1,1,1,1,1,1,1,1,1,1,1,1,1,1,1,1,1,1,1,1,1,,0,0,0,0,0,0,0,0,0,0,0,0,0,0,0,0,0,1.00E-04,9.27E-04,0.006615113,0.027577421,0.130780293,0.481987431,0,0,0,0,0,0,0,0,0,0,0,0,0,0,0,0,0,0,0,0,0,0,0,0,0,0,0,0,,0,0,0.879532164,0.871111111,0.856565657,0.853333333,0.853333333,0.750039526,0.779130435,0.796908213,0.796908213,0.76458498,0.750039526,0.76458498,0.756363636,0.744242424,0.774141414,0.803232323,0.717048748,0.767817303,0.81468599,0.81468599,0.81468599,0.81468599,0.821010101,0.835555556,0.845714286,0.863492063,0.863492063,0.845714286,0.853333333,0.888888889,0.888888889,0.888888889,0.888888889,0.888888889,0.888888889,0.888888889,0.888888889,0.888888889,0.888888889,0.888888889,0.888888889,0.888888889,0.888888889,0.888888889,0.888888889,0.888888889,0.888888889,0.888888889,,0,0,1,1,1,1,1,1,1,1,1,1,1,1,1,1,1,1,1,1,1,1,1,1,1,1,1,1,1,1,1,1,1,1,1,1,1,1,1,1,1,1,1,1,1,1,1,1,1,1,,-1,-1,-1,-1,-1,-1,-1,-1,-1,-1,-1,-1,-1,-1,-1,-1,-1,-1,-1,-1,-1,-1,-1,-1,-1,-1,-1,-1,-1,-1,-1,-1,-1,-1,-1,-1,-1,-1,-1,-1,-1,-1,-1,-1,-1,-1,-1,-1,-1,-1
0.8,0.8,0.8,0,90,10,0.01,10,RandomEMRemoveCopiers,36,1308,0,0.02,0.04,0.06,0.08,0.1,0.12,0.14,0.16,0.18,0.2,1,1,0.996,0.996,0.996,0.996,0.996,0.996,0.996,0.996,1,1,1,1,1,1,1,1,1,1,1,1,1,1,1,1,1,1,1,1,1,1,1,1,1,1,1,1,1,1,,0,0,0,0,0,0,0,0,0,0,0,0.925718944,0.919693846,0.796025987,0.792802531,0.782721149,0.782385403,0.773123261,0.77188266,0.64053876,0.626284157,2.072857373,1.901964319,1.891218727,1.636287799,1.557180664,1.518410711,1.379876101,1.315084206,1.1726992,1.081286371,1.030364234,0.85888135,0.825415959,0.815065229,0.789976484,0.731230099,0.694995771,0.489670967,0.352122942,0.300394574,0.246643636,0.218744751,0.093260769,0.025410916,0.023980041,0.021928033,0.015939651,0.009279495,0.002553238,0,,0,0,0.888888889,0.871111111,0.853333333,0.853333333,0.871111111,0.737918314,0.75826087,0.785454545,0.803232323,0,0,0,0,0,0,0,0,0,0,0,0,0,0,0,0,0,0,0,0,0,0,0,0,0,0,0,0,0,0,0,0,0,0,0,0,0,0,0,,0,0,1,1,1,1,1,1,1,1,1,1,1,1,1,1,1,1,1,1,1,1,1,1,1,1,1,1,1,1,1,1,1,1,1,1,1,1,1,1,1,1,1,1,1,1,1,1,1,1,,-1,-1,-1,-1,-1,-1,-1,-1,-1,-1,-1,-1,-1,-1,-1,-1,-1,-1,-1,-1,-1,-1,-1,-1,-1,-1,-1,-1,-1,-1,-1,-1,-1,-1,-1,-1,-1,-1,-1,-1,-1,-1,-1,-1,-1,-1,-1,-1,-1,-1
0.8,0.8,0.8,0,90,10,0.01,11,RandomEMDetectCopiers,36,2343,0,0.02,0.04,0.06,0.08,0.1,0.12,0.14,0.16,0.18,0.2,0.22,0.24,0.26,0.28,0.3,0.32,0.34,0.36,0.38,0.4,0.42,0.888,1,1,1,1,1,1,1,1,1,1,1,1,1,1,1,1,1,1,1,1,1,1,1,1,1,1,1,1,,0,0,0,0,0,0,0,0,0,0,0,0,0,0,0,0,2.50E-05,1.19E-04,8.96E-04,0.00519245,0.02953182,0.140557426,0.118812513,0,0,0,0,0,0,0,0,0,0,0,0,0,0,0,0,0,0,0,0,0,0,0,0,0,0,0,0,,0,0,0.909803922,0.892026144,0.835555556,0.853333333,0.82031746,0.661335701,0.689230769,0.76954157,0.76954157,0.675810787,0.702013685,0.751763792,0.762343434,0.716531469,0.734309246,0.766309246,0.71028231,0.735084175,0.776565657,0.788686869,0.755670996,0.758095238,0.777835498,0.81015873,0.737918314,0.76458498,0.770909091,0.788686869,0.771232323,0.806464646,0.838787879,0.853333333,0.835555556,0.835555556,0.835555556,0.835555556,0.835555556,0.835555556,0.835555556,0.835555556,0.835555556,0.835555556,0.835555556,0.835555556,0.817777778,0.817777778,0.8,0.8,,0,0,1,1,1,1,1,1,1,1,1,1,1,1,1,1,1,1,1,1,1,1,1,1,1,1,1,1,1,1,1,1,1,1,1,1,1,1,1,1,1,1,1,1,1,1,1,1,1,1,,-1,-1,-1,-1,-1,-1,-1,-1,-1,-1,-1,-1,-1,-1,-1,-1,-1,-1,-1,-1,-1,-1,-1,-1,-1,-1,-1,-1,-1,-1,-1,-1,-1,-1,-1,-1,-1,-1,-1,-1,-1,-1,-1,-1,-1,-1,-1,-1,-1,-1
0.8,0.8,0.8,0,90,10,0.01,11,RandomEMRemoveCopiers,36,1270,0,0.02,0.04,0.06,0.08,0.1,0.12,0.14,0.16,0.18,0.2,0.984,0.984,0.984,0.98,0.98,0.98,0.98,0.98,0.98,0.98,0.968,0.968,0.968,0.968,0.972,0.972,0.972,0.972,0.98,0.98,0.98,0.98,0.984,0.984,0.988,0.988,0.992,0.992,0.992,0.996,1,1,1,1,1,1,1,1,1,1,,0,0,0,0,0,0,0,0,0,0,0,2.818941087,2.80238682,2.717570275,2.684593048,2.587467474,2.542120602,2.535099139,2.513852829,2.489085678,2.460786441,3.986930158,3.959413714,3.682384982,3.420919364,3.238371681,3.037825534,2.893180653,2.881242707,2.572547198,2.375209137,2.326959173,2.127888012,1.911601043,1.732305127,1.47077861,1.293236663,1.1541132,1.070092895,0.947814047,0.904635646,0.617815253,0.572620577,0.523515511,0.414304759,0.398680179,0.388303841,0.252088021,0.140524307,0.066820234,0,,0,0,0.899346405,0.848552754,0.838095238,0.845714286,0.850241546,0.679715415,0.69769697,0.729029425,0.729029425,0,0,0,0,0,0,0,0,0,0,0,0,0,0,0,0,0,0,0,0,0,0,0,0,0,0,0,0,0,0,0,0,0,0,0,0,0,0,0,,0,0,1,1,1,1,1,1,1,1,1,1,1,1,1,1,1,1,1,1,1,1,1,1,1,1,1,1,1,1,1,1,1,1,1,1,1,1,1,1,1,1,1,1,1,1,1,1,1,1,,-1,-1,-1,-1,-1,-1,-1,-1,-1,-1,-1,-1,-1,-1,-1,-1,-1,-1,-1,-1,-1,-1,-1,-1,-1,-1,-1,-1,-1,-1,-1,-1,-1,-1,-1,-1,-1,-1,-1,-1,-1,-1,-1,-1,-1,-1,-1,-1,-1,-1
0.8,0.8,0.8,0,90,10,0.01,12,RandomEMDetectCopiers,36,2448,0,0.02,0.04,0.06,0.08,0.1,0.12,0.14,0.16,0.18,0.2,0.22,0.24,0.26,0.28,0.3,0.32,0.34,0.36,0.38,0.4,0.42,0.664,1,1,1,1,1,1,1,1,1,1,1,1,1,1,1,1,1,1,1,1,1,1,1,1,1,1,1,1,,0,0,0,0,0,0,0,0,0,0,0,0,0,0,0,0,0,0,4.98E-04,0.00464627,0.025372787,0.122345913,0.349934565,0,0,0,0,0,0,0,0,0,0,0,0,0,0,0,0,0,0,0,0,0,0,0,0,0,0,0,0,,0,0,0.879532164,0.853333333,0.836357561,0.827936508,0.818579783,0.691372859,0.732659933,0.762020202,0.770909091,0.701986014,0.69769697,0.753454545,0.724363636,0.729427609,0.733986014,0.8,0.72969697,0.72969697,0.817777778,0.871111111,0.853333333,0.835555556,0.853333333,0.856565657,0.856565657,0.871111111,0.871111111,0.871111111,0.853333333,0.853333333,0.888888889,0.888888889,0.888888889,0.888888889,0.888888889,0.888888889,0.888888889,0.888888889,0.888888889,0.871111111,0.871111111,0.871111111,0.871111111,0.888888889,0.888888889,0.888888889,0.888888889,0.888888889,,0,0,1,1,1,1,1,1,1,1,1,1,1,1,1,1,1,1,1,1,1,1,1,1,1,1,1,1,1,1,1,1,1,1,1,1,1,1,1,1,1,1,1,1,1,1,1,1,1,1,,-1,-1,-1,-1,-1,-1,-1,-1,-1,-1,-1,-1,-1,-1,-1,-1,-1,-1,-1,-1,-1,-1,-1,-1,-1,-1,-1,-1,-1,-1,-1,-1,-1,-1,-1,-1,-1,-1,-1,-1,-1,-1,-1,-1,-1,-1,-1,-1,-1,-1
0.8,0.8,0.8,0,90,10,0.01,12,RandomEMRemoveCopiers,36,1449,0,0.02,0.04,0.06,0.08,0.1,0.12,0.14,0.16,0.18,0.2,1,1,1,1,1,1,1,1,1,1,1,1,1,1,1,1,1,1,1,1,1,1,1,1,1,1,1,1,1,1,1,1,1,1,1,1,1,1,1,1,,0,0,0,0,0,0,0,0,0,0,0,0.12588554,0.125769776,0.125426908,0.12502004,0.124813502,0.1233533,0.123264288,0.122247947,0.119676078,0.119522042,0.119433029,0.076038998,0.075090667,0.074914734,0.071004757,0.070979731,0.069754015,0.06920137,0.068976945,0.068976945,0.216232455,0.216003223,0.21124236,0.208275513,0.200055477,0.199695377,0.199611738,0.197739331,0.197644773,0.181470115,0.152730205,0.152282431,0.151439503,0.145598148,0.129876924,0.129088433,0.127074241,0.1150527,0.072623799,0,,0,0,0.879532164,0.850241546,0.821333333,0.807066943,0.803232323,0.747474747,0.776565657,0.835555556,0.853333333,0,0,0,0,0,0,0,0,0,0,0,0,0,0,0,0,0,0,0,0,0,0,0,0,0,0,0,0,0,0,0,0,0,0,0,0,0,0,0,,0,0,1,1,1,1,1,1,1,1,1,1,1,1,1,1,1,1,1,1,1,1,1,1,1,1,1,1,1,1,1,1,1,1,1,1,1,1,1,1,1,1,1,1,1,1,1,1,1,1,,-1,-1,-1,-1,-1,-1,-1,-1,-1,-1,-1,-1,-1,-1,-1,-1,-1,-1,-1,-1,-1,-1,-1,-1,-1,-1,-1,-1,-1,-1,-1,-1,-1,-1,-1,-1,-1,-1,-1,-1,-1,-1,-1,-1,-1,-1,-1,-1,-1,-1
0.8,0.8,0.8,0,90,10,0.01,13,RandomEMDetectCopiers,36,2383,0,0.02,0.04,0.06,0.08,0.1,0.12,0.14,0.16,0.18,0.2,0.22,0.24,0.26,0.28,0.3,0.32,0.34,0.36,0.38,0.4,0.42,0.664,1,1,1,1,1,1,1,1,1,1,1,1,1,1,1,1,1,1,1,1,1,1,1,1,1,1,1,1,,0,0,0,0,0,0,0,0,0,0,0,0,0,0,0,0,0,0,6.73E-04,0.006143629,0.028827778,0.150124444,0.476960351,0,0,0,0,0,0,0,0,0,0,0,0,0,0,0,0,0,0,0,0,0,0,0,0,0,0,0,0,,0,0,0.870175439,0.871111111,0.853333333,0.853333333,0.856565657,0.800140536,0.831168831,0.800140536,0.845714286,0.756363636,0.785454545,0.817777778,0.770909091,0.771232323,0.803232323,0.821010101,0.821010101,0.824242424,0.838787879,0.838787879,0.838787879,0.821010101,0.853333333,0.871111111,0.853333333,0.871111111,0.871111111,0.871111111,0.888888889,0.888888889,0.888888889,0.888888889,0.853333333,0.871111111,0.871111111,0.871111111,0.871111111,0.871111111,0.871111111,0.871111111,0.871111111,0.888888889,0.888888889,0.888888889,0.888888889,0.888888889,0.888888889,0.888888889,,0,0,1,1,1,1,1,1,1,1,1,1,1,1,1,1,1,1,1,1,1,1,1,1,1,1,1,1,1,1,1,1,1,1,1,1,1,1,1,1,1,1,1,1,1,1,1,1,1,1,,-1,-1,-1,-1,-1,-1,-1,-1,-1,-1,-1,-1,-1,-1,-1,-1,-1,-1,-1,-1,-1,-1,-1,-1,-1,-1,-1,-1,-1,-1,-1,-1,-1,-1,-1,-1,-1,-1,-1,-1,-1,-1,-1,-1,-1,-1,-1,-1,-1,-1
0.8,0.8,0.8,0,90,10,0.01,13,RandomEMRemoveCopiers,36,1336,0,0.02,0.04,0.06,0.08,0.1,0.12,0.14,0.16,0.18,0.2,1,1,1,1,1,1,1,1,1,1,1,1,1,1,1,1,1,1,1,1,1,1,1,1,1,1,1,1,1,1,1,1,1,1,1,1,1,1,1,1,,0,0,0,0,0,0,0,0,0,0,0,0.020901446,0.020901446,0.020353679,0.020234095,0.01994308,0.019652357,0.019038877,0.019013851,0.0188296,0.018804574,0.040993157,0.039602952,0.03950944,0.03928691,0.038777046,0.03533948,0.034633466,0.034561161,0.017717373,0.017107188,0.073126299,0.065931072,0.065487926,0.065040738,0.065040738,0.05725835,0.055136182,0.050663734,0.022191755,0.021794162,0.020677586,0.018676561,0.018478572,0.018369537,0.017488663,0.015973351,0.015567642,0.003951075,0.003901023,0,,0,0,0.888888889,0.845714286,0.835555556,0.853333333,0.871111111,0.732908213,0.746568987,0.808888889,0.888888889,0,0,0,0,0,0,0,0,0,0,0,0,0,0,0,0,0,0,0,0,0,0,0,0,0,0,0,0,0,0,0,0,0,0,0,0,0,0,0,,0,0,1,1,1,1,1,1,1,1,1,1,1,1,1,1,1,1,1,1,1,1,1,1,1,1,1,1,1,1,1,1,1,1,1,1,1,1,1,1,1,1,1,1,1,1,1,1,1,1,,-1,-1,-1,-1,-1,-1,-1,-1,-1,-1,-1,-1,-1,-1,-1,-1,-1,-1,-1,-1,-1,-1,-1,-1,-1,-1,-1,-1,-1,-1,-1,-1,-1,-1,-1,-1,-1,-1,-1,-1,-1,-1,-1,-1,-1,-1,-1,-1,-1,-1
0.8,0.8,0.8,0,90,10,0.01,14,RandomEMDetectCopiers,36,2352,0,0.02,0.04,0.06,0.08,0.1,0.12,0.14,0.16,0.18,0.2,0.22,0.24,0.26,0.28,0.3,0.32,0.34,0.36,0.38,0.4,0.42,0.664,1,1,1,1,1,1,1,1,1,1,1,1,1,1,1,1,1,1,1,1,1,1,1,1,1,1,1,1,,0,0,0,0,0,0,0,0,0,0,0,0,0,0,0,0,0,2.50E-05,0.001000739,0.005876156,0.03421646,0.152952647,0.414406329,0,0,0,0,0,0,0,0,0,0,0,0,0,0,0,0,0,0,0,0,0,0,0,0,0,0,0,0,,0,0,0.888888889,0.853333333,0.791111111,0.785454545,0.831168831,0.708912421,0.733293373,0.773235653,0.789289165,0.7364196,0.761493193,0.761493193,0.77474371,0.736096367,0.771511387,0.82031746,0.776038647,0.785595081,0.800140536,0.817918314,0.792521488,0.792521488,0.800140536,0.800140536,0.750222222,0.791919192,0.791919192,0.806464646,0.723372859,0.770909091,0.803232323,0.821010101,0.782362758,0.782362758,0.821010101,0.838787879,0.76458498,0.76458498,0.785454545,0.8,0.788686869,0.785454545,0.785454545,0.8,0.8,0.8,0.8,0.8,,0,0,1,1,1,1,1,1,1,1,1,1,1,1,1,1,1,1,1,1,1,1,1,1,1,1,1,1,1,1,1,1,1,1,1,1,1,1,1,1,1,1,1,1,1,1,1,1,1,1,,-1,-1,-1,-1,-1,-1,-1,-1,-1,-1,-1,-1,-1,-1,-1,-1,-1,-1,-1,-1,-1,-1,-1,-1,-1,-1,-1,-1,-1,-1,-1,-1,-1,-1,-1,-1,-1,-1,-1,-1,-1,-1,-1,-1,-1,-1,-1,-1,-1,-1
0.8,0.8,0.8,0,90,10,0.01,14,RandomEMRemoveCopiers,36,1351,0,0.02,0.04,0.06,0.08,0.1,0.12,0.14,0.16,0.18,0.2,0.996,0.996,0.996,0.996,0.996,0.996,0.996,0.996,0.996,0.996,1,1,1,1,1,1,1,1,1,1,1,1,1,1,1,1,1,1,1,1,1,1,1,1,1,1,1,1,1,1,,0,0,0,0,0,0,0,0,0,0,0,0.463624369,0.439012278,0.43898925,0.438604583,0.390333814,0.387354264,0.381095431,0.380960046,0.380074622,0.379274741,0.735556286,0.624947129,0.615796544,0.61117924,0.606631921,0.606246843,0.544300592,0.453554728,0.451469721,0.435495211,0.989167824,0.971161633,0.755636341,0.721795285,0.712293891,0.706323631,0.593246224,0.567271014,0.562134844,0.494223691,0.468806897,0.421954905,0.389693092,0.352239795,0.292110326,0.191804387,0.077414579,0.043804966,0.029307753,0,,0,0,0.888888889,0.827936508,0.827936508,0.845714286,0.827936508,0.750362758,0.774141414,0.770909091,0.785454545,0,0,0,0,0,0,0,0,0,0,0,0,0,0,0,0,0,0,0,0,0,0,0,0,0,0,0,0,0,0,0,0,0,0,0,0,0,0,0,,0,0,1,1,1,1,1,1,1,1,1,1,1,1,1,1,1,1,1,1,1,1,1,1,1,1,1,1,1,1,1,1,1,1,1,1,1,1,1,1,1,1,1,1,1,1,1,1,1,1,,-1,-1,-1,-1,-1,-1,-1,-1,-1,-1,-1,-1,-1,-1,-1,-1,-1,-1,-1,-1,-1,-1,-1,-1,-1,-1,-1,-1,-1,-1,-1,-1,-1,-1,-1,-1,-1,-1,-1,-1,-1,-1,-1,-1,-1,-1,-1,-1,-1,-1
0.8,0.8,0.8,0,90,10,0.01,15,RandomEMDetectCopiers,36,2369,0,0.02,0.04,0.06,0.08,0.1,0.12,0.14,0.16,0.18,0.2,0.22,0.24,0.26,0.28,0.3,0.32,0.34,0.36,0.38,0.4,0.42,0.44,1,1,1,1,1,1,1,1,1,1,1,1,1,1,1,1,1,1,1,1,1,1,1,1,1,1,1,1,,0,0,0,0,0,0,0,0,0,0,0,0,0,0,0,0,0,0,3.25E-04,0.003934946,0.02245153,0.114668759,0.583880151,0,0,0,0,0,0,0,0,0,0,0,0,0,0,0,0,0,0,0,0,0,0,0,0,0,0,0,0,,0,0,0.870175439,0.871111111,0.853333333,0.835555556,0.803232323,0.725194805,0.794074074,0.826666667,0.826666667,0.768946609,0.794343434,0.781067821,0.774141414,0.782362758,0.796908213,0.817777778,0.75959596,0.788686869,0.788686869,0.821010101,0.803232323,0.803232323,0.803232323,0.817777778,0.770909091,0.785454545,0.817777778,0.835555556,0.785454545,0.785454545,0.785454545,0.785454545,0.770909091,0.785454545,0.785454545,0.792380952,0.792380952,0.792380952,0.792380952,0.8,0.8,0.8,0.8,0.8,0.8,0.8,0.8,0.8,,0,0,1,1,1,1,1,1,1,1,1,1,1,1,1,1,1,1,1,1,1,1,1,1,1,1,1,1,1,1,1,1,1,1,1,1,1,1,1,1,1,1,1,1,1,1,1,1,1,1,,-1,-1,-1,-1,-1,-1,-1,-1,-1,-1,-1,-1,-1,-1,-1,-1,-1,-1,-1,-1,-1,-1,-1,-1,-1,-1,-1,-1,-1,-1,-1,-1,-1,-1,-1,-1,-1,-1,-1,-1,-1,-1,-1,-1,-1,-1,-1,-1,-1,-1
0.8,0.8,0.8,0,90,10,0.01,15,RandomEMRemoveCopiers,36,1248,0,0.02,0.04,0.06,0.08,0.1,0.12,0.14,0.16,0.18,0.2,0.988,0.988,0.988,0.988,0.988,0.988,0.988,0.988,0.988,0.988,0.992,0.992,0.992,0.992,0.996,0.996,0.992,0.996,0.996,0.996,0.992,0.992,0.992,0.992,0.992,0.992,0.992,0.992,0.992,0.992,0.992,0.992,0.996,0.996,0.996,1,1,1,1,1,,0,0,0,0,0,0,0,0,0,0,0,1.095340444,1.087862641,1.059805786,1.058191375,1.055602284,1.053500855,1.052777667,0.918804152,0.910915349,0.908098547,1.568270652,1.566435028,1.556447477,1.511924044,1.409948076,1.384293346,1.321389888,1.285115358,1.272491981,1.080017627,1.267777825,1.17101566,1.147896214,1.115331468,1.098335407,1.075516395,1.043857105,1.028642264,0.892260453,0.861968774,0.855248065,0.829601616,0.560501331,0.52077634,0.379320705,0.26575873,0.183553595,0.038823625,0.004899644,0,,0,0,0.871111111,0.838787879,0.811653376,0.821010101,0.817777778,0.713396825,0.744565657,0.771232323,0.774141414,0,0,0,0,0,0,0,0,0,0,0,0,0,0,0,0,0,0,0,0,0,0,0,0,0,0,0,0,0,0,0,0,0,0,0,0,0,0,0,,0,0,1,1,1,1,1,1,1,1,1,1,1,1,1,1,1,1,1,1,1,1,1,1,1,1,1,1,1,1,1,1,1,1,1,1,1,1,1,1,1,1,1,1,1,1,1,1,1,1,,-1,-1,-1,-1,-1,-1,-1,-1,-1,-1,-1,-1,-1,-1,-1,-1,-1,-1,-1,-1,-1,-1,-1,-1,-1,-1,-1,-1,-1,-1,-1,-1,-1,-1,-1,-1,-1,-1,-1,-1,-1,-1,-1,-1,-1,-1,-1,-1,-1,-1
0.8,0.8,0.8,0,90,10,0.01,16,RandomEMDetectCopiers,36,2364,0,0.02,0.04,0.06,0.08,0.1,0.12,0.14,0.16,0.18,0.2,0.22,0.24,0.26,0.28,0.3,0.32,0.34,0.36,0.38,0.4,0.42,0.776,1,1,1,1,1,1,1,1,1,1,1,1,1,1,1,1,1,1,1,1,1,1,1,1,1,1,1,1,,0,0,0,0,0,0,0,0,0,0,0,0,0,0,0,0,0,1.22E-04,0.001577091,0.010452145,0.045509674,0.220046602,0.32949178,0,0,0,0,0,0,0,0,0,0,0,0,0,0,0,0,0,0,0,0,0,0,0,0,0,0,0,0,,0,0,0.888888889,0.821010101,0.782362758,0.788686869,0.794343434,0.647480519,0.638817183,0.712242424,0.782362758,0.74989899,0.75959596,0.774141414,0.74989899,0.716854701,0.720463768,0.773333333,0.672463768,0.696706192,0.708827404,0.708827404,0.708827404,0.714624506,0.736096367,0.736096367,0.715540691,0.765714286,0.781391053,0.763613276,0.717346885,0.745835498,0.782362758,0.81468599,0.776038647,0.789289165,0.82031746,0.827936508,0.765714286,0.813391053,0.845714286,0.81015873,0.81015873,0.853333333,0.871111111,0.888888889,0.888888889,0.888888889,0.888888889,0.888888889,,0,0,1,1,1,1,1,1,1,1,1,1,1,1,1,1,1,1,1,1,1,1,1,1,1,1,1,1,1,1,1,1,1,1,1,1,1,1,1,1,1,1,1,1,1,1,1,1,1,1,,-1,-1,-1,-1,-1,-1,-1,-1,-1,-1,-1,-1,-1,-1,-1,-1,-1,-1,-1,-1,-1,-1,-1,-1,-1,-1,-1,-1,-1,-1,-1,-1,-1,-1,-1,-1,-1,-1,-1,-1,-1,-1,-1,-1,-1,-1,-1,-1,-1,-1
0.8,0.8,0.8,0,90,10,0.01,16,RandomEMRemoveCopiers,36,1305,0,0.02,0.04,0.06,0.08,0.1,0.12,0.14,0.16,0.18,0.2,1,1,1,1,1,1,1,1,1,1,1,1,1,1,1,1,1,1,1,1,0.996,0.996,0.996,0.996,0.996,0.996,1,1,1,1,1,1,1,1,1,1,1,1,1,1,,0,0,0,0,0,0,0,0,0,0,0,0.599093486,0.596940233,0.584882738,0.583960157,0.575714969,0.501039739,0.498161798,0.497642139,0.497236242,0.369091226,0.63838535,0.629100598,0.62806556,0.626581756,0.625727204,0.609467382,0.606425063,0.600987628,0.589565621,0.584000483,1.186200598,1.171648816,1.160005635,1.123552052,0.844303632,0.799138593,0.852002984,0.839088218,0.669167915,0.579094722,0.520101572,0.450508617,0.400637276,0.368130776,0.325524303,0.262284177,0.173303347,0.12040349,0.018732731,0,,0,0,0.879532164,0.835555556,0.781067821,0.788686869,0.777835498,0.719440559,0.747474747,0.803232323,0.803232323,0,0,0,0,0,0,0,0,0,0,0,0,0,0,0,0,0,0,0,0,0,0,0,0,0,0,0,0,0,0,0,0,0,0,0,0,0,0,0,,0,0,1,1,1,1,1,1,1,1,1,1,1,1,1,1,1,1,1,1,1,1,1,1,1,1,1,1,1,1,1,1,1,1,1,1,1,1,1,1,1,1,1,1,1,1,1,1,1,1,,-1,-1,-1,-1,-1,-1,-1,-1,-1,-1,-1,-1,-1,-1,-1,-1,-1,-1,-1,-1,-1,-1,-1,-1,-1,-1,-1,-1,-1,-1,-1,-1,-1,-1,-1,-1,-1,-1,-1,-1,-1,-1,-1,-1,-1,-1,-1,-1,-1,-1
0.8,0.8,0.8,0,90,10,0.01,17,RandomEMDetectCopiers,36,2343,0,0.02,0.04,0.06,0.08,0.1,0.12,0.14,0.16,0.18,0.2,0.22,0.24,0.26,0.28,0.3,0.32,0.34,0.36,0.38,0.4,0.42,0.776,1,1,1,1,1,1,1,1,1,1,1,1,1,1,1,1,1,1,1,1,1,1,1,1,1,1,1,1,,0,0,0,0,0,0,0,0,0,0,0,0,0,0,0,0,0,2.50E-05,5.38E-04,0.005763516,0.030884643,0.156024955,0.142161958,0,0,0,0,0,0,0,0,0,0,0,0,0,0,0,0,0,0,0,0,0,0,0,0,0,0,0,0,,0,0,0.888888889,0.82484472,0.807066943,0.801269841,0.821010101,0.735407407,0.782362758,0.800140536,0.800140536,0.700121212,0.781391053,0.769269841,0.770241546,0.74989899,0.759985136,0.758787879,0.733986014,0.740912421,0.765714286,0.8,0.76458498,0.720042856,0.718178054,0.755670996,0.77021645,0.77021645,0.784761905,0.784761905,0.77021645,0.792380952,0.81015873,0.817777778,0.792380952,0.792380952,0.792380952,0.792380952,0.817777778,0.835555556,0.835555556,0.853333333,0.827936508,0.835555556,0.853333333,0.871111111,0.8,0.8,0.8,0.8,,0,0,1,1,1,1,1,1,1,1,1,1,1,1,1,1,1,1,1,1,1,1,1,1,1,1,1,1,1,1,1,1,1,1,1,1,1,1,1,1,1,1,1,1,1,1,1,1,1,1,,-1,-1,-1,-1,-1,-1,-1,-1,-1,-1,-1,-1,-1,-1,-1,-1,-1,-1,-1,-1,-1,-1,-1,-1,-1,-1,-1,-1,-1,-1,-1,-1,-1,-1,-1,-1,-1,-1,-1,-1,-1,-1,-1,-1,-1,-1,-1,-1,-1,-1
0.8,0.8,0.8,0,90,10,0.01,17,RandomEMRemoveCopiers,36,1210,0,0.02,0.04,0.06,0.08,0.1,0.12,0.14,0.16,0.18,0.2,0.996,0.996,0.996,0.996,0.996,0.996,0.996,0.996,0.996,0.996,0.98,0.98,0.98,0.98,0.98,0.98,0.98,0.98,0.98,0.98,0.972,0.972,0.976,0.976,0.976,0.976,0.976,0.98,0.98,0.98,0.98,0.98,0.98,0.984,0.988,0.988,0.992,0.996,0.996,1,,0,0,0,0,0,0,0,0,0,0,0,0.720741095,0.715626512,0.711931256,0.709060448,0.673718148,0.671002102,0.664781857,0.663005582,0.641902193,0.611840828,2.62927496,2.585537058,2.55375149,2.544819404,2.412080613,2.363559751,2.356783369,2.222087322,2.185883493,2.03478927,3.55506264,3.186266773,2.972048886,2.678548002,2.49570591,2.426047645,2.237019685,1.961683139,1.860424332,1.78296241,1.47836516,1.406603971,1.182787398,1.140067614,0.967669259,0.858310351,0.691727415,0.436338559,0.305554921,0,,0,0,0.879532164,0.82031746,0.813391053,0.871111111,0.817777778,0.716854701,0.737918314,0.750039526,0.76458498,0,0,0,0,0,0,0,0,0,0,0,0,0,0,0,0,0,0,0,0,0,0,0,0,0,0,0,0,0,0,0,0,0,0,0,0,0,0,0,,0,0,1,1,1,1,1,1,1,1,1,1,1,1,1,1,1,1,1,1,1,1,1,1,1,1,1,1,1,1,1,1,1,1,1,1,1,1,1,1,1,1,1,1,1,1,1,1,1,1,,-1,-1,-1,-1,-1,-1,-1,-1,-1,-1,-1,-1,-1,-1,-1,-1,-1,-1,-1,-1,-1,-1,-1,-1,-1,-1,-1,-1,-1,-1,-1,-1,-1,-1,-1,-1,-1,-1,-1,-1,-1,-1,-1,-1,-1,-1,-1,-1,-1,-1
0.8,0.8,0.8,0,90,10,0.01,18,RandomEMDetectCopiers,36,2397,0,0.02,0.04,0.06,0.08,0.1,0.12,0.14,0.16,0.18,0.2,0.22,0.24,0.26,0.28,0.3,0.32,0.34,0.36,0.38,0.4,0.42,0.776,1,1,1,1,1,1,1,1,1,1,1,1,1,1,1,1,1,1,1,1,1,1,1,1,1,1,1,1,,0,0,0,0,0,0,0,0,0,0,0,0,0,0,0,0,0,5.01E-05,0.001103008,0.008323508,0.043029477,0.242721762,0.208536074,0,0,0,0,0,0,0,0,0,0,0,0,0,0,0,0,0,0,0,0,0,0,0,0,0,0,0,0,,0,0,0.888888889,0.853333333,0.829431154,0.803232323,0.778662599,0.702760943,0.703494071,0.738909091,0.73258498,0.697427609,0.739232323,0.798845599,0.798845599,0.713116449,0.733986014,0.751763792,0.727521368,0.725097125,0.738909091,0.803232323,0.8,0.767817303,0.756363636,0.785454545,0.744242424,0.758787879,0.770909091,0.803232323,0.791111111,0.776565657,0.808888889,0.808888889,0.776565657,0.788686869,0.776565657,0.794343434,0.817777778,0.817777778,0.835555556,0.824242424,0.853333333,0.871111111,0.871111111,0.871111111,0.806464646,0.835555556,0.817777778,0.888888889,,0,0,1,1,1,1,1,1,1,1,1,1,1,1,1,1,1,1,1,1,1,1,1,1,1,1,1,1,1,1,1,1,1,1,1,1,1,1,1,1,1,1,1,1,1,1,1,1,1,1,,-1,-1,-1,-1,-1,-1,-1,-1,-1,-1,-1,-1,-1,-1,-1,-1,-1,-1,-1,-1,-1,-1,-1,-1,-1,-1,-1,-1,-1,-1,-1,-1,-1,-1,-1,-1,-1,-1,-1,-1,-1,-1,-1,-1,-1,-1,-1,-1,-1,-1
0.8,0.8,0.8,0,90,10,0.01,18,RandomEMRemoveCopiers,36,1403,0,0.02,0.04,0.06,0.08,0.1,0.12,0.14,0.16,0.18,0.2,0.992,0.992,0.992,0.996,0.996,0.996,0.996,0.996,0.996,0.996,0.988,0.988,0.992,0.996,0.996,0.996,0.996,0.996,0.996,0.996,0.996,0.996,0.996,1,1,1,1,1,1,1,0.992,1,0.996,0.996,0.996,0.996,0.996,0.996,1,1,,0,0,0,0,0,0,0,0,0,0,0,0.520977145,0.49914891,0.482571822,0.435515741,0.435039145,0.433326904,0.432858619,0.430831096,0.427526164,0.397724434,0.338750993,0.324483196,0.358885053,0.217269002,0.205498706,0.204128762,0.198987215,0.14556152,0.145314927,0.142708617,0.236582986,0.233552885,0.217025747,0.190600442,0.188378135,0.168527405,0.161799602,0.157052696,0.146784119,0.139663708,0.532414475,0.420135319,0.305808624,0.302238628,0.266725908,0.188401828,0.186168887,0.147296646,0.003088744,0,,0,0,0.888888889,0.853333333,0.827936508,0.838787879,0.824242424,0.782362758,0.777835498,0.773333333,0.81468599,0,0,0,0,0,0,0,0,0,0,0,0,0,0,0,0,0,0,0,0,0,0,0,0,0,0,0,0,0,0,0,0,0,0,0,0,0,0,0,,0,0,1,1,1,1,1,1,1,1,1,1,1,1,1,1,1,1,1,1,1,1,1,1,1,1,1,1,1,1,1,1,1,1,1,1,1,1,1,1,1,1,1,1,1,1,1,1,1,1,,-1,-1,-1,-1,-1,-1,-1,-1,-1,-1,-1,-1,-1,-1,-1,-1,-1,-1,-1,-1,-1,-1,-1,-1,-1,-1,-1,-1,-1,-1,-1,-1,-1,-1,-1,-1,-1,-1,-1,-1,-1,-1,-1,-1,-1,-1,-1,-1,-1,-1
0.8,0.8,0.8,0,90,10,0.01,19,RandomEMDetectCopiers,36,2331,0,0.02,0.04,0.06,0.08,0.1,0.12,0.14,0.16,0.18,0.2,0.22,0.24,0.26,0.28,0.3,0.32,0.34,0.36,0.38,0.4,0.42,0.664,1,1,1,1,1,1,1,1,1,1,1,1,1,1,1,1,1,1,1,1,1,1,1,1,1,1,1,1,,0,0,0,0,0,0,0,0,0,0,0,0,0,0,0,0,0,0,0.001106755,0.007204393,0.033149985,0.184845089,0.415394955,0,0,0,0,0,0,0,0,0,0,0,0,0,0,0,0,0,0,0,0,0,0,0,0,0,0,0,0,,0,0,0.871111111,0.838787879,0.838787879,0.853333333,0.813391053,0.748744589,0.755670996,0.755670996,0.777835498,0.672463768,0.696706192,0.741818182,0.774141414,0.7364196,0.74274371,0.779270971,0.720463768,0.755696091,0.776038647,0.776038647,0.760380952,0.77815873,0.821010101,0.821010101,0.773333333,0.785454545,0.773333333,0.773333333,0.770909091,0.785454545,0.8,0.817777778,0.788686869,0.788686869,0.821010101,0.821010101,0.821010101,0.835555556,0.835555556,0.817777778,0.817777778,0.835555556,0.835555556,0.835555556,0.835555556,0.835555556,0.853333333,0.8,,0,0,1,1,1,1,1,1,1,1,1,1,1,1,1,1,1,1,1,1,1,1,1,1,1,1,1,1,1,1,1,1,1,1,1,1,1,1,1,1,1,1,1,1,1,1,1,1,1,1,,-1,-1,-1,-1,-1,-1,-1,-1,-1,-1,-1,-1,-1,-1,-1,-1,-1,-1,-1,-1,-1,-1,-1,-1,-1,-1,-1,-1,-1,-1,-1,-1,-1,-1,-1,-1,-1,-1,-1,-1,-1,-1,-1,-1,-1,-1,-1,-1,-1,-1
0.8,0.8,0.8,0,90,10,0.01,19,RandomEMRemoveCopiers,36,1205,0,0.02,0.04,0.06,0.08,0.1,0.12,0.14,0.16,0.18,0.2,0.984,0.98,0.98,0.98,0.98,0.98,0.98,0.98,0.98,0.98,0.98,0.984,0.984,0.984,0.984,0.984,0.984,0.984,0.984,0.984,0.984,0.984,0.984,0.984,0.984,0.992,0.992,0.992,0.992,0.992,0.992,0.996,0.996,1,1,1,1,1,1,1,,0,0,0,0,0,0,0,0,0,0,0,4.927215657,4.755162466,4.513126816,4.294533887,4.132241948,4.004323763,3.958195017,3.860455825,3.815675918,3.63131553,3.579190985,3.450643744,3.064175358,2.890437759,2.697786671,2.454438265,2.440100532,2.398065835,2.263478185,1.950453065,2.084310054,2.070465026,2.04218208,1.789274582,1.705439521,1.506661829,1.493598584,1.34036141,1.291523467,1.174704072,1.104977167,0.781461036,0.731103257,0.667229524,0.523374256,0.368037272,0.20233472,0.176746086,0.066326216,0,,0,0,0.879532164,0.847208931,0.829431154,0.843976608,0.843976608,0.689384537,0.687022076,0.710884607,0.686180422,0,0,0,0,0,0,0,0,0,0,0,0,0,0,0,0,0,0,0,0,0,0,0,0,0,0,0,0,0,0,0,0,0,0,0,0,0,0,0,,0,0,1,1,1,1,1,1,1,1,1,1,1,1,1,1,1,1,1,1,1,1,1,1,1,1,1,1,1,1,1,1,1,1,1,1,1,1,1,1,1,1,1,1,1,1,1,1,1,1,,-1,-1,-1,-1,-1,-1,-1,-1,-1,-1,-1,-1,-1,-1,-1,-1,-1,-1,-1,-1,-1,-1,-1,-1,-1,-1,-1,-1,-1,-1,-1,-1,-1,-1,-1,-1,-1,-1,-1,-1,-1,-1,-1,-1,-1,-1,-1,-1,-1,-1
0.8,0.8,0.8,0,90,10,0.01,20,RandomEMDetectCopiers,36,2335,0,0.02,0.04,0.06,0.08,0.1,0.12,0.14,0.16,0.18,0.2,0.22,0.24,0.26,0.28,0.3,0.32,0.34,0.36,0.38,0.4,0.42,0.552,1,1,1,1,1,1,1,1,1,1,1,1,1,1,1,1,1,1,1,1,1,1,1,1,1,1,1,1,,0,0,0,0,0,0,0,0,0,0,0,0,0,0,0,0,0,2.50E-05,5.66E-04,0.00454065,0.023871132,0.142484206,0.383099281,0,0,0,0,0,0,0,0,0,0,0,0,0,0,0,0,0,0,0,0,0,0,0,0,0,0,0,0,,0,0,0.870175439,0.845714286,0.861754386,0.861754386,0.852397661,0.703030303,0.690382082,0.703030303,0.750039526,0.758787879,0.81468599,0.81468599,0.795613276,0.744242424,0.753454545,0.800140536,0.781067821,0.782362758,0.782362758,0.803232323,0.795613276,0.773333333,0.791111111,0.785454545,0.777835498,0.76389234,0.803232323,0.803232323,0.788686869,0.788686869,0.803232323,0.803232323,0.803232323,0.803232323,0.835555556,0.835555556,0.8,0.8,0.817777778,0.817777778,0.817777778,0.8,0.8,0.8,0.8,0.8,0.8,0.8,,0,0,1,1,1,1,1,1,1,1,1,1,1,1,1,1,1,1,1,1,1,1,1,1,1,1,1,1,1,1,1,1,1,1,1,1,1,1,1,1,1,1,1,1,1,1,1,1,1,1,,-1,-1,-1,-1,-1,-1,-1,-1,-1,-1,-1,-1,-1,-1,-1,-1,-1,-1,-1,-1,-1,-1,-1,-1,-1,-1,-1,-1,-1,-1,-1,-1,-1,-1,-1,-1,-1,-1,-1,-1,-1,-1,-1,-1,-1,-1,-1,-1,-1,-1
0.8,0.8,0.8,0,90,10,0.01,20,RandomEMRemoveCopiers,36,1249,0,0.02,0.04,0.06,0.08,0.1,0.12,0.14,0.16,0.18,0.2,0.996,0.996,0.996,0.996,0.996,0.996,1,1,1,1,0.984,0.984,0.984,0.984,0.984,0.992,0.992,0.992,0.992,0.992,0.992,0.992,0.992,0.992,0.992,0.992,0.992,0.992,0.996,0.996,0.996,0.996,0.996,1,1,1,1,1,1,1,,0,0,0,0,0,0,0,0,0,0,0,0.697678492,0.657936569,0.655179831,0.654827608,0.654340245,0.65401979,0.627947927,0.625120538,0.607723014,0.524997346,2.530604766,2.493888456,2.378867829,2.219254361,2.139352876,1.864898616,1.840711345,1.741755285,1.589908743,1.574345406,1.464183608,1.353929898,1.277624811,1.25955685,1.238416681,1.195849582,1.038551269,1.029884913,0.898024573,0.79467147,0.775605369,0.726498533,0.573757398,0.428651737,0.349901277,0.310940697,0.18552372,0.053059577,0.020953345,0,,0,0,0.888888889,0.871111111,0.835555556,0.817777778,0.835555556,0.682929808,0.70098665,0.713718745,0.761327561,0,0,0,0,0,0,0,0,0,0,0,0,0,0,0,0,0,0,0,0,0,0,0,0,0,0,0,0,0,0,0,0,0,0,0,0,0,0,0,,0,0,1,1,1,1,1,1,1,1,1,1,1,1,1,1,1,1,1,1,1,1,1,1,1,1,1,1,1,1,1,1,1,1,1,1,1,1,1,1,1,1,1,1,1,1,1,1,1,1,,-1,-1,-1,-1,-1,-1,-1,-1,-1,-1,-1,-1,-1,-1,-1,-1,-1,-1,-1,-1,-1,-1,-1,-1,-1,-1,-1,-1,-1,-1,-1,-1,-1,-1,-1,-1,-1,-1,-1,-1,-1,-1,-1,-1,-1,-1,-1,-1,-1,-1
0.8,0.8,0.8,0,90,10,0.01,21,RandomEMDetectCopiers,36,2350,0,0.02,0.04,0.06,0.08,0.1,0.12,0.14,0.16,0.18,0.2,0.22,0.24,0.26,0.28,0.3,0.32,0.34,0.36,0.38,0.4,0.42,0.776,1,1,1,1,1,1,1,1,1,1,1,1,1,1,1,1,1,1,1,1,1,1,1,1,1,1,1,1,,0,0,0,0,0,0,0,0,0,0,0,0,0,0,0,0,0,2.50E-05,9.33E-04,0.00747575,0.035525747,0.197579249,0.335123015,0,0,0,0,0,0,0,0,0,0,0,0,0,0,0,0,0,0,0,0,0,0,0,0,0,0,0,0,,0,0,0.879532164,0.792380952,0.845714286,0.824242424,0.829431154,0.691372859,0.711251647,0.762020202,0.770909091,0.700121212,0.755696091,0.750039526,0.763290043,0.747205387,0.792521488,0.832463768,0.77952862,0.771232323,0.803232323,0.803232323,0.838787879,0.853333333,0.853333333,0.853333333,0.81015873,0.817777778,0.835555556,0.871111111,0.789289165,0.813391053,0.813391053,0.827936508,0.845714286,0.888888889,0.888888889,0.888888889,0.856565657,0.856565657,0.856565657,0.856565657,0.856565657,0.871111111,0.871111111,0.888888889,0.888888889,0.888888889,0.888888889,0.888888889,,0,0,1,1,1,1,1,1,1,1,1,1,1,1,1,1,1,1,1,1,1,1,1,1,1,1,1,1,1,1,1,1,1,1,1,1,1,1,1,1,1,1,1,1,1,1,1,1,1,1,,-1,-1,-1,-1,-1,-1,-1,-1,-1,-1,-1,-1,-1,-1,-1,-1,-1,-1,-1,-1,-1,-1,-1,-1,-1,-1,-1,-1,-1,-1,-1,-1,-1,-1,-1,-1,-1,-1,-1,-1,-1,-1,-1,-1,-1,-1,-1,-1,-1,-1
0.8,0.8,0.8,0,90,10,0.01,21,RandomEMRemoveCopiers,36,1094,0,0.02,0.04,0.06,0.08,0.1,0.12,0.14,0.16,0.18,0.2,0.904,0.956,0.908,0.956,0.956,0.96,0.96,0.96,0.956,0.956,0.964,0.964,0.964,0.964,0.968,0.968,0.968,0.976,0.976,0.976,0.976,0.98,0.98,0.98,0.98,0.98,0.98,0.98,0.984,0.98,0.984,0.98,0.984,0.988,0.988,0.992,0.992,0.996,0.996,1,,0,0,0,0,0,0,0,0,0,0,0,6.426846892,6.395658822,6.164933623,6.044953116,5.86571051,5.55633343,5.33833608,5.150163519,5.122446599,4.940182022,4.774051333,4.499573029,4.306400232,4.1293994,3.946033712,3.765546254,3.598650142,3.533143019,3.459190499,3.247305636,3.381636899,3.1048773,2.934991681,2.780747682,2.572752416,2.419095346,2.202966854,2.067944677,1.866254406,1.740731543,1.566321207,1.452999907,1.204985319,0.981907167,0.868127212,0.609206274,0.494825913,0.338763501,0.197241159,0,,0,0,0.899346405,0.861754386,0.817918314,0.805797101,0.800140536,0.663198135,0.653716654,0.704410256,0.700952381,0,0,0,0,0,0,0,0,0,0,0,0,0,0,0,0,0,0,0,0,0,0,0,0,0,0,0,0,0,0,0,0,0,0,0,0,0,0,0,,0,0,1,1,1,1,1,1,1,1,1,1,1,1,1,1,1,1,1,1,1,1,1,1,1,1,1,1,1,1,1,1,1,1,1,1,1,1,1,1,1,1,1,1,1,1,1,1,1,1,,-1,-1,-1,-1,-1,-1,-1,-1,-1,-1,-1,-1,-1,-1,-1,-1,-1,-1,-1,-1,-1,-1,-1,-1,-1,-1,-1,-1,-1,-1,-1,-1,-1,-1,-1,-1,-1,-1,-1,-1,-1,-1,-1,-1,-1,-1,-1,-1,-1,-1
0.8,0.8,0.8,0,90,10,0.01,22,RandomEMDetectCopiers,36,2383,0,0.02,0.04,0.06,0.08,0.1,0.12,0.14,0.16,0.18,0.2,0.22,0.24,0.26,0.28,0.3,0.32,0.34,0.36,0.38,0.4,0.42,0.552,1,1,1,1,1,1,1,1,1,1,1,1,1,1,1,1,1,1,1,1,1,1,1,1,1,1,1,1,,0,0,0,0,0,0,0,0,0,0,0,0,0,0,0,0,0,2.50E-05,6.17E-04,0.00582693,0.030830637,0.142243664,0.541205525,0,0,0,0,0,0,0,0,0,0,0,0,0,0,0,0,0,0,0,0,0,0,0,0,0,0,0,0,,0,0,0.888888889,0.853333333,0.82619883,0.821010101,0.82619883,0.736623377,0.768946609,0.781067821,0.81468599,0.758787879,0.762020202,0.794343434,0.791111111,0.733986014,0.747205387,0.761750842,0.717306397,0.741333333,0.770909091,0.788686869,0.782362758,0.800140536,0.817918314,0.824242424,0.770241546,0.796908213,0.81468599,0.871111111,0.838787879,0.853333333,0.871111111,0.871111111,0.835555556,0.835555556,0.853333333,0.853333333,0.871111111,0.871111111,0.888888889,0.871111111,0.871111111,0.871111111,0.888888889,0.888888889,0.888888889,0.888888889,0.888888889,0.888888889,,0,0,1,1,1,1,1,1,1,1,1,1,1,1,1,1,1,1,1,1,1,1,1,1,1,1,1,1,1,1,1,1,1,1,1,1,1,1,1,1,1,1,1,1,1,1,1,1,1,1,,-1,-1,-1,-1,-1,-1,-1,-1,-1,-1,-1,-1,-1,-1,-1,-1,-1,-1,-1,-1,-1,-1,-1,-1,-1,-1,-1,-1,-1,-1,-1,-1,-1,-1,-1,-1,-1,-1,-1,-1,-1,-1,-1,-1,-1,-1,-1,-1,-1,-1
0.8,0.8,0.8,0,90,10,0.01,22,RandomEMRemoveCopiers,36,1365,0,0.02,0.04,0.06,0.08,0.1,0.12,0.14,0.16,0.18,0.2,1,1,1,1,1,1,1,1,1,1,0.996,0.996,1,1,1,1,1,1,1,1,0.996,0.996,0.996,0.996,0.996,0.996,0.996,0.996,0.996,0.996,0.992,0.992,0.992,0.992,0.992,0.992,0.992,1,1,1,,0,0,0,0,0,0,0,0,0,0,0,0.273773309,0.271060591,0.270926531,0.268372658,0.268214344,0.257339628,0.256959454,0.256066779,0.251187915,0.250820279,1.091192389,1.089702967,0.999485211,0.999208372,0.933253249,0.858476601,0.854982417,0.850800078,0.773270064,0.765038465,0.859520553,0.717528327,0.716986244,0.708568715,0.700167817,0.653835872,0.603300464,0.579008668,0.575475402,0.435674164,0.658861211,0.591283356,0.396384872,0.37239591,0.361685793,0.309666243,0.29471671,0.057476463,0.031199219,0,,0,0,0.879532164,0.821010101,0.838787879,0.853333333,0.835555556,0.712242424,0.758787879,0.832463768,0.827936508,0,0,0,0,0,0,0,0,0,0,0,0,0,0,0,0,0,0,0,0,0,0,0,0,0,0,0,0,0,0,0,0,0,0,0,0,0,0,0,,0,0,1,1,1,1,1,1,1,1,1,1,1,1,1,1,1,1,1,1,1,1,1,1,1,1,1,1,1,1,1,1,1,1,1,1,1,1,1,1,1,1,1,1,1,1,1,1,1,1,,-1,-1,-1,-1,-1,-1,-1,-1,-1,-1,-1,-1,-1,-1,-1,-1,-1,-1,-1,-1,-1,-1,-1,-1,-1,-1,-1,-1,-1,-1,-1,-1,-1,-1,-1,-1,-1,-1,-1,-1,-1,-1,-1,-1,-1,-1,-1,-1,-1,-1
0.8,0.8,0.8,0,90,10,0.01,23,RandomEMDetectCopiers,36,2433,0.02,0.04,0.06,0.08,0.1,0.12,0.136,0.156,0.176,0.196,0.216,0.236,0.256,0.276,0.296,0.316,0.336,0.356,0.372,0.392,0.412,0.432,0.66,0.988,0.988,0.988,0.988,0.988,0.988,0.988,0.988,0.988,0.992,0.992,0.992,0.992,0.992,0.992,0.992,0.992,0.992,0.992,0.992,0.992,0.992,0.992,0.992,0.992,0.992,0.996,1,,0,0,0,0,0,0,0,0,5.01E-05,9.35E-05,1.57E-04,4.70E-04,8.97E-04,0.001399268,0.003092302,0.008001259,0.011757194,0.01370133,0.018965866,0.031954947,0.077375287,0.284216626,0.316422956,0,0,0,0,0,0,0,0,0,0,0,0,0,0,0,0,0,0,0,0,0,0,0,0,0,0,0,0,,0,0,0.899346405,0.846013072,0.853333333,0.853333333,0.835555556,0.730894227,0.784087024,0.806464646,0.794343434,0.646617614,0.67039627,0.665837866,0.663198135,0.697427609,0.735817303,0.755696091,0.723696091,0.712565657,0.71789899,0.764444444,0.767676768,0.713835498,0.747130435,0.753454545,0.712242424,0.724363636,0.731290043,0.705918314,0.715753811,0.736623377,0.774141414,0.756363636,0.717575758,0.72969697,0.821010101,0.763290043,0.777835498,0.821010101,0.888888889,0.835555556,0.835555556,0.835555556,0.853333333,0.853333333,0.853333333,0.888888889,0.888888889,0.888888889,,0,0,1,1,1,1,1,1,1,1,1,1,1,1,1,1,1,1,1,1,1,1,1,1,1,1,1,1,1,1,1,1,1,1,1,1,1,1,1,1,1,1,1,1,1,1,1,1,1,1,,-1,-1,-1,-1,-1,-1,-1,-1,-1,-1,-1,-1,-1,-1,-1,-1,-1,-1,-1,-1,-1,-1,-1,-1,-1,-1,-1,-1,-1,-1,-1,-1,-1,-1,-1,-1,-1,-1,-1,-1,-1,-1,-1,-1,-1,-1,-1,-1,-1,-1
0.8,0.8,0.8,0,90,10,0.01,23,RandomEMRemoveCopiers,36,1264,0.02,0.04,0.06,0.08,0.1,0.12,0.136,0.156,0.176,0.196,0.216,1,1,1,1,1,1,1,1,1,1,0.984,0.984,0.984,0.984,0.984,0.984,0.984,0.976,0.976,0.984,0.98,0.98,0.98,0.98,0.992,0.992,0.992,0.992,0.992,0.992,0.992,0.992,0.992,0.992,0.996,0.996,0.996,0.996,1,1,,0,0,0,0,0,2.50E-05,0,6.85E-05,4.73E-05,9.35E-05,1.41E-04,0.261055639,0.248862442,0.233949776,0.233440411,0.223877659,0.218578245,0.218498717,0.216745962,0.216720936,0.216391829,2.099245612,2.079636519,2.025719369,2.001326253,1.958939576,1.89379268,1.84591131,1.675266517,1.46926951,1.319664261,2.077382342,2.03389092,2.013242069,1.708647673,1.402613912,1.388592835,1.305168426,1.264531332,1.222975796,1.055002749,1.010535099,1.003871932,0.757075425,0.655669362,0.454179076,0.296001447,0.156536507,0.125828698,0.022349272,0,,0,0,0.888888889,0.845714286,0.831168831,0.835555556,0.817777778,0.803232323,0.806464646,0.791919192,0.821010101,0,0,0,0,0,0,0,0,0,0,0,0,0,0,0,0,0,0,0,0,0,0,0,0,0,0,0,0,0,0,0,0,0,0,0,0,0,0,0,,0,0,1,1,1,1,1,1,1,1,1,1,1,1,1,1,1,1,1,1,1,1,1,1,1,1,1,1,1,1,1,1,1,1,1,1,1,1,1,1,1,1,1,1,1,1,1,1,1,1,,-1,-1,-1,-1,-1,-1,-1,-1,-1,-1,-1,-1,-1,-1,-1,-1,-1,-1,-1,-1,-1,-1,-1,-1,-1,-1,-1,-1,-1,-1,-1,-1,-1,-1,-1,-1,-1,-1,-1,-1,-1,-1,-1,-1,-1,-1,-1,-1,-1,-1
0.8,0.8,0.8,0,90,10,0.01,24,RandomEMDetectCopiers,36,2325,0,0.02,0.04,0.06,0.08,0.1,0.12,0.14,0.16,0.18,0.2,0.22,0.24,0.26,0.28,0.3,0.32,0.34,0.36,0.38,0.4,0.42,0.664,1,1,1,1,1,1,1,1,1,1,1,1,1,1,1,1,1,1,1,1,1,1,1,1,1,1,1,1,,0,0,0,0,0,0,0,0,0,0,0,0,0,0,0,0,0,5.01E-05,7.70E-04,0.005871841,0.028722552,0.166860555,0.385175389,0,0,0,0,0,0,0,0,0,0,0,0,0,0,0,0,0,0,0,0,0,0,0,0,0,0,0,0,,0,0,0.888888889,0.835555556,0.817777778,0.835555556,0.871111111,0.760380952,0.795613276,0.803232323,0.835555556,0.727465127,0.773204509,0.78268599,0.776038647,0.688817784,0.737918314,0.788019324,0.785595081,0.800140536,0.824242424,0.821010101,0.803232323,0.803232323,0.835555556,0.853333333,0.835555556,0.853333333,0.853333333,0.853333333,0.871111111,0.871111111,0.871111111,0.835555556,0.871111111,0.871111111,0.871111111,0.871111111,0.871111111,0.871111111,0.871111111,0.888888889,0.888888889,0.888888889,0.888888889,0.888888889,0.871111111,0.888888889,0.888888889,0.888888889,,0,0,1,1,1,1,1,1,1,1,1,1,1,1,1,1,1,1,1,1,1,1,1,1,1,1,1,1,1,1,1,1,1,1,1,1,1,1,1,1,1,1,1,1,1,1,1,1,1,1,,-1,-1,-1,-1,-1,-1,-1,-1,-1,-1,-1,-1,-1,-1,-1,-1,-1,-1,-1,-1,-1,-1,-1,-1,-1,-1,-1,-1,-1,-1,-1,-1,-1,-1,-1,-1,-1,-1,-1,-1,-1,-1,-1,-1,-1,-1,-1,-1,-1,-1
0.8,0.8,0.8,0,90,10,0.01,24,RandomEMRemoveCopiers,36,1357,0,0.02,0.04,0.06,0.08,0.1,0.12,0.14,0.16,0.18,0.2,1,1,1,1,1,1,1,1,1,1,1,1,1,1,1,1,1,1,1,1,1,1,1,1,1,1,1,1,1,1,1,1,1,1,1,1,1,1,1,1,,0,0,0,0,0,0,0,0,0,0,0,0.037267801,0.037100337,0.035175975,0.035175975,0.035022296,0.034972244,0.034947218,0.034479758,0.034454732,0.034454732,0.710968576,0.530969495,0.510550316,0.509965957,0.468502453,0.359973274,0.357725994,0.338742258,0.335497617,0.334383703,0.328967968,0.322437034,0.322029057,0.321691734,0.310292134,0.308551741,0.305686106,0.304581382,0.301766092,0.297309261,0.191175475,0.191078699,0.190756092,0.097286675,0.09687677,0.046569884,0.031169501,0.011152815,0.002183067,0,,0,0,0.879532164,0.838787879,0.823107043,0.853333333,0.861754386,0.73258498,0.782362758,0.871111111,0.871111111,0,0,0,0,0,0,0,0,0,0,0,0,0,0,0,0,0,0,0,0,0,0,0,0,0,0,0,0,0,0,0,0,0,0,0,0,0,0,0,,0,0,1,1,1,1,1,1,1,1,1,1,1,1,1,1,1,1,1,1,1,1,1,1,1,1,1,1,1,1,1,1,1,1,1,1,1,1,1,1,1,1,1,1,1,1,1,1,1,1,,-1,-1,-1,-1,-1,-1,-1,-1,-1,-1,-1,-1,-1,-1,-1,-1,-1,-1,-1,-1,-1,-1,-1,-1,-1,-1,-1,-1,-1,-1,-1,-1,-1,-1,-1,-1,-1,-1,-1,-1,-1,-1,-1,-1,-1,-1,-1,-1,-1,-1
