2.0,0.6,0.5,100,0,0.01,0,RandomEMDetectRandom,20,6003,0.5,0.6279999999999999,0.624,0.6279999999999999,0.6679999999999999,0.748,0.76,0.776,0.776,0.7839999999999999,0.784,0.776,0.7799999999999999,0.8119999999999999,0.8320000000000001,0.828,0.8320000000000001,0.844,0.8560000000000001,0.868,0.868,0.8640000000000001,0.8560000000000001,0.868,0.8720000000000001,0.8800000000000001,0.892,0.892,0.8880000000000001,0.892,0.8960000000000001,0.908,0.9040000000000001,0.9199999999999999,0.9199999999999999,0.9199999999999999,0.9279999999999999,0.9279999999999999,0.932,0.9399999999999998,0.952,0.9559999999999998,0.9640000000000001,0.968,0.976,0.984,0.984,0.984,0.984,0.992,1.0,,17.957588187937745,19.257815888432596,18.003133454385146,17.344052104985185,17.256349742481433,18.22249106097877,17.90788087339395,17.303760399295225,16.897571072620405,16.481533493476093,15.63705484376006,14.974119936409796,14.210385480547762,13.848927103466101,13.930183593530018,13.184674573135874,12.716755866265366,12.60341817113014,11.54761530843006,10.762940842459063,10.643939012765717,10.048746854976168,9.553135588498757,9.368296970611096,8.879885979677692,8.073187533673353,7.830319279545296,7.524806931097986,7.169013815492714,7.026683979449684,6.548684291511345,6.137321324344334,5.826673933510355,5.237683698822167,4.958846707548576,4.53804465754915,4.288197130310495,3.997256545751364,3.561301723967201,3.4317304596196707,3.1370880062515476,2.7569866421601565,2.406987972177819,2.172925611029497,1.8134622681263057,1.2869367570095822,1.1822926300015613,0.9691754492094085,0.8216686516330182,0.32136587405131845,0.0,,0.6,0.6,0.6,0.6,0.6,0.6,0.6,0.6,0.6,0.6,0.6,0.6,0.6,0.6,0.6,0.6,0.6,0.6,0.6,0.6,0.6,0.6,0.6,0.6,0.6,0.6,0.6,0.6,0.6,0.6,0.6,0.6,0.6,0.6,0.6,0.6,0.6,0.6,0.6,0.6,0.6,0.6,0.6,0.6,0.6,0.6,0.6,0.6,0.6,0.6,,1.0,1.0,1.0,1.0,1.0,1.0,1.0,1.0,1.0,1.0,1.0,1.0,1.0,1.0,1.0,1.0,1.0,1.0,1.0,1.0,1.0,1.0,1.0,1.0,1.0,1.0,1.0,1.0,1.0,1.0,1.0,1.0,1.0,1.0,1.0,1.0,1.0,1.0,1.0,1.0,1.0,1.0,1.0,1.0,1.0,1.0,1.0,1.0,1.0,1.0,,-1,-1,-1,-1,-1,-1,-1,-1,-1,-1,-1,-1,-1,-1,-1,-1,-1,-1,-1,-1,-1,-1,-1,-1,-1,-1,-1,-1,-1,-1,-1,-1,-1,-1,-1,-1,-1,-1,-1,-1,-1,-1,-1,-1,-1,-1,-1,-1,-1,-1
2.0,0.6,0.5,100,0,0.01,0,IGEMRandomSequence,20,373041,0.5,0.5,0.5,0.52,0.52,0.54,0.54,0.58,0.7,0.68,0.8,0.72,0.8,0.82,0.82,0.76,0.88,0.88,0.9,0.88,0.88,0.88,0.9,0.92,0.92,0.92,0.94,0.96,0.96,0.96,0.96,0.98,0.98,0.98,0.98,0.98,0.98,0.98,0.98,0.98,1.0,1.0,1.0,1.0,1.0,1.0,1.0,1.0,1.0,1.0,1.0,,17.957588187937745,16.280875456589186,14.303432893634554,12.920990732451454,11.065808875802281,10.238569098132398,9.365481459895769,10.112019420347076,14.689901409161514,12.217202587496923,14.074881756576485,12.67067554565624,11.987249654662513,11.242389640532863,10.585822107893781,10.581760236108842,10.212700302402261,9.221787606799955,8.641074064133612,7.801300788633283,6.742713859440574,6.121300762363406,5.2847638487569775,5.40747251709052,4.309450080498715,3.704903405231413,4.040733007047142,4.296696917679123,3.1325451653653658,2.640212953679659,2.2154925979710343,1.8186774139757,1.369054393386514,1.1458293143539002,0.933455248403355,0.7691537843647824,0.6285010946391053,0.507879557230393,0.39147611623109685,0.3189472704860537,0.3480952180992251,0.23772573603400385,0.18043621149388833,0.1278117198424681,0.09356945962821003,0.06674875293469185,0.04723410226405888,0.032126333967878576,0.017199424085519784,0.00693000731904141,0.0,,0.6,0.6,0.6,0.6,0.6,0.6,0.6,0.6,0.6,0.6,0.6,0.6,0.6,0.6,0.6,0.6,0.6,0.6,0.6,0.6,0.6,0.6,0.6,0.6,0.6,0.6,0.6,0.6,0.6,0.6,0.6,0.6,0.6,0.6,0.6,0.6,0.6,0.6,0.6,0.6,0.6,0.6,0.6,0.6,0.6,0.6,0.6,0.6,0.6,0.6,,1.0,1.0,1.0,1.0,1.0,1.0,1.0,1.0,1.0,1.0,1.0,1.0,1.0,1.0,1.0,1.0,1.0,1.0,1.0,1.0,1.0,1.0,1.0,1.0,1.0,1.0,1.0,1.0,1.0,1.0,1.0,1.0,1.0,1.0,1.0,1.0,1.0,1.0,1.0,1.0,1.0,1.0,1.0,1.0,1.0,1.0,1.0,1.0,1.0,1.0,,46,13,38,22,26,29,23,4,3,1,36,11,25,34,7,27,30,24,32,43,37,6,48,45,49,21,33,31,19,2,20,35,39,42,41,9,16,28,17,14,8,18,5,15,44,40,47,0,10,12
2.0,0.6,0.5,100,0,0.01,1,RandomEMDetectRandom,20,3784,0.8,0.792,0.812,0.8160000000000001,0.8200000000000001,0.8160000000000001,0.8160000000000001,0.8280000000000001,0.828,0.8400000000000001,0.8480000000000001,0.8320000000000001,0.836,0.8400000000000001,0.844,0.8560000000000001,0.876,0.8720000000000001,0.8720000000000001,0.8720000000000001,0.876,0.876,0.876,0.8880000000000001,0.8880000000000001,0.892,0.8960000000000001,0.8960000000000001,0.9040000000000001,0.9040000000000001,0.9119999999999999,0.916,0.924,0.932,0.932,0.932,0.9359999999999999,0.9400000000000001,0.944,0.9480000000000001,0.952,0.9640000000000001,0.9640000000000001,0.968,0.968,0.976,0.984,0.992,0.992,0.9960000000000001,1.0,,16.41994318716306,15.834402230338778,15.030593346346322,14.452612788045522,13.93807413154461,13.6021590799103,13.438023787960649,12.752139393630989,12.294040356078268,11.475385588335469,10.923703559753957,10.711223100571967,10.740707823616836,10.376058482483208,10.291705257255254,10.191288693757949,9.819274366712069,9.616875718253254,9.29909156580485,8.931708136054507,8.826763750549832,8.631392602900556,8.168646137714148,7.656750919630507,7.259056059557045,7.281052046411245,7.118229279416525,6.745604896891327,6.312375209286457,5.990341644401328,5.801624969821197,5.630311816870474,5.195563459616676,4.915518587594265,4.227220786224036,3.933158003994639,3.8090332017923685,3.282858474330478,2.9922313627124275,2.8066093479670484,2.655626128917475,2.4476613940786542,2.3078269839393686,1.8426069492873147,1.7550203684909742,1.4330440754619722,1.2364349169074604,1.083659749986321,0.7618242301873002,0.3812061852530808,0.0,,0.5,0.5,0.5,0.5,0.5,0.5,0.5,0.5,0.5,0.5,0.5,0.5,0.5,0.5,0.5,0.5,0.5,0.5,0.5,0.5,0.5,0.5,0.5,0.5,0.5,0.5,0.5,0.5,0.5,0.5,0.5,0.5,0.5,0.5,0.5,0.5,0.5,0.5,0.5,0.5,0.5,0.5,0.5,0.5,0.5,0.5,0.5,0.5,0.5,0.5,,1.0,1.0,1.0,1.0,1.0,1.0,1.0,1.0,1.0,1.0,1.0,1.0,1.0,1.0,1.0,1.0,1.0,1.0,1.0,1.0,1.0,1.0,1.0,1.0,1.0,1.0,1.0,1.0,1.0,1.0,1.0,1.0,1.0,1.0,1.0,1.0,1.0,1.0,1.0,1.0,1.0,1.0,1.0,1.0,1.0,1.0,1.0,1.0,1.0,1.0,,-1,-1,-1,-1,-1,-1,-1,-1,-1,-1,-1,-1,-1,-1,-1,-1,-1,-1,-1,-1,-1,-1,-1,-1,-1,-1,-1,-1,-1,-1,-1,-1,-1,-1,-1,-1,-1,-1,-1,-1,-1,-1,-1,-1,-1,-1,-1,-1,-1,-1
2.0,0.6,0.5,100,0,0.01,1,IGEMRandomSequence,20,219511,0.8,0.82,0.82,0.84,0.84,0.84,0.84,0.84,0.86,0.86,0.88,0.9,0.9,0.92,0.94,0.94,0.94,0.94,0.94,0.94,0.94,0.94,0.94,0.96,0.96,0.96,0.96,0.96,0.98,0.98,0.98,0.98,0.98,0.98,0.98,0.98,1.0,1.0,1.0,1.0,1.0,1.0,1.0,1.0,1.0,1.0,1.0,1.0,1.0,1.0,1.0,,16.41994318716306,15.835093234629364,14.519841676647482,13.321767228979986,12.225275457427847,11.653053311866694,10.574693326252383,9.633700292692996,9.217355810753366,8.239355673299883,7.02598938697529,6.536398435444255,5.570809286477214,5.789434137365024,5.832366382714199,5.156501973483584,4.335158500914986,3.686827773467672,3.167738240003826,2.7844074660867033,2.446820738421396,2.096313846583869,1.7882315382421974,1.7818142682004279,1.5587569104633578,1.3741778642035642,1.2132781900893836,1.0695338156088006,1.260444184601862,1.0724018952927248,0.9054299861801103,0.772246334016169,0.6634676421825689,0.5705560863548522,0.4983263717833706,0.4271528086062414,0.5536379666531472,0.45220900675215503,0.3602776804800399,0.30155652038668235,0.249399504265509,0.19817426575354297,0.16552702277266457,0.1364216238028845,0.1073553483721058,0.08387289945231881,0.061374356765334065,0.040310953347605843,0.01971040699183171,0.004602782539688112,0.0,,0.5,0.5,0.5,0.5,0.5,0.5,0.5,0.5,0.5,0.5,0.5,0.5,0.5,0.5,0.5,0.5,0.5,0.5,0.5,0.5,0.5,0.5,0.5,0.5,0.5,0.5,0.5,0.5,0.5,0.5,0.5,0.5,0.5,0.5,0.5,0.5,0.5,0.5,0.5,0.5,0.5,0.5,0.5,0.5,0.5,0.5,0.5,0.5,0.5,0.5,,1.0,1.0,1.0,1.0,1.0,1.0,1.0,1.0,1.0,1.0,1.0,1.0,1.0,1.0,1.0,1.0,1.0,1.0,1.0,1.0,1.0,1.0,1.0,1.0,1.0,1.0,1.0,1.0,1.0,1.0,1.0,1.0,1.0,1.0,1.0,1.0,1.0,1.0,1.0,1.0,1.0,1.0,1.0,1.0,1.0,1.0,1.0,1.0,1.0,1.0,,44,31,35,47,22,48,7,25,36,18,30,38,23,19,6,27,11,1,29,43,20,37,8,15,16,33,28,39,32,12,45,0,26,9,42,13,3,41,49,5,4,21,14,10,2,40,24,34,17,46
2.0,0.6,0.5,100,0,0.01,2,RandomEMDetectRandom,20,4080,0.8,0.784,0.7919999999999999,0.784,0.78,0.776,0.772,0.788,0.792,0.8119999999999999,0.8160000000000001,0.828,0.828,0.836,0.844,0.8480000000000001,0.8560000000000001,0.8480000000000001,0.852,0.86,0.8640000000000001,0.868,0.8639999999999999,0.8719999999999999,0.884,0.8879999999999999,0.892,0.892,0.8959999999999999,0.8959999999999999,0.9,0.9,0.9039999999999999,0.9079999999999998,0.9119999999999999,0.9119999999999999,0.9199999999999999,0.9359999999999999,0.9480000000000001,0.96,0.96,0.96,0.9640000000000001,0.976,0.984,0.984,0.9879999999999999,0.9879999999999999,0.992,0.992,1.0,,18.038614782250573,17.427221319092148,16.74111440301751,16.326142569649377,15.521268894069049,15.131115748680367,14.611125232563676,13.78742997668309,13.470706880616277,13.167051638643333,12.910512584280303,12.428503990940929,12.313256605028306,12.084374483650503,11.645476594722215,11.383644254866693,11.225083640636107,10.515561804710606,9.928442317854813,9.511685448978195,9.182162289785621,8.897744095718734,8.37619495137585,8.027799325296588,7.65325336526093,7.306770592500958,6.898334297647695,6.784236250881807,6.493260255835241,6.111998544478824,5.867613065966049,5.71757727420258,5.50086697157662,5.158130291369893,4.9892275887080535,4.60738947806991,4.569757629084473,3.9278345216791726,3.592135993502216,3.151955052580501,2.8724360316434745,2.46092651672812,2.2880908329244964,1.854309950744727,1.72365910859155,1.5046806732880402,1.289345177080237,1.093530944011535,0.6885801416063201,0.4424462370136387,0.0,,0.4,0.4,0.4,0.4,0.4,0.4,0.4,0.4,0.4,0.4,0.4,0.4,0.4,0.4,0.4,0.4,0.4,0.4,0.4,0.4,0.4,0.4,0.4,0.4,0.4,0.4,0.4,0.4,0.4,0.4,0.4,0.4,0.4,0.4,0.4,0.4,0.4,0.4,0.4,0.4,0.4,0.4,0.4,0.4,0.4,0.4,0.4,0.4,0.4,0.4,,1.0,1.0,1.0,1.0,1.0,1.0,1.0,1.0,1.0,1.0,1.0,1.0,1.0,1.0,1.0,1.0,1.0,1.0,1.0,1.0,1.0,1.0,1.0,1.0,1.0,1.0,1.0,1.0,1.0,1.0,1.0,1.0,1.0,1.0,1.0,1.0,1.0,1.0,1.0,1.0,1.0,1.0,1.0,1.0,1.0,1.0,1.0,1.0,1.0,1.0,,-1,-1,-1,-1,-1,-1,-1,-1,-1,-1,-1,-1,-1,-1,-1,-1,-1,-1,-1,-1,-1,-1,-1,-1,-1,-1,-1,-1,-1,-1,-1,-1,-1,-1,-1,-1,-1,-1,-1,-1,-1,-1,-1,-1,-1,-1,-1,-1,-1,-1
2.0,0.6,0.5,100,0,0.01,2,IGEMRandomSequence,20,271281,0.8,0.76,0.78,0.78,0.8,0.8,0.82,0.84,0.84,0.84,0.82,0.84,0.86,0.88,0.88,0.88,0.9,0.9,0.9,0.92,0.92,0.94,0.96,0.98,0.98,0.98,0.98,0.98,0.98,0.98,0.98,0.98,1.0,1.0,1.0,1.0,1.0,1.0,1.0,1.0,1.0,1.0,1.0,1.0,1.0,1.0,1.0,1.0,1.0,1.0,1.0,,18.038614782250573,15.57196268207277,13.941241328412831,12.16279893239938,10.406093907566689,10.3341864054261,9.427277568419656,8.89390386960924,7.62634578098481,7.262213783781586,9.441920732173271,9.206923791406888,8.908529239632717,8.190466300704632,6.827040581035137,5.924106690514668,4.704171435320766,4.119319477918859,3.709526381177185,3.6807841349411383,3.1905888609135835,2.7605022684387475,3.1649231772543986,3.4362001866452547,2.930541197387,2.4899281650692915,2.146928082768117,1.8997304188650903,1.6967436506383078,1.5188171974253117,1.3492269232948957,1.1860335367978088,1.1404327730788977,0.9958634407718359,0.8737866050031551,0.7582893518802084,0.648110671939334,0.5486230415238911,0.45179118579382027,0.35964310804382915,0.2894474643834796,0.22838691788288135,0.1697702391446803,0.12473010802567465,0.08833884878486792,0.06219009226552455,0.04023474992000172,0.020262744369579345,0.007723074241645422,0.002156782735251334,0.0,,0.4,0.4,0.4,0.4,0.4,0.4,0.4,0.4,0.4,0.4,0.4,0.4,0.4,0.4,0.4,0.4,0.4,0.4,0.4,0.4,0.4,0.4,0.4,0.4,0.4,0.4,0.4,0.4,0.4,0.4,0.4,0.4,0.4,0.4,0.4,0.4,0.4,0.4,0.4,0.4,0.4,0.4,0.4,0.4,0.4,0.4,0.4,0.4,0.4,0.4,,1.0,1.0,1.0,1.0,1.0,1.0,1.0,1.0,1.0,1.0,1.0,1.0,1.0,1.0,1.0,1.0,1.0,1.0,1.0,1.0,1.0,1.0,1.0,1.0,1.0,1.0,1.0,1.0,1.0,1.0,1.0,1.0,1.0,1.0,1.0,1.0,1.0,1.0,1.0,1.0,1.0,1.0,1.0,1.0,1.0,1.0,1.0,1.0,1.0,1.0,,16,24,22,3,17,39,25,12,49,9,23,2,20,11,37,35,30,6,27,47,40,10,29,44,48,28,36,19,21,32,15,38,4,34,41,5,13,43,45,18,14,8,26,33,1,7,0,31,46,42
2.0,0.6,0.5,100,0,0.01,3,RandomEMDetectRandom,20,4781,0.72,0.7319999999999999,0.74,0.7320000000000001,0.728,0.7319999999999999,0.764,0.7879999999999999,0.784,0.764,0.776,0.788,0.792,0.784,0.792,0.8119999999999999,0.8240000000000001,0.8240000000000001,0.828,0.82,0.8240000000000001,0.844,0.868,0.86,0.868,0.8640000000000001,0.876,0.8800000000000001,0.8880000000000001,0.892,0.8960000000000001,0.8960000000000001,0.9040000000000001,0.9199999999999999,0.924,0.924,0.924,0.9400000000000001,0.9480000000000001,0.952,0.968,0.968,0.976,0.976,0.9800000000000001,0.9800000000000001,0.984,0.9879999999999999,0.992,0.9960000000000001,1.0,,19.615126686535646,18.684664437332223,18.157828929695054,17.30386882657697,17.102564246911363,17.279581673211528,17.56194812458196,17.546078081242783,16.940964800735596,15.944894219800053,16.059358532973025,15.352246655717328,14.848596548264414,13.867535734313766,13.950509303858468,13.285295389715538,12.596407755438872,12.098429563771255,11.78758864126908,11.481089685131149,11.206439021827876,11.063413105336503,10.620830152240888,10.211935595845738,9.881923213693584,9.235151187161112,9.05063523806567,8.617147949246306,8.260688729263475,7.845281116962703,7.187282141035792,6.611088913162783,6.352234910461633,5.886184108636848,5.476339146241668,5.098744374900899,4.862647049587826,4.535173552152764,4.223195372961494,3.8355694334942454,3.411183239154544,3.145115449790174,2.7036666907729034,2.2315440615554487,1.806400234223022,1.5429781089272268,1.2648442730223421,0.8832085834014549,0.5529479242134295,0.1381074635265419,0.0,,0.6,0.6,0.6,0.6,0.6,0.6,0.6,0.6,0.6,0.6,0.6,0.6,0.6,0.6,0.6,0.6,0.6,0.6,0.6,0.6,0.6,0.6,0.6,0.6,0.6,0.6,0.6,0.6,0.6,0.6,0.6,0.6,0.6,0.6,0.6,0.6,0.6,0.6,0.6,0.6,0.6,0.6,0.6,0.6,0.6,0.6,0.6,0.6,0.6,0.6,,1.0,1.0,1.0,1.0,1.0,1.0,1.0,1.0,1.0,1.0,1.0,1.0,1.0,1.0,1.0,1.0,1.0,1.0,1.0,1.0,1.0,1.0,1.0,1.0,1.0,1.0,1.0,1.0,1.0,1.0,1.0,1.0,1.0,1.0,1.0,1.0,1.0,1.0,1.0,1.0,1.0,1.0,1.0,1.0,1.0,1.0,1.0,1.0,1.0,1.0,,-1,-1,-1,-1,-1,-1,-1,-1,-1,-1,-1,-1,-1,-1,-1,-1,-1,-1,-1,-1,-1,-1,-1,-1,-1,-1,-1,-1,-1,-1,-1,-1,-1,-1,-1,-1,-1,-1,-1,-1,-1,-1,-1,-1,-1,-1,-1,-1,-1,-1
2.0,0.6,0.5,100,0,0.01,3,IGEMRandomSequence,20,310742,0.72,0.7,0.74,0.72,0.76,0.78,0.78,0.78,0.78,0.78,0.78,0.8,0.82,0.82,0.84,0.84,0.88,0.86,0.9,0.88,0.9,0.9,0.92,0.94,0.96,0.96,0.96,0.96,0.96,0.96,0.96,0.98,0.98,0.98,0.98,0.98,0.98,0.98,0.98,0.98,0.98,0.98,0.98,0.98,0.98,1.0,1.0,1.0,1.0,1.0,1.0,,19.615126686535646,17.759186526528275,16.830845781071204,15.43913900624024,14.14899395863285,12.93889169074017,11.51612811710412,10.92921048502515,10.075146763036175,9.303402409972056,8.131690070480314,7.961801456618305,8.216422379659162,7.283407899986877,9.498751130107484,7.7384230544974315,9.423016397392319,7.88811656449548,8.457237594482763,6.20106298652617,7.30797737049665,5.71815364743077,6.283924116742831,6.497364522319834,6.682550299680267,5.422397868183383,4.510320760264789,3.4813568535054547,2.8692445014316315,2.3308653908207884,1.8755328139904561,1.6219544633568523,1.3209919626271327,1.0613504806697762,0.8387750923511476,0.6460268739761162,0.5106161949575734,0.3752387858908409,0.2897942611336634,0.23864583392972466,0.19220090557784475,0.1533178675078532,0.11703746006455407,0.08722657135877959,0.06453014000532342,0.07336664538779361,0.047811961573355696,0.03263122001183234,0.018328357806980812,0.008456674366808211,0.0,,0.6,0.6,0.6,0.6,0.6,0.6,0.6,0.6,0.6,0.6,0.6,0.6,0.6,0.6,0.6,0.6,0.6,0.6,0.6,0.6,0.6,0.6,0.6,0.6,0.6,0.6,0.6,0.6,0.6,0.6,0.6,0.6,0.6,0.6,0.6,0.6,0.6,0.6,0.6,0.6,0.6,0.6,0.6,0.6,0.6,0.6,0.6,0.6,0.6,0.6,,1.0,1.0,1.0,1.0,1.0,1.0,1.0,1.0,1.0,1.0,1.0,1.0,1.0,1.0,1.0,1.0,1.0,1.0,1.0,1.0,1.0,1.0,1.0,1.0,1.0,1.0,1.0,1.0,1.0,1.0,1.0,1.0,1.0,1.0,1.0,1.0,1.0,1.0,1.0,1.0,1.0,1.0,1.0,1.0,1.0,1.0,1.0,1.0,1.0,1.0,,25,41,4,39,26,37,47,22,27,6,12,31,35,44,33,32,16,38,36,29,5,8,3,11,9,17,24,1,43,42,20,40,15,18,45,48,21,7,49,46,30,34,23,10,14,13,2,19,28,0
2.0,0.6,0.5,100,0,0.01,4,RandomEMDetectRandom,20,5261,0.76,0.74,0.752,0.648,0.6679999999999999,0.676,0.78,0.788,0.7840000000000001,0.784,0.7959999999999999,0.784,0.804,0.808,0.808,0.808,0.8160000000000001,0.8160000000000001,0.8160000000000001,0.8320000000000001,0.8320000000000001,0.8400000000000001,0.8400000000000001,0.844,0.8640000000000001,0.8560000000000001,0.868,0.868,0.8640000000000001,0.8720000000000001,0.884,0.9,0.9,0.9,0.9040000000000001,0.9120000000000001,0.9200000000000002,0.924,0.9279999999999999,0.9279999999999999,0.932,0.932,0.944,0.952,0.9559999999999998,0.96,0.976,0.9800000000000001,0.9879999999999999,0.992,1.0,,25.835360134723317,23.5219225826746,23.255071607637625,21.636626749857985,21.032361111118306,20.903313501667117,20.034530655248766,19.132068273569494,18.40120078984316,17.486189465510577,16.781204364635204,15.877019630617346,15.092204032394942,14.196523372257237,13.717867076439067,12.807641941232124,12.314132256129984,12.079683132615411,11.348785407174304,10.73479199246042,10.166923657948043,9.945819175253922,9.529695497248609,8.861269406319384,8.629659362799531,8.142941985896584,7.735923289795863,7.245379825658641,6.810706947292758,6.689070930703008,6.810153531361211,6.145706082401018,5.492270673331289,5.195619434369811,4.790202983452848,4.3262301098909255,4.15458957681307,3.9841907103266507,3.69523984432049,3.3909254082529614,3.129340180807918,2.891618292386485,2.2955360897550743,1.9174196967816104,1.7332277855814155,1.4321249558748208,1.110826024260024,0.8534343542796992,0.5793900913181437,0.3100488773423685,0.0,,0.5,0.5,0.5,0.5,0.5,0.5,0.5,0.5,0.5,0.5,0.5,0.5,0.5,0.5,0.5,0.5,0.5,0.5,0.5,0.5,0.5,0.5,0.5,0.5,0.5,0.5,0.5,0.5,0.5,0.5,0.5,0.5,0.5,0.5,0.5,0.5,0.5,0.5,0.5,0.5,0.5,0.5,0.5,0.5,0.5,0.5,0.5,0.5,0.5,0.5,,1.0,1.0,1.0,1.0,1.0,1.0,1.0,1.0,1.0,1.0,1.0,1.0,1.0,1.0,1.0,1.0,1.0,1.0,1.0,1.0,1.0,1.0,1.0,1.0,1.0,1.0,1.0,1.0,1.0,1.0,1.0,1.0,1.0,1.0,1.0,1.0,1.0,1.0,1.0,1.0,1.0,1.0,1.0,1.0,1.0,1.0,1.0,1.0,1.0,1.0,,-1,-1,-1,-1,-1,-1,-1,-1,-1,-1,-1,-1,-1,-1,-1,-1,-1,-1,-1,-1,-1,-1,-1,-1,-1,-1,-1,-1,-1,-1,-1,-1,-1,-1,-1,-1,-1,-1,-1,-1,-1,-1,-1,-1,-1,-1,-1,-1,-1,-1
2.0,0.6,0.5,100,0,0.01,4,IGEMRandomSequence,20,296837,0.76,0.76,0.76,0.74,0.76,0.76,0.78,0.78,0.78,0.8,0.8,0.8,0.8,0.8,0.86,0.84,0.86,0.88,0.88,0.88,0.88,0.9,0.9,0.92,0.92,0.92,0.94,0.94,0.94,0.94,0.96,0.98,0.98,0.98,0.98,0.98,0.98,0.98,0.98,0.98,0.98,1.0,1.0,1.0,1.0,1.0,1.0,1.0,1.0,1.0,1.0,,25.835360134723317,23.151842137269607,21.08361220042043,20.226855396450922,18.188878202389745,16.708712634398196,15.241885735324146,13.914411639765452,12.645468290748324,12.64517460573785,10.788863493633864,9.98361996936779,9.092170546993051,9.670450631007995,9.778219580251424,8.444391507911542,7.899932542034743,6.693750018308512,5.551734683286524,4.739658906576059,4.016106830048965,4.046919793022306,3.4287770337486285,3.2616733379591656,2.816722350132815,2.4432108664866594,2.312237541371648,1.9932736653587677,1.7908193729329267,1.6030089544964998,1.7792714057347068,1.837824597903157,1.5419863439315076,1.294547691456842,1.0916073925557155,0.9190893043069327,0.7944979086481122,0.6735630695724044,0.578033408627756,0.4895699798488763,0.41276047398081167,0.5007830958501395,0.39922440749812416,0.32254954747323716,0.25494916991308497,0.19018499029367744,0.12917247366767073,0.07946977148628272,0.04514062124494084,0.019665259729587017,0.0,,0.5,0.5,0.5,0.5,0.5,0.5,0.5,0.5,0.5,0.5,0.5,0.5,0.5,0.5,0.5,0.5,0.5,0.5,0.5,0.5,0.5,0.5,0.5,0.5,0.5,0.5,0.5,0.5,0.5,0.5,0.5,0.5,0.5,0.5,0.5,0.5,0.5,0.5,0.5,0.5,0.5,0.5,0.5,0.5,0.5,0.5,0.5,0.5,0.5,0.5,,1.0,1.0,1.0,1.0,1.0,1.0,1.0,1.0,1.0,1.0,1.0,1.0,1.0,1.0,1.0,1.0,1.0,1.0,1.0,1.0,1.0,1.0,1.0,1.0,1.0,1.0,1.0,1.0,1.0,1.0,1.0,1.0,1.0,1.0,1.0,1.0,1.0,1.0,1.0,1.0,1.0,1.0,1.0,1.0,1.0,1.0,1.0,1.0,1.0,1.0,,32,42,24,27,3,23,20,0,44,28,15,34,10,5,31,18,2,43,48,36,21,29,47,33,38,22,35,37,39,41,1,49,46,9,26,30,12,19,4,11,40,17,13,14,6,7,25,8,16,45
2.0,0.6,0.5,100,0,0.01,5,RandomEMDetectRandom,20,5048,0.74,0.768,0.768,0.7719999999999999,0.7719999999999999,0.78,0.796,0.788,0.792,0.8160000000000001,0.8119999999999999,0.8160000000000001,0.82,0.836,0.836,0.8320000000000001,0.852,0.8640000000000001,0.868,0.876,0.8880000000000001,0.884,0.892,0.9039999999999999,0.9039999999999999,0.9039999999999999,0.9119999999999999,0.9119999999999999,0.916,0.9199999999999999,0.932,0.9359999999999999,0.9359999999999999,0.9359999999999999,0.9480000000000001,0.952,0.96,0.968,0.9719999999999999,0.976,0.976,0.976,0.976,0.976,0.9800000000000001,0.984,0.9879999999999999,0.992,0.992,0.9960000000000001,1.0,,20.6003539635338,18.713656352769128,17.581172543242992,16.74301900964567,16.28590173635744,15.806681651673307,16.427540122867857,15.58004915043781,15.116987470274495,14.895678255487212,14.635693000742444,14.189258982741226,13.855700619507829,13.851912163338392,13.038813779916515,12.62816701083727,11.96767952084819,11.046463323349345,10.286878812291642,9.919431506292282,9.546326895600549,9.061418975407545,8.493217880779673,7.937281385643762,7.244941372287535,7.188504842944928,6.6828236643860235,6.463321215421606,6.1912211785474085,5.869841355240519,5.468466652186811,5.127892059612266,4.6782603037386155,4.414239219281367,3.9854965275280705,3.8043481302218787,3.926743614580613,3.5282015748750526,3.264148799667666,3.009055410403318,2.7751584480541784,2.4187902344584713,2.1155110877162415,1.9114884817370021,1.6774062714389104,1.380274439238097,0.9897534507856667,0.7580836918425914,0.4471857444178422,0.1866371220770692,0.0,,0.45,0.45,0.45,0.45,0.45,0.45,0.45,0.45,0.45,0.45,0.45,0.45,0.45,0.45,0.45,0.45,0.45,0.45,0.45,0.45,0.45,0.45,0.45,0.45,0.45,0.45,0.45,0.45,0.45,0.45,0.45,0.45,0.45,0.45,0.45,0.45,0.45,0.45,0.45,0.45,0.45,0.45,0.45,0.45,0.45,0.45,0.45,0.45,0.45,0.45,,1.0,1.0,1.0,1.0,1.0,1.0,1.0,1.0,1.0,1.0,1.0,1.0,1.0,1.0,1.0,1.0,1.0,1.0,1.0,1.0,1.0,1.0,1.0,1.0,1.0,1.0,1.0,1.0,1.0,1.0,1.0,1.0,1.0,1.0,1.0,1.0,1.0,1.0,1.0,1.0,1.0,1.0,1.0,1.0,1.0,1.0,1.0,1.0,1.0,1.0,,-1,-1,-1,-1,-1,-1,-1,-1,-1,-1,-1,-1,-1,-1,-1,-1,-1,-1,-1,-1,-1,-1,-1,-1,-1,-1,-1,-1,-1,-1,-1,-1,-1,-1,-1,-1,-1,-1,-1,-1,-1,-1,-1,-1,-1,-1,-1,-1,-1,-1
2.0,0.6,0.5,100,0,0.01,5,IGEMRandomSequence,20,297084,0.74,0.76,0.74,0.74,0.74,0.74,0.76,0.78,0.8,0.8,0.84,0.84,0.84,0.84,0.86,0.88,0.9,0.92,0.92,0.92,0.92,0.92,0.94,0.94,0.94,0.96,0.98,0.98,0.98,0.98,0.98,0.98,0.98,0.98,0.98,0.98,0.98,0.98,0.98,0.98,0.98,1.0,1.0,1.0,1.0,1.0,1.0,1.0,1.0,1.0,1.0,,20.6003539635338,16.924901437138008,15.671396684383035,13.55456324254208,11.061585556222955,10.631548394772322,10.390139018713013,9.87445409432911,8.40424306707458,7.462162980768845,7.913582409215316,6.567342530486429,6.35470133039989,5.82700944861918,6.285241394885022,7.379988013007939,7.782322211822711,7.839494312593038,6.377561380154244,4.960388937725582,4.112201229872312,3.2855521634706797,3.486882386442176,2.8302717895385925,2.3982086930813913,2.5167417706710498,2.6072138812147707,2.208390094522577,1.9012296796635857,1.6305430720835072,1.391712809262006,1.1563426031010322,0.9500930654168177,0.7645617717071743,0.6734951197367824,0.5856767657437079,0.4991052384196448,0.4186441948668025,0.3482011861987604,0.27982413398100997,0.21285255568306166,0.18570701395655587,0.12689697322199625,0.09483994860729096,0.07067780094417153,0.04680192301740717,0.03337531579506944,0.02264524473415931,0.012364473834805852,0.006146296693236588,0.0,,0.45,0.45,0.45,0.45,0.45,0.45,0.45,0.45,0.45,0.45,0.45,0.45,0.45,0.45,0.45,0.45,0.45,0.45,0.45,0.45,0.45,0.45,0.45,0.45,0.45,0.45,0.45,0.45,0.45,0.45,0.45,0.45,0.45,0.45,0.45,0.45,0.45,0.45,0.45,0.45,0.45,0.45,0.45,0.45,0.45,0.45,0.45,0.45,0.45,0.45,,1.0,1.0,1.0,1.0,1.0,1.0,1.0,1.0,1.0,1.0,1.0,1.0,1.0,1.0,1.0,1.0,1.0,1.0,1.0,1.0,1.0,1.0,1.0,1.0,1.0,1.0,1.0,1.0,1.0,1.0,1.0,1.0,1.0,1.0,1.0,1.0,1.0,1.0,1.0,1.0,1.0,1.0,1.0,1.0,1.0,1.0,1.0,1.0,1.0,1.0,,48,19,37,36,11,2,29,12,17,44,33,43,22,39,30,49,42,46,13,0,1,14,7,3,18,47,8,27,15,31,32,24,6,4,41,5,9,34,25,38,23,45,28,35,10,40,26,20,16,21
2.0,0.6,0.5,100,0,0.01,6,RandomEMDetectRandom,20,5202,0.66,0.7040000000000001,0.7080000000000001,0.6920000000000001,0.6960000000000001,0.732,0.74,0.736,0.748,0.756,0.764,0.792,0.796,0.8,0.8,0.804,0.8160000000000001,0.812,0.8240000000000001,0.836,0.836,0.8480000000000001,0.86,0.868,0.8560000000000001,0.8639999999999999,0.876,0.876,0.8800000000000001,0.8879999999999999,0.8879999999999999,0.9,0.908,0.916,0.9039999999999999,0.9119999999999999,0.9199999999999999,0.9199999999999999,0.924,0.9399999999999998,0.9559999999999998,0.96,0.96,0.968,0.976,0.9800000000000001,0.984,0.992,0.9960000000000001,0.9960000000000001,1.0,,23.122792774765273,21.858989154579383,20.711056296214096,19.954758907293133,19.935943495590916,19.19097459236382,18.183202056522706,18.090638717301136,17.3128534550759,16.566094651766395,16.09152958191209,15.599412676067951,14.812839514909063,14.089409218518957,13.421073871692931,12.954647593123989,12.194067435826295,11.94428541985149,11.877164760111002,10.984501445272212,10.588847214068581,10.273738385229441,10.083353793061848,9.878426346830427,9.344495150123413,8.708896531058183,8.422743426383667,8.136340821061172,7.626474161876217,7.232310525078222,7.1121405949141066,6.633383049485046,6.416098744521046,5.982869400161396,5.845931725371837,5.500231463507793,4.983498942035806,4.761439830972023,4.274949760959143,3.7731768855897956,3.2867997330630216,2.7917820021419097,2.3646668645317286,1.9041662736473597,1.535799494657341,1.3600509460066352,1.1775223770021714,0.941087209873413,0.6095481369372934,0.25473996789585845,0.0,,0.55,0.55,0.55,0.55,0.55,0.55,0.55,0.55,0.55,0.55,0.55,0.55,0.55,0.55,0.55,0.55,0.55,0.55,0.55,0.55,0.55,0.55,0.55,0.55,0.55,0.55,0.55,0.55,0.55,0.55,0.55,0.55,0.55,0.55,0.55,0.55,0.55,0.55,0.55,0.55,0.55,0.55,0.55,0.55,0.55,0.55,0.55,0.55,0.55,0.55,,1.0,1.0,1.0,1.0,1.0,1.0,1.0,1.0,1.0,1.0,1.0,1.0,1.0,1.0,1.0,1.0,1.0,1.0,1.0,1.0,1.0,1.0,1.0,1.0,1.0,1.0,1.0,1.0,1.0,1.0,1.0,1.0,1.0,1.0,1.0,1.0,1.0,1.0,1.0,1.0,1.0,1.0,1.0,1.0,1.0,1.0,1.0,1.0,1.0,1.0,,-1,-1,-1,-1,-1,-1,-1,-1,-1,-1,-1,-1,-1,-1,-1,-1,-1,-1,-1,-1,-1,-1,-1,-1,-1,-1,-1,-1,-1,-1,-1,-1,-1,-1,-1,-1,-1,-1,-1,-1,-1,-1,-1,-1,-1,-1,-1,-1,-1,-1
2.0,0.6,0.5,100,0,0.01,6,IGEMRandomSequence,20,290038,0.66,0.78,0.78,0.82,0.82,0.84,0.84,0.82,0.82,0.86,0.84,0.86,0.88,0.88,0.88,0.88,0.88,0.88,0.88,0.88,0.9,0.92,0.94,0.94,0.96,0.96,0.96,0.96,0.96,0.98,0.98,0.98,0.98,0.98,0.98,0.98,0.98,0.98,0.98,0.98,0.98,1.0,1.0,1.0,1.0,1.0,1.0,1.0,1.0,1.0,1.0,,23.122792774765273,20.198817584084715,16.99222410768053,17.197007440327784,16.568806034059072,15.936847306929652,15.406272519760018,15.246438238625904,13.182549991982345,10.960927189486593,9.61453872300872,8.711188016862552,9.191231828496853,8.073451859552693,7.0744258109792435,6.462582624476233,5.333897640155428,4.535483862093996,4.035967319901143,3.550730506048926,3.5967833377590748,4.418730116725278,5.450600871777641,4.151215446644827,3.878922054364205,3.3980491938621573,2.934567084505572,2.4701199249078485,2.0801927537871974,2.016622524012971,1.7369832019189668,1.4852742938629846,1.2766356106988968,1.078344236512058,0.9180568570336615,0.7590966428667718,0.6095685529517242,0.48232590608012926,0.3628655138683992,0.27447773787686053,0.21988421309270442,0.24387057956034563,0.1869273394546948,0.14992413545871208,0.1143276560407875,0.08663815918390161,0.06008813478016886,0.03763978047588265,0.019380069932454853,0.008388330740360782,0.0,,0.55,0.55,0.55,0.55,0.55,0.55,0.55,0.55,0.55,0.55,0.55,0.55,0.55,0.55,0.55,0.55,0.55,0.55,0.55,0.55,0.55,0.55,0.55,0.55,0.55,0.55,0.55,0.55,0.55,0.55,0.55,0.55,0.55,0.55,0.55,0.55,0.55,0.55,0.55,0.55,0.55,0.55,0.55,0.55,0.55,0.55,0.55,0.55,0.55,0.55,,1.0,1.0,1.0,1.0,1.0,1.0,1.0,1.0,1.0,1.0,1.0,1.0,1.0,1.0,1.0,1.0,1.0,1.0,1.0,1.0,1.0,1.0,1.0,1.0,1.0,1.0,1.0,1.0,1.0,1.0,1.0,1.0,1.0,1.0,1.0,1.0,1.0,1.0,1.0,1.0,1.0,1.0,1.0,1.0,1.0,1.0,1.0,1.0,1.0,1.0,,17,23,44,14,48,3,24,12,8,1,32,18,13,30,34,7,11,40,31,9,0,4,29,22,47,35,19,5,43,38,27,21,6,45,46,28,41,10,37,36,15,16,2,33,26,39,49,42,25,20
2.0,0.6,0.5,100,0,0.01,7,RandomEMDetectRandom,20,4031,0.78,0.78,0.784,0.784,0.8,0.808,0.808,0.808,0.808,0.808,0.808,0.828,0.8400000000000001,0.8400000000000001,0.8360000000000001,0.8400000000000001,0.8480000000000001,0.868,0.8720000000000001,0.884,0.8879999999999999,0.8879999999999999,0.8960000000000001,0.8960000000000001,0.9,0.9,0.908,0.916,0.916,0.916,0.9199999999999999,0.9199999999999999,0.932,0.932,0.9399999999999998,0.944,0.9480000000000001,0.9480000000000001,0.9559999999999998,0.9559999999999998,0.96,0.9640000000000001,0.9719999999999999,0.9719999999999999,0.976,0.976,0.976,0.9800000000000001,0.992,0.992,1.0,,14.202646165725247,14.06949163020442,14.218187569584563,13.936194810549782,13.594748157077987,13.016453424086142,12.619231050314166,12.50204215182589,12.068234467390464,11.294231101438369,10.689337732078728,11.329879818507406,10.597983168138189,10.80452855892384,10.777676342798944,10.222949197956384,9.900302813881611,9.584639807502457,9.05508336608194,8.877955236534017,8.498761855563437,8.475174749691158,7.771398202896295,7.506090313768505,7.484858879899124,7.213971792378549,6.955759683298669,6.998580281027428,6.703160617082955,6.383320008004289,5.812955608108494,5.396491826097172,5.189318743627135,4.9223219843931485,4.680420469844374,4.432807021498042,4.170195283610241,3.6605085566960964,3.404142527061347,3.214776797675247,2.7074541984260336,2.475254860263284,2.0455930556584194,1.8731574958908552,1.7050835746668576,1.5044406171550524,1.2019532052742634,0.8075894790253482,0.548498004911066,0.30577375550204067,0.0,,0.55,0.55,0.55,0.55,0.55,0.55,0.55,0.55,0.55,0.55,0.55,0.55,0.55,0.55,0.55,0.55,0.55,0.55,0.55,0.55,0.55,0.55,0.55,0.55,0.55,0.55,0.55,0.55,0.55,0.55,0.55,0.55,0.55,0.55,0.55,0.55,0.55,0.55,0.55,0.55,0.55,0.55,0.55,0.55,0.55,0.55,0.55,0.55,0.55,0.55,,1.0,1.0,1.0,1.0,1.0,1.0,1.0,1.0,1.0,1.0,1.0,1.0,1.0,1.0,1.0,1.0,1.0,1.0,1.0,1.0,1.0,1.0,1.0,1.0,1.0,1.0,1.0,1.0,1.0,1.0,1.0,1.0,1.0,1.0,1.0,1.0,1.0,1.0,1.0,1.0,1.0,1.0,1.0,1.0,1.0,1.0,1.0,1.0,1.0,1.0,,-1,-1,-1,-1,-1,-1,-1,-1,-1,-1,-1,-1,-1,-1,-1,-1,-1,-1,-1,-1,-1,-1,-1,-1,-1,-1,-1,-1,-1,-1,-1,-1,-1,-1,-1,-1,-1,-1,-1,-1,-1,-1,-1,-1,-1,-1,-1,-1,-1,-1
2.0,0.6,0.5,100,0,0.01,7,IGEMRandomSequence,20,213364,0.78,0.78,0.8,0.8,0.8,0.8,0.8,0.8,0.82,0.82,0.84,0.84,0.84,0.84,0.84,0.84,0.86,0.88,0.88,0.88,0.88,0.88,0.88,0.9,0.9,0.9,0.9,0.92,0.94,0.94,0.94,0.94,0.94,0.94,0.96,0.96,0.96,0.96,0.96,0.98,1.0,1.0,1.0,1.0,1.0,1.0,1.0,1.0,1.0,1.0,1.0,,14.202646165725248,13.379895506825392,12.44468449781432,11.077384179516157,10.089811687237283,9.331721777437908,8.379224509574456,7.573217886614837,6.596363373967083,5.652669254749696,5.1007928046692,4.362278641135808,3.910249315718128,3.526890448242437,3.1161004774165866,2.718895445232026,2.4992201123787505,2.4735638612443274,1.916136612047925,1.6540605084403037,1.4479771256549876,1.2515827390938334,1.122569625420728,1.4334767282742198,1.2354656053042274,1.0567855594035607,0.8932819363867561,1.1087012443920714,1.0113083533606606,0.7536025865254827,0.6624172014238351,0.58342169486524,0.5129283292017702,0.44631727223054796,0.4893896884907864,0.3952362232616585,0.325234333069192,0.26365947726699235,0.2092074463162371,0.29653506936050333,0.3236143996873751,0.23894612567707701,0.19393523006974495,0.1507847799459031,0.10939153650672927,0.08272503315211296,0.062299783000558315,0.04530069708186318,0.02860552198527197,0.014115953030473817,0.0,,0.55,0.55,0.55,0.55,0.55,0.55,0.55,0.55,0.55,0.55,0.55,0.55,0.55,0.55,0.55,0.55,0.55,0.55,0.55,0.55,0.55,0.55,0.55,0.55,0.55,0.55,0.55,0.55,0.55,0.55,0.55,0.55,0.55,0.55,0.55,0.55,0.55,0.55,0.55,0.55,0.55,0.55,0.55,0.55,0.55,0.55,0.55,0.55,0.55,0.55,,1.0,1.0,1.0,1.0,1.0,1.0,1.0,1.0,1.0,1.0,1.0,1.0,1.0,1.0,1.0,1.0,1.0,1.0,1.0,1.0,1.0,1.0,1.0,1.0,1.0,1.0,1.0,1.0,1.0,1.0,1.0,1.0,1.0,1.0,1.0,1.0,1.0,1.0,1.0,1.0,1.0,1.0,1.0,1.0,1.0,1.0,1.0,1.0,1.0,1.0,,7,35,30,14,41,48,27,22,33,23,40,4,2,21,32,37,24,29,46,16,20,9,39,8,31,43,38,0,18,45,26,11,42,36,47,17,1,34,28,19,5,12,15,44,3,25,13,6,10,49
2.0,0.6,0.5,100,0,0.01,8,RandomEMDetectRandom,20,4382,0.86,0.8640000000000001,0.8640000000000001,0.868,0.8640000000000001,0.8720000000000001,0.8640000000000001,0.8560000000000001,0.852,0.852,0.8560000000000001,0.852,0.852,0.852,0.852,0.852,0.852,0.86,0.8800000000000001,0.8800000000000001,0.8880000000000001,0.8880000000000001,0.892,0.892,0.9,0.9040000000000001,0.9039999999999999,0.908,0.908,0.9119999999999999,0.916,0.924,0.9199999999999999,0.9199999999999999,0.9359999999999999,0.932,0.932,0.944,0.952,0.952,0.9559999999999998,0.96,0.9640000000000001,0.976,0.9800000000000001,0.9800000000000001,0.9879999999999999,0.9960000000000001,1.0,1.0,1.0,,18.45441943484671,17.962592652039024,17.2476492158797,16.635184215429867,16.056097934163137,15.420218681101648,14.942134304879465,14.860857510777047,14.346634880524249,13.78523258519671,13.446760543236246,12.777388349804925,12.152071393327791,11.700325865157343,11.099900072733652,10.674357588242758,10.165394414306448,10.03924826327668,9.810042840931217,9.454401584535258,8.933630981594328,8.857651027403694,8.45157203631802,7.713602651641006,7.438363687636247,6.93066548401603,6.539767857851627,6.40672588738871,6.212262910746442,5.9294791902561075,5.597351781213361,5.72661766172133,5.354707095724693,5.138512423611493,4.684416007994592,4.469883468252354,4.122524548968835,3.993796954403115,3.6396073144962053,3.3549631939847737,2.8631415470526616,2.6891542591910222,2.4461609463118075,2.146162742274165,1.9532768976754682,1.6540630172683755,1.1415728564520133,0.8308847910001574,0.5344065437924165,0.38607051838904394,0.0,,0.4,0.4,0.4,0.4,0.4,0.4,0.4,0.4,0.4,0.4,0.4,0.4,0.4,0.4,0.4,0.4,0.4,0.4,0.4,0.4,0.4,0.4,0.4,0.4,0.4,0.4,0.4,0.4,0.4,0.4,0.4,0.4,0.4,0.4,0.4,0.4,0.4,0.4,0.4,0.4,0.4,0.4,0.4,0.4,0.4,0.4,0.4,0.4,0.4,0.4,,1.0,1.0,1.0,1.0,1.0,1.0,1.0,1.0,1.0,1.0,1.0,1.0,1.0,1.0,1.0,1.0,1.0,1.0,1.0,1.0,1.0,1.0,1.0,1.0,1.0,1.0,1.0,1.0,1.0,1.0,1.0,1.0,1.0,1.0,1.0,1.0,1.0,1.0,1.0,1.0,1.0,1.0,1.0,1.0,1.0,1.0,1.0,1.0,1.0,1.0,,-1,-1,-1,-1,-1,-1,-1,-1,-1,-1,-1,-1,-1,-1,-1,-1,-1,-1,-1,-1,-1,-1,-1,-1,-1,-1,-1,-1,-1,-1,-1,-1,-1,-1,-1,-1,-1,-1,-1,-1,-1,-1,-1,-1,-1,-1,-1,-1,-1,-1
2.0,0.6,0.5,100,0,0.01,8,IGEMRandomSequence,20,223582,0.86,0.86,0.88,0.86,0.86,0.88,0.88,0.9,0.9,0.9,0.9,0.92,0.92,0.92,0.94,0.94,0.94,0.94,0.94,0.94,0.94,0.94,0.94,0.94,0.94,0.94,0.94,0.96,0.96,0.98,0.98,0.98,0.98,0.98,0.98,0.98,0.98,0.98,0.98,0.98,0.98,0.98,0.98,0.98,0.98,0.98,0.98,1.0,1.0,1.0,1.0,,18.45441943484671,17.012019823806067,16.185290950809037,14.548994875210498,13.60190549508411,12.400221371756377,11.517872129272606,10.071468304611516,8.90292174151044,7.688774806213491,6.689847826109239,6.128419091512205,5.296071012885888,4.611367100436414,4.3727743365744285,3.768273623759377,3.3462698161796176,2.8977226103305718,2.572465971751692,2.282394938425762,2.04996633838225,1.83930583099594,1.607473216961085,1.424594739504128,1.262077061475448,1.1050240305909567,0.9706051150501653,0.9402734484489567,0.827786293638564,0.970881737692339,0.8400467160985441,0.7218959463494651,0.614959386897666,0.5461638023208097,0.48098685822863313,0.4186354541591463,0.36593794234263705,0.31507180042925786,0.26546714959575135,0.2174441734253788,0.17655750884974894,0.1412930423089751,0.10790263695985823,0.08157947108900049,0.05987115824132786,0.04344692840337655,0.027714059120257876,0.024774456081256814,0.011916744115936597,0.005198998229819887,0.0,,0.4,0.4,0.4,0.4,0.4,0.4,0.4,0.4,0.4,0.4,0.4,0.4,0.4,0.4,0.4,0.4,0.4,0.4,0.4,0.4,0.4,0.4,0.4,0.4,0.4,0.4,0.4,0.4,0.4,0.4,0.4,0.4,0.4,0.4,0.4,0.4,0.4,0.4,0.4,0.4,0.4,0.4,0.4,0.4,0.4,0.4,0.4,0.4,0.4,0.4,,1.0,1.0,1.0,1.0,1.0,1.0,1.0,1.0,1.0,1.0,1.0,1.0,1.0,1.0,1.0,1.0,1.0,1.0,1.0,1.0,1.0,1.0,1.0,1.0,1.0,1.0,1.0,1.0,1.0,1.0,1.0,1.0,1.0,1.0,1.0,1.0,1.0,1.0,1.0,1.0,1.0,1.0,1.0,1.0,1.0,1.0,1.0,1.0,1.0,1.0,,48,41,44,30,26,11,8,22,7,24,20,13,27,5,16,2,45,29,17,15,31,40,42,18,28,38,10,21,39,34,9,35,37,36,0,32,23,25,47,3,33,1,49,4,14,12,46,43,19,6
2.0,0.6,0.5,100,0,0.01,9,RandomEMDetectRandom,20,4866,0.78,0.772,0.7719999999999999,0.7839999999999999,0.788,0.796,0.804,0.804,0.812,0.828,0.8320000000000001,0.8400000000000001,0.8400000000000001,0.852,0.8480000000000001,0.8560000000000001,0.8560000000000001,0.8560000000000001,0.86,0.852,0.8480000000000001,0.8560000000000001,0.868,0.876,0.8720000000000001,0.8720000000000001,0.8720000000000001,0.876,0.876,0.8800000000000001,0.8880000000000001,0.892,0.892,0.9,0.9,0.9079999999999998,0.916,0.916,0.9199999999999999,0.9199999999999999,0.932,0.944,0.952,0.952,0.96,0.9640000000000001,0.976,0.9800000000000001,0.9800000000000001,0.9879999999999999,1.0,,17.460947386904735,16.934653467702304,16.990649411475374,16.04893149864258,14.745222103366308,14.547241157516876,14.670414762585139,14.142454152936594,14.30695146268298,14.098034546236912,13.36843769597906,12.754613148282456,11.838671016103993,11.426593681063217,11.051793763017542,10.739889765393313,10.22094007631647,10.030700662732418,9.543227431901395,8.925277216546727,8.65166313636622,8.430012104749755,8.059945186439467,8.141092495589175,7.693649640614072,7.16640263027505,6.878494538415467,6.401670083901354,6.104787340726061,5.654827192439997,5.262895611293663,4.799534881197014,4.571670202889128,4.293682155173931,3.901399756930543,3.6082896041497605,3.4282408576260117,3.403349015620558,3.0202347447379303,2.5169129555628356,2.4069330166378013,2.0797319413423407,2.019223034152603,1.9575934530457801,1.7249432176890687,1.3960951012862848,1.0866084900588224,0.7032865212428053,0.5165584542174141,0.1836259790727738,0.0,,0.55,0.55,0.55,0.55,0.55,0.55,0.55,0.55,0.55,0.55,0.55,0.55,0.55,0.55,0.55,0.55,0.55,0.55,0.55,0.55,0.55,0.55,0.55,0.55,0.55,0.55,0.55,0.55,0.55,0.55,0.55,0.55,0.55,0.55,0.55,0.55,0.55,0.55,0.55,0.55,0.55,0.55,0.55,0.55,0.55,0.55,0.55,0.55,0.55,0.55,,1.0,1.0,1.0,1.0,1.0,1.0,1.0,1.0,1.0,1.0,1.0,1.0,1.0,1.0,1.0,1.0,1.0,1.0,1.0,1.0,1.0,1.0,1.0,1.0,1.0,1.0,1.0,1.0,1.0,1.0,1.0,1.0,1.0,1.0,1.0,1.0,1.0,1.0,1.0,1.0,1.0,1.0,1.0,1.0,1.0,1.0,1.0,1.0,1.0,1.0,,-1,-1,-1,-1,-1,-1,-1,-1,-1,-1,-1,-1,-1,-1,-1,-1,-1,-1,-1,-1,-1,-1,-1,-1,-1,-1,-1,-1,-1,-1,-1,-1,-1,-1,-1,-1,-1,-1,-1,-1,-1,-1,-1,-1,-1,-1,-1,-1,-1,-1
2.0,0.6,0.5,100,0,0.01,9,IGEMRandomSequence,20,260463,0.78,0.74,0.78,0.8,0.78,0.8,0.8,0.82,0.84,0.84,0.86,0.84,0.88,0.88,0.88,0.88,0.9,0.9,0.92,0.92,0.94,0.94,0.94,0.94,0.96,0.96,0.96,0.96,0.96,0.96,0.98,0.98,0.98,0.98,0.98,0.98,1.0,1.0,1.0,1.0,1.0,1.0,1.0,1.0,1.0,1.0,1.0,1.0,1.0,1.0,1.0,,17.460947386904735,17.249444096141932,16.420377578645027,14.312879636381204,12.246298856962282,11.729760417256458,10.843701402088724,10.614512003428278,10.442571053174188,8.670535287411985,8.86774058628278,9.90394297843085,8.446024036541832,7.2048461867988856,6.581427344266456,5.454890801916895,5.461190627127703,4.460691386196394,4.0399637891593345,3.4264394142772865,3.5738143590755485,3.0871136613388384,2.6494664254041087,2.2818297639789833,2.3176950911165424,1.8560392066528548,1.537594757329133,1.3152761200343615,1.1361114226201414,0.964383874532173,1.0478912336237518,0.8957025817488227,0.774802515803991,0.6842796306404157,0.6085624222007688,0.544274102153199,0.6972930689545905,0.5956606339275148,0.5072344091431331,0.42481227008220035,0.3597527397467684,0.29968899855972075,0.24189084675679395,0.185033838770612,0.13646671466463517,0.09381370524956267,0.06531852125548551,0.04414195860028304,0.023353626814021047,0.004451939284681379,0.0,,0.55,0.55,0.55,0.55,0.55,0.55,0.55,0.55,0.55,0.55,0.55,0.55,0.55,0.55,0.55,0.55,0.55,0.55,0.55,0.55,0.55,0.55,0.55,0.55,0.55,0.55,0.55,0.55,0.55,0.55,0.55,0.55,0.55,0.55,0.55,0.55,0.55,0.55,0.55,0.55,0.55,0.55,0.55,0.55,0.55,0.55,0.55,0.55,0.55,0.55,,1.0,1.0,1.0,1.0,1.0,1.0,1.0,1.0,1.0,1.0,1.0,1.0,1.0,1.0,1.0,1.0,1.0,1.0,1.0,1.0,1.0,1.0,1.0,1.0,1.0,1.0,1.0,1.0,1.0,1.0,1.0,1.0,1.0,1.0,1.0,1.0,1.0,1.0,1.0,1.0,1.0,1.0,1.0,1.0,1.0,1.0,1.0,1.0,1.0,1.0,,3,18,36,34,15,25,14,21,23,30,16,29,31,24,10,44,37,45,35,20,8,26,41,32,28,46,33,9,13,6,4,17,39,19,5,2,48,42,43,1,7,40,22,49,47,27,0,11,12,38
2.0,0.6,0.5,100,0,0.01,10,RandomEMDetectRandom,20,5093,0.78,0.7520000000000001,0.776,0.756,0.796,0.788,0.792,0.812,0.8039999999999999,0.8119999999999999,0.8160000000000001,0.844,0.8400000000000001,0.8560000000000001,0.86,0.8480000000000001,0.86,0.86,0.8640000000000001,0.8720000000000001,0.868,0.8640000000000001,0.8640000000000001,0.868,0.884,0.8800000000000001,0.8960000000000001,0.9,0.9199999999999999,0.924,0.924,0.9280000000000002,0.924,0.9359999999999999,0.9399999999999998,0.944,0.944,0.9480000000000001,0.952,0.952,0.9559999999999998,0.9559999999999998,0.9640000000000001,0.9719999999999999,0.9719999999999999,0.9800000000000001,0.984,0.984,0.9879999999999999,0.992,1.0,,22.71571157707965,21.94917305446167,20.43051913648198,19.856840404887613,20.31748509455121,19.568117200893013,18.77512660102203,17.51063660023222,17.065702648296746,17.178431588698412,16.50506865154226,15.722703057450323,14.726329052863644,14.486224216989743,13.949552257420217,13.166984191372993,12.955434701321241,12.48211028229164,11.883387493260955,11.36206100667501,10.992518349695155,10.435312694353808,10.128299147234305,9.85722779972651,9.323417601729199,8.561619039267846,7.815179246360488,7.565367023625063,7.239127570492225,6.701037482978552,6.447953641654483,6.046676053442947,5.658991481096063,5.270179262291289,5.112134990673399,4.728259757674389,4.479066176189423,4.022026547051711,3.8932445802377535,3.508826685127816,3.3600132639924865,3.177959492776625,2.7565865682811315,2.3854087830646336,1.9604776763070593,1.8155619963669452,1.6382074561737092,1.019533690838968,0.806756299203872,0.5102965655334162,0.0,,0.5,0.5,0.5,0.5,0.5,0.5,0.5,0.5,0.5,0.5,0.5,0.5,0.5,0.5,0.5,0.5,0.5,0.5,0.5,0.5,0.5,0.5,0.5,0.5,0.5,0.5,0.5,0.5,0.5,0.5,0.5,0.5,0.5,0.5,0.5,0.5,0.5,0.5,0.5,0.5,0.5,0.5,0.5,0.5,0.5,0.5,0.5,0.5,0.5,0.5,,1.0,1.0,1.0,1.0,1.0,1.0,1.0,1.0,1.0,1.0,1.0,1.0,1.0,1.0,1.0,1.0,1.0,1.0,1.0,1.0,1.0,1.0,1.0,1.0,1.0,1.0,1.0,1.0,1.0,1.0,1.0,1.0,1.0,1.0,1.0,1.0,1.0,1.0,1.0,1.0,1.0,1.0,1.0,1.0,1.0,1.0,1.0,1.0,1.0,1.0,,-1,-1,-1,-1,-1,-1,-1,-1,-1,-1,-1,-1,-1,-1,-1,-1,-1,-1,-1,-1,-1,-1,-1,-1,-1,-1,-1,-1,-1,-1,-1,-1,-1,-1,-1,-1,-1,-1,-1,-1,-1,-1,-1,-1,-1,-1,-1,-1,-1,-1
2.0,0.6,0.5,100,0,0.01,10,IGEMRandomSequence,20,317344,0.78,0.8,0.78,0.8,0.8,0.8,0.8,0.84,0.84,0.86,0.86,0.88,0.88,0.9,0.9,0.9,0.92,0.92,0.92,0.92,0.92,0.94,0.94,0.94,0.94,0.94,0.96,0.96,0.96,0.96,0.98,0.98,0.98,0.98,0.98,0.98,1.0,1.0,1.0,1.0,1.0,1.0,1.0,1.0,1.0,1.0,1.0,1.0,1.0,1.0,1.0,,22.71571157707965,20.14285317978053,17.490934416906274,17.658092380947682,16.468225580631277,16.08592105029387,14.458219245677048,14.622991719448455,12.927435281514086,12.589984414659323,12.812185101965763,12.69684844692445,11.05133570354058,9.887676629334202,9.280175197041498,8.108419045353504,6.996144639181172,6.00425608018904,5.370808359628205,4.652440417519049,3.9363986223311187,3.9406373140378985,3.379538123001708,2.9233710269707434,2.5548960300274755,2.2372239758692785,2.3026657221886118,1.9313836961770943,1.657143238305378,1.4356411245088558,1.4939716430137562,1.2751776637908387,1.1307305026620478,0.9946726996727472,0.8643929462738762,0.7571059516158328,0.7716124958533932,0.6353881801780195,0.5256311895523915,0.42765861503949204,0.33574800267323945,0.2631464607030725,0.20906365831958845,0.15805505765713182,0.11514989248128767,0.07913466034721157,0.054701522974037964,0.03322681873248787,0.016527109329816707,0.006717745886116709,0.0,,0.5,0.5,0.5,0.5,0.5,0.5,0.5,0.5,0.5,0.5,0.5,0.5,0.5,0.5,0.5,0.5,0.5,0.5,0.5,0.5,0.5,0.5,0.5,0.5,0.5,0.5,0.5,0.5,0.5,0.5,0.5,0.5,0.5,0.5,0.5,0.5,0.5,0.5,0.5,0.5,0.5,0.5,0.5,0.5,0.5,0.5,0.5,0.5,0.5,0.5,,1.0,1.0,1.0,1.0,1.0,1.0,1.0,1.0,1.0,1.0,1.0,1.0,1.0,1.0,1.0,1.0,1.0,1.0,1.0,1.0,1.0,1.0,1.0,1.0,1.0,1.0,1.0,1.0,1.0,1.0,1.0,1.0,1.0,1.0,1.0,1.0,1.0,1.0,1.0,1.0,1.0,1.0,1.0,1.0,1.0,1.0,1.0,1.0,1.0,1.0,,7,31,30,47,14,27,15,6,18,25,44,9,33,22,32,8,23,38,2,0,42,13,46,26,17,29,40,45,35,10,24,37,28,4,48,20,34,41,19,21,11,36,16,49,39,3,1,43,5,12
2.0,0.6,0.5,100,0,0.01,11,RandomEMDetectRandom,20,4062,0.86,0.86,0.8640000000000001,0.8480000000000001,0.844,0.852,0.8560000000000001,0.8480000000000001,0.844,0.86,0.86,0.8640000000000001,0.868,0.8800000000000001,0.876,0.8800000000000001,0.8800000000000001,0.884,0.884,0.8880000000000001,0.8880000000000001,0.892,0.8960000000000001,0.8960000000000001,0.9,0.8960000000000001,0.8960000000000001,0.9039999999999999,0.9039999999999999,0.9039999999999999,0.916,0.924,0.924,0.9279999999999999,0.932,0.9359999999999999,0.9399999999999998,0.952,0.9559999999999998,0.9559999999999998,0.9559999999999998,0.9559999999999998,0.9640000000000001,0.9719999999999999,0.976,0.976,0.984,0.984,0.9960000000000001,0.9960000000000001,1.0,,18.406393959174356,17.577308704128342,17.47486817659099,17.727994036362997,16.983459515332772,16.209618867172157,15.769428611993959,15.958086610760802,15.39741676145145,14.463032752536147,14.118600340823175,13.436506722919495,13.046054802566996,12.628081325857078,12.71547236411082,12.119428315616918,11.845847376840807,11.331159345268995,10.826638962009719,10.45159943653044,10.21240765616091,9.743030941773037,9.320121534594547,8.689285015128716,8.204055510446796,8.173522785249032,7.849073205506665,7.23722159355853,6.69104648457744,6.262220713883296,5.661457014808244,5.098431970390861,4.818319325955658,4.390663797775044,4.1362785677115905,3.613711293916407,3.239112586069504,2.9755240069893665,2.820999719128557,2.518723019302932,2.4489776106069945,2.0991113707456677,1.906092372161868,1.7295411936834981,1.368818839508166,1.0692907967924776,0.9690876195503726,0.7188004164596016,0.5186592700946075,0.3319275636141545,0.0,,0.45,0.45,0.45,0.45,0.45,0.45,0.45,0.45,0.45,0.45,0.45,0.45,0.45,0.45,0.45,0.45,0.45,0.45,0.45,0.45,0.45,0.45,0.45,0.45,0.45,0.45,0.45,0.45,0.45,0.45,0.45,0.45,0.45,0.45,0.45,0.45,0.45,0.45,0.45,0.45,0.45,0.45,0.45,0.45,0.45,0.45,0.45,0.45,0.45,0.45,,1.0,1.0,1.0,1.0,1.0,1.0,1.0,1.0,1.0,1.0,1.0,1.0,1.0,1.0,1.0,1.0,1.0,1.0,1.0,1.0,1.0,1.0,1.0,1.0,1.0,1.0,1.0,1.0,1.0,1.0,1.0,1.0,1.0,1.0,1.0,1.0,1.0,1.0,1.0,1.0,1.0,1.0,1.0,1.0,1.0,1.0,1.0,1.0,1.0,1.0,,-1,-1,-1,-1,-1,-1,-1,-1,-1,-1,-1,-1,-1,-1,-1,-1,-1,-1,-1,-1,-1,-1,-1,-1,-1,-1,-1,-1,-1,-1,-1,-1,-1,-1,-1,-1,-1,-1,-1,-1,-1,-1,-1,-1,-1,-1,-1,-1,-1,-1
2.0,0.6,0.5,100,0,0.01,11,IGEMRandomSequence,20,239963,0.86,0.86,0.86,0.88,0.88,0.88,0.88,0.88,0.88,0.88,0.9,0.9,0.9,0.92,0.92,0.92,0.92,0.92,0.92,0.94,0.94,0.96,0.98,0.98,0.98,0.98,0.98,0.98,0.98,0.98,0.98,0.98,0.98,0.98,0.98,0.98,0.98,0.98,0.98,0.98,0.98,0.98,0.98,0.98,1.0,1.0,1.0,1.0,1.0,1.0,1.0,,18.406393959174356,16.857428758114704,15.604475290208947,14.483185463205167,12.811618238887018,11.51367516475932,11.038837143403093,9.8792371337381,9.01480626136768,7.969111515356277,6.6688887225650095,5.913218060671431,5.114647022460503,5.559745936953924,4.8978183733987395,4.484163880608235,3.817284904268849,3.3553345179371945,2.997275136067085,2.908726547006472,2.570056160863742,2.9719981042107877,3.552748986092307,3.0281834213005427,2.637526056471418,2.279464143669994,1.987619052157044,1.7517714118770682,1.5266782939757464,1.3156121327165817,1.1588562934824493,1.0106541393210462,0.8739551323220265,0.7402778218540902,0.6207392198941916,0.5166551341813049,0.4165523959288673,0.33688638895878187,0.27674057100226057,0.23218622648306325,0.19084392635658762,0.15382389156774584,0.11964123829799442,0.0892873000709665,0.10883164232486543,0.07411257150953371,0.042004113202426925,0.022563932775141002,0.01363140194166801,0.004902271591037734,0.0,,0.45,0.45,0.45,0.45,0.45,0.45,0.45,0.45,0.45,0.45,0.45,0.45,0.45,0.45,0.45,0.45,0.45,0.45,0.45,0.45,0.45,0.45,0.45,0.45,0.45,0.45,0.45,0.45,0.45,0.45,0.45,0.45,0.45,0.45,0.45,0.45,0.45,0.45,0.45,0.45,0.45,0.45,0.45,0.45,0.45,0.45,0.45,0.45,0.45,0.45,,1.0,1.0,1.0,1.0,1.0,1.0,1.0,1.0,1.0,1.0,1.0,1.0,1.0,1.0,1.0,1.0,1.0,1.0,1.0,1.0,1.0,1.0,1.0,1.0,1.0,1.0,1.0,1.0,1.0,1.0,1.0,1.0,1.0,1.0,1.0,1.0,1.0,1.0,1.0,1.0,1.0,1.0,1.0,1.0,1.0,1.0,1.0,1.0,1.0,1.0,,21,10,4,30,23,41,18,33,25,44,8,11,6,36,27,40,34,15,35,24,7,12,0,20,49,42,47,29,3,9,45,19,37,14,38,43,22,5,31,1,48,26,13,28,32,39,16,2,17,46
2.0,0.6,0.5,100,0,0.01,12,RandomEMDetectRandom,20,3726,0.8,0.8,0.808,0.808,0.8119999999999999,0.82,0.82,0.8119999999999999,0.82,0.8240000000000001,0.8320000000000001,0.8320000000000001,0.828,0.8320000000000001,0.8640000000000001,0.8560000000000001,0.8560000000000001,0.86,0.86,0.8640000000000001,0.8720000000000001,0.8880000000000001,0.8880000000000001,0.8880000000000001,0.892,0.892,0.8959999999999999,0.9119999999999999,0.916,0.924,0.932,0.9359999999999999,0.9359999999999999,0.9359999999999999,0.9400000000000001,0.944,0.952,0.9560000000000001,0.9560000000000001,0.9559999999999998,0.96,0.9640000000000001,0.9640000000000001,0.968,0.976,0.9800000000000001,0.984,0.992,0.992,0.9960000000000001,1.0,,14.962705601929008,14.552982416748222,14.115475613506623,13.799179610318344,12.95475209745734,12.521638697418842,12.103316720385985,11.356539381839871,11.1147202523186,10.630677407565596,10.41775829688843,10.093448071077384,9.877763361711398,9.551879993424029,9.884980942540746,9.136116291779832,8.587569977842529,8.412532668812457,8.33561080041523,8.091486222181283,7.707116790772656,7.597392501726451,7.443824385191741,7.056050134334126,6.683569591233512,6.398278376749547,6.237631083956108,5.888369566020548,5.569771592457075,5.652930115741593,5.499874970872081,5.029708241042397,4.685765389542327,4.3913015348065425,4.330941870398724,3.9853022356123944,3.7101553867024277,3.233912115585118,2.888401413729036,2.688523822310553,2.362842025559627,2.016961527698173,1.8462178595931689,1.7515506894711563,1.4064993727940995,1.2051064639128513,1.071000082881372,0.8449313142791693,0.5669985130583706,0.18267856855822073,0.0,,0.45,0.45,0.45,0.45,0.45,0.45,0.45,0.45,0.45,0.45,0.45,0.45,0.45,0.45,0.45,0.45,0.45,0.45,0.45,0.45,0.45,0.45,0.45,0.45,0.45,0.45,0.45,0.45,0.45,0.45,0.45,0.45,0.45,0.45,0.45,0.45,0.45,0.45,0.45,0.45,0.45,0.45,0.45,0.45,0.45,0.45,0.45,0.45,0.45,0.45,,1.0,1.0,1.0,1.0,1.0,1.0,1.0,1.0,1.0,1.0,1.0,1.0,1.0,1.0,1.0,1.0,1.0,1.0,1.0,1.0,1.0,1.0,1.0,1.0,1.0,1.0,1.0,1.0,1.0,1.0,1.0,1.0,1.0,1.0,1.0,1.0,1.0,1.0,1.0,1.0,1.0,1.0,1.0,1.0,1.0,1.0,1.0,1.0,1.0,1.0,,-1,-1,-1,-1,-1,-1,-1,-1,-1,-1,-1,-1,-1,-1,-1,-1,-1,-1,-1,-1,-1,-1,-1,-1,-1,-1,-1,-1,-1,-1,-1,-1,-1,-1,-1,-1,-1,-1,-1,-1,-1,-1,-1,-1,-1,-1,-1,-1,-1,-1
2.0,0.6,0.5,100,0,0.01,12,IGEMRandomSequence,20,222003,0.8,0.82,0.82,0.82,0.84,0.84,0.84,0.86,0.9,0.9,0.9,0.92,0.92,0.92,0.92,0.92,0.92,0.94,0.94,0.94,0.94,0.94,0.94,0.94,0.94,0.96,0.96,0.98,0.98,0.98,0.98,0.98,0.98,0.98,0.98,1.0,1.0,1.0,1.0,1.0,1.0,1.0,1.0,1.0,1.0,1.0,1.0,1.0,1.0,1.0,1.0,,14.96270560192901,13.341513486833936,12.124073815524628,10.576915425681417,10.657109189343927,9.318564639931266,8.707415969100524,9.034408615552126,9.483329626385448,8.972768146275255,7.482529376348123,6.896376650379405,5.946529285971248,5.031656075498807,4.4552380028983904,3.861411551626122,3.3833899346100638,2.9667242308875164,2.6310215060713142,2.30731482432619,2.020656571593039,1.755071659741063,1.509319400851406,1.3066827066175986,1.1300767761904447,1.2302620278586536,1.0416349854359646,1.1155050766607806,0.9744756568427495,0.850493635448666,0.7305565022419609,0.6229141538664615,0.5397460743415536,0.4584856917130066,0.3855625332884406,0.4151697551544861,0.34828662793964327,0.2863005168869389,0.22829877897970166,0.18943440747755733,0.15512421499938267,0.12807512907623933,0.10170067530383002,0.0795599159905236,0.057796222265505445,0.04146601945950416,0.026760131548833995,0.017018176832929954,0.009876955705715253,0.003372556726845636,0.0,,0.45,0.45,0.45,0.45,0.45,0.45,0.45,0.45,0.45,0.45,0.45,0.45,0.45,0.45,0.45,0.45,0.45,0.45,0.45,0.45,0.45,0.45,0.45,0.45,0.45,0.45,0.45,0.45,0.45,0.45,0.45,0.45,0.45,0.45,0.45,0.45,0.45,0.45,0.45,0.45,0.45,0.45,0.45,0.45,0.45,0.45,0.45,0.45,0.45,0.45,,1.0,1.0,1.0,1.0,1.0,1.0,1.0,1.0,1.0,1.0,1.0,1.0,1.0,1.0,1.0,1.0,1.0,1.0,1.0,1.0,1.0,1.0,1.0,1.0,1.0,1.0,1.0,1.0,1.0,1.0,1.0,1.0,1.0,1.0,1.0,1.0,1.0,1.0,1.0,1.0,1.0,1.0,1.0,1.0,1.0,1.0,1.0,1.0,1.0,1.0,,21,28,3,12,47,29,8,35,33,48,30,42,13,11,49,38,46,36,24,14,31,20,15,27,9,45,1,0,23,32,2,19,44,5,7,39,26,40,41,16,43,37,17,25,6,22,18,10,4,34
2.0,0.6,0.5,100,0,0.01,13,RandomEMDetectRandom,20,4010,0.76,0.7919999999999999,0.7999999999999999,0.8119999999999999,0.8160000000000001,0.82,0.8240000000000001,0.828,0.8280000000000001,0.8240000000000001,0.8320000000000001,0.8320000000000001,0.844,0.8400000000000001,0.8400000000000001,0.8480000000000001,0.8640000000000001,0.8800000000000001,0.8800000000000001,0.876,0.876,0.876,0.884,0.9,0.9,0.9040000000000001,0.9040000000000001,0.9119999999999999,0.9199999999999999,0.916,0.924,0.9279999999999999,0.932,0.9359999999999999,0.9359999999999999,0.9359999999999999,0.9359999999999999,0.9359999999999999,0.944,0.952,0.952,0.96,0.96,0.9640000000000001,0.9640000000000001,0.968,0.9800000000000001,0.9879999999999999,0.9879999999999999,0.9879999999999999,1.0,,13.899903223119406,13.200702326322972,12.742084022955064,12.619999808615516,12.255560715853793,12.082217396054464,11.829247574690564,11.933519694648922,11.878544319349945,11.795440494019726,11.328883635464617,11.049615888220753,10.568021630319134,10.070428834127204,9.673758728092475,9.12149301158365,8.852108837755399,8.819411006762383,8.158321356460677,7.772818457338717,7.420074326151614,7.16020770022997,6.880503103759551,6.279743817507096,6.014156842667963,5.650673940205597,5.526421187737421,5.366513761385673,5.174880333675146,4.753019211652362,4.649188599070882,4.256730911355467,3.9532191441555597,3.744644583214309,3.4451427869761773,3.278709962125416,3.1138353146428863,2.9012749598859005,2.694864217399038,2.4004722833116636,2.3248080353611376,2.1303414559461573,1.9963143898931157,1.6676450486007073,1.546259836884019,1.3534559854630532,1.1118662612464405,0.9492668785634872,0.6822142117667725,0.46554432594460504,0.0,,0.5,0.5,0.5,0.5,0.5,0.5,0.5,0.5,0.5,0.5,0.5,0.5,0.5,0.5,0.5,0.5,0.5,0.5,0.5,0.5,0.5,0.5,0.5,0.5,0.5,0.5,0.5,0.5,0.5,0.5,0.5,0.5,0.5,0.5,0.5,0.5,0.5,0.5,0.5,0.5,0.5,0.5,0.5,0.5,0.5,0.5,0.5,0.5,0.5,0.5,,1.0,1.0,1.0,1.0,1.0,1.0,1.0,1.0,1.0,1.0,1.0,1.0,1.0,1.0,1.0,1.0,1.0,1.0,1.0,1.0,1.0,1.0,1.0,1.0,1.0,1.0,1.0,1.0,1.0,1.0,1.0,1.0,1.0,1.0,1.0,1.0,1.0,1.0,1.0,1.0,1.0,1.0,1.0,1.0,1.0,1.0,1.0,1.0,1.0,1.0,,-1,-1,-1,-1,-1,-1,-1,-1,-1,-1,-1,-1,-1,-1,-1,-1,-1,-1,-1,-1,-1,-1,-1,-1,-1,-1,-1,-1,-1,-1,-1,-1,-1,-1,-1,-1,-1,-1,-1,-1,-1,-1,-1,-1,-1,-1,-1,-1,-1,-1
2.0,0.6,0.5,100,0,0.01,13,IGEMRandomSequence,20,208633,0.76,0.82,0.82,0.82,0.84,0.84,0.86,0.86,0.88,0.88,0.88,0.88,0.9,0.9,0.9,0.9,0.9,0.9,0.92,0.92,0.92,0.92,0.94,0.94,0.96,0.96,0.96,0.96,0.96,0.96,0.96,0.98,0.98,0.98,0.98,0.98,0.98,1.0,1.0,1.0,1.0,1.0,1.0,1.0,1.0,1.0,1.0,1.0,1.0,1.0,1.0,,13.899903223119406,11.964754890348546,10.299657553157,9.773901608506144,9.591420194555472,8.597917707567076,8.227612113695773,7.260963005778972,6.280755571061355,5.027870784318066,4.469430367956374,3.9669214454757102,4.259685260460255,3.653876366488231,3.1532474744609678,2.6954463573981564,2.381704514049881,2.126549424317211,2.4126884709915424,1.9295060956069072,1.6678253285642346,1.4601965415494578,1.5637153710141738,1.3932167633460006,1.7017940293346543,1.4394699840381886,1.2363064912325108,1.03691019578131,0.8905460524985329,0.7688714979338781,0.665173605945522,0.7280477103518149,0.6057851339635664,0.5258066024694883,0.4503749496624931,0.37456743343772897,0.3022543523591308,0.35575076267588,0.2743243442849682,0.20945258976286224,0.17052992244632867,0.13821841401373353,0.1100438717961414,0.08359478699843091,0.0655643720957703,0.05150509339354877,0.037756553505557594,0.02438817863328922,0.01552309170618157,0.00693000731904141,0.0,,0.5,0.5,0.5,0.5,0.5,0.5,0.5,0.5,0.5,0.5,0.5,0.5,0.5,0.5,0.5,0.5,0.5,0.5,0.5,0.5,0.5,0.5,0.5,0.5,0.5,0.5,0.5,0.5,0.5,0.5,0.5,0.5,0.5,0.5,0.5,0.5,0.5,0.5,0.5,0.5,0.5,0.5,0.5,0.5,0.5,0.5,0.5,0.5,0.5,0.5,,1.0,1.0,1.0,1.0,1.0,1.0,1.0,1.0,1.0,1.0,1.0,1.0,1.0,1.0,1.0,1.0,1.0,1.0,1.0,1.0,1.0,1.0,1.0,1.0,1.0,1.0,1.0,1.0,1.0,1.0,1.0,1.0,1.0,1.0,1.0,1.0,1.0,1.0,1.0,1.0,1.0,1.0,1.0,1.0,1.0,1.0,1.0,1.0,1.0,1.0,,4,42,7,17,49,28,44,0,35,8,27,26,3,29,22,21,15,9,45,47,40,33,14,5,36,18,12,32,38,39,41,24,11,25,1,10,19,48,6,20,43,23,30,37,31,34,16,2,13,46
2.0,0.6,0.5,100,0,0.01,14,RandomEMDetectRandom,20,3842,0.8,0.8,0.804,0.804,0.808,0.8160000000000001,0.8119999999999999,0.8160000000000001,0.8320000000000001,0.836,0.836,0.8400000000000001,0.836,0.8400000000000001,0.844,0.844,0.86,0.86,0.8640000000000001,0.868,0.8800000000000001,0.8800000000000001,0.8879999999999999,0.8879999999999999,0.9039999999999999,0.9119999999999999,0.9119999999999999,0.916,0.9239999999999998,0.932,0.9399999999999998,0.944,0.9480000000000001,0.9640000000000001,0.9640000000000001,0.9640000000000001,0.9640000000000001,0.9640000000000001,0.96,0.9559999999999998,0.9640000000000001,0.968,0.976,0.976,0.984,0.984,0.992,0.9960000000000001,0.9960000000000001,1.0,1.0,,15.565106438101768,14.90941306786851,14.21493975486799,13.861799410137483,13.343440259809853,12.726468966121654,12.162051916831576,12.315521825937328,12.335006169342728,11.431635163955471,11.202693430817606,10.750531407467507,10.44551691830597,10.194980222192433,10.013326011107006,9.42276777827503,9.40343110231932,9.156563270710551,8.914924061111169,8.952537038163006,8.313202112126714,8.062627651790157,8.236373731579164,7.873841478315731,7.996868462593939,7.43238427460511,6.999335437382588,6.784436259532131,6.470125336227683,6.273257735344051,6.094311779785181,5.903583535080127,5.589131155616711,5.081433066688336,4.584424982338532,4.372999593508525,4.035858861792811,3.6900239794623695,3.126405263004481,2.6849088166703714,2.4264754599200944,2.185626901956629,1.790367671775164,1.5986611557785317,1.3398579367851313,1.1058529831371575,0.7343338650710504,0.5722713310288624,0.31832644005143457,0.10687799026434992,0.0,,0.55,0.55,0.55,0.55,0.55,0.55,0.55,0.55,0.55,0.55,0.55,0.55,0.55,0.55,0.55,0.55,0.55,0.55,0.55,0.55,0.55,0.55,0.55,0.55,0.55,0.55,0.55,0.55,0.55,0.55,0.55,0.55,0.55,0.55,0.55,0.55,0.55,0.55,0.55,0.55,0.55,0.55,0.55,0.55,0.55,0.55,0.55,0.55,0.55,0.55,,1.0,1.0,1.0,1.0,1.0,1.0,1.0,1.0,1.0,1.0,1.0,1.0,1.0,1.0,1.0,1.0,1.0,1.0,1.0,1.0,1.0,1.0,1.0,1.0,1.0,1.0,1.0,1.0,1.0,1.0,1.0,1.0,1.0,1.0,1.0,1.0,1.0,1.0,1.0,1.0,1.0,1.0,1.0,1.0,1.0,1.0,1.0,1.0,1.0,1.0,,-1,-1,-1,-1,-1,-1,-1,-1,-1,-1,-1,-1,-1,-1,-1,-1,-1,-1,-1,-1,-1,-1,-1,-1,-1,-1,-1,-1,-1,-1,-1,-1,-1,-1,-1,-1,-1,-1,-1,-1,-1,-1,-1,-1,-1,-1,-1,-1,-1,-1
2.0,0.6,0.5,100,0,0.01,14,IGEMRandomSequence,20,227110,0.8,0.8,0.82,0.82,0.82,0.82,0.84,0.86,0.88,0.9,0.92,0.92,0.92,0.92,0.92,0.94,0.94,0.94,0.96,0.96,0.96,0.96,0.96,0.96,0.96,0.96,0.96,0.96,0.96,0.96,0.96,0.96,0.96,0.96,0.96,0.98,1.0,1.0,1.0,1.0,1.0,1.0,1.0,1.0,1.0,1.0,1.0,1.0,1.0,1.0,1.0,,15.565106438101768,13.534392672694525,11.702450967443626,11.246128573676149,9.456129902923863,8.543712996345894,8.488325323499728,8.246087695689887,8.571084087929806,7.652033511579599,7.969930520375509,6.471568520404634,5.385739094256665,4.4907494952727465,3.8345400533055285,3.7752720649573828,2.9803731938880413,2.626688951122012,3.2725292166951774,2.807589420690524,2.4980862942793287,2.1793848763956905,1.9117247666244934,1.6778417988657308,1.5031232872923326,1.3383206064114126,1.1912087066477484,1.0480815310619862,0.916239705043581,0.7874226232664312,0.6666027869266213,0.5487799151772319,0.4417492070383501,0.3837569096047071,0.32880774341937236,0.3991591029129731,0.43258374007937594,0.3649769966443589,0.3063064971186035,0.25242800543790406,0.21096357532098362,0.17162132557869475,0.13397139100227112,0.09992997106385063,0.07873387514487461,0.05988291658952692,0.04125111301414739,0.024976839546288734,0.014181246890369533,0.0034511758294594004,0.0,,0.55,0.55,0.55,0.55,0.55,0.55,0.55,0.55,0.55,0.55,0.55,0.55,0.55,0.55,0.55,0.55,0.55,0.55,0.55,0.55,0.55,0.55,0.55,0.55,0.55,0.55,0.55,0.55,0.55,0.55,0.55,0.55,0.55,0.55,0.55,0.55,0.55,0.55,0.55,0.55,0.55,0.55,0.55,0.55,0.55,0.55,0.55,0.55,0.55,0.55,,1.0,1.0,1.0,1.0,1.0,1.0,1.0,1.0,1.0,1.0,1.0,1.0,1.0,1.0,1.0,1.0,1.0,1.0,1.0,1.0,1.0,1.0,1.0,1.0,1.0,1.0,1.0,1.0,1.0,1.0,1.0,1.0,1.0,1.0,1.0,1.0,1.0,1.0,1.0,1.0,1.0,1.0,1.0,1.0,1.0,1.0,1.0,1.0,1.0,1.0,,3,4,7,20,36,38,1,34,39,28,40,48,45,29,6,11,24,35,25,22,5,46,16,30,10,9,37,2,49,13,14,31,43,15,26,32,42,18,19,47,27,8,17,44,33,41,21,12,0,23
2.0,0.6,0.5,100,0,0.01,15,RandomEMDetectRandom,20,4538,0.78,0.7920000000000001,0.788,0.7999999999999999,0.8,0.7999999999999999,0.808,0.808,0.8160000000000001,0.8160000000000001,0.82,0.828,0.82,0.82,0.828,0.8320000000000001,0.836,0.844,0.86,0.868,0.868,0.868,0.8720000000000001,0.876,0.876,0.8800000000000001,0.884,0.884,0.892,0.908,0.9199999999999999,0.924,0.932,0.944,0.944,0.952,0.9480000000000001,0.9480000000000001,0.952,0.952,0.9559999999999998,0.9559999999999998,0.9640000000000001,0.968,0.968,0.976,0.9800000000000001,0.9800000000000001,0.9879999999999999,0.9960000000000001,1.0,,20.490796393215543,19.783543985445938,19.231353333365778,18.60078806427181,17.70249576239368,16.87826214479291,16.3428148963035,15.582629916163748,15.221264536344876,14.843630169067868,14.221226345941176,13.803915966800579,13.408620988200889,12.691196169849672,11.994744746106825,11.293411049274322,10.819206579324455,10.203738401426126,9.709211181102104,9.35196153304106,9.166104653161565,8.753515347878604,8.268250127594978,8.002630770636145,7.744978501851529,7.295416922770086,6.95890142356924,6.845671080843168,6.202559601416892,5.881410200824713,5.628645499189661,5.28935870334414,5.130544899354222,4.924985428801314,4.846994273347251,4.527760378544192,3.9474626695550312,3.6718461173023007,3.488727097303916,3.286313324344671,2.9608386406258083,2.6000841417326566,2.3373964209456997,2.004563948953282,1.7786674186598088,1.47665377918362,1.098704879566918,0.8431168860926539,0.577112454022996,0.34870444333882256,0.0,,0.55,0.55,0.55,0.55,0.55,0.55,0.55,0.55,0.55,0.55,0.55,0.55,0.55,0.55,0.55,0.55,0.55,0.55,0.55,0.55,0.55,0.55,0.55,0.55,0.55,0.55,0.55,0.55,0.55,0.55,0.55,0.55,0.55,0.55,0.55,0.55,0.55,0.55,0.55,0.55,0.55,0.55,0.55,0.55,0.55,0.55,0.55,0.55,0.55,0.55,,1.0,1.0,1.0,1.0,1.0,1.0,1.0,1.0,1.0,1.0,1.0,1.0,1.0,1.0,1.0,1.0,1.0,1.0,1.0,1.0,1.0,1.0,1.0,1.0,1.0,1.0,1.0,1.0,1.0,1.0,1.0,1.0,1.0,1.0,1.0,1.0,1.0,1.0,1.0,1.0,1.0,1.0,1.0,1.0,1.0,1.0,1.0,1.0,1.0,1.0,,-1,-1,-1,-1,-1,-1,-1,-1,-1,-1,-1,-1,-1,-1,-1,-1,-1,-1,-1,-1,-1,-1,-1,-1,-1,-1,-1,-1,-1,-1,-1,-1,-1,-1,-1,-1,-1,-1,-1,-1,-1,-1,-1,-1,-1,-1,-1,-1,-1,-1
2.0,0.6,0.5,100,0,0.01,15,IGEMRandomSequence,20,250823,0.78,0.8,0.82,0.76,0.86,0.82,0.84,0.86,0.84,0.86,0.86,0.86,0.86,0.86,0.88,0.9,0.9,0.9,0.9,0.92,0.92,0.92,0.92,0.92,0.92,0.94,0.94,0.94,0.94,0.96,0.98,0.98,0.98,0.98,0.98,0.98,0.98,0.98,0.98,0.98,0.98,0.98,0.98,0.98,0.98,0.98,1.0,1.0,1.0,1.0,1.0,,20.490796393215543,19.5908626256061,17.52413803607702,16.267286661591005,15.059155228329942,14.437294278967874,13.045448824040893,11.516412558323168,10.298931627861956,9.322754542894776,8.450915038030631,7.412257917326296,6.437480370967814,5.619186880133135,5.075203182180806,5.359675734085051,4.60458202406398,3.9552952503934944,3.5100072434015197,3.73768685396335,3.2306722704358375,2.8603453000405468,2.4424892315639086,2.1274969130063104,1.8275805411362571,1.978283937807022,1.6778503701342304,1.4216911437740587,1.1816778722273207,1.3890817639150177,1.3308274913082945,1.1197450698702767,0.95720923794425,0.8176049603032677,0.7014237139237486,0.609329802972097,0.532655061990078,0.45755754830309,0.3976554388763667,0.3405144554209541,0.28981657349366247,0.24476198708813413,0.20194893380885898,0.16256929584508162,0.1258229868579913,0.09200058641771675,0.0918725127401456,0.05513668130905701,0.02773691126718389,0.009538109317245025,0.0,,0.55,0.55,0.55,0.55,0.55,0.55,0.55,0.55,0.55,0.55,0.55,0.55,0.55,0.55,0.55,0.55,0.55,0.55,0.55,0.55,0.55,0.55,0.55,0.55,0.55,0.55,0.55,0.55,0.55,0.55,0.55,0.55,0.55,0.55,0.55,0.55,0.55,0.55,0.55,0.55,0.55,0.55,0.55,0.55,0.55,0.55,0.55,0.55,0.55,0.55,,1.0,1.0,1.0,1.0,1.0,1.0,1.0,1.0,1.0,1.0,1.0,1.0,1.0,1.0,1.0,1.0,1.0,1.0,1.0,1.0,1.0,1.0,1.0,1.0,1.0,1.0,1.0,1.0,1.0,1.0,1.0,1.0,1.0,1.0,1.0,1.0,1.0,1.0,1.0,1.0,1.0,1.0,1.0,1.0,1.0,1.0,1.0,1.0,1.0,1.0,,29,32,28,15,25,3,9,7,19,44,16,26,11,21,22,5,35,17,48,13,33,12,39,31,38,4,41,43,24,42,2,18,23,10,46,20,37,27,47,6,45,0,36,40,1,8,30,14,34,49
2.0,0.6,0.5,100,0,0.01,16,RandomEMDetectRandom,20,4964,0.78,0.8039999999999999,0.828,0.828,0.8200000000000001,0.796,0.836,0.8320000000000001,0.8320000000000001,0.844,0.828,0.836,0.8400000000000001,0.836,0.8480000000000001,0.86,0.86,0.86,0.868,0.8720000000000001,0.876,0.8800000000000001,0.876,0.8960000000000001,0.8960000000000001,0.8880000000000001,0.9,0.908,0.9039999999999999,0.916,0.932,0.9359999999999999,0.9399999999999998,0.9480000000000001,0.9480000000000001,0.9480000000000001,0.9400000000000001,0.9400000000000001,0.9400000000000001,0.952,0.9559999999999998,0.9640000000000001,0.968,0.9719999999999999,0.984,0.984,0.984,0.9879999999999999,0.992,0.9960000000000001,1.0,,27.032819364527434,26.50940316195378,25.07859979660204,23.9751796860158,22.48204735367376,21.73852575934059,20.870582929549705,20.242922925381702,19.16587801434541,18.062362055574333,17.211706712617566,16.604712735915875,16.197760872108592,15.530923109285201,14.548171250204158,14.304987225107642,13.809497192595611,13.190140179769992,12.567912455068614,11.621199582474034,11.165966505901265,10.574676325787598,10.273392985627241,9.793665466171042,9.087683423457477,8.651896183318977,8.2726660580596,7.9569122777500665,7.513178679879095,7.2727315279207065,6.78608955322822,6.400455614004159,6.154609654661408,5.883774128890808,5.55088975878679,5.128338270760038,4.669223201307025,4.386164240301192,3.988214724202315,3.5461668766012244,3.357367641934357,3.023941793648728,2.5804074066339275,2.026178763683394,1.8376333251903034,1.5598654405974162,1.1556494464682907,0.7547579391751077,0.47829314597463435,0.17837922499671957,0.0,,0.45,0.45,0.45,0.45,0.45,0.45,0.45,0.45,0.45,0.45,0.45,0.45,0.45,0.45,0.45,0.45,0.45,0.45,0.45,0.45,0.45,0.45,0.45,0.45,0.45,0.45,0.45,0.45,0.45,0.45,0.45,0.45,0.45,0.45,0.45,0.45,0.45,0.45,0.45,0.45,0.45,0.45,0.45,0.45,0.45,0.45,0.45,0.45,0.45,0.45,,1.0,1.0,1.0,1.0,1.0,1.0,1.0,1.0,1.0,1.0,1.0,1.0,1.0,1.0,1.0,1.0,1.0,1.0,1.0,1.0,1.0,1.0,1.0,1.0,1.0,1.0,1.0,1.0,1.0,1.0,1.0,1.0,1.0,1.0,1.0,1.0,1.0,1.0,1.0,1.0,1.0,1.0,1.0,1.0,1.0,1.0,1.0,1.0,1.0,1.0,,-1,-1,-1,-1,-1,-1,-1,-1,-1,-1,-1,-1,-1,-1,-1,-1,-1,-1,-1,-1,-1,-1,-1,-1,-1,-1,-1,-1,-1,-1,-1,-1,-1,-1,-1,-1,-1,-1,-1,-1,-1,-1,-1,-1,-1,-1,-1,-1,-1,-1
2.0,0.6,0.5,100,0,0.01,16,IGEMRandomSequence,20,317303,0.78,0.8,0.74,0.78,0.76,0.76,0.76,0.84,0.9,0.86,0.88,0.9,0.92,0.94,0.94,0.94,0.92,0.94,0.94,0.96,0.96,0.96,0.96,0.96,0.96,0.96,0.96,0.96,0.96,0.96,0.96,0.96,0.96,0.98,0.98,0.98,1.0,1.0,1.0,1.0,1.0,1.0,1.0,1.0,1.0,1.0,1.0,1.0,1.0,1.0,1.0,,27.03281936452743,25.340189363757563,23.696220633373244,21.613929170682457,19.54189149778743,18.704821237625612,17.673921457473224,17.884653457043466,17.1135770632086,15.513602039662693,14.753637388068585,14.615311047542283,14.09605731090217,12.729687287930002,11.673722092876664,10.579122382557962,9.200666896684139,8.155315823549621,7.160541094996223,6.331522276202478,5.261024900827837,4.598064229795892,4.063908471309337,3.5399875883079837,3.148468632294319,2.8079915596460396,2.4663609961524595,2.1806191366396206,1.9370254750159832,1.7019734032492109,1.4908537105841875,1.271563336778096,1.0975381444712269,1.114271208736098,0.8920697466588907,0.7372448378606061,1.00303925035772,0.7516660852038022,0.5984080353220265,0.46533880044846776,0.3447427886092272,0.26158898054023094,0.19460061363777045,0.1315346818267644,0.09689714937387844,0.07415717045178814,0.054133988472051454,0.03659383916903699,0.0195292951914004,0.007630173235035438,0.0,,0.45,0.45,0.45,0.45,0.45,0.45,0.45,0.45,0.45,0.45,0.45,0.45,0.45,0.45,0.45,0.45,0.45,0.45,0.45,0.45,0.45,0.45,0.45,0.45,0.45,0.45,0.45,0.45,0.45,0.45,0.45,0.45,0.45,0.45,0.45,0.45,0.45,0.45,0.45,0.45,0.45,0.45,0.45,0.45,0.45,0.45,0.45,0.45,0.45,0.45,,1.0,1.0,1.0,1.0,1.0,1.0,1.0,1.0,1.0,1.0,1.0,1.0,1.0,1.0,1.0,1.0,1.0,1.0,1.0,1.0,1.0,1.0,1.0,1.0,1.0,1.0,1.0,1.0,1.0,1.0,1.0,1.0,1.0,1.0,1.0,1.0,1.0,1.0,1.0,1.0,1.0,1.0,1.0,1.0,1.0,1.0,1.0,1.0,1.0,1.0,,19,2,4,9,23,45,16,25,1,47,29,27,39,43,11,38,35,24,3,22,33,28,15,34,12,44,40,41,0,20,26,8,13,30,48,49,31,17,6,10,14,7,21,37,36,18,32,5,46,42
2.0,0.6,0.5,100,0,0.01,17,RandomEMDetectRandom,20,4109,0.76,0.76,0.768,0.768,0.764,0.764,0.776,0.772,0.7840000000000001,0.792,0.7920000000000001,0.804,0.804,0.812,0.8119999999999999,0.8160000000000001,0.8200000000000001,0.8240000000000001,0.8240000000000001,0.828,0.8480000000000001,0.8480000000000001,0.8560000000000001,0.8720000000000001,0.868,0.8719999999999999,0.8719999999999999,0.8879999999999999,0.8959999999999999,0.8959999999999999,0.9079999999999998,0.9079999999999998,0.9079999999999998,0.9199999999999999,0.9199999999999999,0.9199999999999999,0.9199999999999999,0.9199999999999999,0.9359999999999999,0.944,0.952,0.952,0.96,0.968,0.968,0.968,0.976,0.9800000000000001,0.984,0.992,1.0,,15.745563376627237,15.189390641173777,14.675351183053468,13.971959952352128,13.525775548593742,13.467729480374834,13.269177189748074,13.06019066504185,13.01204782678388,12.827736135056654,12.359052574632482,12.483742260452455,12.648971713687372,12.028440114330209,11.49784551870367,11.027831479822895,10.23759831194168,9.819623834473575,9.521880191094816,8.965462305546067,9.15350314559081,8.822028168980982,8.435960757015044,8.132253018562988,7.748009800090998,7.376875026027011,6.974763634304006,6.610511529874399,6.650312941310602,6.163904987231396,5.912507346643329,5.666008651656178,5.269518624253306,5.014300609173739,4.686352075851282,4.562977525274777,4.2223077633179775,4.060383437379299,3.97894824444239,3.5818630343940954,3.378769911562453,2.9265111689954812,2.7666130973103993,2.385148025529454,2.2195641296616513,1.7103310220133685,1.3731155123201468,1.0808934599017004,0.7951024102353669,0.5064823659844232,0.0,,0.55,0.55,0.55,0.55,0.55,0.55,0.55,0.55,0.55,0.55,0.55,0.55,0.55,0.55,0.55,0.55,0.55,0.55,0.55,0.55,0.55,0.55,0.55,0.55,0.55,0.55,0.55,0.55,0.55,0.55,0.55,0.55,0.55,0.55,0.55,0.55,0.55,0.55,0.55,0.55,0.55,0.55,0.55,0.55,0.55,0.55,0.55,0.55,0.55,0.55,,1.0,1.0,1.0,1.0,1.0,1.0,1.0,1.0,1.0,1.0,1.0,1.0,1.0,1.0,1.0,1.0,1.0,1.0,1.0,1.0,1.0,1.0,1.0,1.0,1.0,1.0,1.0,1.0,1.0,1.0,1.0,1.0,1.0,1.0,1.0,1.0,1.0,1.0,1.0,1.0,1.0,1.0,1.0,1.0,1.0,1.0,1.0,1.0,1.0,1.0,,-1,-1,-1,-1,-1,-1,-1,-1,-1,-1,-1,-1,-1,-1,-1,-1,-1,-1,-1,-1,-1,-1,-1,-1,-1,-1,-1,-1,-1,-1,-1,-1,-1,-1,-1,-1,-1,-1,-1,-1,-1,-1,-1,-1,-1,-1,-1,-1,-1,-1
2.0,0.6,0.5,100,0,0.01,17,IGEMRandomSequence,20,221833,0.76,0.76,0.76,0.76,0.78,0.78,0.78,0.78,0.8,0.82,0.82,0.84,0.84,0.84,0.84,0.86,0.86,0.88,0.88,0.88,0.88,0.88,0.88,0.9,0.9,0.92,0.92,0.92,0.94,0.94,0.96,0.96,0.98,0.98,0.98,0.98,0.98,0.98,0.98,0.98,0.98,0.98,0.98,0.98,1.0,1.0,1.0,1.0,1.0,1.0,1.0,,15.745563376627237,13.87346132686876,12.94107356005505,11.489786108403866,10.822431505823287,9.469204071863373,8.388461206243589,7.6790615098227955,8.279255318681123,8.18782012891741,6.806312119825707,6.871783159165254,6.099157385567167,5.403275110640983,4.785263500331587,4.996360217479404,4.12763532188324,4.284041687978589,3.5386636762073387,2.8879189091098216,2.427668672036065,2.0460828450321893,1.7326672546624016,1.7475212145361911,1.501739045989422,1.7005487587249906,1.5028930205053572,1.339407055761403,1.5315743924911507,1.3233770130920455,1.4191518375371208,1.149894342885154,1.1263256712780232,0.9653904127611436,0.8291532789908945,0.731545873688878,0.63741267066553,0.5514068172922725,0.47667946866999317,0.4053243333103122,0.33804150650962006,0.27360283529812146,0.21697854726809757,0.17315551438908108,0.17995995458576247,0.11644023461173285,0.07977233405944326,0.051919295642726224,0.02605545722613122,0.00678861838072105,0.0,,0.55,0.55,0.55,0.55,0.55,0.55,0.55,0.55,0.55,0.55,0.55,0.55,0.55,0.55,0.55,0.55,0.55,0.55,0.55,0.55,0.55,0.55,0.55,0.55,0.55,0.55,0.55,0.55,0.55,0.55,0.55,0.55,0.55,0.55,0.55,0.55,0.55,0.55,0.55,0.55,0.55,0.55,0.55,0.55,0.55,0.55,0.55,0.55,0.55,0.55,,1.0,1.0,1.0,1.0,1.0,1.0,1.0,1.0,1.0,1.0,1.0,1.0,1.0,1.0,1.0,1.0,1.0,1.0,1.0,1.0,1.0,1.0,1.0,1.0,1.0,1.0,1.0,1.0,1.0,1.0,1.0,1.0,1.0,1.0,1.0,1.0,1.0,1.0,1.0,1.0,1.0,1.0,1.0,1.0,1.0,1.0,1.0,1.0,1.0,1.0,,43,32,3,10,22,40,35,23,2,47,27,14,42,18,33,46,37,41,24,4,29,12,15,36,16,26,44,45,9,8,49,11,6,1,0,39,5,31,25,21,7,20,30,17,19,34,13,28,38,48
2.0,0.6,0.5,100,0,0.01,18,RandomEMDetectRandom,20,4340,0.82,0.8,0.804,0.796,0.8119999999999999,0.8160000000000001,0.808,0.8160000000000001,0.836,0.852,0.8480000000000001,0.8480000000000001,0.8560000000000001,0.8560000000000001,0.86,0.868,0.868,0.868,0.8720000000000001,0.876,0.8800000000000001,0.884,0.8880000000000001,0.8959999999999999,0.8959999999999999,0.8959999999999999,0.908,0.9119999999999999,0.9279999999999999,0.9399999999999998,0.9399999999999998,0.9359999999999999,0.9359999999999999,0.9399999999999998,0.944,0.9480000000000001,0.952,0.952,0.9559999999999998,0.9640000000000001,0.968,0.9719999999999999,0.9800000000000001,0.984,0.984,0.992,0.992,0.9960000000000001,0.9960000000000001,0.9960000000000001,1.0,,18.8271294955944,18.027866299800092,17.472169435840605,16.54080732652971,15.669142870482386,15.561978815533129,15.019577418446914,15.129651296903896,14.425804079535183,13.966476485586886,13.332429637306053,12.599577385198375,12.191974929684516,11.670721779165826,11.17321999150011,11.551155782409671,11.140197311090112,10.834565632154977,10.595935766021912,9.96513794399028,9.6128641201336,9.186340916482155,9.015230258185397,8.54192281455762,8.11909639445968,7.716709150355477,7.604156947350694,7.297951180843984,6.708409465996877,6.360414820463886,5.997050284704376,5.734265600191802,5.0294607775508355,4.486300651613885,4.384009928310323,4.341871448388132,4.01934130233058,3.6223307492921593,3.1483628620437996,2.8218550214244473,2.5933951129621904,2.5833420138570378,2.0123843865854933,1.8187391797873758,1.4530864486841226,1.2147686684650678,0.963826492712139,0.6603089131677239,0.39384104983207535,0.34844996178838245,0.0,,0.45,0.45,0.45,0.45,0.45,0.45,0.45,0.45,0.45,0.45,0.45,0.45,0.45,0.45,0.45,0.45,0.45,0.45,0.45,0.45,0.45,0.45,0.45,0.45,0.45,0.45,0.45,0.45,0.45,0.45,0.45,0.45,0.45,0.45,0.45,0.45,0.45,0.45,0.45,0.45,0.45,0.45,0.45,0.45,0.45,0.45,0.45,0.45,0.45,0.45,,1.0,1.0,1.0,1.0,1.0,1.0,1.0,1.0,1.0,1.0,1.0,1.0,1.0,1.0,1.0,1.0,1.0,1.0,1.0,1.0,1.0,1.0,1.0,1.0,1.0,1.0,1.0,1.0,1.0,1.0,1.0,1.0,1.0,1.0,1.0,1.0,1.0,1.0,1.0,1.0,1.0,1.0,1.0,1.0,1.0,1.0,1.0,1.0,1.0,1.0,,-1,-1,-1,-1,-1,-1,-1,-1,-1,-1,-1,-1,-1,-1,-1,-1,-1,-1,-1,-1,-1,-1,-1,-1,-1,-1,-1,-1,-1,-1,-1,-1,-1,-1,-1,-1,-1,-1,-1,-1,-1,-1,-1,-1,-1,-1,-1,-1,-1,-1
2.0,0.6,0.5,100,0,0.01,18,IGEMRandomSequence,20,245968,0.82,0.78,0.8,0.8,0.84,0.84,0.84,0.88,0.88,0.88,0.88,0.88,0.9,0.9,0.9,0.92,0.92,0.92,0.92,0.94,0.94,0.96,0.96,0.96,0.98,0.98,0.98,0.98,0.98,0.98,0.98,0.98,0.98,0.98,0.98,0.98,0.98,0.98,0.98,0.98,0.98,0.98,0.98,0.98,0.98,1.0,1.0,1.0,1.0,1.0,1.0,,18.8271294955944,17.588692370568975,16.303990269932402,15.101287469813606,14.26941471712633,12.99080086157547,12.21163373536374,11.530667547037346,10.3983340908179,9.155033073405336,7.9865548665466335,7.078156159532119,6.905079817932042,6.066558189088396,4.879441506176597,4.320003339331324,3.7970493523704607,3.247287068599757,2.812010779012438,2.6702873653646266,2.2788064325002586,2.353539447764381,2.076564838770278,1.8601872328839146,2.412648167891667,2.0363925585056566,1.7671907104072944,1.5383789730385318,1.35180139876994,1.163688854842523,0.9958652298420014,0.8528706849778229,0.727984045412273,0.6070199207533591,0.4972538812074106,0.4326091604118299,0.3731996926333012,0.31824680041805253,0.2650804939073765,0.21465790866329781,0.16696466248417682,0.12164817737854883,0.09803490542484358,0.07688882937428464,0.05851608597373062,0.07532413679374507,0.0529977647431722,0.030895066689388517,0.01620545027236977,0.006002133682530108,0.0,,0.45,0.45,0.45,0.45,0.45,0.45,0.45,0.45,0.45,0.45,0.45,0.45,0.45,0.45,0.45,0.45,0.45,0.45,0.45,0.45,0.45,0.45,0.45,0.45,0.45,0.45,0.45,0.45,0.45,0.45,0.45,0.45,0.45,0.45,0.45,0.45,0.45,0.45,0.45,0.45,0.45,0.45,0.45,0.45,0.45,0.45,0.45,0.45,0.45,0.45,,1.0,1.0,1.0,1.0,1.0,1.0,1.0,1.0,1.0,1.0,1.0,1.0,1.0,1.0,1.0,1.0,1.0,1.0,1.0,1.0,1.0,1.0,1.0,1.0,1.0,1.0,1.0,1.0,1.0,1.0,1.0,1.0,1.0,1.0,1.0,1.0,1.0,1.0,1.0,1.0,1.0,1.0,1.0,1.0,1.0,1.0,1.0,1.0,1.0,1.0,,39,31,48,44,47,9,11,32,3,22,6,27,46,43,38,45,12,10,8,29,2,18,37,7,21,49,42,25,1,16,41,15,36,4,40,34,28,0,35,13,17,14,30,26,33,19,24,20,5,23
2.0,0.6,0.5,100,0,0.01,19,RandomEMDetectRandom,20,4675,0.8,0.7959999999999999,0.808,0.808,0.808,0.8119999999999999,0.8119999999999999,0.8119999999999999,0.82,0.82,0.8320000000000001,0.8320000000000001,0.8400000000000001,0.8400000000000001,0.844,0.852,0.86,0.8720000000000001,0.868,0.8560000000000001,0.86,0.8720000000000001,0.876,0.868,0.868,0.868,0.876,0.892,0.892,0.892,0.892,0.8959999999999999,0.8959999999999999,0.8959999999999999,0.9039999999999999,0.9279999999999999,0.9279999999999999,0.9359999999999999,0.932,0.9359999999999999,0.944,0.9559999999999998,0.9559999999999998,0.96,0.9640000000000001,0.968,0.968,0.976,0.984,0.992,1.0,,15.338450052845818,15.19470874345781,14.881015030879576,14.554719854623423,14.464803452616584,13.973694765358445,13.721592778861048,13.33915088283718,12.962436637021886,12.53306735836809,12.350321440840457,12.013110736667251,11.65607134816986,10.919700310798804,10.4750995479051,10.890676896031325,10.783187058644769,10.64352519852836,10.69700729828243,10.98348259740922,10.55319052197422,10.029427097001939,9.73879658471962,9.301290810608734,8.95669378011721,8.638079796938513,8.239153304900716,7.663909585653414,7.385489703723278,6.902976093819083,6.751092863214339,6.43039259250677,6.05333697689758,5.690734244738014,5.139669001553709,4.449440432775761,3.9838067819651983,3.9160263077134596,3.4247669846487283,3.385264834582923,3.1036955570082894,2.7765149662521758,2.381805365731318,2.133584229084395,2.0531851983323888,1.7015620637852789,1.4499598673689096,1.0755190254673148,0.5583934184646407,0.26421671955459924,0.0,,0.6,0.6,0.6,0.6,0.6,0.6,0.6,0.6,0.6,0.6,0.6,0.6,0.6,0.6,0.6,0.6,0.6,0.6,0.6,0.6,0.6,0.6,0.6,0.6,0.6,0.6,0.6,0.6,0.6,0.6,0.6,0.6,0.6,0.6,0.6,0.6,0.6,0.6,0.6,0.6,0.6,0.6,0.6,0.6,0.6,0.6,0.6,0.6,0.6,0.6,,1.0,1.0,1.0,1.0,1.0,1.0,1.0,1.0,1.0,1.0,1.0,1.0,1.0,1.0,1.0,1.0,1.0,1.0,1.0,1.0,1.0,1.0,1.0,1.0,1.0,1.0,1.0,1.0,1.0,1.0,1.0,1.0,1.0,1.0,1.0,1.0,1.0,1.0,1.0,1.0,1.0,1.0,1.0,1.0,1.0,1.0,1.0,1.0,1.0,1.0,,-1,-1,-1,-1,-1,-1,-1,-1,-1,-1,-1,-1,-1,-1,-1,-1,-1,-1,-1,-1,-1,-1,-1,-1,-1,-1,-1,-1,-1,-1,-1,-1,-1,-1,-1,-1,-1,-1,-1,-1,-1,-1,-1,-1,-1,-1,-1,-1,-1,-1
2.0,0.6,0.5,100,0,0.01,19,IGEMRandomSequence,20,239061,0.8,0.78,0.8,0.8,0.86,0.86,0.84,0.86,0.86,0.86,0.88,0.9,0.9,0.9,0.9,0.9,0.9,0.9,0.9,0.9,0.9,0.9,0.9,0.9,0.9,0.92,0.92,0.92,0.92,0.92,0.92,0.92,0.94,0.96,0.96,0.98,0.98,0.98,0.98,0.98,0.98,0.98,0.98,0.98,0.98,0.98,0.98,0.98,0.98,1.0,1.0,,15.338450052845817,14.064593573899359,13.346384193685385,13.689302133204693,13.788658800229632,12.879106786493288,11.565969789025152,10.664070254679116,9.781013535344385,8.90616221355861,7.972689511903673,7.656123545328179,6.739647707418062,5.892370602388521,4.932355455104714,4.216822651750645,3.5491089453697615,3.078108910680632,2.719498017400013,2.326904031350483,1.9771985640912875,1.6906486967117855,1.4455988295059392,1.2302068996880404,1.042286847210961,1.1944846121262156,0.9643479829344174,0.8325444108301706,0.7302541460301799,0.6273495862072893,0.5334452622091632,0.44466090734562846,0.4393362442681353,0.4389756901450361,0.3454159169191727,0.434528054042407,0.3366195553831354,0.25975379700508006,0.22318039469390571,0.18735857692479457,0.16278504546030903,0.1390687725145272,0.1160885694143293,0.0940823917352987,0.07510336389304192,0.05918799070688999,0.0438899808180071,0.030211960142470896,0.018179589365646273,0.009404118889863025,0.0,,0.6,0.6,0.6,0.6,0.6,0.6,0.6,0.6,0.6,0.6,0.6,0.6,0.6,0.6,0.6,0.6,0.6,0.6,0.6,0.6,0.6,0.6,0.6,0.6,0.6,0.6,0.6,0.6,0.6,0.6,0.6,0.6,0.6,0.6,0.6,0.6,0.6,0.6,0.6,0.6,0.6,0.6,0.6,0.6,0.6,0.6,0.6,0.6,0.6,0.6,,1.0,1.0,1.0,1.0,1.0,1.0,1.0,1.0,1.0,1.0,1.0,1.0,1.0,1.0,1.0,1.0,1.0,1.0,1.0,1.0,1.0,1.0,1.0,1.0,1.0,1.0,1.0,1.0,1.0,1.0,1.0,1.0,1.0,1.0,1.0,1.0,1.0,1.0,1.0,1.0,1.0,1.0,1.0,1.0,1.0,1.0,1.0,1.0,1.0,1.0,,44,41,37,9,42,10,49,26,34,8,16,28,38,47,48,13,39,2,46,19,14,20,45,5,1,22,0,21,27,32,4,24,35,30,18,6,17,15,33,23,31,36,29,12,7,25,11,40,3,43
