21,0,0.32,,
21,1,0.66,,
21,2,0.6,,
21,3,0.7,,
21,4,0.76,,
21,5,0.74,,
21,6,0.66,,
21,7,0.84,,
21,8,0.74,,
21,9,0.7,,
21,10,0.76,,
21,11,0.88,,
21,12,0.68,,
21,13,0.68,,
21,14,0.56,,
21,15,0.68,,
21,16,0.62,,
21,17,0.6,,
21,18,0.74,,
21,19,0.44,,
21,20,0.74,,
21,21,0.7,,
21,22,0.84,,
21,23,0.78,,
21,24,0.8,,
21,25,0.76,,
21,26,0.62,,
21,27,0.8,,
21,28,0.52,,
21,29,0.72,,
21,30,0.64,,
21,31,0.78,,
21,32,0.76,,
21,33,0.84,,
21,34,0.66,,
21,35,0.68,,
21,36,0.6,,
21,37,0.66,,
21,38,0.6,,
21,39,0.66,,
21,40,0.56,,
21,41,0.82,,
21,42,0.72,,
21,43,0.68,,
21,44,0.8,,
21,45,0.56,,
21,46,0.74,,
21,47,0.7,,
21,48,0.68,,
21,49,0.84,,
21,50,0.76,,
21,51,0.78,,
21,52,0.6,,
21,53,0.74,,
21,54,0.74,,
21,55,0.6,,
21,56,0.78,,
21,57,0.8,,
21,58,0.7,,
21,59,0.62,,
21,60,0.78,,
21,61,0.78,,
21,62,0.82,,
21,63,0.76,,
21,64,0.6,,
21,65,0.66,,
21,66,0.66,,
21,67,0.76,,
21,68,0.68,,
21,69,0.76,,
21,70,0.74,,
21,71,0.68,,
21,72,0.62,,
21,73,0.52,,
21,74,0.54,,
21,75,0.76,,
21,76,0.7,,
21,77,0.72,,
21,78,0.78,,
21,79,0.72,,
21,80,0.7,,
21,81,0.78,,
21,82,0.78,,
21,83,0.72,,
21,84,0.84,,
21,85,0.76,,
21,86,0.72,,
21,87,0.78,,
21,88,0.76,,
21,89,0.68,,
21,90,0.74,,
21,91,0.72,,
21,92,0.8,,
21,93,0.78,,
21,94,0.68,,
21,95,0.68,,
21,96,0.66,,
21,97,0.8,,
21,98,0.4,,
21,99,0.54,,
22,0,0.58,,
22,1,0.8,,
22,2,0.78,,
22,3,0.8,,
22,4,0.56,,
22,5,0.74,,
22,6,0.76,,
22,7,0.48,,
22,8,0.82,,
22,9,0.74,,
22,10,0.8,,
22,11,0.58,,
22,12,0.8,,
22,13,0.72,,
22,14,0.74,,
22,15,0.8,,
22,16,0.76,,
22,17,0.46,,
22,18,0.66,,
22,19,0.8,,
22,20,0.76,,
22,21,0.76,,
22,22,0.82,,
22,23,0.7,,
22,24,0.8,,
22,25,0.66,,
22,26,0.8,,
22,27,0.82,,
22,28,0.82,,
22,29,0.68,,
22,30,0.7,,
22,31,0.76,,
22,32,0.84,,
22,33,0.72,,
22,34,0.6,,
22,35,0.64,,
22,36,0.74,,
22,37,0.7,,
22,38,0.7,,
22,39,0.82,,
22,40,0.7,,
22,41,0.74,,
22,42,0.86,,
22,43,0.66,,
22,44,0.58,,
22,45,0.74,,
22,46,0.78,,
22,47,0.54,,
22,48,0.66,,
22,49,0.76,,
22,50,0.66,,
22,51,0.72,,
22,52,0.76,,
22,53,0.72,,
22,54,0.58,,
22,55,0.78,,
22,56,0.76,,
22,57,0.72,,
22,58,0.68,,
22,59,0.78,,
22,60,0.54,,
22,61,0.74,,
22,62,0.82,,
22,63,0.8,,
22,64,0.88,,
22,65,0.76,,
22,66,0.86,,
22,67,0.76,,
22,68,0.8,,
22,69,0.76,,
22,70,0.78,,
22,71,0.68,,
22,72,0.78,,
22,73,0.74,,
22,74,0.78,,
22,75,0.26,,
22,76,0.68,,
22,77,0.74,,
22,78,0.74,,
22,79,0.68,,
22,80,0.64,,
22,81,0.8,,
22,82,0.84,,
22,83,0.86,,
22,84,0.78,,
22,85,0.66,,
22,86,0.76,,
22,87,0.62,,
22,88,0.72,,
22,89,0.74,,
22,90,0.62,,
22,91,0.66,,
22,92,0.82,,
22,93,0.74,,
22,94,0.62,,
22,95,0.62,,
22,96,0.72,,
22,97,0.84,,
22,98,0.7,,
22,99,0.74,,
23,0,0.8,,
23,1,0.76,,
23,2,0.72,,
23,3,0.76,,
23,4,0.68,,
23,5,0.82,,
23,6,0.8,,
23,7,0.76,,
23,8,0.78,,
23,9,0.74,,
23,10,0.62,,
23,11,0.72,,
23,12,0.72,,
23,13,0.7,,
23,14,0.84,,
23,15,0.72,,
23,16,0.66,,
23,17,0.78,,
23,18,0.76,,
23,19,0.78,,
23,20,0.72,,
23,21,0.66,,
23,22,0.66,,
23,23,0.8,,
23,24,0.76,,
23,25,0.68,,
23,26,0.82,,
23,27,0.72,,
23,28,0.62,,
23,29,0.78,,
23,30,0.76,,
23,31,0.7,,
23,32,0.74,,
23,33,0.78,,
23,34,0.78,,
23,35,0.6,,
23,36,0.76,,
23,37,0.8,,
23,38,0.72,,
23,39,0.64,,
23,40,0.74,,
23,41,0.76,,
23,42,0.82,,
23,43,0.72,,
23,44,0.76,,
23,45,0.76,,
23,46,0.72,,
23,47,0.68,,
23,48,0.8,,
23,49,0.76,,
23,50,0.86,,
23,51,0.8,,
23,52,0.78,,
23,53,0.62,,
23,54,0.8,,
23,55,0.76,,
23,56,0.74,,
23,57,0.74,,
23,58,0.78,,
23,59,0.62,,
23,60,0.8,,
23,61,0.6,,
23,62,0.76,,
23,63,0.74,,
23,64,0.76,,
23,65,0.74,,
23,66,0.66,,
23,67,0.7,,
23,68,0.78,,
23,69,0.82,,
23,70,0.82,,
23,71,0.76,,
23,72,0.72,,
23,73,0.74,,
23,74,0.84,,
23,75,0.78,,
23,76,0.82,,
23,77,0.68,,
23,78,0.64,,
23,79,0.84,,
23,80,0.74,,
23,81,0.68,,
23,82,0.7,,
23,83,0.62,,
23,84,0.78,,
23,85,0.82,,
23,86,0.88,,
23,87,0.42,,
23,88,0.78,,
23,89,0.64,,
23,90,0.78,,
23,91,0.8,,
23,92,0.66,,
23,93,0.74,,
23,94,0.68,,
23,95,0.7,,
23,96,0.54,,
23,97,0.74,,
23,98,0.82,,
23,99,0.8,,
24,0,0.66,,
24,1,0.68,,
24,2,0.82,,
24,3,0.78,,
24,4,0.8,,
24,5,0.68,,
24,6,0.68,,
24,7,0.74,,
24,8,0.78,,
24,9,0.74,,
24,10,0.78,,
24,11,0.76,,
24,12,0.76,,
24,13,0.82,,
24,14,0.62,,
24,15,0.62,,
24,16,0.66,,
24,17,0.76,,
24,18,0.76,,
24,19,0.78,,
24,20,0.6,,
24,21,0.48,,
24,22,0.64,,
24,23,0.74,,
24,24,0.66,,
24,25,0.76,,
24,26,0.78,,
24,27,0.82,,
24,28,0.76,,
24,29,0.62,,
24,30,0.78,,
24,31,0.82,,
24,32,0.54,,
24,33,0.76,,
24,34,0.68,,
24,35,0.34,,
24,36,0.62,,
24,37,0.78,,
24,38,0.78,,
24,39,0.74,,
24,40,0.7,,
24,41,0.76,,
24,42,0.9,,
24,43,0.74,,
24,44,0.8,,
24,45,0.86,,
24,46,0.8,,
24,47,0.62,,
24,48,0.76,,
24,49,0.64,,
24,50,0.74,,
24,51,0.74,,
24,52,0.76,,
24,53,0.62,,
24,54,0.8,,
24,55,0.66,,
24,56,0.72,,
24,57,0.7,,
24,58,0.78,,
24,59,0.62,,
24,60,0.74,,
24,61,0.74,,
24,62,0.74,,
24,63,0.76,,
24,64,0.68,,
24,65,0.88,,
24,66,0.78,,
24,67,0.7,,
24,68,0.82,,
24,69,0.84,,
24,70,0.82,,
24,71,0.8,,
24,72,0.76,,
24,73,0.72,,
24,74,0.76,,
24,75,0.72,,
24,76,0.76,,
24,77,0.74,,
24,78,0.76,,
24,79,0.68,,
24,80,0.72,,
24,81,0.64,,
24,82,0.84,,
24,83,0.74,,
24,84,0.6,,
24,85,0.6,,
24,86,0.7,,
24,87,0.76,,
24,88,0.7,,
24,89,0.86,,
24,90,0.68,,
24,91,0.66,,
24,92,0.72,,
24,93,0.72,,
24,94,0.74,,
24,95,0.74,,
24,96,0.74,,
24,97,0.82,,
24,98,0.72,,
24,99,0.62,,
25,0,0.68,,
25,1,0.7,,
25,2,0.68,,
25,3,0.78,,
25,4,0.78,,
25,5,0.72,,
25,6,0.74,,
25,7,0.76,,
25,8,0.76,,
25,9,0.7,,
25,10,0.68,,
25,11,0.82,,
25,12,0.74,,
25,13,0.78,,
25,14,0.7,,
25,15,0.8,,
25,16,0.7,,
25,17,0.82,,
25,18,0.72,,
25,19,0.48,,
25,20,0.58,,
25,21,0.72,,
25,22,0.78,,
25,23,0.56,,
25,24,0.74,,
25,25,0.46,,
25,26,0.58,,
25,27,0.78,,
25,28,0.8,,
25,29,0.76,,
25,30,0.66,,
25,31,0.7,,
25,32,0.48,,
25,33,0.74,,
25,34,0.8,,
25,35,0.74,,
25,36,0.76,,
25,37,0.76,,
25,38,0.8,,
25,39,0.82,,
25,40,0.82,,
25,41,0.62,,
25,42,0.72,,
25,43,0.78,,
25,44,0.8,,
25,45,0.66,,
25,46,0.78,,
25,47,0.86,,
25,48,0.76,,
25,49,0.92,,
25,50,0.62,,
25,51,0.68,,
25,52,0.76,,
25,53,0.36,,
25,54,0.74,,
25,55,0.74,,
25,56,0.64,,
25,57,0.84,,
25,58,0.72,,
25,59,0.74,,
25,60,0.58,,
25,61,0.58,,
25,62,0.66,,
25,63,0.74,,
25,64,0.74,,
25,65,0.78,,
25,66,0.64,,
25,67,0.72,,
25,68,0.78,,
25,69,0.72,,
25,70,0.8,,
25,71,0.58,,
25,72,0.8,,
25,73,0.52,,
25,74,0.54,,
25,75,0.72,,
25,76,0.76,,
25,77,0.72,,
25,78,0.74,,
25,79,0.8,,
25,80,0.6,,
25,81,0.72,,
25,82,0.74,,
25,83,0.8,,
25,84,0.72,,
25,85,0.8,,
25,86,0.54,,
25,87,0.68,,
25,88,0.84,,
25,89,0.7,,
25,90,0.78,,
25,91,0.66,,
25,92,0.58,,
25,93,0.8,,
25,94,0.78,,
25,95,0.86,,
25,96,0.76,,
25,97,0.74,,
25,98,0.66,,
25,99,0.64,,
26,0,0.7,,
26,1,0.82,,
26,2,0.64,,
26,3,0.72,,
26,4,0.74,,
26,5,0.58,,
26,6,0.8,,
26,7,0.8,,
26,8,0.8,,
26,9,0.84,,
26,10,0.74,,
26,11,0.78,,
26,12,0.78,,
26,13,0.62,,
26,14,0.64,,
26,15,0.72,,
26,16,0.52,,
26,17,0.86,,
26,18,0.82,,
26,19,0.66,,
26,20,0.78,,
26,21,0.88,,
26,22,0.78,,
26,23,0.56,,
26,24,0.58,,
26,25,0.8,,
26,26,0.66,,
26,27,0.8,,
26,28,0.68,,
26,29,0.6,,
26,30,0.84,,
26,31,0.76,,
26,32,0.8,,
26,33,0.64,,
26,34,0.72,,
26,35,0.74,,
26,36,0.76,,
26,37,0.82,,
26,38,0.7,,
26,39,0.78,,
26,40,0.64,,
26,41,0.78,,
26,42,0.8,,
26,43,0.82,,
26,44,0.78,,
26,45,0.66,,
26,46,0.76,,
26,47,0.78,,
26,48,0.6,,
26,49,0.8,,
26,50,0.64,,
26,51,0.74,,
26,52,0.72,,
26,53,0.78,,
26,54,0.74,,
26,55,0.74,,
26,56,0.54,,
26,57,0.6,,
26,58,0.76,,
26,59,0.68,,
26,60,0.8,,
26,61,0.68,,
26,62,0.74,,
26,63,0.8,,
26,64,0.8,,
26,65,0.64,,
26,66,0.7,,
26,67,0.62,,
26,68,0.7,,
26,69,0.72,,
26,70,0.82,,
26,71,0.74,,
26,72,0.74,,
26,73,0.74,,
26,74,0.88,,
26,75,0.78,,
26,76,0.82,,
26,77,0.74,,
26,78,0.46,,
26,79,0.58,,
26,80,0.6,,
26,81,0.7,,
26,82,0.82,,
26,83,0.58,,
26,84,0.66,,
26,85,0.76,,
26,86,0.58,,
26,87,0.7,,
26,88,0.76,,
26,89,0.7,,
26,90,0.68,,
26,91,0.7,,
26,92,0.84,,
26,93,0.64,,
26,94,0.76,,
26,95,0.7,,
26,96,0.68,,
26,97,0.62,,
26,98,0.78,,
26,99,0.64,,
27,0,0.54,,
27,1,0.76,,
27,2,0.76,,
27,3,0.82,,
27,4,0.6,,
27,5,0.62,,
27,6,0.74,,
27,7,0.78,,
27,8,0.66,,
27,9,0.66,,
27,10,0.78,,
27,11,0.68,,
27,12,0.72,,
27,13,0.78,,
27,14,0.72,,
27,15,0.64,,
27,16,0.78,,
27,17,0.74,,
27,18,0.68,,
27,19,0.64,,
27,20,0.66,,
27,21,0.8,,
27,22,0.56,,
27,23,0.76,,
27,24,0.78,,
27,25,0.6,,
27,26,0.72,,
27,27,0.66,,
27,28,0.76,,
27,29,0.72,,
27,30,0.56,,
27,31,0.7,,
27,32,0.5,,
27,33,0.6,,
27,34,0.72,,
27,35,0.58,,
27,36,0.6,,
27,37,0.78,,
27,38,0.74,,
27,39,0.72,,
27,40,0.78,,
27,41,0.6,,
27,42,0.54,,
27,43,0.78,,
27,44,0.68,,
27,45,0.8,,
27,46,0.7,,
27,47,0.56,,
27,48,0.8,,
27,49,0.62,,
27,50,0.6,,
27,51,0.6,,
27,52,0.76,,
27,53,0.8,,
27,54,0.68,,
27,55,0.78,,
27,56,0.7,,
27,57,0.82,,
27,58,0.68,,
27,59,0.84,,
27,60,0.72,,
27,61,0.72,,
27,62,0.56,,
27,63,0.72,,
27,64,0.78,,
27,65,0.7,,
27,66,0.62,,
27,67,0.8,,
27,68,0.64,,
27,69,0.86,,
27,70,0.74,,
27,71,0.7,,
27,72,0.84,,
27,73,0.72,,
27,74,0.82,,
27,75,0.76,,
27,76,0.6,,
27,77,0.76,,
27,78,0.76,,
27,79,0.76,,
27,80,0.74,,
27,81,0.78,,
27,82,0.74,,
27,83,0.76,,
27,84,0.86,,
27,85,0.74,,
27,86,0.7,,
27,87,0.76,,
27,88,0.82,,
27,89,0.88,,
27,90,0.68,,
27,91,0.88,,
27,92,0.82,,
27,93,0.8,,
27,94,0.64,,
27,95,0.84,,
27,96,0.68,,
27,97,0.88,,
27,98,0.8,,
27,99,0.74,,
28,0,0.68,,
28,1,0.8,,
28,2,0.84,,
28,3,0.72,,
28,4,0.66,,
28,5,0.7,,
28,6,0.7,,
28,7,0.68,,
28,8,0.86,,
28,9,0.68,,
28,10,0.68,,
28,11,0.78,,
28,12,0.74,,
28,13,0.74,,
28,14,0.84,,
28,15,0.62,,
28,16,0.7,,
28,17,0.6,,
28,18,0.76,,
28,19,0.76,,
28,20,0.56,,
28,21,0.48,,
28,22,0.82,,
28,23,0.8,,
28,24,0.64,,
28,25,0.68,,
28,26,0.7,,
28,27,0.74,,
28,28,0.78,,
28,29,0.62,,
28,30,0.7,,
28,31,0.6,,
28,32,0.7,,
28,33,0.68,,
28,34,0.84,,
28,35,0.82,,
28,36,0.74,,
28,37,0.82,,
28,38,0.84,,
28,39,0.7,,
28,40,0.66,,
28,41,0.76,,
28,42,0.78,,
28,43,0.72,,
28,44,0.72,,
28,45,0.68,,
28,46,0.62,,
28,47,0.8,,
28,48,0.68,,
28,49,0.8,,
28,50,0.78,,
28,51,0.76,,
28,52,0.7,,
28,53,0.56,,
28,54,0.68,,
28,55,0.78,,
28,56,0.8,,
28,57,0.8,,
28,58,0.66,,
28,59,0.68,,
28,60,0.78,,
28,61,0.84,,
28,62,0.6,,
28,63,0.64,,
28,64,0.78,,
28,65,0.76,,
28,66,0.8,,
28,67,0.68,,
28,68,0.64,,
28,69,0.8,,
28,70,0.8,,
28,71,0.8,,
28,72,0.8,,
28,73,0.74,,
28,74,0.8,,
28,75,0.78,,
28,76,0.82,,
28,77,0.66,,
28,78,0.76,,
28,79,0.78,,
28,80,0.78,,
28,81,0.82,,
28,82,0.76,,
28,83,0.62,,
28,84,0.62,,
28,85,0.78,,
28,86,0.82,,
28,87,0.68,,
28,88,0.58,,
28,89,0.66,,
28,90,0.52,,
28,91,0.76,,
28,92,0.68,,
28,93,0.54,,
28,94,0.8,,
28,95,0.66,,
28,96,0.7,,
28,97,0.74,,
28,98,0.88,,
28,99,0.78,,
29,0,0.74,,
29,1,0.76,,
29,2,0.56,,
29,3,0.72,,
29,4,0.78,,
29,5,0.72,,
29,6,0.74,,
29,7,0.76,,
29,8,0.56,,
29,9,0.62,,
29,10,0.66,,
29,11,0.48,,
29,12,0.72,,
29,13,0.78,,
29,14,0.72,,
29,15,0.7,,
29,16,0.56,,
29,17,0.7,,
29,18,0.7,,
29,19,0.78,,
29,20,0.66,,
29,21,0.68,,
29,22,0.88,,
29,23,0.86,,
29,24,0.82,,
29,25,0.8,,
29,26,0.58,,
29,27,0.74,,
29,28,0.72,,
29,29,0.6,,
29,30,0.7,,
29,31,0.66,,
29,32,0.74,,
29,33,0.6,,
29,34,0.84,,
29,35,0.66,,
29,36,0.68,,
29,37,0.76,,
29,38,0.76,,
29,39,0.78,,
29,40,0.76,,
29,41,0.62,,
29,42,0.82,,
29,43,0.78,,
29,44,0.76,,
29,45,0.72,,
29,46,0.66,,
29,47,0.78,,
29,48,0.56,,
29,49,0.74,,
29,50,0.84,,
29,51,0.66,,
29,52,0.8,,
29,53,0.76,,
29,54,0.78,,
29,55,0.64,,
29,56,0.78,,
29,57,0.64,,
29,58,0.72,,
29,59,0.58,,
29,60,0.78,,
29,61,0.66,,
29,62,0.42,,
29,63,0.68,,
29,64,0.5,,
29,65,0.78,,
29,66,0.86,,
29,67,0.74,,
29,68,0.58,,
29,69,0.6,,
29,70,0.74,,
29,71,0.74,,
29,72,0.72,,
29,73,0.76,,
29,74,0.72,,
29,75,0.68,,
29,76,0.82,,
29,77,0.8,,
29,78,0.7,,
29,79,0.7,,
29,80,0.84,,
29,81,0.66,,
29,82,0.72,,
29,83,0.64,,
29,84,0.64,,
29,85,0.82,,
29,86,0.68,,
29,87,0.72,,
29,88,0.86,,
29,89,0.7,,
29,90,0.56,,
29,91,0.74,,
29,92,0.68,,
29,93,0.64,,
29,94,0.76,,
29,95,0.64,,
29,96,0.76,,
29,97,0.86,,
29,98,0.7,,
29,99,0.66,,
30,0,0.68,,
30,1,0.76,,
30,2,0.72,,
30,3,0.62,,
30,4,0.76,,
30,5,0.62,,
30,6,0.66,,
30,7,0.88,,
30,8,0.72,,
30,9,0.78,,
30,10,0.52,,
30,11,0.72,,
30,12,0.42,,
30,13,0.72,,
30,14,0.74,,
30,15,0.76,,
30,16,0.7,,
30,17,0.72,,
30,18,0.8,,
30,19,0.72,,
30,20,0.8,,
30,21,0.68,,
30,22,0.78,,
30,23,0.68,,
30,24,0.8,,
30,25,0.6,,
30,26,0.58,,
30,27,0.8,,
30,28,0.4,,
30,29,0.6,,
30,30,0.7,,
30,31,0.68,,
30,32,0.44,,
30,33,0.68,,
30,34,0.72,,
30,35,0.5,,
30,36,0.74,,
30,37,0.74,,
30,38,0.7,,
30,39,0.6,,
30,40,0.78,,
30,41,0.56,,
30,42,0.66,,
30,43,0.7,,
30,44,0.54,,
30,45,0.82,,
30,46,0.74,,
30,47,0.82,,
30,48,0.64,,
30,49,0.82,,
30,50,0.84,,
30,51,0.82,,
30,52,0.72,,
30,53,0.62,,
30,54,0.7,,
30,55,0.72,,
30,56,0.76,,
30,57,0.74,,
30,58,0.76,,
30,59,0.76,,
30,60,0.74,,
30,61,0.84,,
30,62,0.68,,
30,63,0.64,,
30,64,0.64,,
30,65,0.6,,
30,66,0.66,,
30,67,0.62,,
30,68,0.66,,
30,69,0.58,,
30,70,0.7,,
30,71,0.7,,
30,72,0.56,,
30,73,0.82,,
30,74,0.84,,
30,75,0.76,,
30,76,0.86,,
30,77,0.82,,
30,78,0.74,,
30,79,0.64,,
30,80,0.58,,
30,81,0.74,,
30,82,0.52,,
30,83,0.6,,
30,84,0.66,,
30,85,0.58,,
30,86,0.82,,
30,87,0.76,,
30,88,0.76,,
30,89,0.62,,
30,90,0.66,,
30,91,0.84,,
30,92,0.76,,
30,93,0.68,,
30,94,0.48,,
30,95,0.74,,
30,96,0.76,,
30,97,0.8,,
30,98,0.8,,
30,99,0.7,,
31,0,0.82,,
31,1,0.86,,
31,2,0.66,,
31,3,0.68,,
31,4,0.62,,
31,5,0.64,,
31,6,0.7,,
31,7,0.76,,
31,8,0.66,,
31,9,0.54,,
31,10,0.7,,
31,11,0.82,,
31,12,0.8,,
31,13,0.74,,
31,14,0.6,,
31,15,0.48,,
31,16,0.76,,
31,17,0.56,,
31,18,0.76,,
31,19,0.78,,
31,20,0.66,,
31,21,0.86,,
31,22,0.64,,
31,23,0.72,,
31,24,0.74,,
31,25,0.68,,
31,26,0.82,,
31,27,0.76,,
31,28,0.8,,
31,29,0.62,,
31,30,0.76,,
31,31,0.82,,
31,32,0.64,,
31,33,0.78,,
31,34,0.76,,
31,35,0.76,,
31,36,0.62,,
31,37,0.72,,
31,38,0.52,,
31,39,0.68,,
31,40,0.68,,
31,41,0.7,,
31,42,0.54,,
31,43,0.84,,
31,44,0.66,,
31,45,0.62,,
31,46,0.64,,
31,47,0.72,,
31,48,0.82,,
31,49,0.8,,
31,50,0.7,,
31,51,0.76,,
31,52,0.74,,
31,53,0.76,,
31,54,0.58,,
31,55,0.56,,
31,56,0.42,,
31,57,0.72,,
31,58,0.78,,
31,59,0.7,,
31,60,0.74,,
31,61,0.84,,
31,62,0.6,,
31,63,0.74,,
31,64,0.68,,
31,65,0.72,,
31,66,0.7,,
31,67,0.7,,
31,68,0.78,,
31,69,0.84,,
31,70,0.82,,
31,71,0.62,,
31,72,0.76,,
31,73,0.78,,
31,74,0.8,,
31,75,0.72,,
31,76,0.78,,
31,77,0.66,,
31,78,0.7,,
31,79,0.82,,
31,80,0.64,,
31,81,0.6,,
31,82,0.74,,
31,83,0.86,,
31,84,0.66,,
31,85,0.78,,
31,86,0.66,,
31,87,0.62,,
31,88,0.74,,
31,89,0.82,,
31,90,0.74,,
31,91,0.76,,
31,92,0.52,,
31,93,0.82,,
31,94,0.88,,
31,95,0.52,,
31,96,0.78,,
31,97,0.74,,
31,98,0.78,,
31,99,0.62,,
32,0,0.68,,
32,1,0.68,,
32,2,0.64,,
32,3,0.66,,
32,4,0.54,,
32,5,0.58,,
32,6,0.66,,
32,7,0.7,,
32,8,0.78,,
32,9,0.5,,
32,10,0.76,,
32,11,0.66,,
32,12,0.72,,
32,13,0.8,,
32,14,0.68,,
32,15,0.7,,
32,16,0.74,,
32,17,0.7,,
32,18,0.74,,
32,19,0.8,,
32,20,0.84,,
32,21,0.72,,
32,22,0.76,,
32,23,0.56,,
32,24,0.7,,
32,25,0.76,,
32,26,0.62,,
32,27,0.8,,
32,28,0.68,,
32,29,0.78,,
32,30,0.42,,
32,31,0.72,,
32,32,0.58,,
32,33,0.54,,
32,34,0.76,,
32,35,0.78,,
32,36,0.68,,
32,37,0.72,,
32,38,0.68,,
32,39,0.72,,
32,40,0.72,,
32,41,0.78,,
32,42,0.84,,
32,43,0.62,,
32,44,0.74,,
32,45,0.76,,
32,46,0.72,,
32,47,0.66,,
32,48,0.48,,
32,49,0.78,,
32,50,0.82,,
32,51,0.8,,
32,52,0.6,,
32,53,0.54,,
32,54,0.64,,
32,55,0.8,,
32,56,0.74,,
32,57,0.8,,
32,58,0.82,,
32,59,0.78,,
32,60,0.76,,
32,61,0.7,,
32,62,0.72,,
32,63,0.6,,
32,64,0.82,,
32,65,0.68,,
32,66,0.74,,
32,67,0.78,,
32,68,0.74,,
32,69,0.88,,
32,70,0.6,,
32,71,0.74,,
32,72,0.82,,
32,73,0.84,,
32,74,0.74,,
32,75,0.78,,
32,76,0.6,,
32,77,0.7,,
32,78,0.7,,
32,79,0.74,,
32,80,0.82,,
32,81,0.52,,
32,82,0.76,,
32,83,0.64,,
32,84,0.66,,
32,85,0.62,,
32,86,0.74,,
32,87,0.82,,
32,88,0.74,,
32,89,0.78,,
32,90,0.8,,
32,91,0.64,,
32,92,0.78,,
32,93,0.82,,
32,94,0.78,,
32,95,0.76,,
32,96,0.78,,
32,97,0.8,,
32,98,0.76,,
32,99,0.8,,
33,0,0.7,,
33,1,0.78,,
33,2,0.82,,
33,3,0.82,,
33,4,0.76,,
33,5,0.76,,
33,6,0.7,,
33,7,0.56,,
33,8,0.7,,
33,9,0.8,,
33,10,0.66,,
33,11,0.78,,
33,12,0.7,,
33,13,0.8,,
33,14,0.6,,
33,15,0.68,,
33,16,0.64,,
33,17,0.74,,
33,18,0.8,,
33,19,0.86,,
33,20,0.78,,
33,21,0.7,,
33,22,0.66,,
33,23,0.7,,
33,24,0.74,,
33,25,0.78,,
33,26,0.6,,
33,27,0.62,,
33,28,0.76,,
33,29,0.78,,
33,30,0.76,,
33,31,0.78,,
33,32,0.84,,
33,33,0.72,,
33,34,0.64,,
33,35,0.8,,
33,36,0.78,,
33,37,0.74,,
33,38,0.64,,
33,39,0.8,,
33,40,0.64,,
33,41,0.68,,
33,42,0.76,,
33,43,0.62,,
33,44,0.7,,
33,45,0.84,,
33,46,0.72,,
33,47,0.62,,
33,48,0.6,,
33,49,0.74,,
33,50,0.74,,
33,51,0.7,,
33,52,0.58,,
33,53,0.82,,
33,54,0.76,,
33,55,0.66,,
33,56,0.66,,
33,57,0.74,,
33,58,0.72,,
33,59,0.84,,
33,60,0.7,,
33,61,0.7,,
33,62,0.76,,
33,63,0.76,,
33,64,0.76,,
33,65,0.74,,
33,66,0.74,,
33,67,0.8,,
33,68,0.72,,
33,69,0.58,,
33,70,0.8,,
33,71,0.62,,
33,72,0.68,,
33,73,0.7,,
33,74,0.82,,
33,75,0.72,,
33,76,0.7,,
33,77,0.68,,
33,78,0.78,,
33,79,0.74,,
33,80,0.64,,
33,81,0.82,,
33,82,0.64,,
33,83,0.66,,
33,84,0.44,,
33,85,0.68,,
33,86,0.72,,
33,87,0.7,,
33,88,0.74,,
33,89,0.62,,
33,90,0.66,,
33,91,0.78,,
33,92,0.64,,
33,93,0.76,,
33,94,0.8,,
33,95,0.72,,
33,96,0.66,,
33,97,0.64,,
33,98,0.8,,
33,99,0.68,,
34,0,0.76,,
34,1,0.64,,
34,2,0.66,,
34,3,0.7,,
34,4,0.66,,
34,5,0.42,,
34,6,0.8,,
34,7,0.62,,
34,8,0.84,,
34,9,0.82,,
34,10,0.78,,
34,11,0.78,,
34,12,0.78,,
34,13,0.76,,
34,14,0.72,,
34,15,0.66,,
34,16,0.8,,
34,17,0.8,,
34,18,0.74,,
34,19,0.74,,
34,20,0.58,,
34,21,0.7,,
34,22,0.6,,
34,23,0.7,,
34,24,0.62,,
34,25,0.74,,
34,26,0.74,,
34,27,0.8,,
34,28,0.72,,
34,29,0.72,,
34,30,0.72,,
34,31,0.6,,
34,32,0.74,,
34,33,0.66,,
34,34,0.66,,
34,35,0.7,,
34,36,0.68,,
34,37,0.68,,
34,38,0.74,,
34,39,0.68,,
34,40,0.7,,
34,41,0.8,,
34,42,0.56,,
34,43,0.66,,
34,44,0.46,,
34,45,0.84,,
34,46,0.76,,
34,47,0.68,,
34,48,0.76,,
34,49,0.78,,
34,50,0.56,,
34,51,0.86,,
34,52,0.8,,
34,53,0.66,,
34,54,0.68,,
34,55,0.62,,
34,56,0.78,,
34,57,0.68,,
34,58,0.8,,
34,59,0.56,,
34,60,0.68,,
34,61,0.76,,
34,62,0.72,,
34,63,0.8,,
34,64,0.72,,
34,65,0.58,,
34,66,0.76,,
34,67,0.7,,
34,68,0.76,,
34,69,0.72,,
34,70,0.84,,
34,71,0.8,,
34,72,0.82,,
34,73,0.84,,
34,74,0.76,,
34,75,0.7,,
34,76,0.56,,
34,77,0.64,,
34,78,0.8,,
34,79,0.72,,
34,80,0.86,,
34,81,0.78,,
34,82,0.78,,
34,83,0.72,,
34,84,0.68,,
34,85,0.8,,
34,86,0.76,,
34,87,0.8,,
34,88,0.82,,
34,89,0.8,,
34,90,0.66,,
34,91,0.8,,
34,92,0.64,,
34,93,0.56,,
34,94,0.68,,
34,95,0.76,,
34,96,0.86,,
34,97,0.64,,
34,98,0.74,,
34,99,0.74,,
35,0,0.68,,
35,1,0.8,,
35,2,0.56,,
35,3,0.64,,
35,4,0.78,,
35,5,0.74,,
35,6,0.74,,
35,7,0.78,,
35,8,0.64,,
35,9,0.74,,
35,10,0.62,,
35,11,0.78,,
35,12,0.62,,
35,13,0.76,,
35,14,0.72,,
35,15,0.82,,
35,16,0.78,,
35,17,0.74,,
35,18,0.82,,
35,19,0.78,,
35,20,0.54,,
35,21,0.74,,
35,22,0.76,,
35,23,0.76,,
35,24,0.78,,
35,25,0.62,,
35,26,0.62,,
35,27,0.8,,
35,28,0.8,,
35,29,0.66,,
35,30,0.68,,
35,31,0.78,,
35,32,0.82,,
35,33,0.8,,
35,34,0.68,,
35,35,0.76,,
35,36,0.76,,
35,37,0.56,,
35,38,0.68,,
35,39,0.58,,
35,40,0.68,,
35,41,0.74,,
35,42,0.7,,
35,43,0.74,,
35,44,0.6,,
35,45,0.72,,
35,46,0.76,,
35,47,0.56,,
35,48,0.74,,
35,49,0.76,,
35,50,0.76,,
35,51,0.7,,
35,52,0.62,,
35,53,0.76,,
35,54,0.8,,
35,55,0.72,,
35,56,0.78,,
35,57,0.76,,
35,58,0.58,,
35,59,0.8,,
35,60,0.76,,
35,61,0.76,,
35,62,0.76,,
35,63,0.62,,
35,64,0.86,,
35,65,0.54,,
35,66,0.76,,
35,67,0.76,,
35,68,0.62,,
35,69,0.76,,
35,70,0.56,,
35,71,0.76,,
35,72,0.66,,
35,73,0.74,,
35,74,0.78,,
35,75,0.66,,
35,76,0.74,,
35,77,0.8,,
35,78,0.62,,
35,79,0.64,,
35,80,0.64,,
35,81,0.76,,
35,82,0.76,,
35,83,0.74,,
35,84,0.68,,
35,85,0.7,,
35,86,0.7,,
35,87,0.58,,
35,88,0.82,,
35,89,0.78,,
35,90,0.7,,
35,91,0.62,,
35,92,0.64,,
35,93,0.74,,
35,94,0.72,,
35,95,0.74,,
35,96,0.74,,
35,97,0.84,,
35,98,0.58,,
35,99,0.82,,
36,0,0.52,,
36,1,0.6,,
36,2,0.74,,
36,3,0.66,,
36,4,0.76,,
36,5,0.72,,
36,6,0.62,,
36,7,0.74,,
36,8,0.76,,
36,9,0.58,,
36,10,0.72,,
36,11,0.78,,
36,12,0.74,,
36,13,0.76,,
36,14,0.82,,
36,15,0.7,,
36,16,0.68,,
36,17,0.68,,
36,18,0.8,,
36,19,0.76,,
36,20,0.74,,
36,21,0.6,,
36,22,0.58,,
36,23,0.6,,
36,24,0.78,,
36,25,0.72,,
36,26,0.8,,
36,27,0.8,,
36,28,0.72,,
36,29,0.74,,
36,30,0.76,,
36,31,0.7,,
36,32,0.8,,
36,33,0.76,,
36,34,0.66,,
36,35,0.9,,
36,36,0.74,,
36,37,0.72,,
36,38,0.8,,
36,39,0.8,,
36,40,0.82,,
36,41,0.78,,
36,42,0.8,,
36,43,0.64,,
36,44,0.82,,
36,45,0.76,,
36,46,0.84,,
36,47,0.72,,
36,48,0.74,,
36,49,0.76,,
36,50,0.82,,
36,51,0.86,,
36,52,0.74,,
36,53,0.64,,
36,54,0.74,,
36,55,0.66,,
36,56,0.74,,
36,57,0.78,,
36,58,0.6,,
36,59,0.62,,
36,60,0.64,,
36,61,0.68,,
36,62,0.64,,
36,63,0.74,,
36,64,0.76,,
36,65,0.7,,
36,66,0.76,,
36,67,0.74,,
36,68,0.84,,
36,69,0.78,,
36,70,0.68,,
36,71,0.78,,
36,72,0.7,,
36,73,0.74,,
36,74,0.66,,
36,75,0.84,,
36,76,0.78,,
36,77,0.64,,
36,78,0.68,,
36,79,0.84,,
36,80,0.74,,
36,81,0.56,,
36,82,0.84,,
36,83,0.7,,
36,84,0.68,,
36,85,0.68,,
36,86,0.82,,
36,87,0.78,,
36,88,0.88,,
36,89,0.66,,
36,90,0.56,,
36,91,0.78,,
36,92,0.84,,
36,93,0.76,,
36,94,0.76,,
36,95,0.66,,
36,96,0.7,,
36,97,0.78,,
36,98,0.68,,
36,99,0.7,,
37,0,0.78,,
37,1,0.76,,
37,2,0.82,,
37,3,0.66,,
37,4,0.74,,
37,5,0.76,,
37,6,0.78,,
37,7,0.72,,
37,8,0.76,,
37,9,0.74,,
37,10,0.76,,
37,11,0.78,,
37,12,0.82,,
37,13,0.86,,
37,14,0.6,,
37,15,0.8,,
37,16,0.76,,
37,17,0.78,,
37,18,0.8,,
37,19,0.8,,
37,20,0.76,,
37,21,0.8,,
37,22,0.84,,
37,23,0.76,,
37,24,0.78,,
37,25,0.6,,
37,26,0.76,,
37,27,0.76,,
37,28,0.72,,
37,29,0.76,,
37,30,0.64,,
37,31,0.58,,
37,32,0.72,,
37,33,0.78,,
37,34,0.72,,
37,35,0.76,,
37,36,0.82,,
37,37,0.72,,
37,38,0.74,,
37,39,0.82,,
37,40,0.76,,
37,41,0.76,,
37,42,0.76,,
37,43,0.76,,
37,44,0.76,,
37,45,0.72,,
37,46,0.76,,
37,47,0.7,,
37,48,0.82,,
37,49,0.74,,
37,50,0.7,,
37,51,0.56,,
37,52,0.8,,
37,53,0.72,,
37,54,0.6,,
37,55,0.68,,
37,56,0.8,,
37,57,0.52,,
37,58,0.62,,
37,59,0.74,,
37,60,0.8,,
37,61,0.82,,
37,62,0.76,,
37,63,0.6,,
37,64,0.82,,
37,65,0.7,,
37,66,0.8,,
37,67,0.82,,
37,68,0.86,,
37,69,0.76,,
37,70,0.72,,
37,71,0.72,,
37,72,0.78,,
37,73,0.76,,
37,74,0.68,,
37,75,0.44,,
37,76,0.7,,
37,77,0.78,,
37,78,0.74,,
37,79,0.7,,
37,80,0.62,,
37,81,0.64,,
37,82,0.7,,
37,83,0.66,,
37,84,0.7,,
37,85,0.82,,
37,86,0.74,,
37,87,0.62,,
37,88,0.66,,
37,89,0.82,,
37,90,0.78,,
37,91,0.72,,
37,92,0.8,,
37,93,0.8,,
37,94,0.66,,
37,95,0.78,,
37,96,0.76,,
37,97,0.7,,
37,98,0.76,,
37,99,0.62,,
38,0,0.72,,
38,1,0.76,,
38,2,0.82,,
38,3,0.72,,
38,4,0.72,,
38,5,0.8,,
38,6,0.78,,
38,7,0.68,,
38,8,0.58,,
38,9,0.76,,
38,10,0.78,,
38,11,0.54,,
38,12,0.78,,
38,13,0.82,,
38,14,0.8,,
38,15,0.82,,
38,16,0.74,,
38,17,0.7,,
38,18,0.68,,
38,19,0.68,,
38,20,0.76,,
38,21,0.68,,
38,22,0.7,,
38,23,0.72,,
38,24,0.66,,
38,25,0.8,,
38,26,0.66,,
38,27,0.8,,
38,28,0.74,,
38,29,0.76,,
38,30,0.78,,
38,31,0.74,,
38,32,0.72,,
38,33,0.72,,
38,34,0.66,,
38,35,0.76,,
38,36,0.56,,
38,37,0.76,,
38,38,0.72,,
38,39,0.84,,
38,40,0.72,,
38,41,0.74,,
38,42,0.76,,
38,43,0.68,,
38,44,0.68,,
38,45,0.84,,
38,46,0.74,,
38,47,0.76,,
38,48,0.64,,
38,49,0.74,,
38,50,0.72,,
38,51,0.72,,
38,52,0.74,,
38,53,0.76,,
38,54,0.62,,
38,55,0.66,,
38,56,0.58,,
38,57,0.66,,
38,58,0.32,,
38,59,0.64,,
38,60,0.76,,
38,61,0.7,,
38,62,0.66,,
38,63,0.8,,
38,64,0.7,,
38,65,0.8,,
38,66,0.72,,
38,67,0.78,,
38,68,0.76,,
38,69,0.66,,
38,70,0.84,,
38,71,0.62,,
38,72,0.68,,
38,73,0.82,,
38,74,0.66,,
38,75,0.44,,
38,76,0.48,,
38,77,0.6,,
38,78,0.78,,
38,79,0.56,,
38,80,0.6,,
38,81,0.68,,
38,82,0.7,,
38,83,0.66,,
38,84,0.66,,
38,85,0.78,,
38,86,0.72,,
38,87,0.72,,
38,88,0.58,,
38,89,0.58,,
38,90,0.68,,
38,91,0.76,,
38,92,0.82,,
38,93,0.62,,
38,94,0.72,,
38,95,0.78,,
38,96,0.72,,
38,97,0.8,,
38,98,0.58,,
38,99,0.66,,
39,0,0.68,,
39,1,0.78,,
39,2,0.54,,
39,3,0.64,,
39,4,0.76,,
39,5,0.74,,
39,6,0.72,,
39,7,0.8,,
39,8,0.74,,
39,9,0.6,,
39,10,0.78,,
39,11,0.6,,
39,12,0.72,,
39,13,0.78,,
39,14,0.78,,
39,15,0.58,,
39,16,0.74,,
39,17,0.6,,
39,18,0.82,,
39,19,0.72,,
39,20,0.74,,
39,21,0.74,,
39,22,0.78,,
39,23,0.8,,
39,24,0.62,,
39,25,0.66,,
39,26,0.68,,
39,27,0.74,,
39,28,0.72,,
39,29,0.72,,
39,30,0.56,,
39,31,0.78,,
39,32,0.66,,
39,33,0.78,,
39,34,0.86,,
39,35,0.48,,
39,36,0.82,,
39,37,0.78,,
39,38,0.78,,
39,39,0.54,,
39,40,0.6,,
39,41,0.74,,
39,42,0.74,,
39,43,0.6,,
39,44,0.8,,
39,45,0.78,,
39,46,0.68,,
39,47,0.56,,
39,48,0.66,,
39,49,0.72,,
39,50,0.76,,
39,51,0.8,,
39,52,0.76,,
39,53,0.8,,
39,54,0.64,,
39,55,0.78,,
39,56,0.68,,
39,57,0.5,,
39,58,0.84,,
39,59,0.8,,
39,60,0.74,,
39,61,0.8,,
39,62,0.8,,
39,63,0.7,,
39,64,0.6,,
39,65,0.7,,
39,66,0.78,,
39,67,0.78,,
39,68,0.8,,
39,69,0.72,,
39,70,0.9,,
39,71,0.76,,
39,72,0.78,,
39,73,0.84,,
39,74,0.64,,
39,75,0.72,,
39,76,0.76,,
39,77,0.76,,
39,78,0.8,,
39,79,0.76,,
39,80,0.82,,
39,81,0.78,,
39,82,0.66,,
39,83,0.78,,
39,84,0.72,,
39,85,0.8,,
39,86,0.68,,
39,87,0.7,,
39,88,0.68,,
39,89,0.52,,
39,90,0.6,,
39,91,0.8,,
39,92,0.66,,
39,93,0.82,,
39,94,0.82,,
39,95,0.82,,
39,96,0.72,,
39,97,0.88,,
39,98,0.88,,
39,99,0.58,,
40,0,0.46,,
40,1,0.7,,
40,2,0.7,,
40,3,0.78,,
40,4,0.8,,
40,5,0.74,,
40,6,0.64,,
40,7,0.8,,
40,8,0.58,,
40,9,0.64,,
40,10,0.72,,
40,11,0.76,,
40,12,0.86,,
40,13,0.72,,
40,14,0.62,,
40,15,0.74,,
40,16,0.82,,
40,17,0.72,,
40,18,0.5,,
40,19,0.78,,
40,20,0.72,,
40,21,0.7,,
40,22,0.74,,
40,23,0.76,,
40,24,0.48,,
40,25,0.72,,
40,26,0.56,,
40,27,0.6,,
40,28,0.84,,
40,29,0.84,,
40,30,0.78,,
40,31,0.74,,
40,32,0.74,,
40,33,0.48,,
40,34,0.78,,
40,35,0.8,,
40,36,0.76,,
40,37,0.78,,
40,38,0.74,,
40,39,0.74,,
40,40,0.72,,
40,41,0.66,,
40,42,0.68,,
40,43,0.78,,
40,44,0.86,,
40,45,0.74,,
40,46,0.8,,
40,47,0.7,,
40,48,0.72,,
40,49,0.74,,
40,50,0.8,,
40,51,0.72,,
40,52,0.68,,
40,53,0.74,,
40,54,0.72,,
40,55,0.66,,
40,56,0.86,,
40,57,0.82,,
40,58,0.74,,
40,59,0.7,,
40,60,0.78,,
40,61,0.74,,
40,62,0.82,,
40,63,0.72,,
40,64,0.8,,
40,65,0.52,,
40,66,0.74,,
40,67,0.8,,
40,68,0.84,,
40,69,0.66,,
40,70,0.7,,
40,71,0.72,,
40,72,0.82,,
40,73,0.66,,
40,74,0.8,,
40,75,0.66,,
40,76,0.74,,
40,77,0.68,,
40,78,0.68,,
40,79,0.78,,
40,80,0.74,,
40,81,0.76,,
40,82,0.64,,
40,83,0.74,,
40,84,0.76,,
40,85,0.56,,
40,86,0.72,,
40,87,0.72,,
40,88,0.58,,
40,89,0.76,,
40,90,0.66,,
40,91,0.82,,
40,92,0.74,,
40,93,0.8,,
40,94,0.82,,
40,95,0.8,,
40,96,0.86,,
40,97,0.58,,
40,98,0.74,,
40,99,0.84,,
41,0,0.72,,
41,1,0.78,,
41,2,0.78,,
41,3,0.7,,
41,4,0.76,,
41,5,0.62,,
41,6,0.72,,
41,7,0.82,,
41,8,0.74,,
41,9,0.8,,
41,10,0.78,,
41,11,0.8,,
41,12,0.68,,
41,13,0.82,,
41,14,0.78,,
41,15,0.62,,
41,16,0.6,,
41,17,0.64,,
41,18,0.74,,
41,19,0.74,,
41,20,0.82,,
41,21,0.72,,
41,22,0.7,,
41,23,0.74,,
41,24,0.74,,
41,25,0.7,,
41,26,0.76,,
41,27,0.7,,
41,28,0.76,,
41,29,0.7,,
41,30,0.68,,
41,31,0.64,,
41,32,0.8,,
41,33,0.8,,
41,34,0.66,,
41,35,0.6,,
41,36,0.74,,
41,37,0.82,,
41,38,0.76,,
41,39,0.66,,
41,40,0.82,,
41,41,0.74,,
41,42,0.72,,
41,43,0.74,,
41,44,0.82,,
41,45,0.68,,
41,46,0.8,,
41,47,0.7,,
41,48,0.66,,
41,49,0.8,,
41,50,0.84,,
41,51,0.62,,
41,52,0.6,,
41,53,0.8,,
41,54,0.76,,
41,55,0.62,,
41,56,0.64,,
41,57,0.74,,
41,58,0.8,,
41,59,0.7,,
41,60,0.78,,
41,61,0.56,,
41,62,0.68,,
41,63,0.68,,
41,64,0.82,,
41,65,0.78,,
41,66,0.8,,
41,67,0.82,,
41,68,0.58,,
41,69,0.82,,
41,70,0.72,,
41,71,0.82,,
41,72,0.88,,
41,73,0.72,,
41,74,0.66,,
41,75,0.7,,
41,76,0.7,,
41,77,0.72,,
41,78,0.76,,
41,79,0.64,,
41,80,0.76,,
41,81,0.68,,
41,82,0.84,,
41,83,0.7,,
41,84,0.76,,
41,85,0.78,,
41,86,0.7,,
41,87,0.78,,
41,88,0.68,,
41,89,0.76,,
41,90,0.76,,
41,91,0.64,,
41,92,0.7,,
41,93,0.72,,
41,94,0.7,,
41,95,0.62,,
41,96,0.78,,
41,97,0.68,,
41,98,0.74,,
41,99,0.88,,
42,0,0.54,,
42,1,0.64,,
42,2,0.7,,
42,3,0.7,,
42,4,0.82,,
42,5,0.7,,
42,6,0.78,,
42,7,0.68,,
42,8,0.54,,
42,9,0.72,,
42,10,0.8,,
42,11,0.76,,
42,12,0.7,,
42,13,0.74,,
42,14,0.72,,
42,15,0.76,,
42,16,0.78,,
42,17,0.66,,
42,18,0.76,,
42,19,0.74,,
42,20,0.78,,
42,21,0.72,,
42,22,0.64,,
42,23,0.76,,
42,24,0.82,,
42,25,0.68,,
42,26,0.74,,
42,27,0.8,,
42,28,0.7,,
42,29,0.66,,
42,30,0.72,,
42,31,0.82,,
42,32,0.56,,
42,33,0.72,,
42,34,0.72,,
42,35,0.82,,
42,36,0.64,,
42,37,0.76,,
42,38,0.6,,
42,39,0.78,,
42,40,0.82,,
42,41,0.74,,
42,42,0.76,,
42,43,0.66,,
42,44,0.76,,
42,45,0.82,,
42,46,0.74,,
42,47,0.72,,
42,48,0.8,,
42,49,0.82,,
42,50,0.74,,
42,51,0.68,,
42,52,0.76,,
42,53,0.66,,
42,54,0.68,,
42,55,0.8,,
42,56,0.6,,
42,57,0.82,,
42,58,0.68,,
42,59,0.68,,
42,60,0.72,,
42,61,0.72,,
42,62,0.8,,
42,63,0.76,,
42,64,0.78,,
42,65,0.7,,
42,66,0.76,,
42,67,0.84,,
42,68,0.76,,
42,69,0.78,,
42,70,0.88,,
42,71,0.72,,
42,72,0.72,,
42,73,0.64,,
42,74,0.7,,
42,75,0.74,,
42,76,0.82,,
42,77,0.86,,
42,78,0.7,,
42,79,0.54,,
42,80,0.74,,
42,81,0.88,,
42,82,0.86,,
42,83,0.72,,
42,84,0.82,,
42,85,0.76,,
42,86,0.82,,
42,87,0.82,,
42,88,0.78,,
42,89,0.82,,
42,90,0.74,,
42,91,0.84,,
42,92,0.86,,
42,93,0.8,,
42,94,0.6,,
42,95,0.6,,
42,96,0.82,,
42,97,0.76,,
42,98,0.74,,
42,99,0.7,,
43,0,0.76,,
43,1,0.78,,
43,2,0.52,,
43,3,0.78,,
43,4,0.7,,
43,5,0.74,,
43,6,0.74,,
43,7,0.7,,
43,8,0.76,,
43,9,0.6,,
43,10,0.66,,
43,11,0.8,,
43,12,0.68,,
43,13,0.74,,
43,14,0.7,,
43,15,0.76,,
43,16,0.66,,
43,17,0.76,,
43,18,0.62,,
43,19,0.76,,
43,20,0.6,,
43,21,0.7,,
43,22,0.68,,
43,23,0.66,,
43,24,0.84,,
43,25,0.64,,
43,26,0.86,,
43,27,0.74,,
43,28,0.68,,
43,29,0.74,,
43,30,0.74,,
43,31,0.74,,
43,32,0.62,,
43,33,0.66,,
43,34,0.7,,
43,35,0.74,,
43,36,0.6,,
43,37,0.8,,
43,38,0.68,,
43,39,0.78,,
43,40,0.66,,
43,41,0.56,,
43,42,0.84,,
43,43,0.78,,
43,44,0.74,,
43,45,0.66,,
43,46,0.7,,
43,47,0.54,,
43,48,0.68,,
43,49,0.56,,
43,50,0.62,,
43,51,0.56,,
43,52,0.78,,
43,53,0.74,,
43,54,0.3,,
43,55,0.72,,
43,56,0.6,,
43,57,0.76,,
43,58,0.68,,
43,59,0.84,,
43,60,0.74,,
43,61,0.82,,
43,62,0.78,,
43,63,0.58,,
43,64,0.78,,
43,65,0.62,,
43,66,0.74,,
43,67,0.7,,
43,68,0.66,,
43,69,0.78,,
43,70,0.86,,
43,71,0.8,,
43,72,0.76,,
43,73,0.84,,
43,74,0.74,,
43,75,0.64,,
43,76,0.6,,
43,77,0.7,,
43,78,0.74,,
43,79,0.82,,
43,80,0.78,,
43,81,0.74,,
43,82,0.68,,
43,83,0.78,,
43,84,0.72,,
43,85,0.8,,
43,86,0.8,,
43,87,0.58,,
43,88,0.66,,
43,89,0.76,,
43,90,0.82,,
43,91,0.64,,
43,92,0.66,,
43,93,0.7,,
43,94,0.72,,
43,95,0.78,,
43,96,0.74,,
43,97,0.66,,
43,98,0.76,,
43,99,0.68,,
44,0,0.64,,
44,1,0.66,,
44,2,0.74,,
44,3,0.62,,
44,4,0.78,,
44,5,0.78,,
44,6,0.8,,
44,7,0.78,,
44,8,0.88,,
44,9,0.72,,
44,10,0.72,,
44,11,0.68,,
44,12,0.84,,
44,13,0.7,,
44,14,0.58,,
44,15,0.66,,
44,16,0.76,,
44,17,0.84,,
44,18,0.78,,
44,19,0.78,,
44,20,0.58,,
44,21,0.86,,
44,22,0.78,,
44,23,0.62,,
44,24,0.66,,
44,25,0.6,,
44,26,0.72,,
44,27,0.6,,
44,28,0.7,,
44,29,0.7,,
44,30,0.66,,
44,31,0.7,,
44,32,0.74,,
44,33,0.74,,
44,34,0.54,,
44,35,0.7,,
44,36,0.7,,
44,37,0.46,,
44,38,0.76,,
44,39,0.48,,
44,40,0.56,,
44,41,0.72,,
44,42,0.76,,
44,43,0.66,,
44,44,0.68,,
44,45,0.78,,
44,46,0.8,,
44,47,0.58,,
44,48,0.82,,
44,49,0.68,,
44,50,0.82,,
44,51,0.86,,
44,52,0.82,,
44,53,0.62,,
44,54,0.8,,
44,55,0.56,,
44,56,0.68,,
44,57,0.58,,
44,58,0.64,,
44,59,0.82,,
44,60,0.7,,
44,61,0.7,,
44,62,0.64,,
44,63,0.78,,
44,64,0.72,,
44,65,0.78,,
44,66,0.72,,
44,67,0.74,,
44,68,0.84,,
44,69,0.6,,
44,70,0.72,,
44,71,0.68,,
44,72,0.74,,
44,73,0.7,,
44,74,0.64,,
44,75,0.72,,
44,76,0.5,,
44,77,0.82,,
44,78,0.54,,
44,79,0.72,,
44,80,0.8,,
44,81,0.66,,
44,82,0.82,,
44,83,0.8,,
44,84,0.78,,
44,85,0.76,,
44,86,0.82,,
44,87,0.7,,
44,88,0.78,,
44,89,0.68,,
44,90,0.64,,
44,91,0.72,,
44,92,0.78,,
44,93,0.78,,
44,94,0.7,,
44,95,0.74,,
44,96,0.7,,
44,97,0.76,,
44,98,0.7,,
44,99,0.78,,
45,0,0.66,,
45,1,0.7,,
45,2,0.58,,
45,3,0.7,,
45,4,0.76,,
45,5,0.78,,
45,6,0.6,,
45,7,0.68,,
45,8,0.64,,
45,9,0.7,,
45,10,0.5,,
45,11,0.68,,
45,12,0.74,,
45,13,0.66,,
45,14,0.72,,
45,15,0.68,,
45,16,0.74,,
45,17,0.62,,
45,18,0.82,,
45,19,0.72,,
45,20,0.76,,
45,21,0.76,,
45,22,0.58,,
45,23,0.8,,
45,24,0.76,,
45,25,0.64,,
45,26,0.78,,
45,27,0.64,,
45,28,0.7,,
45,29,0.72,,
45,30,0.76,,
45,31,0.8,,
45,32,0.82,,
45,33,0.74,,
45,34,0.76,,
45,35,0.58,,
45,36,0.74,,
45,37,0.78,,
45,38,0.56,,
45,39,0.92,,
45,40,0.74,,
45,41,0.62,,
45,42,0.76,,
45,43,0.74,,
45,44,0.6,,
45,45,0.8,,
45,46,0.8,,
45,47,0.72,,
45,48,0.66,,
45,49,0.8,,
45,50,0.64,,
45,51,0.88,,
45,52,0.8,,
45,53,0.74,,
45,54,0.8,,
45,55,0.64,,
45,56,0.76,,
45,57,0.68,,
45,58,0.68,,
45,59,0.72,,
45,60,0.72,,
45,61,0.58,,
45,62,0.78,,
45,63,0.8,,
45,64,0.78,,
45,65,0.72,,
45,66,0.76,,
45,67,0.66,,
45,68,0.58,,
45,69,0.72,,
45,70,0.56,,
45,71,0.68,,
45,72,0.88,,
45,73,0.84,,
45,74,0.76,,
45,75,0.62,,
45,76,0.72,,
45,77,0.8,,
45,78,0.8,,
45,79,0.66,,
45,80,0.8,,
45,81,0.82,,
45,82,0.72,,
45,83,0.78,,
45,84,0.72,,
45,85,0.68,,
45,86,0.72,,
45,87,0.52,,
45,88,0.66,,
45,89,0.72,,
45,90,0.84,,
45,91,0.7,,
45,92,0.86,,
45,93,0.78,,
45,94,0.6,,
45,95,0.68,,
45,96,0.6,,
45,97,0.72,,
45,98,0.6,,
45,99,0.78,,
46,0,0.82,,
46,1,0.8,,
46,2,0.68,,
46,3,0.72,,
46,4,0.78,,
46,5,0.7,,
46,6,0.66,,
46,7,0.82,,
46,8,0.58,,
46,9,0.68,,
46,10,0.64,,
46,11,0.62,,
46,12,0.56,,
46,13,0.86,,
46,14,0.64,,
46,15,0.76,,
46,16,0.6,,
46,17,0.7,,
46,18,0.66,,
46,19,0.8,,
46,20,0.78,,
46,21,0.72,,
46,22,0.64,,
46,23,0.72,,
46,24,0.72,,
46,25,0.56,,
46,26,0.66,,
46,27,0.72,,
46,28,0.82,,
46,29,0.6,,
46,30,0.8,,
46,31,0.72,,
46,32,0.8,,
46,33,0.72,,
46,34,0.8,,
46,35,0.68,,
46,36,0.76,,
46,37,0.72,,
46,38,0.76,,
46,39,0.88,,
46,40,0.82,,
46,41,0.58,,
46,42,0.78,,
46,43,0.7,,
46,44,0.74,,
46,45,0.7,,
46,46,0.72,,
46,47,0.68,,
46,48,0.82,,
46,49,0.8,,
46,50,0.78,,
46,51,0.84,,
46,52,0.6,,
46,53,0.56,,
46,54,0.82,,
46,55,0.7,,
46,56,0.68,,
46,57,0.76,,
46,58,0.78,,
46,59,0.46,,
46,60,0.74,,
46,61,0.76,,
46,62,0.82,,
46,63,0.72,,
46,64,0.56,,
46,65,0.64,,
46,66,0.74,,
46,67,0.7,,
46,68,0.56,,
46,69,0.7,,
46,70,0.82,,
46,71,0.78,,
46,72,0.62,,
46,73,0.82,,
46,74,0.68,,
46,75,0.76,,
46,76,0.54,,
46,77,0.64,,
46,78,0.82,,
46,79,0.62,,
46,80,0.56,,
46,81,0.46,,
46,82,0.7,,
46,83,0.66,,
46,84,0.72,,
46,85,0.88,,
46,86,0.66,,
46,87,0.68,,
46,88,0.78,,
46,89,0.72,,
46,90,0.68,,
46,91,0.86,,
46,92,0.5,,
46,93,0.78,,
46,94,0.82,,
46,95,0.8,,
46,96,0.84,,
46,97,0.72,,
46,98,0.8,,
46,99,0.8,,
47,0,0.56,,
47,1,0.7,,
47,2,0.84,,
47,3,0.74,,
47,4,0.84,,
47,5,0.76,,
47,6,0.64,,
47,7,0.58,,
47,8,0.54,,
47,9,0.74,,
47,10,0.76,,
47,11,0.76,,
47,12,0.78,,
47,13,0.72,,
47,14,0.56,,
47,15,0.64,,
47,16,0.78,,
47,17,0.64,,
47,18,0.7,,
47,19,0.68,,
47,20,0.72,,
47,21,0.7,,
47,22,0.68,,
47,23,0.78,,
47,24,0.7,,
47,25,0.84,,
47,26,0.8,,
47,27,0.7,,
47,28,0.68,,
47,29,0.84,,
47,30,0.76,,
47,31,0.68,,
47,32,0.54,,
47,33,0.76,,
47,34,0.8,,
47,35,0.68,,
47,36,0.6,,
47,37,0.72,,
47,38,0.74,,
47,39,0.74,,
47,40,0.58,,
47,41,0.48,,
47,42,0.8,,
47,43,0.76,,
47,44,0.84,,
47,45,0.72,,
47,46,0.7,,
47,47,0.74,,
47,48,0.82,,
47,49,0.8,,
47,50,0.62,,
47,51,0.82,,
47,52,0.52,,
47,53,0.8,,
47,54,0.58,,
47,55,0.66,,
47,56,0.74,,
47,57,0.64,,
47,58,0.78,,
47,59,0.72,,
47,60,0.7,,
47,61,0.74,,
47,62,0.78,,
47,63,0.56,,
47,64,0.72,,
47,65,0.76,,
47,66,0.82,,
47,67,0.8,,
47,68,0.72,,
47,69,0.54,,
47,70,0.56,,
47,71,0.76,,
47,72,0.8,,
47,73,0.78,,
47,74,0.82,,
47,75,0.8,,
47,76,0.76,,
47,77,0.8,,
47,78,0.82,,
47,79,0.78,,
47,80,0.78,,
47,81,0.52,,
47,82,0.66,,
47,83,0.8,,
47,84,0.74,,
47,85,0.82,,
47,86,0.7,,
47,87,0.82,,
47,88,0.24,,
47,89,0.74,,
47,90,0.82,,
47,91,0.62,,
47,92,0.44,,
47,93,0.78,,
47,94,0.72,,
47,95,0.62,,
47,96,0.76,,
47,97,0.7,,
47,98,0.6,,
47,99,0.6,,
48,0,0.78,,
48,1,0.8,,
48,2,0.78,,
48,3,0.58,,
48,4,0.6,,
48,5,0.78,,
48,6,0.86,,
48,7,0.58,,
48,8,0.8,,
48,9,0.6,,
48,10,0.8,,
48,11,0.8,,
48,12,0.74,,
48,13,0.7,,
48,14,0.76,,
48,15,0.76,,
48,16,0.66,,
48,17,0.7,,
48,18,0.56,,
48,19,0.82,,
48,20,0.66,,
48,21,0.3,,
48,22,0.68,,
48,23,0.74,,
48,24,0.66,,
48,25,0.68,,
48,26,0.82,,
48,27,0.6,,
48,28,0.76,,
48,29,0.7,,
48,30,0.82,,
48,31,0.78,,
48,32,0.68,,
48,33,0.72,,
48,34,0.7,,
48,35,0.74,,
48,36,0.64,,
48,37,0.76,,
48,38,0.66,,
48,39,0.78,,
48,40,0.7,,
48,41,0.64,,
48,42,0.84,,
48,43,0.62,,
48,44,0.74,,
48,45,0.72,,
48,46,0.76,,
48,47,0.62,,
48,48,0.58,,
48,49,0.7,,
48,50,0.78,,
48,51,0.82,,
48,52,0.68,,
48,53,0.78,,
48,54,0.58,,
48,55,0.88,,
48,56,0.7,,
48,57,0.74,,
48,58,0.66,,
48,59,0.46,,
48,60,0.7,,
48,61,0.82,,
48,62,0.86,,
48,63,0.72,,
48,64,0.76,,
48,65,0.6,,
48,66,0.84,,
48,67,0.78,,
48,68,0.68,,
48,69,0.82,,
48,70,0.7,,
48,71,0.78,,
48,72,0.76,,
48,73,0.76,,
48,74,0.66,,
48,75,0.72,,
48,76,0.78,,
48,77,0.76,,
48,78,0.76,,
48,79,0.68,,
48,80,0.72,,
48,81,0.8,,
48,82,0.74,,
48,83,0.7,,
48,84,0.52,,
48,85,0.58,,
48,86,0.62,,
48,87,0.76,,
48,88,0.78,,
48,89,0.82,,
48,90,0.7,,
48,91,0.4,,
48,92,0.78,,
48,93,0.76,,
48,94,0.6,,
48,95,0.72,,
48,96,0.48,,
48,97,0.74,,
48,98,0.8,,
48,99,0.72,,
49,0,0.7,,
49,1,0.78,,
49,2,0.78,,
49,3,0.72,,
49,4,0.8,,
49,5,0.78,,
49,6,0.68,,
49,7,0.72,,
49,8,0.82,,
49,9,0.52,,
49,10,0.72,,
49,11,0.84,,
49,12,0.76,,
49,13,0.8,,
49,14,0.62,,
49,15,0.72,,
49,16,0.68,,
49,17,0.62,,
49,18,0.78,,
49,19,0.84,,
49,20,0.7,,
49,21,0.8,,
49,22,0.68,,
49,23,0.82,,
49,24,0.8,,
49,25,0.54,,
49,26,0.64,,
49,27,0.7,,
49,28,0.64,,
49,29,0.72,,
49,30,0.74,,
49,31,0.78,,
49,32,0.88,,
49,33,0.8,,
49,34,0.74,,
49,35,0.74,,
49,36,0.72,,
49,37,0.62,,
49,38,0.78,,
49,39,0.74,,
49,40,0.8,,
49,41,0.82,,
49,42,0.78,,
49,43,0.76,,
49,44,0.68,,
49,45,0.78,,
49,46,0.68,,
49,47,0.68,,
49,48,0.9,,
49,49,0.74,,
49,50,0.76,,
49,51,0.64,,
49,52,0.86,,
49,53,0.68,,
49,54,0.56,,
49,55,0.84,,
49,56,0.8,,
49,57,0.84,,
49,58,0.82,,
49,59,0.6,,
49,60,0.78,,
49,61,0.56,,
49,62,0.64,,
49,63,0.62,,
49,64,0.76,,
49,65,0.72,,
49,66,0.66,,
49,67,0.74,,
49,68,0.88,,
49,69,0.76,,
49,70,0.86,,
49,71,0.72,,
49,72,0.8,,
49,73,0.62,,
49,74,0.78,,
49,75,0.76,,
49,76,0.78,,
49,77,0.82,,
49,78,0.78,,
49,79,0.68,,
49,80,0.66,,
49,81,0.74,,
49,82,0.7,,
49,83,0.66,,
49,84,0.84,,
49,85,0.68,,
49,86,0.6,,
49,87,0.72,,
49,88,0.8,,
49,89,0.76,,
49,90,0.86,,
49,91,0.84,,
49,92,0.62,,
49,93,0.76,,
49,94,0.7,,
49,95,0.82,,
49,96,0.66,,
49,97,0.72,,
49,98,0.76,,
49,99,0.72,,
50,0,0.8,,
50,1,0.7,,
50,2,0.82,,
50,3,0.86,,
50,4,0.7,,
50,5,0.82,,
50,6,0.72,,
50,7,0.86,,
50,8,0.76,,
50,9,0.7,,
50,10,0.78,,
50,11,0.68,,
50,12,0.68,,
50,13,0.66,,
50,14,0.8,,
50,15,0.76,,
50,16,0.76,,
50,17,0.82,,
50,18,0.76,,
50,19,0.6,,
50,20,0.58,,
50,21,0.76,,
50,22,0.82,,
50,23,0.66,,
50,24,0.72,,
50,25,0.82,,
50,26,0.82,,
50,27,0.8,,
50,28,0.7,,
50,29,0.7,,
50,30,0.78,,
50,31,0.8,,
50,32,0.84,,
50,33,0.62,,
50,34,0.46,,
50,35,0.64,,
50,36,0.4,,
50,37,0.78,,
50,38,0.72,,
50,39,0.82,,
50,40,0.62,,
50,41,0.72,,
50,42,0.78,,
50,43,0.6,,
50,44,0.74,,
50,45,0.72,,
50,46,0.66,,
50,47,0.8,,
50,48,0.72,,
50,49,0.82,,
50,50,0.74,,
50,51,0.66,,
50,52,0.74,,
50,53,0.6,,
50,54,0.74,,
50,55,0.58,,
50,56,0.76,,
50,57,0.78,,
50,58,0.62,,
50,59,0.8,,
50,60,0.62,,
50,61,0.66,,
50,62,0.82,,
50,63,0.6,,
50,64,0.9,,
50,65,0.78,,
50,66,0.76,,
50,67,0.82,,
50,68,0.68,,
50,69,0.8,,
50,70,0.72,,
50,71,0.82,,
50,72,0.56,,
50,73,0.8,,
50,74,0.72,,
50,75,0.54,,
50,76,0.76,,
50,77,0.76,,
50,78,0.86,,
50,79,0.64,,
50,80,0.74,,
50,81,0.7,,
50,82,0.8,,
50,83,0.72,,
50,84,0.74,,
50,85,0.64,,
50,86,0.68,,
50,87,0.78,,
50,88,0.46,,
50,89,0.6,,
50,90,0.76,,
50,91,0.58,,
50,92,0.62,,
50,93,0.72,,
50,94,0.78,,
50,95,0.72,,
50,96,0.62,,
50,97,0.8,,
50,98,0.66,,
50,99,0.54,,
