2.0,0.5,0.5,100,0,0.01,0,RandomEMDetectRandom,20,5840,0.48,0.516,0.508,0.532,0.544,0.544,0.556,0.56,0.56,0.5640000000000001,0.552,0.5760000000000001,0.5720000000000001,0.628,0.6240000000000001,0.636,0.644,0.6479999999999999,0.652,0.6639999999999999,0.6719999999999999,0.68,0.7000000000000001,0.7,0.716,0.74,0.7360000000000001,0.756,0.748,0.752,0.768,0.78,0.7919999999999999,0.8,0.808,0.82,0.828,0.844,0.844,0.852,0.868,0.8880000000000001,0.9,0.924,0.9400000000000001,0.944,0.952,0.96,0.968,0.9879999999999999,1.0,,22.62008765141934,23.45035406379934,22.33725844204516,20.707619992429052,20.04776294916209,19.616456156198332,20.301334608433486,19.98530020089354,19.822384350747306,18.28301325654702,17.84535797334521,17.40393435786936,18.733929524986127,17.488350162941977,17.041345770474656,16.74505109179772,16.01429694221175,15.091417632512233,14.66285329194256,13.843460574578978,13.432293664944984,12.855515178395697,12.503139217894903,11.657086557614807,11.520288875457606,10.915616799351916,10.959884387235162,10.149625417115455,9.948727968804434,9.236736707872979,9.09929735597579,8.61380397287924,8.508195707013565,8.003787327374045,7.294698074057291,7.1350239311080985,6.769951351204365,6.172412092605359,5.873720303342428,5.338753771512106,5.126434098132721,4.343063430513223,3.901572537714274,3.510645186291826,3.067547294797555,2.566203358531155,2.0928037466423346,1.6205745308639095,1.056090172407357,0.5434928204670161,0.0,,0.95,0.95,0.95,0.95,0.95,0.95,0.95,0.95,0.95,0.95,0.95,0.95,0.95,0.95,0.95,0.95,0.95,0.95,0.95,0.95,0.95,0.95,0.95,0.95,0.95,0.95,0.95,0.95,0.95,0.95,0.95,0.95,0.95,0.95,0.95,0.95,0.95,0.95,0.95,0.95,0.95,0.95,0.95,0.95,0.95,0.95,0.95,0.95,0.95,0.95,,1.0,1.0,1.0,1.0,1.0,1.0,1.0,1.0,1.0,1.0,1.0,1.0,1.0,1.0,1.0,1.0,1.0,1.0,1.0,1.0,1.0,1.0,1.0,1.0,1.0,1.0,1.0,1.0,1.0,1.0,1.0,1.0,1.0,1.0,1.0,1.0,1.0,1.0,1.0,1.0,1.0,1.0,1.0,1.0,1.0,1.0,1.0,1.0,1.0,1.0,,-1,-1,-1,-1,-1,-1,-1,-1,-1,-1,-1,-1,-1,-1,-1,-1,-1,-1,-1,-1,-1,-1,-1,-1,-1,-1,-1,-1,-1,-1,-1,-1,-1,-1,-1,-1,-1,-1,-1,-1,-1,-1,-1,-1,-1,-1,-1,-1,-1,-1
2.0,0.5,0.5,100,0,0.01,0,IGEMRandomSequence,20,306073,0.48,0.54,0.52,0.5,0.52,0.54,0.56,0.58,0.58,0.58,0.58,0.6,0.6,0.6,0.62,0.62,0.62,0.62,0.64,0.64,0.64,0.66,0.68,0.7,0.7,0.7,0.72,0.72,0.72,0.74,0.74,0.76,0.76,0.78,0.78,0.8,0.82,0.84,0.84,0.86,0.88,0.9,0.92,0.92,0.92,0.94,0.94,0.96,0.98,0.98,1.0,,22.62008765141934,19.327584878449166,16.945668432252926,14.844940871307328,14.594793833128971,14.205523953518025,14.02532386575421,11.332656992302628,9.778703058240117,8.373407319121624,7.2696152898102255,5.72777991693858,4.848540298456906,4.261355437187471,5.0518422257999465,3.9786687236294944,3.393997882555919,2.9122369673172437,3.02429587166737,2.3990371884849044,1.960837127411021,2.233823346265331,2.8499635683286466,3.4105063804888247,2.8444690912358293,2.3931542850893885,3.1687854281406445,2.6601587813096526,2.3144820749291775,2.7194451821648897,2.37283177484232,2.783593973467841,2.3921983407375467,2.4953682650472797,2.1352388263109354,2.140361000580664,2.287061298657471,2.512662050058087,1.9427966502798546,2.502659425416924,2.7343443990117065,3.1052948241863936,3.6483773507877713,2.4685229386593015,1.7438807243916292,1.8289962812422156,1.1700743741604223,1.1012063554224127,0.8386767118078834,0.2787937945596191,0.0,,0.95,0.95,0.95,0.95,0.95,0.95,0.95,0.95,0.95,0.95,0.95,0.95,0.95,0.95,0.95,0.95,0.95,0.95,0.95,0.95,0.95,0.95,0.95,0.95,0.95,0.95,0.95,0.95,0.95,0.95,0.95,0.95,0.95,0.95,0.95,0.95,0.95,0.95,0.95,0.95,0.95,0.95,0.95,0.95,0.95,0.95,0.95,0.95,0.95,0.95,,1.0,1.0,1.0,1.0,1.0,1.0,1.0,1.0,1.0,1.0,1.0,1.0,1.0,1.0,1.0,1.0,1.0,1.0,1.0,1.0,1.0,1.0,1.0,1.0,1.0,1.0,1.0,1.0,1.0,1.0,1.0,1.0,1.0,1.0,1.0,1.0,1.0,1.0,1.0,1.0,1.0,1.0,1.0,1.0,1.0,1.0,1.0,1.0,1.0,1.0,,1,34,26,15,25,16,9,38,23,28,17,2,33,36,0,11,22,6,43,5,44,24,19,8,35,30,10,13,49,14,40,31,48,42,18,21,3,27,45,20,39,29,4,37,46,7,12,41,47,32
2.0,0.5,0.5,100,0,0.01,1,RandomEMDetectRandom,20,5908,0.52,0.52,0.508,0.536,0.536,0.552,0.548,0.5680000000000001,0.5720000000000001,0.6,0.592,0.6080000000000001,0.64,0.6279999999999999,0.632,0.64,0.6599999999999999,0.672,0.6759999999999999,0.66,0.684,0.7,0.688,0.688,0.728,0.736,0.7520000000000001,0.756,0.772,0.78,0.776,0.7919999999999999,0.8160000000000001,0.804,0.8200000000000001,0.836,0.852,0.868,0.876,0.892,0.8960000000000001,0.9,0.9120000000000001,0.9399999999999998,0.9399999999999998,0.9480000000000001,0.96,0.9800000000000001,0.9879999999999999,0.9960000000000001,1.0,,28.592571692146674,26.606659869927945,24.80624299734898,22.709621416016518,23.002222455477334,21.81851582781784,21.250103275138446,21.540603036723276,20.71256365619941,21.712786283651806,20.34400511726755,19.67774025618127,19.184986108311843,18.449833868819383,18.855977348336914,17.95325349705709,17.806539309221545,15.895245683561928,15.515528565427573,14.700168707636397,14.346002006753917,13.790859449611824,13.277883586296351,12.516781978214144,12.510013834178848,12.449145044014179,12.148834680884688,12.027604993760079,11.348749126267695,10.686737894870571,9.868163033441542,9.273747935499838,9.455545874577137,8.724199586052299,8.29474751238164,7.666617026623942,7.309822265334978,6.967500714121764,6.4339671830102745,6.083192939595968,5.63479084216217,5.128926311957472,4.752501589831559,4.029114339925207,3.41727332344049,2.8645483245281764,2.297628399920816,1.7464754646660077,1.0612724120576003,0.5296371759221075,0.0,,0.8,0.8,0.8,0.8,0.8,0.8,0.8,0.8,0.8,0.8,0.8,0.8,0.8,0.8,0.8,0.8,0.8,0.8,0.8,0.8,0.8,0.8,0.8,0.8,0.8,0.8,0.8,0.8,0.8,0.8,0.8,0.8,0.8,0.8,0.8,0.8,0.8,0.8,0.8,0.8,0.8,0.8,0.8,0.8,0.8,0.8,0.8,0.8,0.8,0.8,,1.0,1.0,1.0,1.0,1.0,1.0,1.0,1.0,1.0,1.0,1.0,1.0,1.0,1.0,1.0,1.0,1.0,1.0,1.0,1.0,1.0,1.0,1.0,1.0,1.0,1.0,1.0,1.0,1.0,1.0,1.0,1.0,1.0,1.0,1.0,1.0,1.0,1.0,1.0,1.0,1.0,1.0,1.0,1.0,1.0,1.0,1.0,1.0,1.0,1.0,,-1,-1,-1,-1,-1,-1,-1,-1,-1,-1,-1,-1,-1,-1,-1,-1,-1,-1,-1,-1,-1,-1,-1,-1,-1,-1,-1,-1,-1,-1,-1,-1,-1,-1,-1,-1,-1,-1,-1,-1,-1,-1,-1,-1,-1,-1,-1,-1,-1,-1
2.0,0.5,0.5,100,0,0.01,1,IGEMRandomSequence,20,358336,0.52,0.58,0.54,0.56,0.56,0.58,0.58,0.56,0.62,0.66,0.62,0.64,0.62,0.64,0.64,0.66,0.66,0.64,0.64,0.66,0.68,0.7,0.72,0.74,0.74,0.74,0.74,0.74,0.76,0.78,0.78,0.78,0.78,0.8,0.82,0.84,0.84,0.86,0.86,0.88,0.9,0.92,0.94,0.94,0.94,0.94,0.94,0.96,0.98,0.98,1.0,,28.592571692146674,27.420272598238615,24.77414748950284,23.131469064857892,22.7657132150871,21.192876350173705,21.506706956556975,20.003072783582677,19.834957943982314,18.35623959891742,16.830020659819706,16.015896942805988,14.61287535224547,13.51781490844679,12.331511671494265,11.76728771815123,10.54497162719358,10.242011349931754,9.345854114428978,8.580996486047196,8.551598244666149,8.094228166830087,8.043630685368159,8.711944511839546,7.298934613243154,6.441112954013743,5.636794896948382,4.938009115884705,5.333081671090828,6.006296302196249,4.505618201915082,3.499950102834488,2.9975412213930674,2.63554138694999,2.197296892214961,2.3692513190605395,1.862895037016974,1.973600300117031,1.5185849660092423,1.5462977681196102,1.5933245287424553,1.5385669410700258,1.1114789444673112,0.761962616683663,0.5565239987994275,0.3739589775412404,0.24027755756347913,0.3479599480572506,0.24903984640177634,0.05447958390713689,0.0,,0.8,0.8,0.8,0.8,0.8,0.8,0.8,0.8,0.8,0.8,0.8,0.8,0.8,0.8,0.8,0.8,0.8,0.8,0.8,0.8,0.8,0.8,0.8,0.8,0.8,0.8,0.8,0.8,0.8,0.8,0.8,0.8,0.8,0.8,0.8,0.8,0.8,0.8,0.8,0.8,0.8,0.8,0.8,0.8,0.8,0.8,0.8,0.8,0.8,0.8,,1.0,1.0,1.0,1.0,1.0,1.0,1.0,1.0,1.0,1.0,1.0,1.0,1.0,1.0,1.0,1.0,1.0,1.0,1.0,1.0,1.0,1.0,1.0,1.0,1.0,1.0,1.0,1.0,1.0,1.0,1.0,1.0,1.0,1.0,1.0,1.0,1.0,1.0,1.0,1.0,1.0,1.0,1.0,1.0,1.0,1.0,1.0,1.0,1.0,1.0,,4,42,14,6,16,17,31,38,3,21,8,40,22,24,2,12,27,25,10,7,46,29,35,19,20,30,5,34,0,23,37,45,32,33,49,18,48,43,44,47,9,11,13,15,26,39,1,36,41,28
2.0,0.5,0.5,100,0,0.01,2,RandomEMDetectRandom,20,5375,0.44000000000000006,0.492,0.492,0.504,0.488,0.492,0.512,0.5319999999999999,0.528,0.5640000000000001,0.5800000000000001,0.5720000000000001,0.5800000000000001,0.584,0.64,0.688,0.6799999999999999,0.688,0.6599999999999999,0.6679999999999999,0.692,0.7,0.6880000000000001,0.74,0.724,0.732,0.748,0.764,0.804,0.82,0.828,0.836,0.844,0.8480000000000001,0.86,0.8720000000000001,0.8720000000000001,0.8799999999999999,0.892,0.9,0.9040000000000001,0.9119999999999999,0.9200000000000002,0.9279999999999999,0.9480000000000001,0.9559999999999998,0.9559999999999998,0.968,0.9800000000000001,0.9879999999999999,1.0,,22.25416726667532,20.95784896034446,20.95064104912577,19.60358478684549,20.041519117557762,18.71725283463107,17.980959242614407,17.914487393886706,17.49286169100812,16.409781644345696,15.308666182485263,14.429386790110588,14.851626288092367,14.897176859506862,14.614807174014137,14.991656677169118,14.660589838517188,13.85982970810015,13.461425811103481,12.918111177077964,13.028834520196293,12.77028525269721,11.714581987568096,11.571640904402457,10.246929041802744,9.329846108803773,9.119418935138656,9.222448257462252,8.630662277179528,7.852860797435992,7.133452145998918,6.605899571495665,6.268882149505037,6.280052492144376,5.8560533951771205,5.772055062226761,5.382904232791877,4.837395943106921,4.4383462659604405,4.191499788688998,3.8272396599356417,3.5925385158762624,3.191397095472416,2.753239372901809,2.61735231973461,2.059871488764868,1.8276951188237434,1.3940484120322068,0.8379600081109843,0.40014335169483173,0.0,,0.75,0.75,0.75,0.75,0.75,0.75,0.75,0.75,0.75,0.75,0.75,0.75,0.75,0.75,0.75,0.75,0.75,0.75,0.75,0.75,0.75,0.75,0.75,0.75,0.75,0.75,0.75,0.75,0.75,0.75,0.75,0.75,0.75,0.75,0.75,0.75,0.75,0.75,0.75,0.75,0.75,0.75,0.75,0.75,0.75,0.75,0.75,0.75,0.75,0.75,,1.0,1.0,1.0,1.0,1.0,1.0,1.0,1.0,1.0,1.0,1.0,1.0,1.0,1.0,1.0,1.0,1.0,1.0,1.0,1.0,1.0,1.0,1.0,1.0,1.0,1.0,1.0,1.0,1.0,1.0,1.0,1.0,1.0,1.0,1.0,1.0,1.0,1.0,1.0,1.0,1.0,1.0,1.0,1.0,1.0,1.0,1.0,1.0,1.0,1.0,,-1,-1,-1,-1,-1,-1,-1,-1,-1,-1,-1,-1,-1,-1,-1,-1,-1,-1,-1,-1,-1,-1,-1,-1,-1,-1,-1,-1,-1,-1,-1,-1,-1,-1,-1,-1,-1,-1,-1,-1,-1,-1,-1,-1,-1,-1,-1,-1,-1,-1
2.0,0.5,0.5,100,0,0.01,2,IGEMRandomSequence,20,356836,0.44,0.42,0.4,0.42,0.44,0.5,0.5,0.5,0.52,0.54,0.54,0.54,0.54,0.56,0.58,0.58,0.6,0.6,0.6,0.6,0.62,0.76,0.78,0.78,0.78,0.78,0.78,0.8,0.82,0.82,0.84,0.84,0.84,0.84,0.86,0.86,0.86,0.86,0.88,0.88,0.88,0.88,0.9,0.92,0.94,0.96,0.96,0.98,1.0,1.0,1.0,,22.25416726667532,19.911150551557206,18.05079568786138,17.27005376289045,16.6466621941924,16.026441621953737,15.25421223806958,13.38812600966731,12.429568471955726,11.286723840831133,10.535472401706897,10.959277444100131,10.08707681734502,10.073503929327051,10.282987690778135,8.78285034305428,8.388326843645418,9.055524489144807,8.18265742602069,7.319300982433953,7.238529889566691,8.469418782770777,7.855191508026877,7.007124345144543,5.916220237999553,5.26593033522764,4.454705521046812,4.129760687540209,4.1039913178472,3.251702020690558,3.1150452721186066,2.683207224349753,2.2743101134719836,1.9060247123593839,1.854738930899444,1.3326731115733808,1.0882554589624813,0.9048701698832068,0.9674799273746456,0.7200057492001926,0.5511070953569318,0.38292343351561536,0.3778382573607882,0.4200515792890091,0.4065845239359718,0.42653333659731557,0.2959128250983354,0.34372054287955567,0.18129876658948763,0.08870651327511879,0.0,,0.75,0.75,0.75,0.75,0.75,0.75,0.75,0.75,0.75,0.75,0.75,0.75,0.75,0.75,0.75,0.75,0.75,0.75,0.75,0.75,0.75,0.75,0.75,0.75,0.75,0.75,0.75,0.75,0.75,0.75,0.75,0.75,0.75,0.75,0.75,0.75,0.75,0.75,0.75,0.75,0.75,0.75,0.75,0.75,0.75,0.75,0.75,0.75,0.75,0.75,,1.0,1.0,1.0,1.0,1.0,1.0,1.0,1.0,1.0,1.0,1.0,1.0,1.0,1.0,1.0,1.0,1.0,1.0,1.0,1.0,1.0,1.0,1.0,1.0,1.0,1.0,1.0,1.0,1.0,1.0,1.0,1.0,1.0,1.0,1.0,1.0,1.0,1.0,1.0,1.0,1.0,1.0,1.0,1.0,1.0,1.0,1.0,1.0,1.0,1.0,,14,11,12,41,37,38,24,6,22,5,26,8,36,27,43,45,7,29,32,9,4,13,39,19,18,33,1,40,28,25,30,10,2,16,35,15,46,48,44,34,47,31,17,23,21,20,42,49,0,3
2.0,0.5,0.5,100,0,0.01,3,RandomEMDetectRandom,20,5523,0.42000000000000004,0.516,0.496,0.46799999999999997,0.552,0.5720000000000001,0.5800000000000001,0.6040000000000001,0.6360000000000001,0.66,0.652,0.664,0.6839999999999999,0.688,0.7120000000000001,0.692,0.6839999999999999,0.6759999999999999,0.6960000000000001,0.696,0.716,0.744,0.748,0.76,0.764,0.764,0.7639999999999999,0.7879999999999999,0.792,0.8119999999999999,0.8119999999999999,0.82,0.844,0.852,0.868,0.8720000000000001,0.8800000000000001,0.8880000000000001,0.9,0.9040000000000001,0.9120000000000001,0.916,0.9279999999999999,0.9359999999999999,0.9399999999999998,0.952,0.96,0.9719999999999999,0.984,0.9960000000000001,1.0,,26.66358836622437,26.085148457658967,22.95560418374714,22.189129189523378,21.661685183927226,20.931755634754175,21.71099043176357,22.511895309474284,22.163707255785305,21.666965673015817,19.881276406843757,19.488535926439035,17.012468063653934,16.21620678760634,16.752450493860955,17.12164658629701,16.703841979720703,16.530721958684328,16.19672727252904,15.437205518705786,14.525756448021628,13.912496484436982,13.671611150051243,13.52592996814981,13.126986648372789,12.37992462327615,11.853452212103468,11.44358692190084,10.969769653667857,10.353102734554298,9.644466635825662,9.300692619983819,8.911394572016516,8.464807619577119,7.445638136298198,7.0319213982180795,6.324148601082399,5.750484560395071,5.220338027493251,4.788305248628463,4.316606358495512,3.8517185497873143,3.3191592786637374,2.9121450725435545,2.452382963434528,1.9304312967258848,1.7348498209143521,1.3492638210153856,0.891070523234944,0.3727479608470281,0.0,,0.9,0.9,0.9,0.9,0.9,0.9,0.9,0.9,0.9,0.9,0.9,0.9,0.9,0.9,0.9,0.9,0.9,0.9,0.9,0.9,0.9,0.9,0.9,0.9,0.9,0.9,0.9,0.9,0.9,0.9,0.9,0.9,0.9,0.9,0.9,0.9,0.9,0.9,0.9,0.9,0.9,0.9,0.9,0.9,0.9,0.9,0.9,0.9,0.9,0.9,,1.0,1.0,1.0,1.0,1.0,1.0,1.0,1.0,1.0,1.0,1.0,1.0,1.0,1.0,1.0,1.0,1.0,1.0,1.0,1.0,1.0,1.0,1.0,1.0,1.0,1.0,1.0,1.0,1.0,1.0,1.0,1.0,1.0,1.0,1.0,1.0,1.0,1.0,1.0,1.0,1.0,1.0,1.0,1.0,1.0,1.0,1.0,1.0,1.0,1.0,,-1,-1,-1,-1,-1,-1,-1,-1,-1,-1,-1,-1,-1,-1,-1,-1,-1,-1,-1,-1,-1,-1,-1,-1,-1,-1,-1,-1,-1,-1,-1,-1,-1,-1,-1,-1,-1,-1,-1,-1,-1,-1,-1,-1,-1,-1,-1,-1,-1,-1
2.0,0.5,0.5,100,0,0.01,3,IGEMRandomSequence,20,370990,0.42,0.6,0.58,0.62,0.62,0.64,0.64,0.62,0.62,0.64,0.64,0.66,0.68,0.7,0.72,0.74,0.8,0.8,0.76,0.82,0.78,0.82,0.82,0.82,0.82,0.82,0.84,0.84,0.84,0.86,0.86,0.86,0.86,0.88,0.88,0.88,0.88,0.88,0.88,0.9,0.9,0.9,0.9,0.9,0.92,0.92,0.94,0.96,0.98,1.0,1.0,,26.66358836622437,24.164453405116323,21.997179858128234,25.08268520844348,23.33262384136282,20.450676030929184,21.428466065828303,19.385629490598234,17.44381276999651,16.5253781579484,15.081044119232663,14.201891170645895,14.082854926456253,13.353777647523295,13.18176042600725,13.091729027096566,13.34652618475736,12.31381535762151,11.869697097973278,11.170215780496099,9.853832384451435,8.789857510544097,8.256628592956462,6.718877013461539,5.719862388347636,4.660122333065715,4.245894945436339,3.5130544251398006,3.12839040736844,3.3043221714343587,2.790820093848737,2.3272929092460664,1.9500092259987274,1.9924860954929708,1.6448379211632096,1.341732266744006,1.0274530709314966,0.817572207971854,0.6643007651122819,0.8602191009762195,0.6759211973768984,0.5332526488452483,0.4110700709534574,0.3036058461011103,0.37282240944195155,0.21632233501430362,0.2780605960531716,0.2632430373927869,0.15154598623861593,0.1333489676427715,0.0,,0.9,0.9,0.9,0.9,0.9,0.9,0.9,0.9,0.9,0.9,0.9,0.9,0.9,0.9,0.9,0.9,0.9,0.9,0.9,0.9,0.9,0.9,0.9,0.9,0.9,0.9,0.9,0.9,0.9,0.9,0.9,0.9,0.9,0.9,0.9,0.9,0.9,0.9,0.9,0.9,0.9,0.9,0.9,0.9,0.9,0.9,0.9,0.9,0.9,0.9,,1.0,1.0,1.0,1.0,1.0,1.0,1.0,1.0,1.0,1.0,1.0,1.0,1.0,1.0,1.0,1.0,1.0,1.0,1.0,1.0,1.0,1.0,1.0,1.0,1.0,1.0,1.0,1.0,1.0,1.0,1.0,1.0,1.0,1.0,1.0,1.0,1.0,1.0,1.0,1.0,1.0,1.0,1.0,1.0,1.0,1.0,1.0,1.0,1.0,1.0,,48,19,7,1,16,17,49,4,13,28,12,5,22,44,46,45,2,27,20,11,18,31,43,36,21,0,30,38,41,42,23,24,37,40,10,39,14,25,8,15,35,26,47,3,6,9,32,29,34,33
2.0,0.5,0.5,100,0,0.01,4,RandomEMDetectRandom,20,5542,0.56,0.504,0.532,0.504,0.5760000000000001,0.552,0.5640000000000001,0.5800000000000001,0.5800000000000001,0.5800000000000001,0.5800000000000001,0.5880000000000001,0.5720000000000001,0.5960000000000001,0.5720000000000001,0.604,0.6519999999999999,0.6639999999999999,0.66,0.6799999999999999,0.684,0.696,0.712,0.7319999999999999,0.748,0.756,0.7639999999999999,0.756,0.76,0.792,0.7959999999999999,0.8160000000000001,0.8240000000000001,0.836,0.8400000000000001,0.8480000000000001,0.8640000000000001,0.8880000000000001,0.8960000000000001,0.9040000000000001,0.9199999999999999,0.932,0.9399999999999998,0.9399999999999998,0.9559999999999998,0.9559999999999998,0.9640000000000001,0.9719999999999999,0.984,0.9879999999999999,1.0,,25.820196711774468,24.39344232550263,23.035891947129905,22.204133997617483,21.380979085539188,20.24750105237168,20.138991068601285,19.83478420513043,18.79234349471973,17.414763755923524,18.180523451387984,17.78777010819821,15.912376101589118,16.829117274596413,15.891616186623796,15.681199329394044,16.558493704012847,15.54905254312774,14.911642476281765,14.158327229365536,13.625434851294738,12.869894460126165,13.159913418829575,12.927535256698201,12.211127569041818,12.220404993413744,11.592917514277973,11.348761340309355,10.777663877369566,10.200508966867137,9.736101528109403,9.8192231579354,9.381693031822248,8.83300755375985,8.081106102460122,7.366294798610784,6.767391030198114,6.499672700106954,6.006938263821665,5.637088052029941,5.125853360432156,4.463719346005524,3.9748675852054047,3.5355401288902195,3.0659534697761543,2.4365015990003043,1.9117203012915547,1.3902449431935302,0.7869160126148379,0.4763579526798084,0.0,,0.95,0.95,0.95,0.95,0.95,0.95,0.95,0.95,0.95,0.95,0.95,0.95,0.95,0.95,0.95,0.95,0.95,0.95,0.95,0.95,0.95,0.95,0.95,0.95,0.95,0.95,0.95,0.95,0.95,0.95,0.95,0.95,0.95,0.95,0.95,0.95,0.95,0.95,0.95,0.95,0.95,0.95,0.95,0.95,0.95,0.95,0.95,0.95,0.95,0.95,,1.0,1.0,1.0,1.0,1.0,1.0,1.0,1.0,1.0,1.0,1.0,1.0,1.0,1.0,1.0,1.0,1.0,1.0,1.0,1.0,1.0,1.0,1.0,1.0,1.0,1.0,1.0,1.0,1.0,1.0,1.0,1.0,1.0,1.0,1.0,1.0,1.0,1.0,1.0,1.0,1.0,1.0,1.0,1.0,1.0,1.0,1.0,1.0,1.0,1.0,,-1,-1,-1,-1,-1,-1,-1,-1,-1,-1,-1,-1,-1,-1,-1,-1,-1,-1,-1,-1,-1,-1,-1,-1,-1,-1,-1,-1,-1,-1,-1,-1,-1,-1,-1,-1,-1,-1,-1,-1,-1,-1,-1,-1,-1,-1,-1,-1,-1,-1
2.0,0.5,0.5,100,0,0.01,4,IGEMRandomSequence,20,357121,0.56,0.56,0.58,0.54,0.54,0.6,0.58,0.58,0.58,0.62,0.52,0.56,0.56,0.58,0.58,0.58,0.6,0.62,0.62,0.62,0.66,0.66,0.74,0.74,0.74,0.76,0.78,0.78,0.8,0.8,0.8,0.82,0.84,0.86,0.88,0.9,0.9,0.9,0.9,0.92,0.92,0.92,0.92,0.94,0.94,0.94,0.96,0.98,0.98,1.0,1.0,,25.820196711774468,23.349558003326297,21.51035108125163,20.71991452466789,18.83883399339098,18.68344328884865,16.817725398733888,15.260307319209682,14.08330812166363,14.022411362801932,14.153373497239349,13.204642166970892,12.49787628197876,11.7242964446666,10.480152989132012,9.973727415696615,9.085827831729475,8.076063459696591,7.292886111570508,7.393115810530428,6.792535233837724,6.242178592395232,9.803760168460002,8.985289864808939,7.7862544557100835,7.4563728916877885,7.171139188196613,5.909960877032612,4.863357412974411,4.1729792129910495,3.2626845620237916,2.543542480584021,2.5981767885782823,2.648352732728716,3.5993822378300555,4.235564152290846,3.3218631079181535,2.650049912170365,2.1836577006712607,2.8131448670497154,1.9433065274582566,1.5408319317210544,1.186181658309489,1.2945421602829117,0.9397957307476442,0.6420844156257413,0.6344211216994556,0.6361612801994267,0.3630005773285425,0.23802242604672258,0.0,,0.95,0.95,0.95,0.95,0.95,0.95,0.95,0.95,0.95,0.95,0.95,0.95,0.95,0.95,0.95,0.95,0.95,0.95,0.95,0.95,0.95,0.95,0.95,0.95,0.95,0.95,0.95,0.95,0.95,0.95,0.95,0.95,0.95,0.95,0.95,0.95,0.95,0.95,0.95,0.95,0.95,0.95,0.95,0.95,0.95,0.95,0.95,0.95,0.95,0.95,,1.0,1.0,1.0,1.0,1.0,1.0,1.0,1.0,1.0,1.0,1.0,1.0,1.0,1.0,1.0,1.0,1.0,1.0,1.0,1.0,1.0,1.0,1.0,1.0,1.0,1.0,1.0,1.0,1.0,1.0,1.0,1.0,1.0,1.0,1.0,1.0,1.0,1.0,1.0,1.0,1.0,1.0,1.0,1.0,1.0,1.0,1.0,1.0,1.0,1.0,,24,40,7,25,29,45,44,8,28,13,2,6,10,22,42,32,19,38,11,30,18,35,48,12,14,5,46,4,33,26,31,47,21,23,36,39,16,3,15,27,43,9,49,34,37,0,17,41,20,1
2.0,0.5,0.5,100,0,0.01,5,RandomEMDetectRandom,20,5688,0.4600000000000001,0.46399999999999997,0.496,0.52,0.512,0.576,0.544,0.544,0.5680000000000001,0.5760000000000001,0.5960000000000001,0.5760000000000001,0.612,0.616,0.624,0.644,0.652,0.668,0.656,0.66,0.676,0.6759999999999999,0.6679999999999999,0.7160000000000001,0.708,0.744,0.74,0.756,0.76,0.7639999999999999,0.788,0.788,0.796,0.7959999999999999,0.8240000000000001,0.8320000000000001,0.828,0.86,0.86,0.892,0.8960000000000001,0.9119999999999999,0.9120000000000001,0.932,0.9359999999999999,0.944,0.952,0.96,0.968,0.9800000000000001,1.0,,27.19927175668534,25.249196069402558,24.27552635331823,22.540088409879914,20.94931963085019,20.81182714973465,21.510924964940045,21.095652026605972,20.800174471915813,20.833784018157573,19.793086966953755,18.636665334598053,18.273980854557657,17.020279220971943,15.611889844656428,15.604696506318485,16.20566736528954,15.874356053166343,14.73180527015677,14.956532916963521,13.988308016461025,12.929009059161752,13.368949579557333,13.408210386683027,12.931814088048657,12.373734356760398,12.547209012683755,11.497165963850652,10.979109935060267,10.939191399143292,10.513754465259268,9.835892699277139,9.400608341244475,9.132429302596142,8.615763344885469,7.859158420629188,7.465442493973562,6.961313160205529,6.719587822065168,5.9722020682639965,5.737232399733538,5.308119768490159,4.758707468106141,4.153504302911612,3.5906108779236248,2.877451255861163,2.3110039149819843,1.7465473260110553,1.072708528152448,0.4853423115015964,0.0,,0.95,0.95,0.95,0.95,0.95,0.95,0.95,0.95,0.95,0.95,0.95,0.95,0.95,0.95,0.95,0.95,0.95,0.95,0.95,0.95,0.95,0.95,0.95,0.95,0.95,0.95,0.95,0.95,0.95,0.95,0.95,0.95,0.95,0.95,0.95,0.95,0.95,0.95,0.95,0.95,0.95,0.95,0.95,0.95,0.95,0.95,0.95,0.95,0.95,0.95,,1.0,1.0,1.0,1.0,1.0,1.0,1.0,1.0,1.0,1.0,1.0,1.0,1.0,1.0,1.0,1.0,1.0,1.0,1.0,1.0,1.0,1.0,1.0,1.0,1.0,1.0,1.0,1.0,1.0,1.0,1.0,1.0,1.0,1.0,1.0,1.0,1.0,1.0,1.0,1.0,1.0,1.0,1.0,1.0,1.0,1.0,1.0,1.0,1.0,1.0,,-1,-1,-1,-1,-1,-1,-1,-1,-1,-1,-1,-1,-1,-1,-1,-1,-1,-1,-1,-1,-1,-1,-1,-1,-1,-1,-1,-1,-1,-1,-1,-1,-1,-1,-1,-1,-1,-1,-1,-1,-1,-1,-1,-1,-1,-1,-1,-1,-1,-1
2.0,0.5,0.5,100,0,0.01,5,IGEMRandomSequence,20,324446,0.46,0.5,0.5,0.52,0.48,0.52,0.52,0.52,0.56,0.52,0.54,0.56,0.58,0.6,0.6,0.6,0.6,0.62,0.64,0.64,0.66,0.68,0.68,0.68,0.68,0.68,0.7,0.72,0.72,0.72,0.74,0.76,0.78,0.78,0.78,0.8,0.8,0.82,0.82,0.82,0.84,0.86,0.88,0.9,0.92,0.92,0.94,0.94,0.96,0.98,1.0,,27.19927175668534,24.70642287825293,22.73539088379716,21.49209318492992,19.358417480821117,18.577694161019313,17.007395688347074,15.912733152884991,14.917221085828357,14.142856018202265,12.866128315007934,12.125987362434982,10.04178205329355,9.060223283612519,7.824740570506434,6.448420153191267,5.618884602959481,5.68485103384542,5.6627679689575015,4.886270229187505,5.415954352050724,5.664821916071346,4.834140947889262,4.182763234262535,3.5654713357203374,3.1115456186860544,3.468322488382187,4.090352098545274,3.285060772360389,2.7943914096376616,3.0805085260467284,2.9728407812687796,2.8772478952376126,2.0919268693371724,1.7989111691854025,1.8261679279117824,1.4233325696287435,1.7298828709596126,1.442667112434933,1.1781073693234694,1.4151758506472258,1.563099697964895,1.796922233678238,1.7049528884770675,1.6626785797122074,1.126252994216756,1.1256230424437867,0.6586918506742427,0.4716321178585724,0.39831885980320514,0.0,,0.95,0.95,0.95,0.95,0.95,0.95,0.95,0.95,0.95,0.95,0.95,0.95,0.95,0.95,0.95,0.95,0.95,0.95,0.95,0.95,0.95,0.95,0.95,0.95,0.95,0.95,0.95,0.95,0.95,0.95,0.95,0.95,0.95,0.95,0.95,0.95,0.95,0.95,0.95,0.95,0.95,0.95,0.95,0.95,0.95,0.95,0.95,0.95,0.95,0.95,,1.0,1.0,1.0,1.0,1.0,1.0,1.0,1.0,1.0,1.0,1.0,1.0,1.0,1.0,1.0,1.0,1.0,1.0,1.0,1.0,1.0,1.0,1.0,1.0,1.0,1.0,1.0,1.0,1.0,1.0,1.0,1.0,1.0,1.0,1.0,1.0,1.0,1.0,1.0,1.0,1.0,1.0,1.0,1.0,1.0,1.0,1.0,1.0,1.0,1.0,,20,3,8,19,48,14,9,36,10,27,0,18,25,5,28,4,40,15,26,44,39,6,46,13,31,16,21,38,23,43,11,42,30,2,22,34,1,49,29,17,32,7,24,41,45,12,47,33,35,37
2.0,0.5,0.5,100,0,0.01,6,RandomEMDetectRandom,20,5516,0.5,0.532,0.56,0.544,0.5880000000000001,0.5640000000000001,0.5880000000000001,0.6200000000000001,0.636,0.664,0.644,0.656,0.668,0.676,0.668,0.668,0.6799999999999999,0.684,0.688,0.692,0.716,0.724,0.7480000000000001,0.756,0.768,0.768,0.78,0.796,0.7959999999999999,0.8,0.808,0.8320000000000001,0.8320000000000001,0.8280000000000001,0.8320000000000001,0.844,0.8640000000000001,0.8880000000000001,0.908,0.916,0.916,0.916,0.924,0.9279999999999999,0.9359999999999999,0.9559999999999998,0.9640000000000001,0.9719999999999999,0.9800000000000001,0.992,1.0,,23.135350366441244,23.206571363679316,23.236594938722767,22.74970815253877,21.22713115313359,22.30861710737272,20.645758520443415,20.01029436343415,19.069951342542826,18.122465658883396,17.140508737939683,16.112836726300316,15.044692733042291,14.362568286903604,14.012240482297369,14.311816301956219,13.65359907797556,13.61933566300414,14.177912810731495,13.494181649270292,12.78355841792937,12.09138509146938,11.660972042166902,11.62908801171912,11.02046667749426,10.535965697138172,9.963459155191016,9.599701320409938,8.99516374144118,8.763989256875252,8.790161765608302,7.9964800659109985,7.401813161838211,7.3116163166967,6.94977185534426,6.752777102252392,6.308749466407558,5.658957822689588,5.108559768847757,4.866713938516282,4.359284590612273,3.907506056877782,3.2953303793521456,2.85932969187004,2.597832058303525,2.116847515591359,1.613885978287584,1.341232391645368,0.9553332041711563,0.5263882672207233,0.0,,0.8,0.8,0.8,0.8,0.8,0.8,0.8,0.8,0.8,0.8,0.8,0.8,0.8,0.8,0.8,0.8,0.8,0.8,0.8,0.8,0.8,0.8,0.8,0.8,0.8,0.8,0.8,0.8,0.8,0.8,0.8,0.8,0.8,0.8,0.8,0.8,0.8,0.8,0.8,0.8,0.8,0.8,0.8,0.8,0.8,0.8,0.8,0.8,0.8,0.8,,1.0,1.0,1.0,1.0,1.0,1.0,1.0,1.0,1.0,1.0,1.0,1.0,1.0,1.0,1.0,1.0,1.0,1.0,1.0,1.0,1.0,1.0,1.0,1.0,1.0,1.0,1.0,1.0,1.0,1.0,1.0,1.0,1.0,1.0,1.0,1.0,1.0,1.0,1.0,1.0,1.0,1.0,1.0,1.0,1.0,1.0,1.0,1.0,1.0,1.0,,-1,-1,-1,-1,-1,-1,-1,-1,-1,-1,-1,-1,-1,-1,-1,-1,-1,-1,-1,-1,-1,-1,-1,-1,-1,-1,-1,-1,-1,-1,-1,-1,-1,-1,-1,-1,-1,-1,-1,-1,-1,-1,-1,-1,-1,-1,-1,-1,-1,-1
2.0,0.5,0.5,100,0,0.01,6,IGEMRandomSequence,20,335211,0.5,0.42,0.5,0.48,0.62,0.62,0.66,0.66,0.68,0.7,0.56,0.7,0.7,0.72,0.72,0.72,0.72,0.72,0.72,0.74,0.74,0.76,0.78,0.8,0.8,0.8,0.82,0.84,0.84,0.84,0.84,0.84,0.84,0.84,0.84,0.84,0.86,0.88,0.9,0.9,0.92,0.92,0.94,0.96,0.96,0.98,0.98,0.98,1.0,1.0,1.0,,23.135350366441244,22.568670392821197,21.9897922833355,20.482024033273948,19.55683528079742,18.011922888969746,16.328032873613076,14.988958617725757,14.780190111482739,13.853289878754241,11.92263823188804,11.567536311983087,10.285167333080073,9.95189431288477,8.921737220645397,7.666421595018484,6.813666859967057,5.998148617744859,5.209671142515623,5.20552267963641,4.64806222698807,5.821492960267246,5.932064563185357,6.167749859745412,5.118067053429195,4.385489645131806,4.112252853854626,4.103501786305763,3.6853464729533685,3.1398322437014827,2.747294609451866,2.449650759137008,2.09326079556614,1.8364948191129769,1.6008367489330446,1.3979842440934722,1.478308655849499,1.7636717960064914,2.16429367908233,1.4759073173333044,1.3767084576106652,0.8349478168067546,0.7502656330759196,0.8271763149775739,0.6688201729507567,0.6754095405261682,0.5024059369021434,0.3377742385226533,0.3303291681439038,0.1305809610149458,0.0,,0.8,0.8,0.8,0.8,0.8,0.8,0.8,0.8,0.8,0.8,0.8,0.8,0.8,0.8,0.8,0.8,0.8,0.8,0.8,0.8,0.8,0.8,0.8,0.8,0.8,0.8,0.8,0.8,0.8,0.8,0.8,0.8,0.8,0.8,0.8,0.8,0.8,0.8,0.8,0.8,0.8,0.8,0.8,0.8,0.8,0.8,0.8,0.8,0.8,0.8,,1.0,1.0,1.0,1.0,1.0,1.0,1.0,1.0,1.0,1.0,1.0,1.0,1.0,1.0,1.0,1.0,1.0,1.0,1.0,1.0,1.0,1.0,1.0,1.0,1.0,1.0,1.0,1.0,1.0,1.0,1.0,1.0,1.0,1.0,1.0,1.0,1.0,1.0,1.0,1.0,1.0,1.0,1.0,1.0,1.0,1.0,1.0,1.0,1.0,1.0,,19,20,3,2,15,13,14,48,11,45,36,16,40,33,6,10,22,34,46,35,1,37,7,49,38,8,26,44,18,41,29,43,17,42,23,39,9,31,0,25,27,12,28,21,47,30,32,5,24,4
2.0,0.5,0.5,100,0,0.01,7,RandomEMDetectRandom,20,5455,0.44000000000000006,0.492,0.504,0.504,0.496,0.512,0.52,0.524,0.544,0.544,0.556,0.528,0.552,0.56,0.56,0.576,0.5840000000000001,0.5880000000000001,0.632,0.628,0.644,0.644,0.636,0.64,0.656,0.668,0.68,0.6920000000000001,0.7000000000000001,0.72,0.732,0.74,0.7440000000000001,0.764,0.7799999999999999,0.7959999999999999,0.808,0.8240000000000001,0.8480000000000001,0.8560000000000001,0.876,0.876,0.892,0.9120000000000001,0.924,0.9399999999999998,0.944,0.9559999999999998,0.9640000000000001,0.984,1.0,,22.396508538255766,21.001794794985916,19.762288568733062,19.43928065760435,18.984191776572864,17.86394945778996,18.49857406624013,18.091578274233093,16.44499141231777,16.23117607186706,15.996890739460662,17.267276166008546,15.782704655865171,15.11558134401659,15.127420553614977,14.497540948547908,14.490309207807822,14.147612467746423,13.875747749087969,13.446252409685844,13.066774051129855,13.303411570189255,12.772811936488036,12.690002679995263,11.76098505764042,11.144285014396283,11.442029670631635,10.735575588316442,9.967977565292179,10.383583076898315,9.42306405141864,8.883365553070282,8.089153319418719,7.581228463936395,7.132854869620521,6.737648732731577,6.339677903543196,6.057390668140053,5.69976432310049,5.340564073785501,5.047110694180376,4.52562499378579,4.008864876304017,3.5899772394822564,3.0929721969841935,2.499633531520699,1.922483999509602,1.465280021912117,0.9582913244158489,0.5283842006748497,0.0,,0.95,0.95,0.95,0.95,0.95,0.95,0.95,0.95,0.95,0.95,0.95,0.95,0.95,0.95,0.95,0.95,0.95,0.95,0.95,0.95,0.95,0.95,0.95,0.95,0.95,0.95,0.95,0.95,0.95,0.95,0.95,0.95,0.95,0.95,0.95,0.95,0.95,0.95,0.95,0.95,0.95,0.95,0.95,0.95,0.95,0.95,0.95,0.95,0.95,0.95,,1.0,1.0,1.0,1.0,1.0,1.0,1.0,1.0,1.0,1.0,1.0,1.0,1.0,1.0,1.0,1.0,1.0,1.0,1.0,1.0,1.0,1.0,1.0,1.0,1.0,1.0,1.0,1.0,1.0,1.0,1.0,1.0,1.0,1.0,1.0,1.0,1.0,1.0,1.0,1.0,1.0,1.0,1.0,1.0,1.0,1.0,1.0,1.0,1.0,1.0,,-1,-1,-1,-1,-1,-1,-1,-1,-1,-1,-1,-1,-1,-1,-1,-1,-1,-1,-1,-1,-1,-1,-1,-1,-1,-1,-1,-1,-1,-1,-1,-1,-1,-1,-1,-1,-1,-1,-1,-1,-1,-1,-1,-1,-1,-1,-1,-1,-1,-1
2.0,0.5,0.5,100,0,0.01,7,IGEMRandomSequence,20,300278,0.44,0.46,0.5,0.5,0.48,0.5,0.54,0.54,0.54,0.54,0.56,0.58,0.6,0.6,0.64,0.64,0.64,0.66,0.68,0.7,0.72,0.72,0.72,0.74,0.76,0.76,0.76,0.76,0.76,0.76,0.76,0.78,0.78,0.78,0.78,0.8,0.82,0.82,0.84,0.84,0.84,0.86,0.88,0.9,0.92,0.94,0.94,0.96,0.96,0.98,1.0,,22.396508538255766,20.42903836909118,17.341315991267276,15.443248911847052,13.66342588135945,11.03790859089447,12.265567073859122,11.225575240259476,9.409688717958163,8.16098718560189,7.728822225854995,7.520766988772916,7.055144137692286,6.273086599714253,9.594072291133717,7.968116410793374,6.441402672738521,4.679363899236954,4.742693032559425,4.6980032710504105,4.198924374514323,3.6220889537856507,3.213113182056448,3.5846867733874848,3.9793242220473974,3.5065734380475195,3.1415106053348385,2.821664942212082,2.5304242140173216,2.2547898023346247,1.979507734075744,2.0582628222086163,1.7611462541235972,1.5049382482298534,1.2888306235110727,1.3018313914139894,1.6976360574438216,1.3681532769227585,1.4233243622585254,1.1333824182083645,0.9123517334296792,1.0277880362929808,1.102060662766481,0.8833081310840003,0.9249234019328911,0.715123307169342,0.4733004685186979,0.4551758553994841,0.246979841347993,0.19989681127292938,0.0,,0.95,0.95,0.95,0.95,0.95,0.95,0.95,0.95,0.95,0.95,0.95,0.95,0.95,0.95,0.95,0.95,0.95,0.95,0.95,0.95,0.95,0.95,0.95,0.95,0.95,0.95,0.95,0.95,0.95,0.95,0.95,0.95,0.95,0.95,0.95,0.95,0.95,0.95,0.95,0.95,0.95,0.95,0.95,0.95,0.95,0.95,0.95,0.95,0.95,0.95,,1.0,1.0,1.0,1.0,1.0,1.0,1.0,1.0,1.0,1.0,1.0,1.0,1.0,1.0,1.0,1.0,1.0,1.0,1.0,1.0,1.0,1.0,1.0,1.0,1.0,1.0,1.0,1.0,1.0,1.0,1.0,1.0,1.0,1.0,1.0,1.0,1.0,1.0,1.0,1.0,1.0,1.0,1.0,1.0,1.0,1.0,1.0,1.0,1.0,1.0,,15,48,46,16,44,13,38,35,39,22,1,47,11,23,12,7,31,45,36,30,18,4,3,20,34,6,27,5,14,37,0,17,32,43,21,26,24,8,40,33,2,28,10,25,19,49,42,29,41,9
2.0,0.5,0.5,100,0,0.01,8,RandomEMDetectRandom,20,5736,0.62,0.532,0.472,0.536,0.52,0.488,0.56,0.6,0.616,0.632,0.664,0.648,0.6279999999999999,0.64,0.6839999999999999,0.66,0.6759999999999999,0.664,0.692,0.6839999999999999,0.724,0.744,0.756,0.74,0.744,0.7600000000000001,0.776,0.784,0.8,0.808,0.82,0.8320000000000001,0.8320000000000001,0.836,0.836,0.852,0.868,0.86,0.868,0.892,0.892,0.9199999999999999,0.9359999999999999,0.944,0.96,0.9640000000000001,0.9640000000000001,0.9719999999999999,0.9800000000000001,0.992,1.0,,30.121124781059343,29.117603662077727,27.066784955926103,25.805601804391053,24.56407366083254,23.845832541836778,23.472427386751157,22.22867457442543,21.85448169182785,21.208202627328102,20.523323457144652,19.955561215537582,19.903662800264954,19.099111951593038,17.65830080026596,17.79329530902762,16.911249154406068,17.08747888549519,16.554022855310425,15.30696466690696,15.570217789601745,15.323410487586154,15.249809436122428,14.217491300466168,13.461041617596809,13.72767600497555,12.940643437020853,12.190830625198426,12.32648921779777,11.451851613173806,10.807004829614904,10.006066460750139,9.563434165566688,8.811482649080189,8.754896912988125,8.249915497932445,7.47521185509599,6.997197553300151,6.490771983874341,5.966127660348285,5.397356976661399,5.034493310772897,4.482989291367447,3.9231519853179946,3.4080930934257987,2.8043838682170725,2.3070033807307326,1.8035689485188846,1.2204540766188074,0.5585929242646135,0.0,,0.85,0.85,0.85,0.85,0.85,0.85,0.85,0.85,0.85,0.85,0.85,0.85,0.85,0.85,0.85,0.85,0.85,0.85,0.85,0.85,0.85,0.85,0.85,0.85,0.85,0.85,0.85,0.85,0.85,0.85,0.85,0.85,0.85,0.85,0.85,0.85,0.85,0.85,0.85,0.85,0.85,0.85,0.85,0.85,0.85,0.85,0.85,0.85,0.85,0.85,,1.0,1.0,1.0,1.0,1.0,1.0,1.0,1.0,1.0,1.0,1.0,1.0,1.0,1.0,1.0,1.0,1.0,1.0,1.0,1.0,1.0,1.0,1.0,1.0,1.0,1.0,1.0,1.0,1.0,1.0,1.0,1.0,1.0,1.0,1.0,1.0,1.0,1.0,1.0,1.0,1.0,1.0,1.0,1.0,1.0,1.0,1.0,1.0,1.0,1.0,,-1,-1,-1,-1,-1,-1,-1,-1,-1,-1,-1,-1,-1,-1,-1,-1,-1,-1,-1,-1,-1,-1,-1,-1,-1,-1,-1,-1,-1,-1,-1,-1,-1,-1,-1,-1,-1,-1,-1,-1,-1,-1,-1,-1,-1,-1,-1,-1,-1,-1
2.0,0.5,0.5,100,0,0.01,8,IGEMRandomSequence,20,381143,0.62,0.58,0.6,0.58,0.58,0.62,0.6,0.62,0.62,0.66,0.62,0.64,0.56,0.64,0.62,0.64,0.64,0.68,0.66,0.66,0.68,0.72,0.72,0.72,0.74,0.76,0.78,0.8,0.82,0.84,0.84,0.84,0.84,0.86,0.88,0.9,0.9,0.9,0.9,0.9,0.92,0.92,0.94,0.94,0.94,0.94,0.96,0.96,0.98,0.98,1.0,,30.121124781059343,27.391541436289195,26.356750632654887,24.534084438976727,23.179004211984946,21.916633094413438,21.957295585946245,20.83246307634573,19.206918343282567,18.083037953208166,16.90395572994819,15.998567299418886,15.22551255635994,15.305478656722839,15.41791754531753,14.092168593651337,13.985723248668933,14.224978816513802,12.314246462357033,11.181219131015306,11.192868041032185,10.224308245189485,9.222307002156304,8.097573958065999,6.894962618239945,5.731773689901231,5.0190572364619666,4.6731520811458,4.2861199489681585,3.998024315787366,3.277781877821629,2.6231063721237566,2.1627933383342897,2.299461146465432,2.27253937000367,2.381334087034272,2.011021119357225,1.6632640222530588,1.4020227123701285,1.1634482526649188,1.3975640749197031,1.1784546738086288,1.462463782171602,1.1628606986923975,0.8774509102254759,0.6631771630643724,0.6334715320666742,0.438278283272755,0.272049827949418,0.127471320077561,0.0,,0.85,0.85,0.85,0.85,0.85,0.85,0.85,0.85,0.85,0.85,0.85,0.85,0.85,0.85,0.85,0.85,0.85,0.85,0.85,0.85,0.85,0.85,0.85,0.85,0.85,0.85,0.85,0.85,0.85,0.85,0.85,0.85,0.85,0.85,0.85,0.85,0.85,0.85,0.85,0.85,0.85,0.85,0.85,0.85,0.85,0.85,0.85,0.85,0.85,0.85,,1.0,1.0,1.0,1.0,1.0,1.0,1.0,1.0,1.0,1.0,1.0,1.0,1.0,1.0,1.0,1.0,1.0,1.0,1.0,1.0,1.0,1.0,1.0,1.0,1.0,1.0,1.0,1.0,1.0,1.0,1.0,1.0,1.0,1.0,1.0,1.0,1.0,1.0,1.0,1.0,1.0,1.0,1.0,1.0,1.0,1.0,1.0,1.0,1.0,1.0,,27,20,29,19,14,49,2,35,36,37,31,25,21,48,10,18,45,9,12,11,15,32,39,3,16,40,23,7,43,8,38,34,26,33,24,44,5,42,6,17,4,47,30,0,41,28,1,22,46,13
2.0,0.5,0.5,100,0,0.01,9,RandomEMDetectRandom,20,5576,0.66,0.632,0.592,0.62,0.512,0.648,0.596,0.632,0.668,0.6719999999999999,0.656,0.6519999999999999,0.672,0.6839999999999999,0.696,0.732,0.72,0.7440000000000001,0.744,0.744,0.784,0.744,0.728,0.796,0.82,0.8240000000000001,0.82,0.8160000000000001,0.8440000000000001,0.8400000000000001,0.8480000000000001,0.844,0.8400000000000001,0.844,0.836,0.86,0.86,0.876,0.884,0.8880000000000001,0.8960000000000001,0.9120000000000001,0.916,0.9279999999999999,0.9399999999999998,0.9559999999999998,0.96,0.9640000000000001,0.984,0.9879999999999999,1.0,,29.234501351343873,27.21228044545274,26.180017707979193,25.725572049625452,24.011111909731607,24.56869500373891,24.024066480018078,23.47568477856765,22.89761285493335,22.06387268683741,21.247158943508,20.584346003870436,19.834500532435502,19.54110294516101,18.984567113958185,18.22313798047292,17.34468423984892,16.386804251654084,16.44023573326675,15.260161365958425,15.069449064704832,14.224518518826935,14.437226052139057,13.574676682586944,13.21051622948043,12.516048715136554,11.94594046549101,11.514959201589125,10.853396921002695,10.076218932443606,9.397621530692366,8.924187979950904,8.263135027078023,7.567206358679149,7.474692409446666,7.2146534939092275,6.592296193160784,6.325926407900229,5.902416674223609,5.439484963183956,4.837811665420565,4.370418944817885,4.0782796666818895,3.499068004702192,3.0695742235121957,2.4186803736637645,1.8930250520054586,1.3325101853005632,0.9341391633159244,0.4390771180303313,0.0,,0.8,0.8,0.8,0.8,0.8,0.8,0.8,0.8,0.8,0.8,0.8,0.8,0.8,0.8,0.8,0.8,0.8,0.8,0.8,0.8,0.8,0.8,0.8,0.8,0.8,0.8,0.8,0.8,0.8,0.8,0.8,0.8,0.8,0.8,0.8,0.8,0.8,0.8,0.8,0.8,0.8,0.8,0.8,0.8,0.8,0.8,0.8,0.8,0.8,0.8,,1.0,1.0,1.0,1.0,1.0,1.0,1.0,1.0,1.0,1.0,1.0,1.0,1.0,1.0,1.0,1.0,1.0,1.0,1.0,1.0,1.0,1.0,1.0,1.0,1.0,1.0,1.0,1.0,1.0,1.0,1.0,1.0,1.0,1.0,1.0,1.0,1.0,1.0,1.0,1.0,1.0,1.0,1.0,1.0,1.0,1.0,1.0,1.0,1.0,1.0,,-1,-1,-1,-1,-1,-1,-1,-1,-1,-1,-1,-1,-1,-1,-1,-1,-1,-1,-1,-1,-1,-1,-1,-1,-1,-1,-1,-1,-1,-1,-1,-1,-1,-1,-1,-1,-1,-1,-1,-1,-1,-1,-1,-1,-1,-1,-1,-1,-1,-1
2.0,0.5,0.5,100,0,0.01,9,IGEMRandomSequence,20,364292,0.66,0.62,0.66,0.66,0.66,0.66,0.66,0.66,0.68,0.7,0.72,0.72,0.74,0.78,0.76,0.78,0.8,0.82,0.82,0.84,0.84,0.86,0.86,0.86,0.86,0.86,0.86,0.86,0.88,0.88,0.88,0.88,0.88,0.88,0.88,0.9,0.9,0.9,0.92,0.92,0.94,0.94,0.94,0.96,0.96,0.96,0.96,0.98,0.98,0.98,1.0,,29.234501351343873,26.697853320138183,21.988273469297283,21.477753480330552,17.844406147283323,15.5866460456685,14.072139457860473,14.754988404833806,13.967875769935032,11.082859769227335,12.187944209066911,10.061748709923899,12.000414249439372,14.304822051701219,11.92295154591198,11.420606719113232,11.219503986617127,12.006903174331343,10.563954073063778,10.836080669941133,9.139028242497751,7.87528410374091,6.88409180976707,5.676947974196914,4.881739944091749,4.230463869616268,3.727851695151572,3.332474371655003,3.482626422464753,2.974896680080224,2.614247836464472,2.2723402913828066,1.9791644314728987,1.6863245964525535,1.4611037513681095,1.4685347794981363,1.1168140454015745,0.9289510488469426,1.0655707968429864,0.8222653661595166,0.9011141123341819,0.6837100890870992,0.5549464243987542,0.6055186802151604,0.435336281388209,0.31364312729757426,0.20523305784795504,0.27236546094440367,0.17118793800839044,0.07662406609600118,0.0,,0.8,0.8,0.8,0.8,0.8,0.8,0.8,0.8,0.8,0.8,0.8,0.8,0.8,0.8,0.8,0.8,0.8,0.8,0.8,0.8,0.8,0.8,0.8,0.8,0.8,0.8,0.8,0.8,0.8,0.8,0.8,0.8,0.8,0.8,0.8,0.8,0.8,0.8,0.8,0.8,0.8,0.8,0.8,0.8,0.8,0.8,0.8,0.8,0.8,0.8,,1.0,1.0,1.0,1.0,1.0,1.0,1.0,1.0,1.0,1.0,1.0,1.0,1.0,1.0,1.0,1.0,1.0,1.0,1.0,1.0,1.0,1.0,1.0,1.0,1.0,1.0,1.0,1.0,1.0,1.0,1.0,1.0,1.0,1.0,1.0,1.0,1.0,1.0,1.0,1.0,1.0,1.0,1.0,1.0,1.0,1.0,1.0,1.0,1.0,1.0,,45,15,38,22,3,10,28,17,44,13,25,6,37,40,2,26,31,21,36,11,9,4,47,48,34,39,30,24,8,33,43,49,20,23,0,29,5,35,42,12,18,16,7,19,14,27,41,1,32,46
2.0,0.5,0.5,100,0,0.01,10,RandomEMDetectRandom,20,5306,0.58,0.5760000000000001,0.5720000000000001,0.5800000000000001,0.588,0.56,0.5640000000000001,0.56,0.5840000000000001,0.5680000000000001,0.5760000000000001,0.5680000000000001,0.56,0.552,0.56,0.5800000000000001,0.6040000000000001,0.6120000000000001,0.66,0.632,0.648,0.6759999999999999,0.692,0.7040000000000001,0.732,0.748,0.764,0.756,0.772,0.788,0.808,0.82,0.828,0.836,0.844,0.852,0.844,0.8480000000000001,0.86,0.8720000000000001,0.9040000000000001,0.916,0.924,0.9279999999999999,0.952,0.96,0.9719999999999999,0.976,0.9879999999999999,0.992,1.0,,25.81218749105333,24.14918179166864,23.31283863955925,22.135347051245706,20.949743922005702,20.81312671148889,19.700599987921663,19.34864070529938,18.34401442151023,18.68004283637641,18.23337332908175,17.315197027528203,16.550249077099842,16.14820685170798,16.006815720262843,15.531928728622285,15.656733580239955,14.433779198257662,13.831279914830358,13.68428749916508,12.742219101757831,12.746831543571906,12.291229354521244,11.647246205042382,11.077781044904365,10.883462056566575,10.823952497538524,10.639366053664466,10.094042109204755,9.742470237053737,9.002250624478881,9.068072547588814,8.4638967078941,7.834138453453887,7.4825444486969115,6.917261640468479,6.7716277727264425,6.265449635306165,5.8460139518975165,5.422056437196265,4.895731874689285,4.42725896903047,4.153756619657131,3.6519696121492773,3.384675405156929,2.879010062438586,2.2300887473201145,1.6201841311235956,1.031964102744174,0.5243942404857187,0.0,,0.9,0.9,0.9,0.9,0.9,0.9,0.9,0.9,0.9,0.9,0.9,0.9,0.9,0.9,0.9,0.9,0.9,0.9,0.9,0.9,0.9,0.9,0.9,0.9,0.9,0.9,0.9,0.9,0.9,0.9,0.9,0.9,0.9,0.9,0.9,0.9,0.9,0.9,0.9,0.9,0.9,0.9,0.9,0.9,0.9,0.9,0.9,0.9,0.9,0.9,,1.0,1.0,1.0,1.0,1.0,1.0,1.0,1.0,1.0,1.0,1.0,1.0,1.0,1.0,1.0,1.0,1.0,1.0,1.0,1.0,1.0,1.0,1.0,1.0,1.0,1.0,1.0,1.0,1.0,1.0,1.0,1.0,1.0,1.0,1.0,1.0,1.0,1.0,1.0,1.0,1.0,1.0,1.0,1.0,1.0,1.0,1.0,1.0,1.0,1.0,,-1,-1,-1,-1,-1,-1,-1,-1,-1,-1,-1,-1,-1,-1,-1,-1,-1,-1,-1,-1,-1,-1,-1,-1,-1,-1,-1,-1,-1,-1,-1,-1,-1,-1,-1,-1,-1,-1,-1,-1,-1,-1,-1,-1,-1,-1,-1,-1,-1,-1
2.0,0.5,0.5,100,0,0.01,10,IGEMRandomSequence,20,321566,0.58,0.58,0.58,0.58,0.6,0.6,0.64,0.62,0.64,0.64,0.66,0.66,0.68,0.68,0.7,0.7,0.7,0.72,0.74,0.74,0.74,0.74,0.76,0.78,0.78,0.8,0.82,0.82,0.82,0.82,0.84,0.84,0.86,0.86,0.88,0.9,0.92,0.92,0.92,0.94,0.94,0.94,0.94,0.94,0.94,0.94,0.94,0.96,0.98,1.0,1.0,,25.81218749105333,23.14106632581092,21.28967592999329,19.4995346194927,18.462359166642496,16.78089618187888,15.706815571193872,13.886159720614117,13.574497107571435,11.982427085987185,12.01175198089511,10.392209065884476,10.235157708605062,8.45554131745969,8.60998557761916,7.777916652207011,6.631765762243539,6.850128005053917,7.5811184272892245,6.052002270574445,5.044214928844289,4.314865869380348,4.421489748054829,4.327790884278526,3.747030323551676,3.84762643574155,4.124223098858499,3.5975433926810725,3.168400433331482,2.7857805309566994,3.291537012353562,2.7947235264643524,3.674057054434863,2.751299252148552,2.7722152912814337,2.74669147928268,2.536401334565833,2.0361427336087057,1.61998975651728,1.6213449495860677,1.3172521771796801,1.0539533734130733,0.8391374551530161,0.6586296659345245,0.48677709199032315,0.3502479600925274,0.21987790862259404,0.18302036755040188,0.08308422444642681,0.08774009454273388,0.0,,0.9,0.9,0.9,0.9,0.9,0.9,0.9,0.9,0.9,0.9,0.9,0.9,0.9,0.9,0.9,0.9,0.9,0.9,0.9,0.9,0.9,0.9,0.9,0.9,0.9,0.9,0.9,0.9,0.9,0.9,0.9,0.9,0.9,0.9,0.9,0.9,0.9,0.9,0.9,0.9,0.9,0.9,0.9,0.9,0.9,0.9,0.9,0.9,0.9,0.9,,1.0,1.0,1.0,1.0,1.0,1.0,1.0,1.0,1.0,1.0,1.0,1.0,1.0,1.0,1.0,1.0,1.0,1.0,1.0,1.0,1.0,1.0,1.0,1.0,1.0,1.0,1.0,1.0,1.0,1.0,1.0,1.0,1.0,1.0,1.0,1.0,1.0,1.0,1.0,1.0,1.0,1.0,1.0,1.0,1.0,1.0,1.0,1.0,1.0,1.0,,26,40,2,24,4,11,37,13,0,46,23,22,31,49,35,47,19,6,16,17,32,21,15,12,38,33,45,41,8,27,48,14,29,10,9,34,43,25,39,20,1,44,7,28,18,42,36,30,5,3
2.0,0.5,0.5,100,0,0.01,11,RandomEMDetectRandom,20,5448,0.56,0.5720000000000001,0.5800000000000001,0.556,0.556,0.5640000000000001,0.5800000000000001,0.5680000000000001,0.5800000000000001,0.6040000000000001,0.608,0.6120000000000001,0.632,0.636,0.6359999999999999,0.656,0.656,0.644,0.668,0.668,0.6839999999999999,0.6880000000000001,0.696,0.7240000000000001,0.736,0.7639999999999999,0.744,0.7639999999999999,0.7879999999999999,0.8,0.804,0.808,0.804,0.8320000000000001,0.8560000000000001,0.86,0.868,0.884,0.8880000000000001,0.908,0.9119999999999999,0.9199999999999999,0.9279999999999999,0.944,0.952,0.9559999999999998,0.976,0.976,0.9879999999999999,0.9960000000000001,1.0,,20.199670797004565,19.2075156783412,20.9720108849713,19.931266913689083,19.51319503280119,19.386381922780163,18.595405677094586,18.87312482707835,18.69307993523598,16.975314392738873,17.226995903666506,16.0955668861236,15.470459006730087,14.56661219432724,14.333305387658886,14.325857350156463,14.872790005382663,14.259865055489863,14.546311080087815,13.743876722925759,13.10405103654065,12.465123135364014,12.028054141534586,11.67501387866059,11.774431827444268,11.40762463582019,11.112439351449755,11.085415798121105,10.300030637038352,10.725396801814002,10.070698351370847,9.119668947398921,8.748442125958809,8.412326372203927,8.072905864167065,7.796258586640976,7.2475868775759436,6.570302361799608,6.262107455196795,5.625516140199588,4.996450578172583,4.57771103511344,4.108912712422341,3.4971434056142954,2.8386567073940854,2.3936104615226634,1.8342923392201371,1.2691266639463645,0.7801681822659876,0.27421918160659364,0.0,,0.85,0.85,0.85,0.85,0.85,0.85,0.85,0.85,0.85,0.85,0.85,0.85,0.85,0.85,0.85,0.85,0.85,0.85,0.85,0.85,0.85,0.85,0.85,0.85,0.85,0.85,0.85,0.85,0.85,0.85,0.85,0.85,0.85,0.85,0.85,0.85,0.85,0.85,0.85,0.85,0.85,0.85,0.85,0.85,0.85,0.85,0.85,0.85,0.85,0.85,,1.0,1.0,1.0,1.0,1.0,1.0,1.0,1.0,1.0,1.0,1.0,1.0,1.0,1.0,1.0,1.0,1.0,1.0,1.0,1.0,1.0,1.0,1.0,1.0,1.0,1.0,1.0,1.0,1.0,1.0,1.0,1.0,1.0,1.0,1.0,1.0,1.0,1.0,1.0,1.0,1.0,1.0,1.0,1.0,1.0,1.0,1.0,1.0,1.0,1.0,,-1,-1,-1,-1,-1,-1,-1,-1,-1,-1,-1,-1,-1,-1,-1,-1,-1,-1,-1,-1,-1,-1,-1,-1,-1,-1,-1,-1,-1,-1,-1,-1,-1,-1,-1,-1,-1,-1,-1,-1,-1,-1,-1,-1,-1,-1,-1,-1,-1,-1
2.0,0.5,0.5,100,0,0.01,11,IGEMRandomSequence,20,273257,0.56,0.56,0.6,0.58,0.6,0.62,0.62,0.62,0.64,0.66,0.68,0.68,0.7,0.7,0.72,0.74,0.74,0.74,0.76,0.78,0.8,0.8,0.8,0.8,0.82,0.82,0.82,0.82,0.84,0.84,0.84,0.84,0.84,0.84,0.84,0.86,0.86,0.86,0.86,0.88,0.9,0.92,0.92,0.92,0.94,0.94,0.94,0.96,0.98,1.0,1.0,,20.199670797004565,19.237440995063547,18.30193948915598,17.611346299890567,16.570929070863134,15.43772302543972,14.265806889563443,13.248223137903294,12.184352847685751,10.59183694167317,9.83158054630758,8.37607696100764,8.05471461968565,7.102244097225349,6.311865159056521,6.075514909503968,5.094143703629896,4.379106693468868,4.7430148286852525,4.7247687156155305,4.782407273148224,3.991168475041192,3.348080343865864,2.923693383497547,3.3730305858797993,2.945469954321528,2.6412937475752227,2.34453370142688,2.4479238620394734,2.1125327672681706,1.8445718000454132,1.594344038574746,1.3945508894711776,1.2299151323873343,1.0922607689784654,1.4112462815275812,1.1831559949429502,0.9933166296767385,0.832174006848679,0.9444994654621517,0.8879644883743022,0.8900605602465593,0.6895814169572952,0.5571840838635694,0.7266530276655355,0.5229341265172848,0.3724314095383003,0.3571255371321944,0.255491598398778,0.19231476589317753,0.0,,0.85,0.85,0.85,0.85,0.85,0.85,0.85,0.85,0.85,0.85,0.85,0.85,0.85,0.85,0.85,0.85,0.85,0.85,0.85,0.85,0.85,0.85,0.85,0.85,0.85,0.85,0.85,0.85,0.85,0.85,0.85,0.85,0.85,0.85,0.85,0.85,0.85,0.85,0.85,0.85,0.85,0.85,0.85,0.85,0.85,0.85,0.85,0.85,0.85,0.85,,1.0,1.0,1.0,1.0,1.0,1.0,1.0,1.0,1.0,1.0,1.0,1.0,1.0,1.0,1.0,1.0,1.0,1.0,1.0,1.0,1.0,1.0,1.0,1.0,1.0,1.0,1.0,1.0,1.0,1.0,1.0,1.0,1.0,1.0,1.0,1.0,1.0,1.0,1.0,1.0,1.0,1.0,1.0,1.0,1.0,1.0,1.0,1.0,1.0,1.0,,41,29,8,7,34,1,43,42,47,19,17,4,18,20,30,13,12,46,45,40,5,35,25,39,0,16,37,48,28,36,10,9,24,49,32,14,21,26,38,15,27,3,2,33,11,22,23,31,44,6
2.0,0.5,0.5,100,0,0.01,12,RandomEMDetectRandom,20,5405,0.56,0.504,0.54,0.54,0.556,0.528,0.516,0.5,0.532,0.552,0.604,0.5800000000000001,0.5880000000000001,0.6000000000000001,0.6,0.628,0.632,0.636,0.628,0.66,0.68,0.692,0.6960000000000001,0.708,0.704,0.724,0.728,0.736,0.728,0.764,0.7799999999999999,0.8039999999999999,0.812,0.8039999999999999,0.804,0.8280000000000001,0.8320000000000001,0.8480000000000001,0.8640000000000001,0.884,0.892,0.8960000000000001,0.9199999999999999,0.9279999999999999,0.932,0.9480000000000001,0.96,0.9640000000000001,0.9719999999999999,0.9879999999999999,1.0,,28.276988955671726,27.147458000076334,26.391147494826868,24.38360914552169,23.154608816021007,22.262186312455764,21.167923361126743,19.47047489784537,19.136246806632528,18.84726742013744,20.895444951691367,20.051634345090225,18.871020079143996,18.186191416251443,17.449663299486378,16.785921941278193,16.419280610136603,15.500894178614038,16.188128250324404,15.604001691154796,14.828174526257168,14.209782833907042,13.565214335075956,12.826079082113617,12.397344721026212,11.790858513553406,11.696280321018248,10.95904986875614,10.735861211952946,9.98800526172791,9.727240411817462,9.496810562792465,8.91361560570607,8.296119208463951,7.91928433780469,7.514123892418526,7.444223014289267,6.930285904526068,6.1442083835336385,5.96197072874053,5.764007856163882,5.047696622101019,4.7644885564848085,4.134789018798564,3.511770125510118,3.134215292552718,2.3963552550468004,1.7839119745943932,1.1714925563370167,0.6597921200962573,0.0,,1.0,1.0,1.0,1.0,1.0,1.0,1.0,1.0,1.0,1.0,1.0,1.0,1.0,1.0,1.0,1.0,1.0,1.0,1.0,1.0,1.0,1.0,1.0,1.0,1.0,1.0,1.0,1.0,1.0,1.0,1.0,1.0,1.0,1.0,1.0,1.0,1.0,1.0,1.0,1.0,1.0,1.0,1.0,1.0,1.0,1.0,1.0,1.0,1.0,1.0,,1.0,1.0,1.0,1.0,1.0,1.0,1.0,1.0,1.0,1.0,1.0,1.0,1.0,1.0,1.0,1.0,1.0,1.0,1.0,1.0,1.0,1.0,1.0,1.0,1.0,1.0,1.0,1.0,1.0,1.0,1.0,1.0,1.0,1.0,1.0,1.0,1.0,1.0,1.0,1.0,1.0,1.0,1.0,1.0,1.0,1.0,1.0,1.0,1.0,1.0,,-1,-1,-1,-1,-1,-1,-1,-1,-1,-1,-1,-1,-1,-1,-1,-1,-1,-1,-1,-1,-1,-1,-1,-1,-1,-1,-1,-1,-1,-1,-1,-1,-1,-1,-1,-1,-1,-1,-1,-1,-1,-1,-1,-1,-1,-1,-1,-1,-1,-1
2.0,0.5,0.5,100,0,0.01,12,IGEMRandomSequence,20,322903,0.56,0.56,0.54,0.58,0.54,0.56,0.58,0.58,0.62,0.62,0.64,0.64,0.64,0.64,0.66,0.68,0.68,0.68,0.7,0.72,0.72,0.72,0.74,0.74,0.74,0.74,0.74,0.76,0.76,0.76,0.78,0.8,0.8,0.82,0.82,0.84,0.84,0.84,0.84,0.84,0.84,0.84,0.86,0.86,0.88,0.9,0.92,0.94,0.96,0.98,1.0,,28.276988955671726,26.54607800343843,24.910028149933435,23.619774297065593,23.375497628954292,21.938251153217067,21.115601635284595,19.169455132361787,17.455470440946378,16.26471234986901,15.053005081194215,14.598520737132468,13.231975577690307,12.08834657377218,10.455490669059204,10.077242445786958,8.648235394554503,7.751299285618855,7.82290457052795,7.622521862118463,6.707698828089471,5.805362046486947,5.25395808196463,4.524825161104669,3.845560433448778,3.3484659190007284,2.935919987282716,3.6831722876871704,2.9767821336283093,2.4601388213049042,2.51913945914323,2.4400661430935275,1.8441674964531274,1.602570881211748,1.2764213438453422,1.4643290529029462,1.2181194087115899,0.9889017164501064,0.8158238658110143,0.6536444449380616,0.5199374686896695,0.39923972076337033,0.4420398664787387,0.3314620720773608,0.4160150382583133,0.43572310166010514,0.38538263176832144,0.4481206815250298,0.4766597395362333,0.36598750198559993,0.0,,1.0,1.0,1.0,1.0,1.0,1.0,1.0,1.0,1.0,1.0,1.0,1.0,1.0,1.0,1.0,1.0,1.0,1.0,1.0,1.0,1.0,1.0,1.0,1.0,1.0,1.0,1.0,1.0,1.0,1.0,1.0,1.0,1.0,1.0,1.0,1.0,1.0,1.0,1.0,1.0,1.0,1.0,1.0,1.0,1.0,1.0,1.0,1.0,1.0,1.0,,1.0,1.0,1.0,1.0,1.0,1.0,1.0,1.0,1.0,1.0,1.0,1.0,1.0,1.0,1.0,1.0,1.0,1.0,1.0,1.0,1.0,1.0,1.0,1.0,1.0,1.0,1.0,1.0,1.0,1.0,1.0,1.0,1.0,1.0,1.0,1.0,1.0,1.0,1.0,1.0,1.0,1.0,1.0,1.0,1.0,1.0,1.0,1.0,1.0,1.0,,10,30,36,45,39,19,27,35,18,40,4,6,34,42,15,17,32,37,33,1,28,24,5,20,49,9,12,3,44,31,41,25,8,22,23,46,48,2,7,0,38,26,29,13,14,43,47,21,11,16
2.0,0.5,0.5,100,0,0.01,13,RandomEMDetectRandom,20,5331,0.38,0.40800000000000003,0.42800000000000005,0.488,0.492,0.5720000000000001,0.52,0.556,0.548,0.5680000000000001,0.5760000000000001,0.5840000000000001,0.6000000000000001,0.6440000000000001,0.6360000000000001,0.64,0.6599999999999999,0.6880000000000001,0.704,0.7080000000000001,0.72,0.728,0.7360000000000001,0.756,0.7639999999999999,0.752,0.752,0.784,0.784,0.8,0.82,0.82,0.844,0.852,0.8640000000000001,0.868,0.8640000000000001,0.868,0.8720000000000001,0.8800000000000001,0.8880000000000001,0.8960000000000001,0.9199999999999999,0.9359999999999999,0.9399999999999998,0.944,0.9559999999999998,0.9640000000000001,0.9719999999999999,0.9879999999999999,1.0,,19.24655845402018,19.196185168809624,21.19122427442644,19.62508240929128,19.983103664213143,17.805842265932064,20.29888135130279,17.598360202244805,17.44638036039361,16.337075740964785,15.848333650967959,15.566023632950735,15.694466473049903,14.947274434016952,14.671515157439265,14.007538956123437,13.431455024556282,13.737362925593192,13.358691314045137,12.574254566153593,12.477397788801786,12.20988738030386,11.633140899606298,11.0682457650036,10.981600761149512,10.697136564642719,9.90609150734701,9.672006092048573,9.49899976345969,9.60652264613314,9.666263908688734,8.831205981411676,9.044933733890328,9.070136762300447,8.45776124256922,7.844973470498698,7.192732933568349,6.631275111492947,5.921394169144415,5.377946979615308,4.771705747753286,4.280942201426112,3.7587709524952944,3.429706179032057,3.037100660298916,2.551434780526935,2.009269062406436,1.6168901072508053,0.9934124391384586,0.4110477041880981,0.0,,0.9,0.9,0.9,0.9,0.9,0.9,0.9,0.9,0.9,0.9,0.9,0.9,0.9,0.9,0.9,0.9,0.9,0.9,0.9,0.9,0.9,0.9,0.9,0.9,0.9,0.9,0.9,0.9,0.9,0.9,0.9,0.9,0.9,0.9,0.9,0.9,0.9,0.9,0.9,0.9,0.9,0.9,0.9,0.9,0.9,0.9,0.9,0.9,0.9,0.9,,1.0,1.0,1.0,1.0,1.0,1.0,1.0,1.0,1.0,1.0,1.0,1.0,1.0,1.0,1.0,1.0,1.0,1.0,1.0,1.0,1.0,1.0,1.0,1.0,1.0,1.0,1.0,1.0,1.0,1.0,1.0,1.0,1.0,1.0,1.0,1.0,1.0,1.0,1.0,1.0,1.0,1.0,1.0,1.0,1.0,1.0,1.0,1.0,1.0,1.0,,-1,-1,-1,-1,-1,-1,-1,-1,-1,-1,-1,-1,-1,-1,-1,-1,-1,-1,-1,-1,-1,-1,-1,-1,-1,-1,-1,-1,-1,-1,-1,-1,-1,-1,-1,-1,-1,-1,-1,-1,-1,-1,-1,-1,-1,-1,-1,-1,-1,-1
2.0,0.5,0.5,100,0,0.01,13,IGEMRandomSequence,20,262676,0.38,0.38,0.4,0.42,0.44,0.44,0.44,0.46,0.48,0.48,0.48,0.48,0.5,0.5,0.52,0.52,0.54,0.56,0.58,0.58,0.58,0.58,0.6,0.62,0.64,0.66,0.68,0.7,0.7,0.72,0.74,0.74,0.76,0.78,0.88,0.8,0.8,0.82,0.92,0.84,0.9,0.92,0.94,0.96,0.96,0.96,0.98,0.98,0.98,0.98,1.0,,19.24655845402018,17.874182774867332,16.70672433709462,14.726201608776522,13.076665483808513,11.712075390783022,10.983705643297142,8.851744409518437,8.942652908085233,7.332771077129292,6.631434871205635,5.924101888603799,6.681500477179178,5.754554748306304,5.869689528701858,5.206744254160233,5.400567201097372,5.473258929747005,5.2310938099975255,4.354310389890382,3.5697142656201293,2.9080439625349244,2.6928106888069614,3.0986034841256647,2.925625270826063,2.892488365385284,2.694568099264571,2.7047927618527527,2.1811458000366035,2.4488428562688713,3.122378322516747,2.6434370792926254,3.4567270459279724,4.182011563220256,3.7173155477984823,5.588670768801796,3.8849727980006263,4.576309059054868,5.06022571025636,4.995422782462234,5.04347491517973,3.619270184158428,2.55438504056435,2.842017966977106,1.8837994100380082,1.273658772073913,1.6182045215130416,0.9817438575059179,0.4675115460211944,0.1673716755618943,0.0,,0.9,0.9,0.9,0.9,0.9,0.9,0.9,0.9,0.9,0.9,0.9,0.9,0.9,0.9,0.9,0.9,0.9,0.9,0.9,0.9,0.9,0.9,0.9,0.9,0.9,0.9,0.9,0.9,0.9,0.9,0.9,0.9,0.9,0.9,0.9,0.9,0.9,0.9,0.9,0.9,0.9,0.9,0.9,0.9,0.9,0.9,0.9,0.9,0.9,0.9,,1.0,1.0,1.0,1.0,1.0,1.0,1.0,1.0,1.0,1.0,1.0,1.0,1.0,1.0,1.0,1.0,1.0,1.0,1.0,1.0,1.0,1.0,1.0,1.0,1.0,1.0,1.0,1.0,1.0,1.0,1.0,1.0,1.0,1.0,1.0,1.0,1.0,1.0,1.0,1.0,1.0,1.0,1.0,1.0,1.0,1.0,1.0,1.0,1.0,1.0,,21,6,41,33,11,45,32,42,7,29,15,48,36,22,10,39,3,43,27,1,12,46,47,4,16,19,14,35,40,13,9,17,28,34,0,25,38,8,49,44,37,5,18,2,26,31,24,23,20,30
2.0,0.5,0.5,100,0,0.01,14,RandomEMDetectRandom,20,5750,0.6,0.588,0.62,0.612,0.584,0.548,0.592,0.608,0.604,0.6040000000000001,0.596,0.616,0.644,0.64,0.636,0.644,0.664,0.668,0.68,0.676,0.6960000000000001,0.6839999999999999,0.7120000000000001,0.708,0.708,0.7280000000000001,0.724,0.756,0.756,0.78,0.772,0.7879999999999999,0.7919999999999999,0.8160000000000001,0.8240000000000001,0.82,0.8320000000000001,0.8480000000000001,0.8640000000000001,0.892,0.9039999999999999,0.9199999999999999,0.924,0.932,0.944,0.9560000000000001,0.9640000000000001,0.976,0.984,0.992,1.0,,22.13406820155032,21.157875854887088,20.492759194918015,19.405132810965483,18.122157146893095,17.88298533205046,17.516078944719588,16.59007062380157,15.60317284063757,16.426470657316763,16.065763681810193,15.715520457519094,16.753957069326344,17.695063033938123,16.410575460466493,16.249965080228044,16.34566161810657,15.227619237991814,14.762872624149463,13.348003457390266,13.397144642827385,13.406928905707241,13.829376175004214,13.141165855473705,12.927538022425457,12.200661151594,11.871269105202732,12.172757511641558,11.139729074091685,10.553252388592526,10.05409853994066,9.708372570470612,9.03639121619054,8.4750746879572,8.111809743457062,7.863107709142204,7.25008803456632,6.465430754134212,5.820165218273216,5.383671497225835,4.868633688542394,4.351474924118392,3.9215072842814527,3.54315819837581,2.992799255050465,2.647682259896315,2.1263089631816827,1.5669833775292354,1.0612539872290587,0.4842405441635331,0.0,,0.9,0.9,0.9,0.9,0.9,0.9,0.9,0.9,0.9,0.9,0.9,0.9,0.9,0.9,0.9,0.9,0.9,0.9,0.9,0.9,0.9,0.9,0.9,0.9,0.9,0.9,0.9,0.9,0.9,0.9,0.9,0.9,0.9,0.9,0.9,0.9,0.9,0.9,0.9,0.9,0.9,0.9,0.9,0.9,0.9,0.9,0.9,0.9,0.9,0.9,,1.0,1.0,1.0,1.0,1.0,1.0,1.0,1.0,1.0,1.0,1.0,1.0,1.0,1.0,1.0,1.0,1.0,1.0,1.0,1.0,1.0,1.0,1.0,1.0,1.0,1.0,1.0,1.0,1.0,1.0,1.0,1.0,1.0,1.0,1.0,1.0,1.0,1.0,1.0,1.0,1.0,1.0,1.0,1.0,1.0,1.0,1.0,1.0,1.0,1.0,,-1,-1,-1,-1,-1,-1,-1,-1,-1,-1,-1,-1,-1,-1,-1,-1,-1,-1,-1,-1,-1,-1,-1,-1,-1,-1,-1,-1,-1,-1,-1,-1,-1,-1,-1,-1,-1,-1,-1,-1,-1,-1,-1,-1,-1,-1,-1,-1,-1,-1
2.0,0.5,0.5,100,0,0.01,14,IGEMRandomSequence,20,282701,0.6,0.58,0.56,0.56,0.58,0.58,0.58,0.6,0.6,0.6,0.62,0.64,0.66,0.66,0.66,0.66,0.68,0.68,0.68,0.7,0.72,0.74,0.76,0.78,0.78,0.78,0.8,0.8,0.82,0.84,0.86,0.86,0.86,0.86,0.86,0.86,0.86,0.86,0.88,0.88,0.88,0.9,0.9,0.92,0.94,0.94,0.94,0.96,0.98,1.0,1.0,,22.13406820155032,21.06327251376076,19.446426634012095,18.16116499956319,16.869143362982157,15.726479594943026,14.524698335763457,13.223270803934362,12.081012878389416,11.016636233444954,10.113677884776875,9.514781385074164,8.821602191649989,8.09800558004582,7.55867726147215,6.683855571632386,6.512250558711388,5.344361732293746,4.7118305268272955,5.220081445629835,4.821497243705292,5.1457521409541735,4.898791665679751,4.178863462778486,3.290426597399337,2.6690758665537393,2.8876433576362843,2.2598128248061093,2.111765246416752,2.0814714642517815,2.026208704203938,1.688315001705249,1.3814713755263572,1.1434464660999908,0.975196726063625,0.8216526496616555,0.6942542981150256,0.5686931848191759,0.6023678785000816,0.49663607230050366,0.414120567944508,0.6590251457520213,0.5003972331060615,0.5456788174337481,0.728995992134116,0.40325842279170115,0.2870461926706078,0.3416448539413032,0.3432910925239313,0.3632227179574938,0.0,,0.9,0.9,0.9,0.9,0.9,0.9,0.9,0.9,0.9,0.9,0.9,0.9,0.9,0.9,0.9,0.9,0.9,0.9,0.9,0.9,0.9,0.9,0.9,0.9,0.9,0.9,0.9,0.9,0.9,0.9,0.9,0.9,0.9,0.9,0.9,0.9,0.9,0.9,0.9,0.9,0.9,0.9,0.9,0.9,0.9,0.9,0.9,0.9,0.9,0.9,,1.0,1.0,1.0,1.0,1.0,1.0,1.0,1.0,1.0,1.0,1.0,1.0,1.0,1.0,1.0,1.0,1.0,1.0,1.0,1.0,1.0,1.0,1.0,1.0,1.0,1.0,1.0,1.0,1.0,1.0,1.0,1.0,1.0,1.0,1.0,1.0,1.0,1.0,1.0,1.0,1.0,1.0,1.0,1.0,1.0,1.0,1.0,1.0,1.0,1.0,,14,3,44,8,40,5,1,13,48,26,15,29,22,47,17,35,2,21,33,36,45,24,20,31,6,7,39,43,10,34,18,23,25,0,12,42,38,49,16,28,46,9,19,4,37,11,32,41,27,30
2.0,0.5,0.5,100,0,0.01,15,RandomEMDetectRandom,20,5674,0.52,0.484,0.46799999999999997,0.516,0.532,0.552,0.54,0.56,0.544,0.5960000000000001,0.604,0.5680000000000001,0.56,0.56,0.5680000000000001,0.592,0.648,0.68,0.6960000000000001,0.692,0.676,0.6920000000000001,0.728,0.72,0.728,0.708,0.712,0.732,0.752,0.7639999999999999,0.768,0.7760000000000001,0.784,0.788,0.792,0.8200000000000001,0.828,0.8560000000000001,0.86,0.868,0.8880000000000001,0.8960000000000001,0.9,0.9200000000000002,0.9400000000000001,0.952,0.9559999999999998,0.968,0.9800000000000001,0.9879999999999999,1.0,,28.672275906253937,26.362676372616455,25.98645158152766,25.065747909572515,23.146063062908592,22.073410572807692,20.91014026616789,19.760108823717218,19.029041871258816,19.904811159692677,19.943878150409482,17.94370699599647,17.001941200582632,17.000816300502105,17.68275213498261,19.20494130387249,18.194396436560744,17.08077182919126,16.371527889506122,15.540339183446122,14.753253652221762,13.634764275481587,13.877041845617011,13.216628686761236,12.611804023598188,12.178386657057823,11.501271330502394,10.959942313952428,10.275921491176026,9.588497727487873,9.453157517410173,8.844124049280264,8.2041271545668,7.980898199257662,7.264446538252375,6.889209481139699,6.555616053323979,5.891675143247892,5.19714248041627,4.482838656332411,4.075342231579709,3.503281090354286,3.1121769430215993,2.8478463972789405,2.5935134288969808,2.2273601993723204,1.8091011069997986,1.4367224354817996,0.9771924467581922,0.5553247348308947,0.0,,0.9,0.9,0.9,0.9,0.9,0.9,0.9,0.9,0.9,0.9,0.9,0.9,0.9,0.9,0.9,0.9,0.9,0.9,0.9,0.9,0.9,0.9,0.9,0.9,0.9,0.9,0.9,0.9,0.9,0.9,0.9,0.9,0.9,0.9,0.9,0.9,0.9,0.9,0.9,0.9,0.9,0.9,0.9,0.9,0.9,0.9,0.9,0.9,0.9,0.9,,1.0,1.0,1.0,1.0,1.0,1.0,1.0,1.0,1.0,1.0,1.0,1.0,1.0,1.0,1.0,1.0,1.0,1.0,1.0,1.0,1.0,1.0,1.0,1.0,1.0,1.0,1.0,1.0,1.0,1.0,1.0,1.0,1.0,1.0,1.0,1.0,1.0,1.0,1.0,1.0,1.0,1.0,1.0,1.0,1.0,1.0,1.0,1.0,1.0,1.0,,-1,-1,-1,-1,-1,-1,-1,-1,-1,-1,-1,-1,-1,-1,-1,-1,-1,-1,-1,-1,-1,-1,-1,-1,-1,-1,-1,-1,-1,-1,-1,-1,-1,-1,-1,-1,-1,-1,-1,-1,-1,-1,-1,-1,-1,-1,-1,-1,-1,-1
2.0,0.5,0.5,100,0,0.01,15,IGEMRandomSequence,20,394685,0.52,0.56,0.54,0.52,0.5,0.5,0.5,0.52,0.48,0.5,0.5,0.52,0.52,0.54,0.52,0.56,0.56,0.6,0.72,0.74,0.72,0.72,0.72,0.76,0.76,0.78,0.82,0.82,0.82,0.82,0.84,0.86,0.86,0.86,0.88,0.88,0.88,0.88,0.88,0.9,0.92,0.94,0.94,0.94,0.94,0.94,0.94,0.96,0.96,0.98,1.0,,28.672275906253933,25.443337856652043,25.94828538333474,25.369590647174668,22.79837625941477,22.33816633977939,20.812598787175773,18.427501819376733,17.03768262897616,16.19412891057138,14.942959199352913,14.118925314081968,13.571235048882306,11.8445563555022,10.664925006855897,10.438017776944733,12.582504868905533,13.470478724511562,13.929627701411697,12.620616257610484,11.522356255455312,10.204048570007538,9.960810849331303,9.252574839434958,8.66796822669326,7.97491767538545,6.495591087013775,5.1970792505285655,4.578896768467085,3.751853923322889,3.2788651162458913,3.6694936927621002,3.1362300977130584,2.5790265058913957,2.3927657003768785,1.820792381299129,1.5419077657582054,1.297455601397637,1.0586239785876976,1.0359897123558044,1.024433918753631,1.0738425953226294,0.8592978411229868,0.6794563245282095,0.5066087889764712,0.3758810484900421,0.2557929358946646,0.2849627052544764,0.17852685068898716,0.11296301940877164,0.0,,0.9,0.9,0.9,0.9,0.9,0.9,0.9,0.9,0.9,0.9,0.9,0.9,0.9,0.9,0.9,0.9,0.9,0.9,0.9,0.9,0.9,0.9,0.9,0.9,0.9,0.9,0.9,0.9,0.9,0.9,0.9,0.9,0.9,0.9,0.9,0.9,0.9,0.9,0.9,0.9,0.9,0.9,0.9,0.9,0.9,0.9,0.9,0.9,0.9,0.9,,1.0,1.0,1.0,1.0,1.0,1.0,1.0,1.0,1.0,1.0,1.0,1.0,1.0,1.0,1.0,1.0,1.0,1.0,1.0,1.0,1.0,1.0,1.0,1.0,1.0,1.0,1.0,1.0,1.0,1.0,1.0,1.0,1.0,1.0,1.0,1.0,1.0,1.0,1.0,1.0,1.0,1.0,1.0,1.0,1.0,1.0,1.0,1.0,1.0,1.0,,25,41,31,12,16,2,6,35,30,32,14,26,37,38,27,24,20,21,49,9,7,29,39,10,19,4,48,13,33,0,28,46,23,3,34,44,18,8,5,45,40,22,47,43,11,1,15,36,42,17
2.0,0.5,0.5,100,0,0.01,16,RandomEMDetectRandom,20,5686,0.56,0.556,0.512,0.508,0.532,0.516,0.536,0.544,0.5720000000000001,0.556,0.5760000000000001,0.5800000000000001,0.5800000000000001,0.5640000000000001,0.588,0.596,0.608,0.632,0.644,0.624,0.66,0.688,0.6960000000000001,0.7040000000000001,0.72,0.716,0.72,0.728,0.764,0.776,0.78,0.812,0.8039999999999999,0.808,0.836,0.8400000000000001,0.8480000000000001,0.86,0.8720000000000001,0.8880000000000001,0.9,0.9039999999999999,0.916,0.924,0.932,0.9400000000000001,0.9480000000000001,0.968,0.9879999999999999,0.992,1.0,,24.38225523607401,23.21090650754782,22.126098542727753,20.832970010798256,20.273738272962234,19.21066781698989,18.066151223713273,16.755563101492008,15.894124155159414,15.91673704230439,15.243972435555074,15.26579086142416,14.721796517541446,13.833605555009418,13.932632152794366,13.326781899402615,13.245648836632032,14.34463264191245,14.771265989291692,14.532541623724388,14.406260038200262,14.377340499771941,13.627462567148523,13.77183062072885,12.716025650392385,12.237454546525992,12.092118527926,11.74668399828523,11.044321848296505,10.493742831744033,10.109881600719268,9.157318755577865,8.466429144241022,7.934367887856647,7.702591011451185,7.62837876095224,7.210065976592995,6.558713580434142,6.024228096908002,5.383932375837747,4.5173366730718545,4.034787852117972,3.6815833060612158,3.4717506285467943,2.9105193316856792,2.488575252344368,2.1550326430357933,1.6175100689629864,1.1146936595646078,0.518456888073671,0.0,,0.8,0.8,0.8,0.8,0.8,0.8,0.8,0.8,0.8,0.8,0.8,0.8,0.8,0.8,0.8,0.8,0.8,0.8,0.8,0.8,0.8,0.8,0.8,0.8,0.8,0.8,0.8,0.8,0.8,0.8,0.8,0.8,0.8,0.8,0.8,0.8,0.8,0.8,0.8,0.8,0.8,0.8,0.8,0.8,0.8,0.8,0.8,0.8,0.8,0.8,,1.0,1.0,1.0,1.0,1.0,1.0,1.0,1.0,1.0,1.0,1.0,1.0,1.0,1.0,1.0,1.0,1.0,1.0,1.0,1.0,1.0,1.0,1.0,1.0,1.0,1.0,1.0,1.0,1.0,1.0,1.0,1.0,1.0,1.0,1.0,1.0,1.0,1.0,1.0,1.0,1.0,1.0,1.0,1.0,1.0,1.0,1.0,1.0,1.0,1.0,,-1,-1,-1,-1,-1,-1,-1,-1,-1,-1,-1,-1,-1,-1,-1,-1,-1,-1,-1,-1,-1,-1,-1,-1,-1,-1,-1,-1,-1,-1,-1,-1,-1,-1,-1,-1,-1,-1,-1,-1,-1,-1,-1,-1,-1,-1,-1,-1,-1,-1
2.0,0.5,0.5,100,0,0.01,16,IGEMRandomSequence,20,335032,0.56,0.52,0.52,0.5,0.54,0.58,0.6,0.56,0.56,0.58,0.58,0.6,0.62,0.64,0.64,0.66,0.66,0.68,0.68,0.68,0.68,0.7,0.72,0.74,0.74,0.72,0.74,0.78,0.78,0.8,0.8,0.8,0.82,0.82,0.82,0.82,0.82,0.84,0.86,0.86,0.86,0.86,0.88,0.9,0.92,0.94,0.98,0.96,0.98,0.98,1.0,,24.38225523607401,22.255114715670235,21.755365785074986,19.892111957438114,17.6615010912132,16.21346674908367,14.189599989452825,12.531229779396245,12.439161775974455,10.634693614579332,9.9798609300789,9.393846829112498,7.7856210408992865,8.081884448143951,6.556146192472301,6.410374513451538,5.374330403145587,4.392734437623551,3.6431442418871005,3.186628593195558,2.8310068483593,3.2564852595344203,3.705003197425148,4.197988047960784,3.7330401457362075,6.377353907838168,4.993100718194316,3.684208644707369,2.980472475983763,3.014802517495842,2.6605995962846087,2.3085802629512755,2.9079497721016265,2.439762576155389,2.110640863893074,1.8332171443914627,1.576785042427354,1.6364337959898692,2.10428413258131,1.7860827535987758,1.4719849646437675,1.2079204489795163,1.4887987771058324,2.0508904612561203,2.5275526773173684,2.4103980428347436,2.592650405791649,1.5979335728429258,1.2141068722794222,0.5181395680554303,0.0,,0.8,0.8,0.8,0.8,0.8,0.8,0.8,0.8,0.8,0.8,0.8,0.8,0.8,0.8,0.8,0.8,0.8,0.8,0.8,0.8,0.8,0.8,0.8,0.8,0.8,0.8,0.8,0.8,0.8,0.8,0.8,0.8,0.8,0.8,0.8,0.8,0.8,0.8,0.8,0.8,0.8,0.8,0.8,0.8,0.8,0.8,0.8,0.8,0.8,0.8,,1.0,1.0,1.0,1.0,1.0,1.0,1.0,1.0,1.0,1.0,1.0,1.0,1.0,1.0,1.0,1.0,1.0,1.0,1.0,1.0,1.0,1.0,1.0,1.0,1.0,1.0,1.0,1.0,1.0,1.0,1.0,1.0,1.0,1.0,1.0,1.0,1.0,1.0,1.0,1.0,1.0,1.0,1.0,1.0,1.0,1.0,1.0,1.0,1.0,1.0,,39,1,45,11,27,24,42,38,16,12,5,19,26,4,13,21,25,0,14,10,31,8,29,43,6,41,46,48,35,18,49,37,7,22,30,23,32,3,15,34,9,44,47,33,36,17,2,40,28,20
2.0,0.5,0.5,100,0,0.01,17,RandomEMDetectRandom,20,4802,0.68,0.6880000000000001,0.7,0.624,0.632,0.6519999999999999,0.636,0.636,0.584,0.656,0.668,0.74,0.74,0.744,0.772,0.78,0.776,0.768,0.7879999999999999,0.8160000000000001,0.82,0.8480000000000001,0.8480000000000001,0.8480000000000001,0.8720000000000001,0.8800000000000001,0.884,0.892,0.8880000000000001,0.8880000000000001,0.8880000000000001,0.8880000000000001,0.892,0.892,0.892,0.9,0.908,0.9039999999999999,0.908,0.9119999999999999,0.916,0.932,0.9400000000000001,0.9480000000000001,0.9559999999999998,0.9640000000000001,0.968,0.976,0.984,0.992,1.0,,15.517604466911646,15.041712239131375,14.529550691946856,14.07483813734774,13.140246156724341,13.33710324759314,13.644042213101951,13.372136645633555,12.748037430558714,13.626233190996823,12.748115424054967,13.434636415721254,12.245658489196606,11.721779021379557,12.295178120583703,12.15881518166106,12.14897663505117,12.778104277347481,12.629451181906933,11.968939679138348,11.166047247996818,10.874408743222695,10.333852926141194,9.983133295379634,9.740027033537242,9.28343122047779,8.735784054093113,8.740603038405782,8.352549333889296,7.99087123171487,7.7297073887461165,7.276860443767132,6.642479683609068,6.011832328915463,5.5738817029381575,5.084882246826515,4.609934876332843,4.659259020251236,4.193607677957049,3.6215264370618194,3.5585782550412532,3.238586883491236,2.912250683853327,2.527287121447312,2.2386768340191527,1.7126495544185982,1.375225114132667,1.1532391690615023,0.7224120058767213,0.30213317517499705,0.0,,0.6,0.6,0.6,0.6,0.6,0.6,0.6,0.6,0.6,0.6,0.6,0.6,0.6,0.6,0.6,0.6,0.6,0.6,0.6,0.6,0.6,0.6,0.6,0.6,0.6,0.6,0.6,0.6,0.6,0.6,0.6,0.6,0.6,0.6,0.6,0.6,0.6,0.6,0.6,0.6,0.6,0.6,0.6,0.6,0.6,0.6,0.6,0.6,0.6,0.6,,1.0,1.0,1.0,1.0,1.0,1.0,1.0,1.0,1.0,1.0,1.0,1.0,1.0,1.0,1.0,1.0,1.0,1.0,1.0,1.0,1.0,1.0,1.0,1.0,1.0,1.0,1.0,1.0,1.0,1.0,1.0,1.0,1.0,1.0,1.0,1.0,1.0,1.0,1.0,1.0,1.0,1.0,1.0,1.0,1.0,1.0,1.0,1.0,1.0,1.0,,-1,-1,-1,-1,-1,-1,-1,-1,-1,-1,-1,-1,-1,-1,-1,-1,-1,-1,-1,-1,-1,-1,-1,-1,-1,-1,-1,-1,-1,-1,-1,-1,-1,-1,-1,-1,-1,-1,-1,-1,-1,-1,-1,-1,-1,-1,-1,-1,-1,-1
2.0,0.5,0.5,100,0,0.01,17,IGEMRandomSequence,20,268774,0.68,0.68,0.7,0.7,0.7,0.72,0.76,0.4,0.4,0.42,0.78,0.78,0.78,0.78,0.78,0.8,0.8,0.8,0.8,0.82,0.84,0.84,0.84,0.84,0.84,0.84,0.86,0.88,0.88,0.88,0.9,0.9,0.92,0.92,0.92,0.92,0.92,0.92,0.92,0.94,0.94,0.94,0.96,0.96,0.96,0.98,0.98,0.98,1.0,1.0,1.0,,15.517604466911646,14.537353527680407,12.640303607463393,11.661187270720271,10.862795349700448,11.054891370289868,11.537807972742902,8.721460827114958,7.778500872553912,7.327014931793821,10.18746477394947,9.137542482137649,8.005544728207763,7.552315219054958,6.450365744883268,6.066181527145128,5.15663585000355,4.363120452823135,3.8241164566283254,4.546145103468931,4.566540756849962,3.7532204793892987,3.234979974044056,2.7136100752487553,2.2672791017718987,1.9512550359906264,2.170737803190616,2.4208178048010787,1.9546185388011583,1.6123298083154154,1.6293390663748215,1.357686385436759,1.4607460289719618,1.228061283176621,1.036022939360398,0.8643781377778723,0.7480071931924013,0.65388011363506,0.5674647501829502,0.6812827679109247,0.5671673415380376,0.4648693113513307,0.5159172524621347,0.3528073116554136,0.2747952641978296,0.31042925711459823,0.19694401230579617,0.12565368288174444,0.13158794190642353,0.06438355538326386,0.0,,0.6,0.6,0.6,0.6,0.6,0.6,0.6,0.6,0.6,0.6,0.6,0.6,0.6,0.6,0.6,0.6,0.6,0.6,0.6,0.6,0.6,0.6,0.6,0.6,0.6,0.6,0.6,0.6,0.6,0.6,0.6,0.6,0.6,0.6,0.6,0.6,0.6,0.6,0.6,0.6,0.6,0.6,0.6,0.6,0.6,0.6,0.6,0.6,0.6,0.6,,1.0,1.0,1.0,1.0,1.0,1.0,1.0,1.0,1.0,1.0,1.0,1.0,1.0,1.0,1.0,1.0,1.0,1.0,1.0,1.0,1.0,1.0,1.0,1.0,1.0,1.0,1.0,1.0,1.0,1.0,1.0,1.0,1.0,1.0,1.0,1.0,1.0,1.0,1.0,1.0,1.0,1.0,1.0,1.0,1.0,1.0,1.0,1.0,1.0,1.0,,47,43,21,15,24,20,42,30,48,34,6,36,0,28,44,26,49,7,13,38,46,18,9,12,29,17,5,19,40,35,25,45,27,11,1,2,33,10,16,32,14,8,31,41,39,3,23,37,22,4
2.0,0.5,0.5,100,0,0.01,18,RandomEMDetectRandom,20,5900,0.5,0.528,0.508,0.536,0.532,0.528,0.5760000000000001,0.548,0.56,0.5760000000000001,0.6,0.608,0.6000000000000001,0.6200000000000001,0.632,0.636,0.636,0.636,0.656,0.648,0.664,0.668,0.6880000000000001,0.724,0.708,0.728,0.756,0.7520000000000001,0.7520000000000001,0.764,0.776,0.78,0.804,0.812,0.8320000000000001,0.8360000000000001,0.844,0.8720000000000001,0.8800000000000001,0.908,0.9120000000000001,0.9120000000000001,0.9279999999999999,0.9280000000000002,0.9480000000000001,0.9480000000000001,0.952,0.968,0.976,0.9879999999999999,1.0,,28.431353675486072,26.827681611227206,24.708098190685593,25.458355421681713,23.96106985376835,22.95162325195778,21.645807783607808,20.775523732884665,22.708774596317863,21.806249327406753,21.787913049957446,21.21688048551039,20.562191611654846,19.861153594875233,18.69219205203472,17.623173890378773,18.01683933101952,17.346011463558888,16.78484758698723,15.982803235848365,15.384929250973993,14.512973071904886,13.720633481838394,13.304392880162194,13.639719053322768,13.515842091208821,12.803170767436061,12.567606568441732,11.966819822765057,11.43813285108787,10.811993172706206,10.225293692393773,9.816115884664729,9.136937746263841,8.368173284637713,7.669562838227374,6.9181259328847275,6.54501613847537,6.409700382041133,5.884661174500365,5.28739604690324,4.659834959264467,4.016913136092894,3.6710843356138563,3.234928872398959,2.598476874048498,1.9740799565087932,1.4363182340668423,1.0086041501330256,0.5375725279234357,0.0,,0.9,0.9,0.9,0.9,0.9,0.9,0.9,0.9,0.9,0.9,0.9,0.9,0.9,0.9,0.9,0.9,0.9,0.9,0.9,0.9,0.9,0.9,0.9,0.9,0.9,0.9,0.9,0.9,0.9,0.9,0.9,0.9,0.9,0.9,0.9,0.9,0.9,0.9,0.9,0.9,0.9,0.9,0.9,0.9,0.9,0.9,0.9,0.9,0.9,0.9,,1.0,1.0,1.0,1.0,1.0,1.0,1.0,1.0,1.0,1.0,1.0,1.0,1.0,1.0,1.0,1.0,1.0,1.0,1.0,1.0,1.0,1.0,1.0,1.0,1.0,1.0,1.0,1.0,1.0,1.0,1.0,1.0,1.0,1.0,1.0,1.0,1.0,1.0,1.0,1.0,1.0,1.0,1.0,1.0,1.0,1.0,1.0,1.0,1.0,1.0,,-1,-1,-1,-1,-1,-1,-1,-1,-1,-1,-1,-1,-1,-1,-1,-1,-1,-1,-1,-1,-1,-1,-1,-1,-1,-1,-1,-1,-1,-1,-1,-1,-1,-1,-1,-1,-1,-1,-1,-1,-1,-1,-1,-1,-1,-1,-1,-1,-1,-1
2.0,0.5,0.5,100,0,0.01,18,IGEMRandomSequence,20,351703,0.5,0.48,0.46,0.54,0.52,0.56,0.66,0.64,0.66,0.62,0.64,0.68,0.7,0.7,0.7,0.7,0.74,0.74,0.74,0.74,0.76,0.78,0.78,0.78,0.78,0.8,0.82,0.82,0.82,0.82,0.84,0.84,0.84,0.84,0.84,0.86,0.86,0.86,0.86,0.86,0.86,0.88,0.9,0.92,0.92,0.94,0.96,0.96,0.96,0.98,1.0,,28.431353675486072,25.070728717305066,26.186800013637335,26.685974723358346,24.049174787023258,24.22297425257416,23.743701895446648,22.184942803064224,20.746292349120267,19.36312729892964,17.718528512367346,16.347867614395362,15.340960542847085,13.859950184282267,12.748773691845209,12.441040265801814,11.200741371481053,9.450464090413323,8.503931666897639,7.505720601989878,7.173656910879194,7.876703550048091,6.43902113445525,5.86629978743771,5.074227887616608,5.483698804093521,6.305591724617919,4.977237421914776,3.983460769649083,3.46394062286122,3.5678576405526052,2.905201091090332,2.4802460202106165,2.10099471366317,1.7838216159817513,1.9022041971721932,1.6448513080827385,1.3838288649886992,1.1731226946649156,0.9824942586737953,0.8162194501750281,1.009682129929913,1.1911487278276662,1.213516354047406,0.7980377755534322,0.7153946868598718,0.60097605368745,0.38021562086299376,0.22990161177701848,0.111625206942883,0.0,,0.9,0.9,0.9,0.9,0.9,0.9,0.9,0.9,0.9,0.9,0.9,0.9,0.9,0.9,0.9,0.9,0.9,0.9,0.9,0.9,0.9,0.9,0.9,0.9,0.9,0.9,0.9,0.9,0.9,0.9,0.9,0.9,0.9,0.9,0.9,0.9,0.9,0.9,0.9,0.9,0.9,0.9,0.9,0.9,0.9,0.9,0.9,0.9,0.9,0.9,,1.0,1.0,1.0,1.0,1.0,1.0,1.0,1.0,1.0,1.0,1.0,1.0,1.0,1.0,1.0,1.0,1.0,1.0,1.0,1.0,1.0,1.0,1.0,1.0,1.0,1.0,1.0,1.0,1.0,1.0,1.0,1.0,1.0,1.0,1.0,1.0,1.0,1.0,1.0,1.0,1.0,1.0,1.0,1.0,1.0,1.0,1.0,1.0,1.0,1.0,,29,30,18,4,2,36,46,7,40,9,34,43,26,17,45,41,1,11,14,15,20,5,25,37,44,0,27,13,12,39,3,35,8,22,32,33,49,16,21,47,19,42,38,6,24,48,10,31,23,28
2.0,0.5,0.5,100,0,0.01,19,RandomEMDetectRandom,20,6148,0.56,0.552,0.512,0.512,0.532,0.54,0.552,0.524,0.544,0.5640000000000001,0.584,0.636,0.648,0.664,0.6599999999999999,0.6880000000000001,0.66,0.7000000000000001,0.7280000000000001,0.728,0.748,0.772,0.772,0.78,0.772,0.7759999999999999,0.784,0.7839999999999999,0.7919999999999999,0.788,0.792,0.8039999999999999,0.8240000000000001,0.8240000000000001,0.8200000000000001,0.8320000000000001,0.86,0.8720000000000001,0.8720000000000001,0.884,0.8880000000000001,0.9040000000000001,0.9120000000000001,0.924,0.932,0.9359999999999999,0.944,0.96,0.9719999999999999,0.984,1.0,,23.885036909381927,23.37285967728308,22.804114480317587,23.02334930937076,21.934969338947326,21.253530953528376,21.582659406370986,20.32302353918658,18.95221845507003,18.65022603174141,17.00884239763034,17.999888007423415,18.069104483553765,18.07835560187004,18.038942848291253,18.36293931350811,17.964395004764818,17.127848617933306,16.55781690151786,15.37031427539568,15.157177238869526,14.565486033483916,14.286795850612027,13.467246871528673,12.239965518832175,11.6802110818659,11.208116223532468,10.291446685906124,9.590666475038862,8.716394503471173,8.375942326139144,8.20551084166252,7.790741026220407,7.831291830440859,7.395922837821525,6.708041641246124,6.2680740346602795,5.7525680846044285,5.163751178066974,4.639290741226174,4.111912816865454,3.470945998798656,2.988395342863406,2.722835280584416,2.498934087414127,2.041621045665017,1.7399004072731135,1.398577330015854,1.0930814644089526,0.5416286834273303,0.0,,0.85,0.85,0.85,0.85,0.85,0.85,0.85,0.85,0.85,0.85,0.85,0.85,0.85,0.85,0.85,0.85,0.85,0.85,0.85,0.85,0.85,0.85,0.85,0.85,0.85,0.85,0.85,0.85,0.85,0.85,0.85,0.85,0.85,0.85,0.85,0.85,0.85,0.85,0.85,0.85,0.85,0.85,0.85,0.85,0.85,0.85,0.85,0.85,0.85,0.85,,1.0,1.0,1.0,1.0,1.0,1.0,1.0,1.0,1.0,1.0,1.0,1.0,1.0,1.0,1.0,1.0,1.0,1.0,1.0,1.0,1.0,1.0,1.0,1.0,1.0,1.0,1.0,1.0,1.0,1.0,1.0,1.0,1.0,1.0,1.0,1.0,1.0,1.0,1.0,1.0,1.0,1.0,1.0,1.0,1.0,1.0,1.0,1.0,1.0,1.0,,-1,-1,-1,-1,-1,-1,-1,-1,-1,-1,-1,-1,-1,-1,-1,-1,-1,-1,-1,-1,-1,-1,-1,-1,-1,-1,-1,-1,-1,-1,-1,-1,-1,-1,-1,-1,-1,-1,-1,-1,-1,-1,-1,-1,-1,-1,-1,-1,-1,-1
2.0,0.5,0.5,100,0,0.01,19,IGEMRandomSequence,20,334582,0.56,0.56,0.56,0.56,0.52,0.54,0.56,0.56,0.54,0.56,0.58,0.58,0.58,0.62,0.62,0.62,0.64,0.64,0.66,0.68,0.7,0.72,0.72,0.74,0.76,0.78,0.78,0.8,0.82,0.84,0.86,0.86,0.86,0.86,0.88,0.9,0.9,0.9,0.9,0.9,0.9,0.92,0.94,0.96,0.96,0.98,1.0,1.0,1.0,1.0,1.0,,23.885036909381927,22.038149158067284,20.13363490493425,18.542408714136034,17.06889939905298,15.768558810327779,15.211292919052722,13.95793506998698,13.260510631697752,12.320142655545796,11.748996949300345,10.44947030657524,9.418878811172657,9.011073109623373,7.912390520729713,6.909231663909006,6.933562644857983,5.728210041724967,5.164079489116015,4.75147198814235,4.070110906068777,3.9733029738834125,3.0788654594518228,2.667892748306578,3.5567907306253304,3.4193426195699277,2.964300099337423,3.9339637430256658,4.6063321049204635,4.612301277970547,4.195821105804512,3.3934581839179176,2.699604547440362,2.3220007487615937,2.856168209645287,3.6163970275412494,2.901068472690372,2.3339711057124113,1.8213774055268492,1.4641735105045877,1.122723421816384,0.9487805783827896,1.0340482065041563,1.2017980881140107,0.9131991464952537,1.0829483646634868,0.9050487678388869,0.5323301351507439,0.3367135246864249,0.15478638848707948,0.0,,0.85,0.85,0.85,0.85,0.85,0.85,0.85,0.85,0.85,0.85,0.85,0.85,0.85,0.85,0.85,0.85,0.85,0.85,0.85,0.85,0.85,0.85,0.85,0.85,0.85,0.85,0.85,0.85,0.85,0.85,0.85,0.85,0.85,0.85,0.85,0.85,0.85,0.85,0.85,0.85,0.85,0.85,0.85,0.85,0.85,0.85,0.85,0.85,0.85,0.85,,1.0,1.0,1.0,1.0,1.0,1.0,1.0,1.0,1.0,1.0,1.0,1.0,1.0,1.0,1.0,1.0,1.0,1.0,1.0,1.0,1.0,1.0,1.0,1.0,1.0,1.0,1.0,1.0,1.0,1.0,1.0,1.0,1.0,1.0,1.0,1.0,1.0,1.0,1.0,1.0,1.0,1.0,1.0,1.0,1.0,1.0,1.0,1.0,1.0,1.0,,18,16,4,19,36,35,15,38,1,37,21,26,6,30,34,28,22,39,20,43,25,32,14,8,33,29,5,10,31,17,27,3,11,9,41,49,24,2,48,44,0,23,40,12,42,7,46,47,45,13
