0	0	0
1	0	0
2	0	0
3	0	0
4	0	0
5	0	0
6	0	1
7	0	1
8	0	0
9	0	1
10	1	0
11	1	0
12	1	0
3	1	0
13	1	0
1	1	0
7	1	1
6	1	1
9	1	1
14	1	0
10	2	1
11	2	1
12	2	1
3	2	0
13	2	1
1	2	1
7	2	1
6	2	1
9	2	1
14	2	1
11	3	1
3	3	0
15	3	1
1	3	1
13	3	1
16	3	1
17	3	1
7	3	1
6	3	1
9	3	1
18	4	0
1	4	0
19	4	0
3	4	0
16	4	0
15	4	0
7	4	1
20	4	0
6	4	1
9	4	1
21	5	0
3	5	0
22	5	0
10	5	1
13	5	0
23	5	0
17	5	0
7	5	1
6	5	1
9	5	0
18	6	1
24	6	1
11	6	1
19	6	1
1	6	1
3	6	0
10	6	1
13	6	1
6	6	1
7	6	1
18	7	1
24	7	1
11	7	1
19	7	1
1	7	1
3	7	0
10	7	1
13	7	1
6	7	1
7	7	1
10	8	0
18	8	0
11	8	0
1	8	0
3	8	0
13	8	0
25	8	0
7	8	1
6	8	1
9	8	0
10	9	0
18	9	0
11	9	0
1	9	0
3	9	0
13	9	0
25	9	0
7	9	1
6	9	1
9	9	0
10	10	0
18	10	0
11	10	0
1	10	0
3	10	0
13	10	0
25	10	0
7	10	1
6	10	1
9	10	1
11	11	1
21	11	1
1	11	1
26	11	1
27	11	1
3	11	0
9	11	0
13	11	1
7	11	1
6	11	1
18	12	1
10	12	1
11	12	1
1	12	1
19	12	1
3	12	0
13	12	1
6	12	1
7	12	1
9	12	1
18	13	1
1	13	0
19	13	0
3	13	0
16	13	0
15	13	0
7	13	1
20	13	0
6	13	1
9	13	1
11	14	1
3	14	0
22	14	1
13	14	1
1	14	1
6	14	1
7	14	1
8	14	0
9	14	0
28	14	1
12	15	0
21	15	1
11	15	1
1	15	1
3	15	0
29	15	1
13	15	1
6	15	1
7	15	1
9	15	1
12	16	1
21	16	1
11	16	1
1	16	1
3	16	0
29	16	1
13	16	1
6	16	1
7	16	1
9	16	1
11	17	1
12	17	1
18	17	1
1	17	1
3	17	0
13	17	0
7	17	1
6	17	1
9	17	1
8	17	0
30	18	0
1	18	0
3	18	0
13	18	0
23	18	0
5	18	1
31	18	0
6	18	1
9	18	1
7	18	1
30	19	1
1	19	1
3	19	0
13	19	1
23	19	1
5	19	1
31	19	1
6	19	1
9	19	1
7	19	1
0	20	0
1	20	0
2	20	0
3	20	0
4	20	0
5	20	0
6	20	1
7	20	1
8	20	0
9	20	1
21	21	0
3	21	0
22	21	0
10	21	0
13	21	0
23	21	0
17	21	1
7	21	1
6	21	1
9	21	0
11	22	0
3	22	0
32	22	0
16	22	0
13	22	0
1	22	0
6	22	1
8	22	0
9	22	1
7	22	1
1	23	0
33	23	0
19	23	0
3	23	0
13	23	0
34	23	0
7	23	1
6	23	1
9	23	1
11	23	0
35	24	1
11	24	1
27	24	1
3	24	0
22	24	1
13	24	1
1	24	1
7	24	1
6	24	1
9	24	1
0	25	1
1	25	1
2	25	1
3	25	0
4	25	1
5	25	1
6	25	1
7	25	1
8	25	0
9	25	1
0	26	1
1	26	1
2	26	1
3	26	0
4	26	1
5	26	1
6	26	1
7	26	1
8	26	0
9	26	1
1	27	1
11	27	1
3	27	0
36	27	0
22	27	1
13	27	1
23	27	1
7	27	1
6	27	1
9	27	1
11	28	0
3	28	0
22	28	0
13	28	0
1	28	0
6	28	1
7	28	1
8	28	0
9	28	1
28	28	0
24	29	0
11	29	1
12	29	1
1	29	1
3	29	0
13	29	1
6	29	1
9	29	1
8	29	0
7	29	1
11	30	0
21	30	0
1	30	0
26	30	0
27	30	0
3	30	0
9	30	1
13	30	0
7	30	1
6	30	1
10	31	0
11	31	0
12	31	0
3	31	0
13	31	0
1	31	0
7	31	1
6	31	1
9	31	1
14	31	0
37	32	0
3	32	0
22	32	0
38	32	0
39	32	0
7	32	1
6	32	1
8	32	0
9	32	1
14	32	0
11	33	0
12	33	0
18	33	0
1	33	0
3	33	0
13	33	0
7	33	1
6	33	1
9	33	1
8	33	0
0	34	0
1	34	0
2	34	0
3	34	0
4	34	0
5	34	0
6	34	1
7	34	1
8	34	0
9	34	1
18	35	1
1	35	0
19	35	1
3	35	0
16	35	0
15	35	1
7	35	1
20	35	0
6	35	1
9	35	1
19	36	0
3	36	0
22	36	0
13	36	0
1	36	0
40	36	1
25	36	0
7	36	1
6	36	1
9	36	1
12	37	1
21	37	0
11	37	1
1	37	0
3	37	0
29	37	0
13	37	1
6	37	1
7	37	1
9	37	1
11	38	0
3	38	0
32	38	1
16	38	1
13	38	1
1	38	0
6	38	0
8	38	0
9	38	1
7	38	1
30	39	0
1	39	0
3	39	0
13	39	0
23	39	0
5	39	0
31	39	0
6	39	1
9	39	0
7	39	1
18	40	0
10	40	0
11	40	0
1	40	0
19	40	0
3	40	0
13	40	0
6	40	1
7	40	1
9	40	0
18	41	0
1	41	0
19	41	0
3	41	0
16	41	0
15	41	0
7	41	1
20	41	1
6	41	1
9	41	1
37	42	0
3	42	0
22	42	0
38	42	0
39	42	0
7	42	1
6	42	1
8	42	0
9	42	1
14	42	0
11	43	0
41	43	0
3	43	0
1	43	0
38	43	0
7	43	1
9	43	1
13	43	0
5	43	0
6	43	1
3	44	0
15	44	0
42	44	0
16	44	0
13	44	0
40	44	0
7	44	1
6	44	1
14	44	0
9	44	1
1	45	0
19	45	0
3	45	0
43	45	0
13	45	0
5	45	0
7	45	1
6	45	1
28	45	0
9	45	1
27	46	1
28	46	1
9	46	1
3	46	0
41	46	1
44	46	1
13	46	1
45	46	1
6	46	1
7	46	1
18	47	0
24	47	0
11	47	0
19	47	0
1	47	0
3	47	0
10	47	0
13	47	0
6	47	1
7	47	1
27	48	0
28	48	0
9	48	1
3	48	0
41	48	0
44	48	0
13	48	0
45	48	0
6	48	1
7	48	0
27	49	1
28	49	1
9	49	1
3	49	0
41	49	1
44	49	1
13	49	1
45	49	1
6	49	1
7	49	1
27	50	1
28	50	1
9	50	0
3	50	0
41	50	1
44	50	1
13	50	1
45	50	1
6	50	1
7	50	1
27	51	1
28	51	1
9	51	1
3	51	0
41	51	1
44	51	1
13	51	1
45	51	1
6	51	1
7	51	1
1	52	0
13	52	0
32	52	0
25	52	0
46	52	0
7	52	1
6	52	1
47	52	1
48	52	0
9	52	1
11	53	0
49	53	0
7	53	1
3	53	0
1	53	0
31	53	0
13	53	0
50	53	0
6	53	1
9	53	0
8	54	0
40	54	1
42	54	1
13	54	1
17	54	1
5	54	1
46	54	1
7	54	1
6	54	1
9	54	1
1	55	0
51	55	0
3	55	0
22	55	0
52	55	0
13	55	0
15	55	0
7	55	1
6	55	1
9	55	1
1	56	1
11	56	1
3	56	0
36	56	0
22	56	1
13	56	1
23	56	1
7	56	1
6	56	1
9	56	1
3	57	0
22	57	1
23	57	1
13	57	1
1	57	0
53	57	1
6	57	1
9	57	0
28	57	1
7	57	1
3	58	0
54	58	1
55	58	1
23	58	1
13	58	1
1	58	1
46	58	1
7	58	1
6	58	1
9	58	1
11	59	1
49	59	1
7	59	1
3	59	0
1	59	1
31	59	1
13	59	1
50	59	1
6	59	1
9	59	0
30	60	1
1	60	1
3	60	0
13	60	1
23	60	1
5	60	1
31	60	1
6	60	1
9	60	1
7	60	1
1	61	1
19	61	1
3	61	0
43	61	0
13	61	1
5	61	1
7	61	1
6	61	1
28	61	1
9	61	0
11	62	0
3	62	0
22	62	0
13	62	0
1	62	0
6	62	1
7	62	1
8	62	0
9	62	1
28	62	0
11	63	0
3	63	0
22	63	0
13	63	0
1	63	0
6	63	0
7	63	1
8	63	0
9	63	1
28	63	0
11	64	1
3	64	0
22	64	1
13	64	1
1	64	1
6	64	1
7	64	1
8	64	0
9	64	1
28	64	1
11	65	0
3	65	0
22	65	0
13	65	0
1	65	0
6	65	1
7	65	1
8	65	0
9	65	0
28	65	0
11	66	0
3	66	0
22	66	0
13	66	0
1	66	0
6	66	1
7	66	1
8	66	0
9	66	0
28	66	0
1	67	0
51	67	0
3	67	0
22	67	0
52	67	0
13	67	0
15	67	0
7	67	1
6	67	1
9	67	1
3	68	0
54	68	1
55	68	1
23	68	1
13	68	0
1	68	1
46	68	1
7	68	1
6	68	1
9	68	1
3	69	0
22	69	0
23	69	0
13	69	0
1	69	0
53	69	0
6	69	1
9	69	1
28	69	1
7	69	1
3	70	0
54	70	1
55	70	1
23	70	1
13	70	1
1	70	1
46	70	1
7	70	1
6	70	1
9	70	1
11	71	0
41	71	0
3	71	0
1	71	0
38	71	0
7	71	1
9	71	0
13	71	0
5	71	0
6	71	1
11	72	0
41	72	0
3	72	0
1	72	0
38	72	0
7	72	1
9	72	1
13	72	0
5	72	0
6	72	1
11	73	0
41	73	0
3	73	0
1	73	0
38	73	0
7	73	1
9	73	1
13	73	0
5	73	0
6	73	1
11	74	0
41	74	0
3	74	0
1	74	1
38	74	0
7	74	1
9	74	1
13	74	0
5	74	0
6	74	1
11	75	0
41	75	1
3	75	0
1	75	1
38	75	1
7	75	1
9	75	1
13	75	1
5	75	1
6	75	1
1	76	0
13	76	0
32	76	0
25	76	0
46	76	0
7	76	1
6	76	1
47	76	0
48	76	0
9	76	1
3	77	0
22	77	0
23	77	0
13	77	0
1	77	0
53	77	0
6	77	1
9	77	0
28	77	0
7	77	1
3	78	0
54	78	1
55	78	1
23	78	1
13	78	1
1	78	1
46	78	1
7	78	1
6	78	1
9	78	0
19	79	0
3	79	0
22	79	0
13	79	1
1	79	0
40	79	0
25	79	0
7	79	1
6	79	1
9	79	0
1	80	1
19	80	1
3	80	0
43	80	0
13	80	1
5	80	1
7	80	1
6	80	1
28	80	1
9	80	0
3	81	0
22	81	1
23	81	1
13	81	1
1	81	1
53	81	1
6	81	0
9	81	1
28	81	1
7	81	1
3	82	0
22	82	1
23	82	1
13	82	1
1	82	0
53	82	1
6	82	1
9	82	1
28	82	1
7	82	1
18	83	1
11	83	1
3	83	0
56	83	1
13	83	1
1	83	1
5	83	1
7	83	1
6	83	1
8	83	0
1	84	0
11	84	0
3	84	0
36	84	0
22	84	0
13	84	0
23	84	0
7	84	1
6	84	1
9	84	1
1	85	1
51	85	1
3	85	0
22	85	1
52	85	1
13	85	1
15	85	1
7	85	1
6	85	1
9	85	1
12	86	0
21	86	0
11	86	0
1	86	0
3	86	0
29	86	0
13	86	0
6	86	1
7	86	1
9	86	1
11	87	0
41	87	0
3	87	0
1	87	0
38	87	0
7	87	1
9	87	1
13	87	1
5	87	0
6	87	1
30	88	0
53	88	0
57	88	0
13	88	0
6	88	1
5	88	0
40	88	0
1	88	0
7	88	1
9	88	1
1	89	0
19	89	0
3	89	0
58	89	0
5	89	0
53	89	0
6	89	1
8	89	0
9	89	1
7	89	1
1	90	1
19	90	1
3	90	0
58	90	1
5	90	1
53	90	1
6	90	1
8	90	0
9	90	0
7	90	1
10	91	1
11	91	1
12	91	1
3	91	0
13	91	1
1	91	1
7	91	1
6	91	1
9	91	1
14	91	1
24	92	0
1	92	0
13	92	0
23	92	0
5	92	0
59	92	0
20	92	0
6	92	1
7	92	1
9	92	1
11	93	0
21	93	0
1	93	0
26	93	0
27	93	0
3	93	0
9	93	1
13	93	0
7	93	1
6	93	1
3	94	0
22	94	0
23	94	0
13	94	0
1	94	0
53	94	0
6	94	1
9	94	0
28	94	0
7	94	1
10	95	0
11	95	0
12	95	0
3	95	0
13	95	0
1	95	0
7	95	1
6	95	1
9	95	1
14	95	0
11	96	1
3	96	0
15	96	0
1	96	0
13	96	1
16	96	1
17	96	0
7	96	1
6	96	1
9	96	1
32	97	0
38	97	0
6	97	1
13	97	0
40	97	0
5	97	0
60	97	0
7	97	1
8	97	0
9	97	1
1	98	1
13	98	1
32	98	1
25	98	1
46	98	1
7	98	1
6	98	1
47	98	1
48	98	1
9	98	1
1	99	0
13	99	0
32	99	0
25	99	0
46	99	0
7	99	1
6	99	1
47	99	1
48	99	0
9	99	1
1	100	0
13	100	0
32	100	0
25	100	0
46	100	0
7	100	1
6	100	1
47	100	0
48	100	0
9	100	1
11	101	0
49	101	0
7	101	1
3	101	0
1	101	0
31	101	0
13	101	0
50	101	0
6	101	1
9	101	1
1	102	0
11	102	0
3	102	0
36	102	0
22	102	0
13	102	0
23	102	0
7	102	1
6	102	1
9	102	1
1	103	0
13	103	0
32	103	0
25	103	0
46	103	0
7	103	1
6	103	1
47	103	0
48	103	0
9	103	1
3	104	0
15	104	1
42	104	0
16	104	1
13	104	0
40	104	1
7	104	1
6	104	1
14	104	1
9	104	0
11	105	1
12	105	1
18	105	1
1	105	1
3	105	0
13	105	1
7	105	1
6	105	1
9	105	1
8	105	0
10	106	1
11	106	1
12	106	1
3	106	0
13	106	1
1	106	1
7	106	1
6	106	1
9	106	0
14	106	1
11	107	1
49	107	1
7	107	1
3	107	0
1	107	1
31	107	1
13	107	1
50	107	1
6	107	1
9	107	1
18	108	0
11	108	0
3	108	0
56	108	0
13	108	0
1	108	0
5	108	0
7	108	1
6	108	1
8	108	0
11	109	1
49	109	1
7	109	1
3	109	0
1	109	1
31	109	1
13	109	1
50	109	1
6	109	1
9	109	1
11	110	0
49	110	0
7	110	1
3	110	0
1	110	0
31	110	0
13	110	1
50	110	1
6	110	1
9	110	1
11	111	1
12	111	1
18	111	1
1	111	1
3	111	0
13	111	1
7	111	1
6	111	1
9	111	1
8	111	0
11	112	1
49	112	1
7	112	1
3	112	0
1	112	1
31	112	1
13	112	1
50	112	1
6	112	1
9	112	1
61	113	1
5	113	1
1	113	1
25	113	1
46	113	1
6	113	1
8	113	0
7	113	1
9	113	1
28	113	1
0	114	0
1	114	0
2	114	0
3	114	0
4	114	0
5	114	0
6	114	1
7	114	1
8	114	0
9	114	1
1	115	0
11	115	0
3	115	0
36	115	0
22	115	0
13	115	0
23	115	0
7	115	1
6	115	1
9	115	1
18	116	0
10	116	0
1	116	0
11	116	0
3	116	0
13	116	0
15	116	0
7	116	1
6	116	1
9	116	1
18	117	0
11	117	0
3	117	0
56	117	0
13	117	0
1	117	0
5	117	0
7	117	1
6	117	1
8	117	0
3	118	0
22	118	1
23	118	1
13	118	1
1	118	1
53	118	1
6	118	0
9	118	1
28	118	1
7	118	0
61	119	0
5	119	0
1	119	0
25	119	0
46	119	0
6	119	0
8	119	0
7	119	1
9	119	1
28	119	0
61	120	0
5	120	0
1	120	0
25	120	0
46	120	0
6	120	1
8	120	0
7	120	1
9	120	1
28	120	0
11	121	1
41	121	1
3	121	0
1	121	1
38	121	1
7	121	1
9	121	1
13	121	1
5	121	1
6	121	1
38	122	0
13	122	0
62	122	0
63	122	0
5	122	1
6	122	1
64	122	1
28	122	0
7	122	1
9	122	1
3	123	0
55	123	1
38	123	1
65	123	1
13	123	1
5	123	1
7	123	1
6	123	1
28	123	1
9	123	1
19	124	1
3	124	0
22	124	1
13	124	1
1	124	1
40	124	1
25	124	1
7	124	1
6	124	1
9	124	0
1	125	0
19	125	0
3	125	0
58	125	0
5	125	0
53	125	0
6	125	1
8	125	0
9	125	1
7	125	1
1	126	0
19	126	0
3	126	0
58	126	0
5	126	0
53	126	0
6	126	1
8	126	0
9	126	0
7	126	1
61	127	0
5	127	0
1	127	0
25	127	0
46	127	0
6	127	0
8	127	0
7	127	1
9	127	0
28	127	0
40	128	1
66	128	1
5	128	0
53	128	1
67	128	1
68	128	0
6	128	1
14	128	1
7	128	1
9	128	1
38	129	0
13	129	0
62	129	0
63	129	0
5	129	0
6	129	1
64	129	0
28	129	0
7	129	1
9	129	1
18	130	0
24	130	0
11	130	0
19	130	0
1	130	0
3	130	0
10	130	0
13	130	0
6	130	1
7	130	0
3	131	0
54	131	1
55	131	1
23	131	1
13	131	1
1	131	1
46	131	1
7	131	1
6	131	1
9	131	1
38	132	0
13	132	0
62	132	0
63	132	0
5	132	0
6	132	1
64	132	0
28	132	0
7	132	1
9	132	1
30	133	0
53	133	0
57	133	0
13	133	0
6	133	1
5	133	0
40	133	0
1	133	0
7	133	1
9	133	1
30	134	0
53	134	0
57	134	0
13	134	0
6	134	1
5	134	0
40	134	1
1	134	0
7	134	1
9	134	1
30	135	0
53	135	0
57	135	0
13	135	0
6	135	1
5	135	0
40	135	0
1	135	0
7	135	1
9	135	0
30	136	1
53	136	1
57	136	0
13	136	1
6	136	1
5	136	1
40	136	1
1	136	1
7	136	1
9	136	0
30	137	1
53	137	1
57	137	0
13	137	1
6	137	1
5	137	1
40	137	1
1	137	1
7	137	1
9	137	1
30	138	1
53	138	1
57	138	0
13	138	1
6	138	0
5	138	1
40	138	0
1	138	1
7	138	1
9	138	0
19	139	0
3	139	0
22	139	0
13	139	0
1	139	0
40	139	0
25	139	0
7	139	1
6	139	1
9	139	0
10	140	1
18	140	1
11	140	1
1	140	1
3	140	0
13	140	1
25	140	1
7	140	1
6	140	1
9	140	1
10	141	0
18	141	0
11	141	0
1	141	0
3	141	0
13	141	0
25	141	0
7	141	1
6	141	1
9	141	1
18	142	1
11	142	1
3	142	0
56	142	1
13	142	1
1	142	1
5	142	1
7	142	1
6	142	1
8	142	0
1	143	1
11	143	1
3	143	0
36	143	0
22	143	1
13	143	1
23	143	1
7	143	1
6	143	1
9	143	1
1	144	0
13	144	0
32	144	0
25	144	0
46	144	0
7	144	1
6	144	1
47	144	0
48	144	0
9	144	1
12	145	0
21	145	0
11	145	0
1	145	0
3	145	0
29	145	1
13	145	1
6	145	1
7	145	1
9	145	1
18	146	1
1	146	1
19	146	1
3	146	0
16	146	1
15	146	1
7	146	1
20	146	1
6	146	1
9	146	1
18	147	0
1	147	0
19	147	0
3	147	0
16	147	0
15	147	0
7	147	1
20	147	1
6	147	1
9	147	1
1	148	1
51	148	1
3	148	0
22	148	1
52	148	1
13	148	1
15	148	1
7	148	1
6	148	1
9	148	1
11	149	0
49	149	0
3	149	0
1	149	0
13	149	0
5	149	0
7	149	1
6	149	1
9	149	1
8	149	0
32	150	0
38	150	0
6	150	1
13	150	0
40	150	1
5	150	0
60	150	0
7	150	1
8	150	0
9	150	1
1	151	0
19	151	1
3	151	0
13	151	0
69	151	0
5	151	0
6	151	1
14	151	0
9	151	1
28	151	1
1	152	0
19	152	0
3	152	0
13	152	0
69	152	0
5	152	0
6	152	0
14	152	0
9	152	1
28	152	0
12	153	0
21	153	0
11	153	0
1	153	0
3	153	0
29	153	0
13	153	0
6	153	1
7	153	1
9	153	1
18	154	0
10	154	0
1	154	0
11	154	0
3	154	0
13	154	0
15	154	0
7	154	1
6	154	1
9	154	1
16	155	0
23	155	0
13	155	0
5	155	0
25	155	0
70	155	0
20	155	0
6	155	1
9	155	1
7	155	1
16	156	1
23	156	0
13	156	1
5	156	1
25	156	1
70	156	1
20	156	1
6	156	1
9	156	1
7	156	1
32	157	1
38	157	1
6	157	1
13	157	1
40	157	0
5	157	1
60	157	0
7	157	1
8	157	0
9	157	1
3	158	0
54	158	1
55	158	1
23	158	1
13	158	1
1	158	1
46	158	1
7	158	1
6	158	1
9	158	0
10	159	1
18	159	0
11	159	0
1	159	0
3	159	0
13	159	1
25	159	0
7	159	1
6	159	0
9	159	0
11	160	0
21	160	0
1	160	0
26	160	0
27	160	0
3	160	0
9	160	1
13	160	0
7	160	1
6	160	1
71	161	0
13	161	0
72	161	0
73	161	1
74	161	0
6	161	1
8	161	0
7	161	1
9	161	1
14	161	1
18	162	1
10	162	1
1	162	1
11	162	1
3	162	0
13	162	1
15	162	1
7	162	1
6	162	1
9	162	1
12	163	1
21	163	1
11	163	1
1	163	1
3	163	0
29	163	1
13	163	1
6	163	1
7	163	1
9	163	1
24	164	0
1	164	0
13	164	0
23	164	0
5	164	0
59	164	0
20	164	0
6	164	1
7	164	1
9	164	1
21	165	0
3	165	0
22	165	0
10	165	0
13	165	0
23	165	0
17	165	0
7	165	1
6	165	1
9	165	1
21	166	0
3	166	0
22	166	0
10	166	0
13	166	0
23	166	0
17	166	1
7	166	1
6	166	1
9	166	0
18	167	1
11	167	1
3	167	0
56	167	1
13	167	1
1	167	1
5	167	1
7	167	1
6	167	1
8	167	0
18	168	0
24	168	0
11	168	0
19	168	0
1	168	0
3	168	0
10	168	0
13	168	0
6	168	1
7	168	1
19	169	1
3	169	0
22	169	1
13	169	1
1	169	1
40	169	1
25	169	1
7	169	1
6	169	1
9	169	1
1	170	1
19	170	1
3	170	0
43	170	0
13	170	1
5	170	1
7	170	1
6	170	1
28	170	1
9	170	0
24	171	0
11	171	1
12	171	1
1	171	1
3	171	0
13	171	1
6	171	1
9	171	1
8	171	0
7	171	1
3	172	0
54	172	1
55	172	1
23	172	1
13	172	0
1	172	1
46	172	1
7	172	1
6	172	1
9	172	0
1	173	0
13	173	0
32	173	0
25	173	0
46	173	0
7	173	1
6	173	1
47	173	0
48	173	0
9	173	1
11	174	0
49	174	0
3	174	0
1	174	0
13	174	0
5	174	0
7	174	1
6	174	1
9	174	0
8	174	0
11	175	1
49	175	0
3	175	0
1	175	0
13	175	0
5	175	1
7	175	1
6	175	1
9	175	0
8	175	0
3	176	0
55	176	1
38	176	1
65	176	1
13	176	1
5	176	1
7	176	1
6	176	1
28	176	1
9	176	1
1	177	1
19	177	1
3	177	0
13	177	1
69	177	0
5	177	1
6	177	1
14	177	1
9	177	1
28	177	1
1	178	1
19	178	1
3	178	0
13	178	1
69	178	1
5	178	1
6	178	1
14	178	0
9	178	1
28	178	1
1	179	1
19	179	1
3	179	0
13	179	1
69	179	1
5	179	1
6	179	1
14	179	1
9	179	1
28	179	1
24	180	0
11	180	0
12	180	0
1	180	0
3	180	0
13	180	0
6	180	1
9	180	1
8	180	0
7	180	1
11	181	0
3	181	0
22	181	0
13	181	0
1	181	0
6	181	1
7	181	1
8	181	0
9	181	1
28	181	0
11	182	0
3	182	0
22	182	1
13	182	0
1	182	0
6	182	1
7	182	1
8	182	0
9	182	0
28	182	0
3	183	0
15	183	0
42	183	0
16	183	0
13	183	0
40	183	0
7	183	1
6	183	0
14	183	0
9	183	1
1	184	0
13	184	0
32	184	0
25	184	0
46	184	1
7	184	1
6	184	1
47	184	1
48	184	0
9	184	1
18	185	0
10	185	0
1	185	0
11	185	0
3	185	0
13	185	0
15	185	0
7	185	1
6	185	1
9	185	1
18	186	1
10	186	1
1	186	1
11	186	1
3	186	0
13	186	1
15	186	1
7	186	1
6	186	1
9	186	1
11	187	0
3	187	0
32	187	0
16	187	0
13	187	0
1	187	0
6	187	1
8	187	0
9	187	0
7	187	1
11	188	0
3	188	0
32	188	0
16	188	0
13	188	0
1	188	0
6	188	1
8	188	0
9	188	0
7	188	1
11	189	0
21	189	0
1	189	0
26	189	0
27	189	0
3	189	0
9	189	1
13	189	1
7	189	1
6	189	0
40	190	0
66	190	0
5	190	0
53	190	0
67	190	0
68	190	0
6	190	0
14	190	0
7	190	0
9	190	1
40	191	0
66	191	0
5	191	0
53	191	0
67	191	0
68	191	0
6	191	1
14	191	0
7	191	1
9	191	1
40	192	1
66	192	1
5	192	1
53	192	1
67	192	1
68	192	1
6	192	1
14	192	1
7	192	1
9	192	0
40	193	0
66	193	0
5	193	0
53	193	1
67	193	0
68	193	0
6	193	1
14	193	0
7	193	1
9	193	1
40	194	0
66	194	0
5	194	0
53	194	0
67	194	0
68	194	0
6	194	1
14	194	0
7	194	1
9	194	1
40	195	0
66	195	0
5	195	0
53	195	0
67	195	0
68	195	1
6	195	1
14	195	0
7	195	1
9	195	0
40	196	1
66	196	1
5	196	1
53	196	1
67	196	1
68	196	0
6	196	1
14	196	1
7	196	1
9	196	1
40	197	1
66	197	1
5	197	1
53	197	1
67	197	1
68	197	1
6	197	1
14	197	1
7	197	1
9	197	0
40	198	1
66	198	1
5	198	0
53	198	1
67	198	1
68	198	1
6	198	1
14	198	1
7	198	1
9	198	1
1	199	1
11	199	1
3	199	0
36	199	0
22	199	1
13	199	1
23	199	1
7	199	1
6	199	1
9	199	1
37	200	0
3	200	0
22	200	1
38	200	1
39	200	1
7	200	1
6	200	1
8	200	0
9	200	1
14	200	1
37	201	0
3	201	0
22	201	0
38	201	0
39	201	0
7	201	1
6	201	1
8	201	0
9	201	1
14	201	0
37	202	0
3	202	0
22	202	0
38	202	0
39	202	0
7	202	1
6	202	1
8	202	0
9	202	1
14	202	0
37	203	0
3	203	0
22	203	0
38	203	0
39	203	0
7	203	1
6	203	0
8	203	0
9	203	1
14	203	0
71	204	0
13	204	0
72	204	0
73	204	0
74	204	1
6	204	1
8	204	0
7	204	1
9	204	1
14	204	1
71	205	0
13	205	0
72	205	0
73	205	0
74	205	0
6	205	1
8	205	0
7	205	1
9	205	1
14	205	1
71	206	0
13	206	0
72	206	0
73	206	0
74	206	0
6	206	1
8	206	0
7	206	1
9	206	1
14	206	1
71	207	0
13	207	1
72	207	1
73	207	1
74	207	1
6	207	1
8	207	0
7	207	1
9	207	1
14	207	1
71	208	0
13	208	1
72	208	0
73	208	1
74	208	1
6	208	1
8	208	0
7	208	1
9	208	1
14	208	1
71	209	0
13	209	1
72	209	1
73	209	1
74	209	1
6	209	1
8	209	0
7	209	1
9	209	1
14	209	1
3	210	0
55	210	1
38	210	1
65	210	1
13	210	1
5	210	1
7	210	1
6	210	1
28	210	1
9	210	1
3	211	0
55	211	0
38	211	0
65	211	0
13	211	0
5	211	0
7	211	1
6	211	1
28	211	0
9	211	1
1	212	0
19	212	0
3	212	0
43	212	0
13	212	0
5	212	0
7	212	1
6	212	1
28	212	0
9	212	0
16	213	0
23	213	0
13	213	0
5	213	0
25	213	0
70	213	0
20	213	1
6	213	1
9	213	1
7	213	0
16	214	1
23	214	1
13	214	1
5	214	1
25	214	1
70	214	1
20	214	1
6	214	1
9	214	0
7	214	1
1	215	1
19	215	1
3	215	0
58	215	1
5	215	1
53	215	1
6	215	1
8	215	0
9	215	1
7	215	1
1	216	0
19	216	0
3	216	0
58	216	0
5	216	0
53	216	0
6	216	1
8	216	0
9	216	1
7	216	1
1	217	0
19	217	0
3	217	0
58	217	0
5	217	0
53	217	0
6	217	1
8	217	0
9	217	0
7	217	0
1	218	0
19	218	0
3	218	0
58	218	1
5	218	0
53	218	0
6	218	1
8	218	0
9	218	0
7	218	1
1	219	0
19	219	0
3	219	0
43	219	0
13	219	0
5	219	0
7	219	1
6	219	0
28	219	0
9	219	0
1	220	0
19	220	0
3	220	0
43	220	0
13	220	0
5	220	0
7	220	1
6	220	1
28	220	0
9	220	0
3	221	0
55	221	1
38	221	0
65	221	0
13	221	0
5	221	0
7	221	1
6	221	0
28	221	0
9	221	1
3	222	0
55	222	0
38	222	0
65	222	0
13	222	0
5	222	0
7	222	1
6	222	1
28	222	0
9	222	0
3	223	0
55	223	0
38	223	1
65	223	0
13	223	0
5	223	1
7	223	1
6	223	1
28	223	0
9	223	1
3	224	0
55	224	1
38	224	1
65	224	1
13	224	1
5	224	1
7	224	1
6	224	1
28	224	1
9	224	1
3	225	0
55	225	1
38	225	1
65	225	1
13	225	1
5	225	1
7	225	1
6	225	1
28	225	1
9	225	1
3	226	0
55	226	1
38	226	1
65	226	0
13	226	0
5	226	1
7	226	1
6	226	1
28	226	1
9	226	1
11	227	1
41	227	1
3	227	0
1	227	1
38	227	1
7	227	1
9	227	0
13	227	1
5	227	1
6	227	1
11	228	0
41	228	0
3	228	0
1	228	0
38	228	0
7	228	1
9	228	1
13	228	0
5	228	0
6	228	1
35	229	1
11	229	1
27	229	1
3	229	0
22	229	1
13	229	1
1	229	1
7	229	1
6	229	1
9	229	0
35	230	1
11	230	1
27	230	1
3	230	0
22	230	1
13	230	1
1	230	1
7	230	1
6	230	1
9	230	1
35	231	1
11	231	1
27	231	1
3	231	0
22	231	1
13	231	1
1	231	1
7	231	1
6	231	1
9	231	1
35	232	0
11	232	0
27	232	0
3	232	0
22	232	0
13	232	0
1	232	0
7	232	1
6	232	1
9	232	1
35	233	1
11	233	1
27	233	1
3	233	0
22	233	1
13	233	1
1	233	1
7	233	1
6	233	1
9	233	1
35	234	0
11	234	0
27	234	0
3	234	0
22	234	0
13	234	0
1	234	0
7	234	1
6	234	1
9	234	1
35	235	1
11	235	1
27	235	1
3	235	0
22	235	1
13	235	1
1	235	1
7	235	1
6	235	1
9	235	1
35	236	0
11	236	0
27	236	0
3	236	0
22	236	0
13	236	0
1	236	0
7	236	1
6	236	1
9	236	1
35	237	0
11	237	0
27	237	0
3	237	0
22	237	0
13	237	0
1	237	0
7	237	1
6	237	1
9	237	1
11	238	1
12	238	1
18	238	0
1	238	1
3	238	0
13	238	1
7	238	1
6	238	1
9	238	1
8	238	0
11	239	1
12	239	1
18	239	1
1	239	1
3	239	0
13	239	1
7	239	1
6	239	1
9	239	1
8	239	0
11	240	1
12	240	1
18	240	1
1	240	1
3	240	0
13	240	1
7	240	1
6	240	1
9	240	1
8	240	0
11	241	1
12	241	1
18	241	1
1	241	1
3	241	0
13	241	1
7	241	1
6	241	1
9	241	1
8	241	0
11	242	0
12	242	0
18	242	0
1	242	0
3	242	0
13	242	0
7	242	1
6	242	1
9	242	1
8	242	0
11	243	0
12	243	0
18	243	0
1	243	0
3	243	0
13	243	0
7	243	1
6	243	1
9	243	1
8	243	0
32	244	1
38	244	1
6	244	0
13	244	0
40	244	1
5	244	1
60	244	1
7	244	1
8	244	0
9	244	1
32	245	0
38	245	0
6	245	1
13	245	0
40	245	0
5	245	0
60	245	0
7	245	1
8	245	0
9	245	1
32	246	0
38	246	0
6	246	1
13	246	0
40	246	0
5	246	0
60	246	0
7	246	1
8	246	0
9	246	1
1	247	0
19	247	0
3	247	0
43	247	0
13	247	0
5	247	0
7	247	1
6	247	1
28	247	0
9	247	0
1	248	1
19	248	1
3	248	0
43	248	0
13	248	1
5	248	1
7	248	1
6	248	1
28	248	1
9	248	0
71	249	0
13	249	1
72	249	1
73	249	1
74	249	0
6	249	1
8	249	0
7	249	1
9	249	1
14	249	0
71	250	0
13	250	1
72	250	1
73	250	1
74	250	1
6	250	1
8	250	0
7	250	1
9	250	0
14	250	1
71	251	0
13	251	0
72	251	0
73	251	1
74	251	0
6	251	1
8	251	0
7	251	1
9	251	1
14	251	1
11	252	1
21	252	1
1	252	1
26	252	1
27	252	1
3	252	0
9	252	1
13	252	1
7	252	1
6	252	1
11	253	0
21	253	0
1	253	0
26	253	0
27	253	0
3	253	0
9	253	1
13	253	0
7	253	1
6	253	1
11	254	0
21	254	0
1	254	0
26	254	1
27	254	0
3	254	0
9	254	1
13	254	1
7	254	1
6	254	1
11	255	1
21	255	1
1	255	1
26	255	1
27	255	0
3	255	0
9	255	1
13	255	1
7	255	1
6	255	1
11	256	1
21	256	1
1	256	1
26	256	1
27	256	1
3	256	0
9	256	1
13	256	1
7	256	1
6	256	1
11	257	0
49	257	0
3	257	0
1	257	0
13	257	0
5	257	0
7	257	1
6	257	1
9	257	0
8	257	0
11	258	0
49	258	0
3	258	0
1	258	0
13	258	0
5	258	0
7	258	1
6	258	1
9	258	0
8	258	0
11	259	0
49	259	0
3	259	0
1	259	0
13	259	0
5	259	0
7	259	1
6	259	1
9	259	1
8	259	0
37	260	1
3	260	0
22	260	1
38	260	1
39	260	1
7	260	1
6	260	1
8	260	0
9	260	1
14	260	1
37	261	1
3	261	0
22	261	0
38	261	1
39	261	0
7	261	1
6	261	1
8	261	0
9	261	1
14	261	0
1	262	1
11	262	1
3	262	0
36	262	0
22	262	1
13	262	1
23	262	1
7	262	1
6	262	1
9	262	1
1	263	0
11	263	0
3	263	0
36	263	0
22	263	0
13	263	0
23	263	0
7	263	1
6	263	1
9	263	1
18	264	1
24	264	1
11	264	1
19	264	1
1	264	1
3	264	0
10	264	1
13	264	1
6	264	1
7	264	1
18	265	1
24	265	1
11	265	1
19	265	1
1	265	1
3	265	0
10	265	1
13	265	1
6	265	1
7	265	0
18	266	1
24	266	1
11	266	1
19	266	1
1	266	1
3	266	0
10	266	1
13	266	1
6	266	1
7	266	1
10	267	1
18	267	1
11	267	0
1	267	1
3	267	0
13	267	1
25	267	1
7	267	1
6	267	1
9	267	1
10	268	0
18	268	0
11	268	0
1	268	0
3	268	0
13	268	0
25	268	0
7	268	1
6	268	1
9	268	1
10	269	0
18	269	0
11	269	0
1	269	0
3	269	0
13	269	0
25	269	0
7	269	1
6	269	1
9	269	1
10	270	0
18	270	0
11	270	0
1	270	0
3	270	0
13	270	0
25	270	0
7	270	1
6	270	1
9	270	1
30	271	0
1	271	1
3	271	0
13	271	0
23	271	0
5	271	0
31	271	0
6	271	1
9	271	0
7	271	1
30	272	1
1	272	0
3	272	0
13	272	0
23	272	0
5	272	0
31	272	0
6	272	1
9	272	1
7	272	1
38	273	0
13	273	0
62	273	0
63	273	0
5	273	0
6	273	1
64	273	1
28	273	0
7	273	1
9	273	1
11	274	0
3	274	0
32	274	0
16	274	0
13	274	0
1	274	0
6	274	1
8	274	0
9	274	1
7	274	1
11	275	0
3	275	0
32	275	1
16	275	1
13	275	1
1	275	1
6	275	1
8	275	0
9	275	1
7	275	1
18	276	1
11	276	1
3	276	0
56	276	1
13	276	1
1	276	1
5	276	1
7	276	1
6	276	1
8	276	0
18	277	1
11	277	1
3	277	0
56	277	1
13	277	1
1	277	1
5	277	1
7	277	1
6	277	1
8	277	0
18	278	1
11	278	1
3	278	0
56	278	1
13	278	0
1	278	1
5	278	1
7	278	1
6	278	1
8	278	0
11	279	0
49	279	0
7	279	1
3	279	0
1	279	1
31	279	1
13	279	0
50	279	0
6	279	1
9	279	1
10	280	1
11	280	1
12	280	1
3	280	0
13	280	0
1	280	1
7	280	1
6	280	1
9	280	1
14	280	0
19	281	0
3	281	0
22	281	0
13	281	0
1	281	0
40	281	0
25	281	0
7	281	1
6	281	1
9	281	0
24	282	1
11	282	1
12	282	1
1	282	1
3	282	0
13	282	1
6	282	1
9	282	1
8	282	0
7	282	1
21	283	0
3	283	0
22	283	0
10	283	0
13	283	0
23	283	0
17	283	0
7	283	1
6	283	1
9	283	0
19	284	1
3	284	0
22	284	1
13	284	1
1	284	1
40	284	1
25	284	1
7	284	1
6	284	1
9	284	1
21	285	0
3	285	0
22	285	0
10	285	0
13	285	0
23	285	0
17	285	0
7	285	1
6	285	1
9	285	1
1	286	1
49	286	1
3	286	0
22	286	1
13	286	1
5	286	1
6	286	1
8	286	0
9	286	1
7	286	1
32	287	1
38	287	1
6	287	1
13	287	1
40	287	1
5	287	1
60	287	1
7	287	1
8	287	0
9	287	1
19	288	0
3	288	0
22	288	0
13	288	0
1	288	0
40	288	1
25	288	0
7	288	1
6	288	1
9	288	0
18	289	1
10	289	0
1	289	0
11	289	1
3	289	0
13	289	1
15	289	1
7	289	1
6	289	1
9	289	1
24	290	0
1	290	0
13	290	0
23	290	0
5	290	0
59	290	0
20	290	0
6	290	1
7	290	1
9	290	1
19	291	1
3	291	0
22	291	1
13	291	1
1	291	1
40	291	1
25	291	1
7	291	1
6	291	1
9	291	1
1	292	1
13	292	1
32	292	1
25	292	1
46	292	1
7	292	1
6	292	1
47	292	1
48	292	1
9	292	1
30	293	1
53	293	1
57	293	0
13	293	1
6	293	1
5	293	1
40	293	1
1	293	1
7	293	1
9	293	1
16	294	1
23	294	1
13	294	0
5	294	1
25	294	1
70	294	1
20	294	1
6	294	1
9	294	1
7	294	1
1	295	1
19	295	1
3	295	0
58	295	1
5	295	1
53	295	1
6	295	1
8	295	0
9	295	1
7	295	1
10	296	0
11	296	0
12	296	0
3	296	0
13	296	0
1	296	0
7	296	1
6	296	1
9	296	1
14	296	0
21	297	0
3	297	0
22	297	0
10	297	0
13	297	0
23	297	0
17	297	0
7	297	1
6	297	1
9	297	0
21	298	0
3	298	0
22	298	0
10	298	0
13	298	0
23	298	0
17	298	0
7	298	1
6	298	1
9	298	1
18	299	1
11	299	1
3	299	0
56	299	1
13	299	1
1	299	1
5	299	1
7	299	1
6	299	1
8	299	0
11	300	0
49	300	0
3	300	0
1	300	0
13	300	0
5	300	0
7	300	1
6	300	1
9	300	1
8	300	0
19	301	1
3	301	0
22	301	1
13	301	1
1	301	1
40	301	1
25	301	1
7	301	1
6	301	1
9	301	1
1	302	0
19	302	0
3	302	0
43	302	0
13	302	0
5	302	0
7	302	0
6	302	1
28	302	0
9	302	0
3	303	0
54	303	1
55	303	1
23	303	1
13	303	1
1	303	1
46	303	1
7	303	1
6	303	1
9	303	1
32	304	0
38	304	0
6	304	1
13	304	0
40	304	0
5	304	0
60	304	0
7	304	1
8	304	0
9	304	1
32	305	0
38	305	0
6	305	1
13	305	0
40	305	0
5	305	0
60	305	0
7	305	1
8	305	0
9	305	1
32	306	1
38	306	1
6	306	1
13	306	1
40	306	0
5	306	1
60	306	1
7	306	1
8	306	0
9	306	1
1	307	0
19	307	0
3	307	0
13	307	0
69	307	0
5	307	0
6	307	1
14	307	0
9	307	1
28	307	0
10	308	0
11	308	0
12	308	0
3	308	0
13	308	0
1	308	0
7	308	1
6	308	0
9	308	1
14	308	0
24	309	0
1	309	0
13	309	0
23	309	0
5	309	0
59	309	0
20	309	0
6	309	1
7	309	1
9	309	1
21	310	1
3	310	0
22	310	1
10	310	1
13	310	1
23	310	1
17	310	1
7	310	1
6	310	1
9	310	1
1	311	1
49	311	1
3	311	0
22	311	1
13	311	1
5	311	1
6	311	0
8	311	0
9	311	1
7	311	1
38	312	1
13	312	1
62	312	1
63	312	1
5	312	1
6	312	1
64	312	1
28	312	0
7	312	1
9	312	1
30	313	0
1	313	1
3	313	0
13	313	1
23	313	1
5	313	0
31	313	1
6	313	1
9	313	1
7	313	1
11	314	0
49	314	0
3	314	0
1	314	0
13	314	0
5	314	0
7	314	1
6	314	1
9	314	0
8	314	0
11	315	0
49	315	0
3	315	0
1	315	0
13	315	1
5	315	0
7	315	1
6	315	1
9	315	0
8	315	0
11	316	0
49	316	0
3	316	0
1	316	0
13	316	0
5	316	0
7	316	1
6	316	1
9	316	0
8	316	0
1	317	1
11	317	1
3	317	0
36	317	0
22	317	1
13	317	1
23	317	1
7	317	1
6	317	1
9	317	1
18	318	1
10	318	0
11	318	0
1	318	0
19	318	0
3	318	0
13	318	0
6	318	1
7	318	1
9	318	1
18	319	0
10	319	0
11	319	0
1	319	0
19	319	0
3	319	0
13	319	0
6	319	1
7	319	1
9	319	1
18	320	1
10	320	1
11	320	1
1	320	1
19	320	1
3	320	0
13	320	1
6	320	1
7	320	1
9	320	1
18	321	0
10	321	0
11	321	0
1	321	0
19	321	0
3	321	0
13	321	0
6	321	1
7	321	1
9	321	0
18	322	1
10	322	1
11	322	1
1	322	1
19	322	1
3	322	0
13	322	1
6	322	1
7	322	1
9	322	0
18	323	0
10	323	0
11	323	0
1	323	0
19	323	0
3	323	0
13	323	0
6	323	1
7	323	1
9	323	1
18	324	1
10	324	1
11	324	1
1	324	1
19	324	1
3	324	0
13	324	1
6	324	1
7	324	1
9	324	1
18	325	1
10	325	1
11	325	1
1	325	1
19	325	1
3	325	0
13	325	0
6	325	1
7	325	1
9	325	1
11	326	0
3	326	0
32	326	1
16	326	1
13	326	1
1	326	0
6	326	1
8	326	0
9	326	1
7	326	0
11	327	0
3	327	0
32	327	0
16	327	0
13	327	0
1	327	0
6	327	1
8	327	0
9	327	1
7	327	1
11	328	0
3	328	0
32	328	0
16	328	0
13	328	0
1	328	0
6	328	1
8	328	0
9	328	1
7	328	1
11	329	1
3	329	0
32	329	1
16	329	1
13	329	1
1	329	1
6	329	1
8	329	0
9	329	1
7	329	1
3	330	0
15	330	1
42	330	1
16	330	1
13	330	1
40	330	1
7	330	1
6	330	1
14	330	1
9	330	1
3	331	0
15	331	0
42	331	0
16	331	0
13	331	0
40	331	0
7	331	1
6	331	1
14	331	0
9	331	1
3	332	0
15	332	0
42	332	0
16	332	0
13	332	0
40	332	0
7	332	1
6	332	1
14	332	0
9	332	1
3	333	0
15	333	1
42	333	1
16	333	1
13	333	1
40	333	1
7	333	1
6	333	0
14	333	1
9	333	1
3	334	0
15	334	0
42	334	0
16	334	0
13	334	1
40	334	0
7	334	1
6	334	1
14	334	0
9	334	0
0	335	0
1	335	0
2	335	0
3	335	0
4	335	0
5	335	0
6	335	1
7	335	1
8	335	0
9	335	1
0	336	0
1	336	0
2	336	0
3	336	0
4	336	0
5	336	0
6	336	1
7	336	1
8	336	0
9	336	1
0	337	0
1	337	0
2	337	0
3	337	0
4	337	0
5	337	0
6	337	1
7	337	1
8	337	0
9	337	1
0	338	1
1	338	1
2	338	1
3	338	0
4	338	1
5	338	1
6	338	1
7	338	1
8	338	0
9	338	1
24	339	0
11	339	1
12	339	1
1	339	1
3	339	0
13	339	1
6	339	1
9	339	1
8	339	0
7	339	1
24	340	0
11	340	0
12	340	0
1	340	0
3	340	0
13	340	0
6	340	1
9	340	1
8	340	0
7	340	1
16	341	1
23	341	1
13	341	1
5	341	1
25	341	1
70	341	1
20	341	1
6	341	1
9	341	1
7	341	0
16	342	1
23	342	1
13	342	1
5	342	1
25	342	1
70	342	0
20	342	1
6	342	1
9	342	1
7	342	1
24	343	0
1	343	0
13	343	0
23	343	0
5	343	0
59	343	0
20	343	0
6	343	1
7	343	1
9	343	0
24	344	0
1	344	0
13	344	0
23	344	0
5	344	0
59	344	0
20	344	0
6	344	1
7	344	1
9	344	1
18	345	1
1	345	1
19	345	1
3	345	0
16	345	1
15	345	1
7	345	1
20	345	1
6	345	1
9	345	1
18	346	0
1	346	0
19	346	0
3	346	0
16	346	0
15	346	0
7	346	1
20	346	0
6	346	1
9	346	1
3	347	0
22	347	1
23	347	1
13	347	1
1	347	1
53	347	1
6	347	0
9	347	0
28	347	1
7	347	0
3	348	0
22	348	1
23	348	1
13	348	1
1	348	1
53	348	1
6	348	1
9	348	0
28	348	1
7	348	1
1	349	0
49	349	0
3	349	0
22	349	0
13	349	0
5	349	0
6	349	1
8	349	0
9	349	1
7	349	1
11	350	0
49	350	0
7	350	1
3	350	0
1	350	0
31	350	0
13	350	0
50	350	0
6	350	0
9	350	1
1	351	0
33	351	0
19	351	0
3	351	0
13	351	1
34	351	0
7	351	1
6	351	1
9	351	1
11	351	0
1	352	1
33	352	0
19	352	1
3	352	0
13	352	1
34	352	0
7	352	1
6	352	1
9	352	1
11	352	1
1	353	0
33	353	0
19	353	0
3	353	0
13	353	0
34	353	0
7	353	1
6	353	1
9	353	0
11	353	0
1	354	0
33	354	0
19	354	0
3	354	0
13	354	0
34	354	0
7	354	1
6	354	1
9	354	0
11	354	0
1	355	0
33	355	0
19	355	0
3	355	0
13	355	0
34	355	0
7	355	1
6	355	1
9	355	1
11	355	0
1	356	0
33	356	0
19	356	0
3	356	0
13	356	0
34	356	0
7	356	1
6	356	1
9	356	1
11	356	0
1	357	1
33	357	0
19	357	1
3	357	0
13	357	1
34	357	0
7	357	1
6	357	1
9	357	1
11	357	1
1	358	0
33	358	0
19	358	1
3	358	0
13	358	0
34	358	0
7	358	1
6	358	0
9	358	1
11	358	0
30	359	0
53	359	1
57	359	0
13	359	1
6	359	1
5	359	1
40	359	1
1	359	1
7	359	0
9	359	1
12	360	0
21	360	1
11	360	0
1	360	1
3	360	0
29	360	0
13	360	0
6	360	1
7	360	1
9	360	1
12	361	1
21	361	1
11	361	1
1	361	1
3	361	0
29	361	1
13	361	1
6	361	1
7	361	1
9	361	1
3	362	0
43	362	0
32	362	0
13	362	0
1	362	0
5	362	0
75	362	0
6	362	1
9	362	1
7	362	1
3	363	0
43	363	0
32	363	0
13	363	0
1	363	0
5	363	0
75	363	0
6	363	1
9	363	1
7	363	1
3	364	0
43	364	1
32	364	1
13	364	1
1	364	1
5	364	1
75	364	1
6	364	1
9	364	1
7	364	1
3	365	0
43	365	0
32	365	0
13	365	0
1	365	0
5	365	0
75	365	0
6	365	0
9	365	1
7	365	1
3	366	0
43	366	0
32	366	0
13	366	0
1	366	0
5	366	0
75	366	0
6	366	1
9	366	1
7	366	1
3	367	0
43	367	0
32	367	0
13	367	0
1	367	1
5	367	0
75	367	1
6	367	1
9	367	1
7	367	1
3	368	0
43	368	0
32	368	0
13	368	0
1	368	0
5	368	0
75	368	0
6	368	1
9	368	1
7	368	1
3	369	0
43	369	0
32	369	0
13	369	0
1	369	0
5	369	0
75	369	0
6	369	1
9	369	1
7	369	1
38	370	1
13	370	1
62	370	1
63	370	1
5	370	1
6	370	1
64	370	1
28	370	1
7	370	1
9	370	1
38	371	1
13	371	1
62	371	1
63	371	1
5	371	1
6	371	1
64	371	0
28	371	1
7	371	1
9	371	1
38	372	0
13	372	1
62	372	0
63	372	1
5	372	1
6	372	1
64	372	0
28	372	0
7	372	1
9	372	1
38	373	0
13	373	0
62	373	0
63	373	0
5	373	0
6	373	1
64	373	1
28	373	0
7	373	1
9	373	1
38	374	0
13	374	0
62	374	0
63	374	0
5	374	0
6	374	1
64	374	0
28	374	0
7	374	1
9	374	1
30	375	1
1	375	1
3	375	0
13	375	1
23	375	1
5	375	1
31	375	1
6	375	1
9	375	0
7	375	1
30	376	1
1	376	1
3	376	0
13	376	1
23	376	1
5	376	1
31	376	1
6	376	1
9	376	1
7	376	1
30	377	1
1	377	1
3	377	0
13	377	0
23	377	1
5	377	1
31	377	1
6	377	1
9	377	1
7	377	1
18	378	0
24	378	0
11	378	0
19	378	0
1	378	0
3	378	0
10	378	0
13	378	0
6	378	1
7	378	1
18	379	1
24	379	0
11	379	1
19	379	1
1	379	1
3	379	0
10	379	1
13	379	1
6	379	1
7	379	1
37	380	0
3	380	0
22	380	1
38	380	0
39	380	0
7	380	1
6	380	1
8	380	0
9	380	1
14	380	0
37	381	1
3	381	0
22	381	1
38	381	0
39	381	0
7	381	1
6	381	1
8	381	0
9	381	1
14	381	1
18	382	1
11	382	0
3	382	0
56	382	1
13	382	1
1	382	1
5	382	1
7	382	1
6	382	1
8	382	0
18	383	0
10	383	0
1	383	0
11	383	0
3	383	0
13	383	1
15	383	0
7	383	1
6	383	1
9	383	1
18	384	1
10	384	1
1	384	1
11	384	1
3	384	0
13	384	1
15	384	1
7	384	1
6	384	1
9	384	1
18	385	1
10	385	1
1	385	1
11	385	1
3	385	0
13	385	1
15	385	1
7	385	1
6	385	1
9	385	1
18	386	0
10	386	0
1	386	0
11	386	0
3	386	0
13	386	0
15	386	0
7	386	1
6	386	1
9	386	1
3	387	0
43	387	0
32	387	1
13	387	0
1	387	1
5	387	0
75	387	1
6	387	1
9	387	1
7	387	1
3	388	0
43	388	0
32	388	0
13	388	0
1	388	0
5	388	0
75	388	0
6	388	1
9	388	0
7	388	1
3	389	0
54	389	0
55	389	0
23	389	0
13	389	0
1	389	0
46	389	0
7	389	1
6	389	1
9	389	1
3	390	0
54	390	1
55	390	1
23	390	1
13	390	1
1	390	1
46	390	1
7	390	1
6	390	1
9	390	1
12	391	1
21	391	1
11	391	1
1	391	1
3	391	0
29	391	1
13	391	1
6	391	1
7	391	1
9	391	1
30	392	1
53	392	0
57	392	0
13	392	0
6	392	1
5	392	0
40	392	0
1	392	0
7	392	1
9	392	0
1	393	1
51	393	0
3	393	0
22	393	1
52	393	1
13	393	0
15	393	0
7	393	1
6	393	1
9	393	1
1	394	1
51	394	1
3	394	0
22	394	1
52	394	1
13	394	1
15	394	1
7	394	1
6	394	1
9	394	1
1	395	0
51	395	0
3	395	0
22	395	0
52	395	0
13	395	0
15	395	0
7	395	1
6	395	1
9	395	1
1	396	0
51	396	0
3	396	0
22	396	0
52	396	0
13	396	0
15	396	0
7	396	1
6	396	1
9	396	1
1	397	0
51	397	0
3	397	0
22	397	0
52	397	0
13	397	0
15	397	0
7	397	1
6	397	1
9	397	1
1	398	1
51	398	1
3	398	0
22	398	1
52	398	1
13	398	1
15	398	1
7	398	1
6	398	0
9	398	1
3	399	0
15	399	0
42	399	0
16	399	1
13	399	0
40	399	0
7	399	1
6	399	1
14	399	1
9	399	0
3	400	0
15	400	0
42	400	0
16	400	0
13	400	0
40	400	0
7	400	1
6	400	1
14	400	1
9	400	0
1	401	0
33	401	0
19	401	0
3	401	0
13	401	0
34	401	0
7	401	1
6	401	1
9	401	1
11	401	0
11	402	0
3	402	0
22	402	1
13	402	0
1	402	1
6	402	1
7	402	1
8	402	0
9	402	1
28	402	1
27	403	1
28	403	1
9	403	1
3	403	0
41	403	1
44	403	1
13	403	1
45	403	1
6	403	1
7	403	1
27	404	1
28	404	0
9	404	1
3	404	0
41	404	0
44	404	0
13	404	1
45	404	1
6	404	0
7	404	1
27	405	1
28	405	1
9	405	1
3	405	0
41	405	1
44	405	1
13	405	1
45	405	1
6	405	1
7	405	1
27	406	0
28	406	1
9	406	1
3	406	0
41	406	1
44	406	1
13	406	1
45	406	1
6	406	0
7	406	1
27	407	0
28	407	0
9	407	1
3	407	0
41	407	0
44	407	0
13	407	0
45	407	0
6	407	1
7	407	1
11	408	0
49	408	0
7	408	1
3	408	0
1	408	0
31	408	0
13	408	0
50	408	0
6	408	1
9	408	1
24	409	0
11	409	1
12	409	1
1	409	1
3	409	0
13	409	1
6	409	1
9	409	1
8	409	0
7	409	1
24	410	0
11	410	0
12	410	0
1	410	0
3	410	0
13	410	0
6	410	1
9	410	1
8	410	0
7	410	1
24	411	0
11	411	1
12	411	1
1	411	1
3	411	0
13	411	1
6	411	1
9	411	0
8	411	0
7	411	1
24	412	0
11	412	1
12	412	1
1	412	1
3	412	0
13	412	1
6	412	1
9	412	1
8	412	0
7	412	1
1	413	1
49	413	1
3	413	0
22	413	1
13	413	0
5	413	1
6	413	1
8	413	0
9	413	0
7	413	1
1	414	1
49	414	0
3	414	0
22	414	1
13	414	1
5	414	1
6	414	0
8	414	0
9	414	1
7	414	1
1	415	1
49	415	1
3	415	0
22	415	0
13	415	1
5	415	1
6	415	1
8	415	0
9	415	1
7	415	1
1	416	0
49	416	0
3	416	0
22	416	0
13	416	0
5	416	0
6	416	1
8	416	0
9	416	1
7	416	1
1	417	0
49	417	0
3	417	0
22	417	0
13	417	0
5	417	0
6	417	1
8	417	0
9	417	1
7	417	1
1	418	1
49	418	1
3	418	0
22	418	1
13	418	1
5	418	1
6	418	1
8	418	0
9	418	1
7	418	1
1	419	0
49	419	0
3	419	0
22	419	0
13	419	0
5	419	0
6	419	1
8	419	0
9	419	1
7	419	1
16	420	1
23	420	1
13	420	1
5	420	1
25	420	1
70	420	1
20	420	1
6	420	1
9	420	1
7	420	1
16	421	1
23	421	1
13	421	1
5	421	1
25	421	1
70	421	1
20	421	1
6	421	1
9	421	0
7	421	0
16	422	1
23	422	1
13	422	1
5	422	1
25	422	1
70	422	1
20	422	1
6	422	1
9	422	1
7	422	1
61	423	1
5	423	1
1	423	1
25	423	1
46	423	1
6	423	1
8	423	0
7	423	1
9	423	1
28	423	1
61	424	0
5	424	0
1	424	0
25	424	0
46	424	0
6	424	1
8	424	0
7	424	1
9	424	1
28	424	0
61	425	0
5	425	0
1	425	0
25	425	0
46	425	0
6	425	1
8	425	0
7	425	1
9	425	0
28	425	0
61	426	0
5	426	0
1	426	0
25	426	0
46	426	0
6	426	1
8	426	0
7	426	1
9	426	1
28	426	0
61	427	0
5	427	0
1	427	0
25	427	0
46	427	0
6	427	1
8	427	0
7	427	1
9	427	1
28	427	0
61	428	0
5	428	0
1	428	0
25	428	0
46	428	0
6	428	1
8	428	0
7	428	1
9	428	1
28	428	0
1	429	0
19	429	0
3	429	0
58	429	0
5	429	0
53	429	0
6	429	1
8	429	0
9	429	0
7	429	1
22	430	0
30	430	0
21	430	0
44	430	0
13	430	0
61	430	0
5	430	0
7	430	1
6	430	1
9	430	0
22	431	0
30	431	0
21	431	0
44	431	0
13	431	0
61	431	0
5	431	0
7	431	1
6	431	1
9	431	0
22	432	0
30	432	0
21	432	0
44	432	0
13	432	0
61	432	0
5	432	0
7	432	1
6	432	1
9	432	1
22	433	0
30	433	0
21	433	0
44	433	0
13	433	0
61	433	0
5	433	0
7	433	1
6	433	1
9	433	1
22	434	1
30	434	1
21	434	1
44	434	1
13	434	1
61	434	0
5	434	1
7	434	1
6	434	1
9	434	0
22	435	1
30	435	0
21	435	1
44	435	1
13	435	1
61	435	1
5	435	1
7	435	1
6	435	1
9	435	1
22	436	1
30	436	1
21	436	1
44	436	1
13	436	1
61	436	1
5	436	1
7	436	1
6	436	1
9	436	1
22	437	0
30	437	0
21	437	0
44	437	0
13	437	0
61	437	0
5	437	0
7	437	1
6	437	1
9	437	0
22	438	0
30	438	0
21	438	0
44	438	0
13	438	0
61	438	0
5	438	0
7	438	1
6	438	1
9	438	0
22	439	0
30	439	0
21	439	0
44	439	0
13	439	0
61	439	0
5	439	0
7	439	1
6	439	1
9	439	0
10	440	0
11	440	0
12	440	0
3	440	0
13	440	0
1	440	0
7	440	1
6	440	1
9	440	0
14	440	0
24	441	0
1	441	0
13	441	0
23	441	0
5	441	0
59	441	0
20	441	0
6	441	1
7	441	1
9	441	1
24	442	0
1	442	0
13	442	0
23	442	0
5	442	0
59	442	0
20	442	0
6	442	1
7	442	1
9	442	1
24	443	1
1	443	1
13	443	1
23	443	1
5	443	1
59	443	1
20	443	1
6	443	1
7	443	1
9	443	1
24	444	1
1	444	1
13	444	1
23	444	1
5	444	1
59	444	1
20	444	1
6	444	1
7	444	1
9	444	1
11	445	0
3	445	0
15	445	0
1	445	0
13	445	0
16	445	1
17	445	0
7	445	1
6	445	1
9	445	1
11	446	1
3	446	0
15	446	0
1	446	0
13	446	1
16	446	1
17	446	0
7	446	1
6	446	1
9	446	1
11	447	0
3	447	0
15	447	1
1	447	1
13	447	0
16	447	1
17	447	1
7	447	1
6	447	1
9	447	1
11	448	1
3	448	0
15	448	1
1	448	1
13	448	1
16	448	1
17	448	1
7	448	1
6	448	1
9	448	1
11	449	1
3	449	0
15	449	1
1	449	1
13	449	1
16	449	0
17	449	1
7	449	1
6	449	1
9	449	1
11	450	0
3	450	0
15	450	0
1	450	0
13	450	0
16	450	0
17	450	0
7	450	1
6	450	1
9	450	1
11	451	1
3	451	0
15	451	1
1	451	1
13	451	1
16	451	1
17	451	1
7	451	1
6	451	1
9	451	1
11	452	1
3	452	0
15	452	1
1	452	1
13	452	1
16	452	1
17	452	1
7	452	1
6	452	1
9	452	1
18	453	0
1	453	0
19	453	0
3	453	0
16	453	0
15	453	0
7	453	1
20	453	0
6	453	1
9	453	0
18	454	1
1	454	1
19	454	1
3	454	0
16	454	1
15	454	1
7	454	1
20	454	1
6	454	1
9	454	0
1	455	0
19	455	0
3	455	0
13	455	1
69	455	0
5	455	0
6	455	1
14	455	1
9	455	1
28	455	1
1	456	0
19	456	0
3	456	0
13	456	0
69	456	0
5	456	0
6	456	1
14	456	0
9	456	1
28	456	0
1	457	1
19	457	1
3	457	0
13	457	1
69	457	0
5	457	1
6	457	1
14	457	0
9	457	1
28	457	1
1	458	0
19	458	0
3	458	0
13	458	0
69	458	1
5	458	0
6	458	1
14	458	0
9	458	1
28	458	0
3	459	0
22	459	1
23	459	1
13	459	1
1	459	1
53	459	1
6	459	1
9	459	1
28	459	1
7	459	1
21	460	0
3	460	0
22	460	0
10	460	0
13	460	1
23	460	0
17	460	0
7	460	1
6	460	0
9	460	1
8	461	0
40	461	0
42	461	0
13	461	0
17	461	0
5	461	0
46	461	0
7	461	1
6	461	1
9	461	1
