8	0.545455	-1
3	0.461538	-1
7	0.428571	-1
13	0.416667	-1
14	0.384615	-1
2	0.375000	-1
11	0.363636	-1
9	0.357143	-1
12	0.333333	-1
10	0.333333	-1
4	0.250000	-1
6	0.250000	-1
1	0.222222	-1
5	0.187500	-1
0	0.181818	-1
