0	1
1	0
2	0
3	1
4	1
5	0
6	0
7	0
8	0
9	0
10	0
11	1
12	0
13	0
14	1
15	1
16	1
17	0
18	1
19	1
20	1
21	1
22	1
23	0
24	1
25	1
26	0
27	0
28	0
29	0
30	1
31	0
32	0
33	0
34	0
35	0
36	0
37	0
38	0
39	1
40	1
41	0
42	1
43	0
44	0
45	0
46	0
47	0
48	0
49	1
50	1
51	1
52	1
53	0
54	1
55	0
56	1
57	0
58	0
59	0
60	0
61	0
62	0
63	1
64	1
65	0
66	1
67	0
68	1
69	1
70	0
71	1
72	0
73	1
74	0
75	0
76	0
77	0
78	0
79	0
80	0
81	1
82	1
83	1
84	1
85	1
86	1
87	1
88	1
89	1
90	1
91	1
92	1
93	1
94	1
95	1
96	1
97	1
98	1
99	1
