0	0	1
1	0	0
2	0	0
3	0	1
4	0	1
5	0	1
6	0	1
7	0	1
8	0	1
9	0	0
10	0	0
11	0	1
12	0	0
13	0	1
14	0	1
15	0	1
16	0	1
17	0	0
18	0	1
19	0	0
0	1	0
5	1	1
8	1	1
7	1	1
6	2	0
2	2	0
4	2	0
13	2	0
3	2	0
0	3	1
1	3	0
2	3	1
3	3	1
4	3	1
5	3	1
6	3	1
7	3	1
8	3	0
9	3	1
10	3	1
11	3	1
12	3	1
13	3	0
14	3	1
15	3	1
16	3	1
17	3	0
18	3	0
19	3	0
16	4	0
0	5	1
1	5	0
2	5	0
3	5	1
4	5	0
5	5	0
6	5	1
7	5	0
8	5	0
9	5	1
10	5	0
11	5	0
12	5	0
13	5	0
14	5	0
15	5	0
16	5	0
17	5	1
18	5	0
19	5	0
12	6	0
9	6	0
18	6	0
11	6	1
0	7	0
1	7	0
2	7	0
3	7	0
4	7	0
5	7	0
6	7	1
7	7	0
8	7	0
9	7	1
10	7	0
11	7	0
12	7	1
13	7	0
14	7	0
15	7	0
16	7	0
17	7	0
18	7	0
19	7	0
17	8	0
9	8	1
5	8	0
15	9	1