0	0	0
1	0	0
2	0	0
3	0	0
4	0	0
5	0	0
6	0	0
7	0	0
8	0	0
9	0	0
0	1	0
1	1	0
2	1	0
3	1	0
4	1	0
5	1	0
6	1	0
7	1	0
8	1	1
9	1	0
0	2	1
1	2	1
2	2	0
3	2	1
4	2	0
5	2	0
6	2	0
7	2	1
8	2	1
9	2	0
0	3	0
1	3	1
2	3	0
3	3	0
4	3	1
5	3	1
6	3	0
7	3	1
8	3	1
9	3	1
0	4	0
1	4	0
2	4	0
3	4	0
4	4	0
5	4	0
6	4	0
7	4	0
8	4	1
9	4	0
0	5	0
1	5	0
2	5	0
3	5	0
4	5	0
5	5	0
6	5	0
7	5	0
8	5	0
9	5	0
0	6	0
1	6	0
2	6	0
3	6	1
4	6	1
5	6	1
6	6	1
7	6	1
8	6	0
9	6	0
0	7	0
1	7	0
2	7	0
3	7	0
4	7	0
5	7	0
6	7	0
7	7	0
8	7	0
9	7	0
0	8	0
1	8	0
2	8	0
3	8	0
4	8	0
5	8	1
6	8	0
7	8	0
8	8	0
9	8	0
0	9	0
1	9	0
2	9	0
3	9	0
4	9	0
5	9	0
6	9	0
7	9	1
8	9	1
9	9	0
0	10	0
1	10	1
2	10	0
3	10	0
4	10	0
5	10	0
6	10	0
7	10	0
8	10	0
9	10	0
0	11	1
1	11	0
2	11	1
3	11	1
4	11	0
5	11	0
6	11	1
7	11	1
8	11	1
9	11	0
0	12	0
1	12	1
2	12	1
3	12	1
4	12	1
5	12	1
6	12	1
7	12	1
8	12	1
9	12	1
0	13	0
1	13	0
2	13	1
3	13	1
4	13	1
5	13	0
6	13	1
7	13	1
8	13	1
9	13	0
0	14	1
1	14	0
2	14	0
3	14	1
4	14	0
5	14	1
6	14	1
7	14	1
8	14	0
9	14	1
0	15	0
1	15	0
2	15	0
3	15	0
4	15	0
5	15	0
6	15	0
7	15	0
8	15	0
9	15	0
0	16	0
1	16	0
2	16	1
3	16	1
4	16	0
5	16	1
6	16	0
7	16	1
8	16	1
9	16	1
0	17	0
1	17	0
2	17	0
3	17	0
4	17	0
5	17	0
6	17	0
7	17	0
8	17	0
9	17	0
10	18	1
5	18	1
11	18	1
12	18	1
13	18	1
14	18	0
15	18	0
16	18	1
8	18	1
9	18	1
10	19	0
5	19	1
11	19	0
12	19	0
13	19	0
14	19	0
15	19	0
16	19	0
8	19	0
9	19	0
10	20	0
5	20	0
11	20	0
12	20	1
13	20	0
14	20	0
15	20	0
16	20	0
8	20	1
9	20	0
10	21	0
5	21	0
11	21	0
12	21	1
13	21	0
14	21	1
15	21	1
16	21	0
8	21	1
9	21	0
10	22	0
5	22	0
11	22	0
12	22	0
13	22	0
14	22	0
15	22	1
16	22	0
8	22	1
9	22	0
10	23	0
5	23	1
11	23	0
12	23	0
13	23	0
14	23	0
15	23	0
16	23	0
8	23	1
9	23	0
10	24	0
5	24	0
11	24	0
12	24	1
13	24	0
14	24	0
15	24	0
16	24	0
8	24	0
9	24	0
10	25	0
5	25	0
11	25	1
12	25	0
13	25	0
14	25	0
15	25	0
16	25	0
8	25	0
9	25	0
10	26	0
5	26	1
11	26	1
12	26	1
13	26	1
14	26	0
15	26	1
16	26	1
8	26	1
9	26	1
10	27	0
5	27	0
11	27	1
12	27	1
13	27	0
14	27	0
15	27	0
16	27	0
8	27	0
9	27	0
10	28	1
5	28	1
11	28	1
12	28	1
13	28	1
14	28	0
15	28	0
16	28	1
8	28	1
9	28	1
10	29	1
5	29	1
11	29	1
12	29	1
13	29	0
14	29	0
15	29	1
16	29	1
8	29	1
9	29	0
10	30	0
5	30	0
11	30	1
12	30	1
13	30	0
14	30	0
15	30	0
16	30	0
8	30	0
9	30	0
10	31	0
5	31	0
11	31	0
12	31	0
13	31	0
14	31	0
15	31	0
16	31	0
8	31	0
9	31	0
10	32	0
5	32	0
11	32	0
12	32	1
13	32	0
14	32	0
15	32	0
16	32	0
8	32	0
9	32	0
10	33	0
5	33	0
11	33	0
12	33	1
13	33	0
14	33	0
15	33	1
16	33	0
8	33	0
9	33	0
10	34	1
5	34	0
11	34	0
12	34	1
13	34	1
14	34	0
15	34	0
16	34	0
8	34	1
9	34	0
10	35	0
5	35	1
11	35	1
12	35	1
13	35	0
14	35	0
15	35	0
16	35	0
8	35	1
9	35	0
10	36	0
5	36	0
11	36	0
12	36	1
13	36	0
14	36	0
15	36	0
16	36	0
8	36	0
9	36	0
10	37	1
5	37	1
11	37	0
12	37	1
13	37	1
14	37	0
15	37	0
16	37	0
8	37	1
9	37	0
17	38	0
18	38	0
19	38	0
20	38	0
21	38	0
22	38	0
23	38	1
16	38	0
9	38	0
24	38	0
17	39	0
18	39	0
19	39	0
20	39	0
21	39	0
22	39	0
23	39	1
16	39	0
9	39	0
24	39	0
17	40	0
18	40	1
19	40	0
20	40	0
21	40	0
22	40	0
23	40	0
16	40	0
9	40	0
24	40	1
17	41	0
18	41	0
19	41	0
20	41	0
21	41	0
22	41	0
23	41	0
16	41	0
9	41	0
24	41	0
17	42	0
18	42	0
19	42	0
20	42	0
21	42	0
22	42	1
23	42	0
16	42	1
9	42	0
24	42	1
17	43	0
18	43	0
19	43	0
20	43	0
21	43	0
22	43	0
23	43	1
16	43	0
9	43	0
24	43	0
17	44	0
18	44	0
19	44	0
20	44	0
21	44	0
22	44	0
23	44	0
16	44	0
9	44	0
24	44	0
17	45	0
18	45	0
19	45	0
20	45	0
21	45	0
22	45	1
23	45	1
16	45	0
9	45	0
24	45	0
17	46	1
18	46	1
19	46	0
20	46	0
21	46	1
22	46	1
23	46	0
16	46	1
9	46	1
24	46	1
17	47	0
18	47	0
19	47	0
20	47	0
21	47	0
22	47	0
23	47	1
16	47	1
9	47	0
24	47	0
17	48	0
18	48	0
19	48	0
20	48	0
21	48	0
22	48	0
23	48	0
16	48	0
9	48	0
24	48	1
17	49	0
18	49	1
19	49	0
20	49	0
21	49	0
22	49	0
23	49	1
16	49	0
9	49	0
24	49	0
17	50	0
18	50	0
19	50	0
20	50	0
21	50	0
22	50	0
23	50	1
16	50	1
9	50	0
24	50	0
17	51	0
18	51	0
19	51	1
20	51	0
21	51	1
22	51	0
23	51	0
16	51	1
9	51	0
24	51	1
17	52	0
18	52	0
19	52	0
20	52	0
21	52	0
22	52	0
23	52	0
16	52	0
9	52	0
24	52	0
17	53	0
18	53	0
19	53	0
20	53	0
21	53	0
22	53	0
23	53	1
16	53	0
9	53	0
24	53	0
17	54	0
18	54	0
19	54	0
20	54	0
21	54	0
22	54	0
23	54	0
16	54	0
9	54	0
24	54	0
17	55	0
18	55	0
19	55	0
20	55	0
21	55	0
22	55	0
23	55	0
16	55	0
9	55	0
24	55	0
17	56	1
18	56	0
19	56	0
20	56	0
21	56	0
22	56	0
23	56	0
16	56	0
9	56	0
24	56	1
17	57	0
18	57	0
19	57	0
20	57	0
21	57	0
22	57	0
23	57	1
16	57	0
9	57	0
24	57	0
25	58	1
13	58	0
26	58	1
27	58	1
28	58	0
16	58	0
29	58	0
9	58	0
30	58	1
31	58	0
25	59	0
13	59	0
26	59	0
27	59	0
28	59	0
16	59	0
29	59	0
9	59	0
30	59	0
31	59	0
25	60	0
13	60	0
26	60	0
27	60	1
28	60	1
16	60	1
29	60	0
9	60	0
30	60	0
31	60	0
25	61	1
13	61	0
26	61	0
27	61	0
28	61	0
16	61	0
29	61	1
9	61	0
30	61	1
31	61	0
25	62	0
13	62	0
26	62	0
27	62	0
28	62	0
16	62	0
29	62	0
9	62	0
30	62	0
31	62	0
25	63	0
13	63	0
26	63	0
27	63	1
28	63	0
16	63	0
29	63	0
9	63	0
30	63	0
31	63	1
25	64	0
13	64	0
26	64	0
27	64	0
28	64	0
16	64	0
29	64	0
9	64	0
30	64	0
31	64	0
25	65	1
13	65	1
26	65	1
27	65	1
28	65	1
16	65	1
29	65	1
9	65	0
30	65	1
31	65	1
25	66	0
13	66	1
26	66	0
27	66	1
28	66	1
16	66	1
29	66	1
9	66	1
30	66	1
31	66	1
25	67	1
13	67	0
26	67	1
27	67	1
28	67	0
16	67	0
29	67	0
9	67	0
30	67	0
31	67	0
25	68	1
13	68	0
26	68	0
27	68	1
28	68	0
16	68	0
29	68	0
9	68	0
30	68	0
31	68	0
25	69	1
13	69	1
26	69	0
27	69	1
28	69	0
16	69	0
29	69	0
9	69	0
30	69	1
31	69	0
25	70	0
13	70	0
26	70	1
27	70	0
28	70	0
16	70	0
29	70	0
9	70	0
30	70	0
31	70	0
25	71	0
13	71	1
26	71	0
27	71	1
28	71	0
16	71	0
29	71	0
9	71	0
30	71	0
31	71	0
25	72	0
13	72	0
26	72	1
27	72	0
28	72	0
16	72	0
29	72	0
9	72	0
30	72	0
31	72	0
25	73	0
13	73	0
26	73	1
27	73	0
28	73	0
16	73	1
29	73	1
9	73	0
30	73	0
31	73	1
25	74	1
13	74	1
26	74	1
27	74	0
28	74	0
16	74	1
29	74	0
9	74	0
30	74	1
31	74	0
25	75	0
13	75	0
26	75	1
27	75	0
28	75	0
16	75	0
29	75	0
9	75	0
30	75	0
31	75	0
25	76	0
13	76	0
26	76	0
27	76	0
28	76	0
16	76	0
29	76	1
9	76	0
30	76	0
31	76	0
25	77	1
13	77	0
26	77	1
27	77	1
28	77	1
16	77	1
29	77	1
9	77	0
30	77	1
31	77	0
32	78	0
33	78	1
14	78	0
34	78	0
35	78	0
8	78	0
9	78	0
36	78	1
37	78	1
31	78	0
32	79	0
33	79	0
14	79	0
34	79	1
35	79	0
8	79	0
9	79	0
36	79	0
37	79	1
31	79	0
32	80	0
33	80	1
14	80	0
34	80	0
35	80	1
8	80	1
9	80	0
36	80	1
37	80	1
31	80	1
32	81	0
33	81	0
14	81	0
34	81	0
35	81	0
8	81	1
9	81	0
36	81	0
37	81	0
31	81	0
32	82	0
33	82	0
14	82	0
34	82	0
35	82	0
8	82	0
9	82	0
36	82	0
37	82	0
31	82	0
32	83	1
33	83	1
14	83	0
34	83	0
35	83	1
8	83	1
9	83	1
36	83	1
37	83	1
31	83	0
32	84	0
33	84	0
14	84	0
34	84	0
35	84	0
8	84	0
9	84	0
36	84	0
37	84	0
31	84	0
32	85	0
33	85	1
14	85	0
34	85	0
35	85	0
8	85	0
9	85	0
36	85	0
37	85	1
31	85	0
32	86	0
33	86	1
14	86	0
34	86	0
35	86	0
8	86	1
9	86	0
36	86	0
37	86	0
31	86	0
32	87	0
33	87	1
14	87	0
34	87	0
35	87	0
8	87	1
9	87	0
36	87	0
37	87	1
31	87	0
32	88	0
33	88	0
14	88	0
34	88	0
35	88	0
8	88	0
9	88	0
36	88	1
37	88	0
31	88	0
32	89	1
33	89	0
14	89	0
34	89	0
35	89	0
8	89	1
9	89	0
36	89	0
37	89	0
31	89	0
32	90	0
33	90	0
14	90	0
34	90	0
35	90	0
8	90	1
9	90	0
36	90	0
37	90	1
31	90	0
32	91	0
33	91	1
14	91	0
34	91	0
35	91	0
8	91	0
9	91	0
36	91	0
37	91	0
31	91	0
32	92	1
33	92	1
14	92	0
34	92	0
35	92	1
8	92	1
9	92	1
36	92	0
37	92	1
31	92	0
32	93	1
33	93	1
14	93	0
34	93	0
35	93	1
8	93	1
9	93	0
36	93	1
37	93	1
31	93	1
32	94	0
33	94	0
14	94	0
34	94	0
35	94	0
8	94	0
9	94	0
36	94	0
37	94	0
31	94	0
32	95	1
33	95	0
14	95	0
34	95	0
35	95	0
8	95	0
9	95	0
36	95	0
37	95	0
31	95	0
32	96	0
33	96	0
14	96	0
34	96	0
35	96	1
8	96	1
9	96	0
36	96	0
37	96	1
31	96	1
32	97	0
33	97	0
14	97	0
34	97	0
35	97	0
8	97	1
9	97	0
36	97	0
37	97	0
31	97	0
0	98	0
1	98	0
2	98	0
3	98	0
4	98	0
5	98	0
6	98	0
7	98	0
8	98	0
9	98	0
0	99	1
1	99	0
2	99	0
3	99	0
4	99	0
5	99	0
6	99	0
7	99	0
8	99	0
9	99	0
