<?xml version="1.0" encoding="UTF-8"?>
<!-- 
This XML file is constructed by multiple "mapper" tags, every mapper can map different set of schemas in a different way 
by setting their parameters. Currently, the mapping tool CMS and COMA++ are available.
 -->

<!DOCTYPE properties SYSTEM "properties.dtd">
<properties>	
	<config>ch.epfl.lsir.nisb.configuration.ConfigMatcher</config>
	<mapper>
	  <name>Sample</name>
      <class>ch.epfl.lsir.nisb.algorithms.matcher.FilterDataProcessor</class>
	  <!-- The directory where the manually created mapping files are collected. -->
	  
	  <param name="mappingFileDir">test/prolog/output/instances/0/</param>
	  <param name="threshold">0.5</param>
	  <param name="outputDir">test/prolog/output/</param>
	</mapper>
</properties>
